
################################################################################################################################################
Starting Execution:	"2 out of 6" test cases in the current suite
Test Method:		"SteeringCompanyAPI_TestCases.Test_Lookups_Cases.Valid_GET_all_cities_Lookups_by_Qry_Rq_TC"
Test Description:	"TC002 - Perform Get all cities API by parameters Qry with valid user name and password and return with token"
################################################################################################################################################
[ReportManager] File Action "DoesFileExist" successfully performed. With the following test data "File Path: "SteeringCompanyAPI_TestData/SteeringCompanyAPI_TestData.xlsx"". @03-01-2023 09:22:32.0444 AM
[ReportManager] Loaded Test Data: "src/test/resources/testDataFiles/SteeringCompanyAPI_TestData/SteeringCompanyAPI_TestData.xlsx". @03-01-2023 09:22:32.0475 AM
[ReportManager] Successfully created attachment "Test Data - Excel" @03-01-2023 09:22:32.0476 AM
[ReportManager] Response status code: "200", status line: "HTTP/1.1 200 OK" @03-01-2023 09:22:33.0247 AM
[ReportManager] Assertion Passed: Evaluating the actual response status code against the expected one... @03-01-2023 09:22:33.0247 AM
[ReportManager] Perform request "POST | Target Status Code: 200 | Service URL: https://auth-demo.np.transporticonline.com/auth/realms/tic/protocol/openid-connect/token | Content Type: application/x-www-form-urlencoded | Response Time: 764ms". @03-01-2023 09:22:33.0264 AM
[ReportManager] Successfully created attachment "API Request - Specifications" @03-01-2023 09:22:33.0266 AM
[ReportManager] Successfully created attachment "API Request - Body" @03-01-2023 09:22:33.0267 AM
[ReportManager] Successfully created attachment "API Response - JSON Body" @03-01-2023 09:22:33.0268 AM
[ReportManager] Assertion Passed: Check Response Status Code is 200 and it is valid. @03-01-2023 09:22:33.0269 AM
[ReportManager] File Action "DoesFileExist" successfully performed. With the following test data "File Path: "SteeringCompanyAPI_TestData/SteeringCompanyAPI_TestData.xlsx"". @03-01-2023 09:22:33.0281 AM
[ReportManager] Loaded Test Data: "src/test/resources/testDataFiles/SteeringCompanyAPI_TestData/SteeringCompanyAPI_TestData.xlsx". @03-01-2023 09:22:33.0302 AM
[ReportManager] Successfully created attachment "Test Data - Excel" @03-01-2023 09:22:33.0303 AM
[ReportManager] Response status code: "200", status line: "HTTP/1.1 200 " @03-01-2023 09:22:33.0962 AM
[ReportManager] Assertion Passed: Evaluating the actual response status code against the expected one... @03-01-2023 09:22:33.0963 AM
[ReportManager] Perform request "GET | Target Status Code: 200 | Service URL: https://api-demo.np.transporticonline.com/steeringcompanies/v1/lookups/cities | Content Type: */* | Response Time: 630ms". @03-01-2023 09:22:33.0974 AM
[ReportManager] Successfully created attachment "API Request - Specifications" @03-01-2023 09:22:33.0975 AM
[ReportManager] Successfully created attachment "API Response - JSON Body" @03-01-2023 09:22:33.0976 AM
[ReportManager] Assertion Passed: "200" is equal to "200". @03-01-2023 09:22:33.0976 AM
[ReportManager] Verification Passed: "630" is greater than or equal to "1.1". @03-01-2023 09:22:33.0977 AM
[ReportManager] Verification Passed: "630" is less than or equal to "10000". @03-01-2023 09:22:33.0977 AM
[ReportManager] Assertion Passed: "{"page":0,"size":3,"totalPages":237,"totalElements":709,"content":[{"id":36,"nameArabic":"??????????","nameEnglish":"Kuala Lumpur","isActive":true,"lastUpdated":"2022-06-02T01:21:49Z","sectors":null},{"id":849,"nameArabic":"???????","nameEnglish":"Solngen","isActive":true,"lastUpdated":"2022-06-02T01:37:02Z","sectors":null},{"id":1006,"nameArabic":"??????","nameEnglish":"FRUNZE","isActive":true,"lastUpdated":"2022-06-02T00:20:05Z","sectors":null}]}" contains "content". @03-01-2023 09:22:33.0977 AM
[ReportManager] Get response jsonvalue "content". @03-01-2023 09:22:33.0978 AM
[ReportManager] Assertion Passed: Check that content object is not null. @03-01-2023 09:22:33.0979 AM
[ReportManager] File Action "DoesFileExist" successfully performed. With the following test data "File Path: "Schemas/Lookups_cities_schema.json"". @03-01-2023 09:22:33.0980 AM
[ReportManager] File Action "DoesFileExist" successfully performed. With the following test data "File Path: "src/test/resources/testDataFiles/Schemas/Lookups_cities_schema.json"". @03-01-2023 09:22:33.0980 AM
[ReportManager] File Action "GetAbsolutePath" successfully performed. With the following test data "Relative Folder Path: "src/test/resources/testDataFiles/Schemas/Lookups_cities_schema.json"". @03-01-2023 09:22:33.0980 AM
[ReportManager] File Action "DoesFileExist" successfully performed. With the following test data "File Path: "C:\eclipse-workspace\MyProjects\TASystemsAPIs\src\test\resources\testDataFiles\Schemas\Lookups_cities_schema.json"". @03-01-2023 09:22:33.0993 AM
[ReportManager] File Action "GetAbsolutePath" successfully performed. With the following test data "Relative Folder Path: "C:\eclipse-workspace\MyProjects\TASystemsAPIs\src\test\resources\testDataFiles\Schemas\Lookups_cities_schema.json"". @03-01-2023 09:22:33.0994 AM
[ReportManager] File Action "ReadFile" successfully performed. With the following test data "File Path: "C:\eclipse-workspace\MyProjects\TASystemsAPIs\src\test\resources\testDataFiles\Schemas\Lookups_cities_schema.json"". @03-01-2023 09:22:33.0994 AM
[ReportManager] Assertion Passed: The API response schema matches that in this file "src/test/resources/testDataFiles/Schemas/Lookups_cities_schema.json". @03-01-2023 09:22:33.0996 AM
[ReportManager] Successfully created attachment "Validation Test Data - Expected JSON Value" @03-01-2023 09:22:33.0997 AM
[ReportManager] Successfully created attachment "Validation Test Data - Actual JSON Value" @03-01-2023 09:22:34.0004 AM