
################################################################################################################################################
Starting Execution:	"38 out of 110" test cases in the current suite
Test Method:		"SteeringCompanyAPI_TestCases.Test_Commissions_Cases.Valid_GET_all_Commissions_by_Qry_Rq_TC"
Test Description:	"TC002  -Commission- Perform Get all Commissions API with pagination with valid user name and password"
################################################################################################################################################
[ReportManager] File Action "DoesFileExist" successfully performed. With the following test data "File Path: "SteeringCompanyAPI_TestData/SteeringCompanyAPI_TestData.xlsx"". @07-02-2023 14:55:56.0715 PM
[ReportManager] Loaded Test Data: "src/test/resources/testDataFiles/SteeringCompanyAPI_TestData/SteeringCompanyAPI_TestData.xlsx". @07-02-2023 14:55:56.0761 PM
[ReportManager] Successfully created attachment "Test Data - Excel" @07-02-2023 14:55:56.0763 PM
[ReportManager] Response status code: "200", status line: "HTTP/1.1 200 OK" @07-02-2023 14:55:57.0400 PM
[ReportManager] Assertion Passed: Evaluating the actual response status code against the expected one... @07-02-2023 14:55:57.0402 PM
[ReportManager] Perform request "POST | Target Status Code: 200 | Service URL: https://auth-demo.np.transporticonline.com/auth/realms/tic/protocol/openid-connect/token | Content Type: application/x-www-form-urlencoded | Response Time: 628ms". @07-02-2023 14:55:57.0423 PM
[ReportManager] Successfully created attachment "API Request - Specifications" @07-02-2023 14:55:57.0424 PM
[ReportManager] Successfully created attachment "API Request - Body" @07-02-2023 14:55:57.0425 PM
[ReportManager] Successfully created attachment "API Response - JSON Body" @07-02-2023 14:55:57.0426 PM
[ReportManager] Assertion Passed: Check Response Status Code is 200 and it is valid. @07-02-2023 14:55:57.0426 PM
[ReportManager] File Action "DoesFileExist" successfully performed. With the following test data "File Path: "SteeringCompanyAPI_TestData/SteeringCompanyAPI_TestData.xlsx"". @07-02-2023 14:55:57.0440 PM
[ReportManager] Loaded Test Data: "src/test/resources/testDataFiles/SteeringCompanyAPI_TestData/SteeringCompanyAPI_TestData.xlsx". @07-02-2023 14:55:57.0475 PM
[ReportManager] Successfully created attachment "Test Data - Excel" @07-02-2023 14:55:57.0476 PM
[ReportManager] File Action "DoesFileExist" successfully performed. With the following test data "File Path: "SteeringCompanyAPI_TestData/SteeringCompanyAPI_TestData.xlsx"". @07-02-2023 14:55:57.0477 PM
[ReportManager] Loaded Test Data: "src/test/resources/testDataFiles/SteeringCompanyAPI_TestData/SteeringCompanyAPI_TestData.xlsx". @07-02-2023 14:55:57.0522 PM
[ReportManager] Successfully created attachment "Test Data - Excel" @07-02-2023 14:55:57.0524 PM
[ReportManager] File Action "DoesFileExist" successfully performed. With the following test data "File Path: "SteeringCompanyAPI_TestData/SteeringCompanyAPI_TestData.xlsx"". @07-02-2023 14:55:57.0525 PM
[ReportManager] Loaded Test Data: "src/test/resources/testDataFiles/SteeringCompanyAPI_TestData/SteeringCompanyAPI_TestData.xlsx". @07-02-2023 14:55:57.0589 PM
[ReportManager] Successfully created attachment "Test Data - Excel" @07-02-2023 14:55:57.0590 PM
[ReportManager] Response status code: "200", status line: "HTTP/1.1 200 " @07-02-2023 14:55:58.0120 PM
[ReportManager] Assertion Passed: Evaluating the actual response status code against the expected one... @07-02-2023 14:55:58.0121 PM
[ReportManager] Perform request "GET | Target Status Code: 200 | Service URL: https://api-demo.np.transporticonline.com/steeringcompanies/v1/commissions | Content Type: */* | Response Time: 525ms". @07-02-2023 14:55:58.0150 PM
[ReportManager] Successfully created attachment "API Request - Specifications" @07-02-2023 14:55:58.0154 PM
[ReportManager] Successfully created attachment "API Response - JSON Body" @07-02-2023 14:55:58.0155 PM
[ReportManager] Assertion Passed: "200" is equal to "200". @07-02-2023 14:55:58.0156 PM
[ReportManager] Verification Passed: "525" is greater than or equal to "1.1". @07-02-2023 14:55:58.0156 PM
[ReportManager] Verification Passed: "525" is less than or equal to "30000". @07-02-2023 14:55:58.0156 PM
[ReportManager] Assertion Passed: "{"page":0,"size":10,"totalPages":2,"totalElements":18,"content":[{"otaCode":"ZowarOTA","baseCommission":3.0,"addCommission":0.0,"lastUpdated":"2022-12-15T17:26:35.889109","isActive":true},{"otaCode":"AlrajhiOTA","baseCommission":3.0,"addCommission":0.0,"lastUpdated":"2022-12-15T17:21:34.550112","isActive":true},{"otaCode":"0226_OTA","baseCommission":3.0,"addCommission":3.5,"lastUpdated":"2022-12-15T17:26:06.5894","isActive":true},{"otaCode":"ELAF_OTA","baseCommission":3.0,"addCommission":0.0,"lastUpdated":"2022-12-12T15:49:49.939996","isActive":true},{"otaCode":"HotelGate","baseCommission":3.0,"addCommission":3.125,"lastUpdated":"2022-12-01T14:29:31.706037","isActive":false},{"otaCode":"ZamzamOTA","baseCommission":3.0,"addCommission":0.0,"lastUpdated":"2022-12-12T15:49:54.037276","isActive":false},{"otaCode":"SafirTravelOTA","baseCommission":3.0,"addCommission":0.0,"lastUpdated":"2022-12-12T15:50:08.792469","isActive":true},{"otaCode":"HUBOOKING","baseCommission":3.0,"addCommission":0.0,"lastUpdated":"2022-12-12T15:50:12.53256","isActive":true},{"otaCode":"agoda","baseCommission":3.0,"addCommission":10.0,"lastUpdated":"2023-02-07T15:55:29.785514","isActive":true},{"otaCode":"Mawasim","baseCommission":3.0,"addCommission":0.0,"lastUpdated":"2023-02-07T15:55:32.534103","isActive":true}]}" contains "content". @07-02-2023 14:55:58.0156 PM
[ReportManager] Successfully created attachment "Validation Test Data - Expected Value" @07-02-2023 14:55:58.0157 PM
[ReportManager] Successfully created attachment "Validation Test Data - Actual Value" @07-02-2023 14:55:58.0157 PM
[ReportManager] Get response jsonvalue "content". @07-02-2023 14:55:58.0159 PM
[ReportManager] Assertion Passed: Check that content object is not null. @07-02-2023 14:55:58.0159 PM
[ReportManager] Successfully created attachment "Validation Test Data - Expected Value" @07-02-2023 14:55:58.0160 PM
[ReportManager] Successfully created attachment "Validation Test Data - Actual Value" @07-02-2023 14:55:58.0162 PM
[ReportManager] File Action "DoesFileExist" successfully performed. With the following test data "File Path: "Schemas/Commission_schema.json"". @07-02-2023 14:55:58.0162 PM
[ReportManager] File Action "DoesFileExist" successfully performed. With the following test data "File Path: "src/test/resources/testDataFiles/Schemas/Commission_schema.json"". @07-02-2023 14:55:58.0162 PM
[ReportManager] File Action "GetAbsolutePath" successfully performed. With the following test data "Relative Folder Path: "src/test/resources/testDataFiles/Schemas/Commission_schema.json"". @07-02-2023 14:55:58.0163 PM
[ReportManager] File Action "DoesFileExist" successfully performed. With the following test data "File Path: "C:\eclipse-workspace\MyProjects\TASystemsAPIs\src\test\resources\testDataFiles\Schemas\Commission_schema.json"". @07-02-2023 14:55:58.0172 PM
[ReportManager] File Action "GetAbsolutePath" successfully performed. With the following test data "Relative Folder Path: "C:\eclipse-workspace\MyProjects\TASystemsAPIs\src\test\resources\testDataFiles\Schemas\Commission_schema.json"". @07-02-2023 14:55:58.0173 PM
[ReportManager] File Action "ReadFile" successfully performed. With the following test data "File Path: "C:\eclipse-workspace\MyProjects\TASystemsAPIs\src\test\resources\testDataFiles\Schemas\Commission_schema.json"". @07-02-2023 14:55:58.0173 PM
[ReportManager] Assertion Passed: The API response schema matches that in this file "src/test/resources/testDataFiles/Schemas/Commission_schema.json". @07-02-2023 14:55:58.0174 PM
[ReportManager] Successfully created attachment "Validation Test Data - Expected JSON Value" @07-02-2023 14:55:58.0175 PM
[ReportManager] Successfully created attachment "Validation Test Data - Actual JSON Value" @07-02-2023 14:55:58.0176 PM