
################################################################################################################################################
Starting Execution:	"2 out of 5" test cases in the current suite
Test Method:		"SteeringCompanyAPI_TestCases.Test_Lookups_Cases.Valid_GET_all_cities_Lookups_by_Qry_Rq_TC"
Test Description:	"TC002 - Perform Get all cities API by parameters Qry with valid user name and password and return with token"
################################################################################################################################################
[ReportManager] File Action "DoesFileExist" successfully performed. With the following test data "File Path: "SteeringCompanyAPI_TestData/SteeringCompanyAPI_TestData.xlsx"". @01-11-2022 15:31:35.0753 PM
[ReportManager] Loaded Test Data: "src/test/resources/testDataFiles/SteeringCompanyAPI_TestData/SteeringCompanyAPI_TestData.xlsx". @01-11-2022 15:31:35.0785 PM
[ReportManager] Successfully created attachment "Test Data - Excel" @01-11-2022 15:31:35.0788 PM
[ReportManager] Response status code: "200", status line: "HTTP/1.1 200 OK" @01-11-2022 15:31:36.0565 PM
[ReportManager] Assertion Passed: Evaluating the actual response status code against the expected one... @01-11-2022 15:31:36.0567 PM
[ReportManager] Perform request "POST | Target Status Code: 200 | Service URL: https://auth-demo.np.transporticonline.com/auth/realms/tic/protocol/openid-connect/token | Content Type: application/x-www-form-urlencoded | Response Time: 770ms". @01-11-2022 15:31:36.0591 PM
[ReportManager] Successfully created attachment "API Request - Specifications" @01-11-2022 15:31:36.0592 PM
[ReportManager] Successfully created attachment "API Request - Body" @01-11-2022 15:31:36.0594 PM
[ReportManager] Successfully created attachment "API Response - JSON Body" @01-11-2022 15:31:36.0596 PM
[ReportManager] Assertion Passed: Check Response Status Code is 200 and it is valid. @01-11-2022 15:31:36.0599 PM
[ReportManager] File Action "DoesFileExist" successfully performed. With the following test data "File Path: "SteeringCompanyAPI_TestData/SteeringCompanyAPI_TestData.xlsx"". @01-11-2022 15:31:36.0614 PM
[ReportManager] Loaded Test Data: "src/test/resources/testDataFiles/SteeringCompanyAPI_TestData/SteeringCompanyAPI_TestData.xlsx". @01-11-2022 15:31:36.0640 PM
[ReportManager] Successfully created attachment "Test Data - Excel" @01-11-2022 15:31:36.0641 PM
[ReportManager] Response status code: "200", status line: "HTTP/1.1 200 " @01-11-2022 15:31:37.0210 PM
[ReportManager] Assertion Passed: Evaluating the actual response status code against the expected one... @01-11-2022 15:31:37.0211 PM
[ReportManager] Perform request "GET | Target Status Code: 200 | Service URL: https://api-demo.np.transporticonline.com/steeringcompanies/v1/lookups/cities | Content Type: */* | Response Time: 541ms". @01-11-2022 15:31:37.0228 PM
[ReportManager] Successfully created attachment "API Request - Specifications" @01-11-2022 15:31:37.0230 PM
[ReportManager] Successfully created attachment "API Response - JSON Body" @01-11-2022 15:31:37.0232 PM
[ReportManager] Assertion Passed: "200" is equal to "200". @01-11-2022 15:31:37.0232 PM
[ReportManager] Verification Passed: "541" is greater than or equal to "1.1". @01-11-2022 15:31:37.0233 PM
[ReportManager] Verification Passed: "541" is less than or equal to "10000". @01-11-2022 15:31:37.0233 PM
[ReportManager] Assertion Passed: "{"page":0,"size":3,"totalPages":236,"totalElements":706,"content":[{"id":1071,"nameArabic":"???? ?????? ??????","nameEnglish":"Denizli Cardak Airport","isActive":true,"lastUpdated":"2022-06-02T00:13:35Z","sectors":null},{"id":36,"nameArabic":"??????????","nameEnglish":"Kuala Lumpur","isActive":true,"lastUpdated":"2022-06-02T01:21:49Z","sectors":null},{"id":849,"nameArabic":"???????","nameEnglish":"Solngen","isActive":true,"lastUpdated":"2022-06-02T01:37:02Z","sectors":null}]}" contains "content". @01-11-2022 15:31:37.0234 PM
[ReportManager] Get response jsonvalue "content". @01-11-2022 15:31:37.0236 PM
[ReportManager] Assertion Passed: Check that content object is not null. @01-11-2022 15:31:37.0237 PM
[ReportManager] File Action "DoesFileExist" successfully performed. With the following test data "File Path: "Lookups_cities_schema.json"". @01-11-2022 15:31:37.0237 PM
[ReportManager] File Action "DoesFileExist" successfully performed. With the following test data "File Path: "src/test/resources/testDataFiles/Lookups_cities_schema.json"". @01-11-2022 15:31:37.0238 PM
[ReportManager] File Action "GetAbsolutePath" successfully performed. With the following test data "Relative Folder Path: "src/test/resources/testDataFiles/Lookups_cities_schema.json"". @01-11-2022 15:31:37.0239 PM
[ReportManager] File Action "DoesFileExist" successfully performed. With the following test data "File Path: "C:\eclipse-workspace\MyProjects\TASystemsAPIs\src\test\resources\testDataFiles\Lookups_cities_schema.json"". @01-11-2022 15:31:37.0247 PM
[ReportManager] File Action "GetAbsolutePath" successfully performed. With the following test data "Relative Folder Path: "C:\eclipse-workspace\MyProjects\TASystemsAPIs\src\test\resources\testDataFiles\Lookups_cities_schema.json"". @01-11-2022 15:31:37.0248 PM
[ReportManager] File Action "ReadFromFile" successfully performed. With the following test data "File Path: "C:\eclipse-workspace\MyProjects\TASystemsAPIs\src\test\resources\testDataFiles\Lookups_cities_schema.json"". @01-11-2022 15:31:37.0248 PM
[ReportManager] Assertion Passed: The API response schema matches that in this file "src/test/resources/testDataFiles/Lookups_cities_schema.json". @01-11-2022 15:31:37.0249 PM
[ReportManager] Successfully created attachment "Validation Test Data - Expected JSON Value" @01-11-2022 15:31:37.0252 PM
[ReportManager] Successfully created attachment "Validation Test Data - Actual JSON Value" @01-11-2022 15:31:37.0253 PM