{"uuid":"10392b44-4857-4b0e-af1a-33056f2b5269","historyId":"3da8675260de4f0e72331833df441679","fullName":"SteeringCompanyAPI_TestCases.Test_Lookups_Cases.Valid_GET_all_cities_Lookups_Rq_TC","labels":[{"name":"package","value":"SteeringCompanyAPI_TestCases.Test_Lookups_Cases"},{"name":"testClass","value":"SteeringCompanyAPI_TestCases.Test_Lookups_Cases"},{"name":"testMethod","value":"Valid_GET_all_cities_Lookups_Rq_TC"},{"name":"parentSuite","value":"Suite"},{"name":"suite","value":"Test"},{"name":"subSuite","value":"SteeringCompanyAPI_TestCases.Test_Lookups_Cases"},{"name":"host","value":"TW-1056"},{"name":"thread","value":"19432@TW-1056.main(1)"},{"name":"framework","value":"testng"},{"name":"language","value":"java"}],"links":[],"name":"TC001 - Perform Get all cities API with valid user name and password","status":"passed","statusDetails":{"known":false,"muted":false,"flaky":false},"stage":"finished","steps":[{"name":"Loaded Test Data: \"src/test/resources/testDataFiles/SteeringCompanyAPI_TestData/SteeringCompanyAPI_TestData.xlsx\".","status":"passed","stage":"finished","steps":[],"attachments":[{"name":"Test Data - Excel","source":"497e6386-ab6a-4d97-8df6-eb1deae4bc58-attachment.xlsx","type":"application/vnd.openxmlformats-officedocument.spreadsheetml.sheet"}],"parameters":[{"name":"logText","value":"Loaded Test Data: \"src/test/resources/testDataFiles/SteeringCompanyAPI_TestData/SteeringCompanyAPI_TestData.xlsx\"."},{"name":"attachments","value":"[[Test Data, Excel, java.io.FileInputStream@7010c9e4]]"}],"start":1667309489110,"stop":1667309489116},{"name":"Assertion Passed: Evaluating the actual response status code against the expected one...","status":"passed","stage":"finished","steps":[],"attachments":[],"parameters":[{"name":"customLog","value":"Assertion Passed: Evaluating the actual response status code against the expected one..."},{"name":"stepLog","value":"Assertion \"ValidateComparativeRelation\" PASSED. Expected \"200\" and Actual \"200\". Comparison Type \"EQUALS\". Validation Type \"POSITIVE\"."},{"name":"attachments","value":"null"}],"start":1667309491891,"stop":1667309491892},{"name":"Perform request \"POST | Target Status Code: 200 | Service URL: https://auth-demo.np.transporticonline.com/auth/realms/tic/protocol/openid-connect/token | Content Type: application/x-www-form-urlencoded | Response Time: 1411ms\".","status":"passed","stage":"finished","steps":[],"attachments":[{"name":"API Request - Specifications","source":"2508e3ff-0977-418f-8fec-b34e4b99124a-attachment"},{"name":"API Request - Body","source":"87cab7bc-172d-435e-89bc-7f273d0d4678-attachment"},{"name":"API Response - JSON Body","source":"59090d7f-4436-4044-b8fb-500aa3ce5522-attachment.json","type":"text/json"}],"parameters":[{"name":"logText","value":"Perform request \"POST | Target Status Code: 200 | Service URL: https://auth-demo.np.transporticonline.com/auth/realms/tic/protocol/openid-connect/token | Content Type: application/x-www-form-urlencoded | Response Time: 1411ms\"."},{"name":"attachments","value":"[[API Request, Specifications, Headers:\r\n_______________\r\n\r\nContent-Type=application/x-www-form-urlencoded\r\n\r\n], [API Request, Body, java.io.ByteArrayInputStream@615c9e9b], null, [API Response, JSON Body, java.io.ByteArrayInputStream@731d35b0]]"}],"start":1667309493027,"stop":1667309493352},{"name":"Assertion Passed: Check Response Status Code is 200 and it is valid.","status":"passed","stage":"finished","steps":[],"attachments":[],"parameters":[{"name":"customLog","value":"Assertion Passed: Check Response Status Code is 200 and it is valid."},{"name":"stepLog","value":"Assertion \"ValidateComparativeRelation\" PASSED. Expected \"200\" and Actual \"200\". Comparison Type \"EQUALS\". Validation Type \"POSITIVE\"."},{"name":"attachments","value":"null"}],"start":1667309493355,"stop":1667309493355},{"name":"Loaded Test Data: \"src/test/resources/testDataFiles/SteeringCompanyAPI_TestData/SteeringCompanyAPI_TestData.xlsx\".","status":"passed","stage":"finished","steps":[],"attachments":[{"name":"Test Data - Excel","source":"1dea4781-8afc-4497-b807-75e609c2dddf-attachment.xlsx","type":"application/vnd.openxmlformats-officedocument.spreadsheetml.sheet"}],"parameters":[{"name":"logText","value":"Loaded Test Data: \"src/test/resources/testDataFiles/SteeringCompanyAPI_TestData/SteeringCompanyAPI_TestData.xlsx\"."},{"name":"attachments","value":"[[Test Data, Excel, java.io.FileInputStream@4fa7df5c]]"}],"start":1667309493422,"stop":1667309493425},{"name":"Assertion Passed: Evaluating the actual response status code against the expected one...","status":"passed","stage":"finished","steps":[],"attachments":[],"parameters":[{"name":"customLog","value":"Assertion Passed: Evaluating the actual response status code against the expected one..."},{"name":"stepLog","value":"Assertion \"ValidateComparativeRelation\" PASSED. Expected \"200\" and Actual \"200\". Comparison Type \"EQUALS\". Validation Type \"POSITIVE\"."},{"name":"attachments","value":"null"}],"start":1667309494289,"stop":1667309494289},{"name":"Perform request \"GET | Target Status Code: 200 | Service URL: https://api-demo.np.transporticonline.com/steeringcompanies/v1/lookups/cities | Content Type: */* | Response Time: 848ms\".","status":"passed","stage":"finished","steps":[],"attachments":[{"name":"API Request - Specifications","source":"69d6e864-c766-4cc2-a8b1-00664b94d69f-attachment"},{"name":"API Response - JSON Body","source":"139cf570-e4f4-46e0-bc98-a650f1b5a339-attachment.json","type":"text/json"}],"parameters":[{"name":"logText","value":"Perform request \"GET | Target Status Code: 200 | Service URL: https://api-demo.np.transporticonline.com/steeringcompanies/v1/lookups/cities | Content Type: */* | Response Time: 848ms\"."},{"name":"attachments","value":"[[API Request, Specifications, Headers:\r\n_______________\r\n\r\nAuthorization=Bearer eyJhbGciOiJSUzI1NiIsInR5cCIgOiAiSldUIiwia2lkIiA6ICJjck9ORDFNdFVPVWhzS2Mtb0ppVFFmb0o1d1l4REF6Y3k0ZjNYZ0dveGdZIn0.eyJleHAiOjE2NjczMDk3ODcsImlhdCI6MTY2NzMwOTQ4NywianRpIjoiNzEwYzgxNjItYTUxZi00ZDE5LWI4NGQtZWVkMzZiZjIxZWQ4IiwiaXNzIjoiaHR0cHM6Ly9hdXRoLWRlbW8ubnAudHJhbnNwb3J0aWNvbmxpbmUuY29tL2F1dGgvcmVhbG1zL3RpYyIsImF1ZCI6ImFjY291bnQiLCJzdWIiOiI0ZTk3NmQ0NC1iM2ZkLTRjYTktODk1Ny0wYWJiODUwNzNhNzQiLCJ0eXAiOiJCZWFyZXIiLCJhenAiOiJ0aWMtYXBpIiwic2Vzc2lvbl9zdGF0ZSI6IjQyMjYzYWQ3LWJhZjYtNDAxMC04OGE5LTdmZmQ3MDQwN2NjMCIsImFjciI6IjEiLCJhbGxvd2VkLW9yaWdpbnMiOlsiaHR0cHM6Ly9hcGktZGV2Lm5wLnRyYW5zcG9ydGljb25saW5lLmNvbSJdLCJyZWFsbV9hY2Nlc3MiOnsicm9sZXMiOlsib2ZmbGluZV9hY2Nlc3MiLCJkZWZhdWx0LXJvbGVzLXRpYyIsInVtYV9hdXRob3JpemF0aW9uIiwidXNlciJdfSwicmVzb3VyY2VfYWNjZXNzIjp7ImFjY291bnQiOnsicm9sZXMiOlsibWFuYWdlLWFjY291bnQiLCJtYW5hZ2UtYWNjb3VudC1saW5rcyIsInZpZXctcHJvZmlsZSJdfX0sInNjb3BlIjoiZW1haWwgcHJvZmlsZSIsInNpZCI6IjQyMjYzYWQ3LWJhZjYtNDAxMC04OGE5LTdmZmQ3MDQwN2NjMCIsImVtYWlsX3ZlcmlmaWVkIjpmYWxzZSwicHJlZmVycmVkX3VzZXJuYW1lIjoidG9raGkiLCJ0Y0lkIjoiMzE5OTU3In0.JgzAA4Nmx2CeL_64k2WEq-iVX_iB3qs4GmgpR6RJzP-Hoh1KU0ngEsrgn7ZK18yoQf8T3MphpKuXfjMYknmfUfL6R_WgKWbRckCLgkTGpw8E9miAAfD0SmAg9HTeJUlMvDitrHZSYdG_XE2uPce2s3l3XDEC3IeRdyf2PSR4s70LRwpXq8efJoclTjjfbtoWDVtCLrFE-ccIcuU7OF-AGLwqk-9PvhR8VJt7NMqLqPnhKZ2brOYjyUT-ySFFivUfVEDnHVfkSdbpeFyrux951d-_tqMXdY1FWRT_ixTePmnB43V5wbZbK3wo54MLMX2yc9KOLb6nP2VMAtAqbmOjng\r\nContent-Type=*/*\r\n\r\n], null, [API Response, JSON Body, java.io.ByteArrayInputStream@280f0c37]]"}],"start":1667309494331,"stop":1667309494335},{"name":"Assertion Passed: \"200\" is equal to \"200\".","status":"passed","stage":"finished","steps":[],"attachments":[],"parameters":[{"name":"customLog","value":"Assertion Passed: \"200\" is equal to \"200\"."},{"name":"stepLog","value":"Assertion \"ValidateComparativeRelation\" PASSED. Expected \"200\" and Actual \"200\". Comparison Type \"EQUALS\". Validation Type \"POSITIVE\"."},{"name":"attachments","value":"null"}],"start":1667309494336,"stop":1667309494336},{"name":"Verification Passed: \"848\" is greater than or equal to \"1.1\".","status":"passed","stage":"finished","steps":[],"attachments":[],"parameters":[{"name":"customLog","value":"Verification Passed: \"848\" is greater than or equal to \"1.1\"."},{"name":"stepLog","value":"Verification \"ValidateComparativeRelation\" PASSED. Expected \"1.1\" and Actual \"848\". Comparison Type \"GREATER_THAN_OR_EQUALS\". Validation Type \"POSITIVE\"."},{"name":"attachments","value":"null"}],"start":1667309494338,"stop":1667309494338},{"name":"Verification Passed: \"848\" is less than or equal to \"10000\".","status":"passed","stage":"finished","steps":[],"attachments":[],"parameters":[{"name":"customLog","value":"Verification Passed: \"848\" is less than or equal to \"10000\"."},{"name":"stepLog","value":"Verification \"ValidateComparativeRelation\" PASSED. Expected \"10000\" and Actual \"848\". Comparison Type \"LESS_THAN_OR_EQUALS\". Validation Type \"POSITIVE\"."},{"name":"attachments","value":"null"}],"start":1667309494338,"stop":1667309494338},{"name":"Assertion Passed: \"{\"page\":0,\"size\":20,\"totalPages\":36,\"totalElements\":706,\"content\":[{\"id\":1071,\"nameArabic\":\"مطار دنيزلي كارداك\",\"nameEnglish\":\"Denizli Cardak Airport\",\"isActive\":true,\"lastUpdated\":\"2022-06-02T00:13:35Z\",\"sectors\":null},{\"id\":36,\"nameArabic\":\"كوالالمبور\",\"nameEnglish\":\"Kuala Lumpur\",\"isActive\":true,\"lastUpdated\":\"2022-06-02T01:21:49Z\",\"sectors\":null},{\"id\":849,\"nameArabic\":\"سولنجين\",\"nameEnglish\":\"Solngen\",\"isActive\":true,\"lastUpdated\":\"2022-06-02T01:37:02Z\",\"sectors\":null},{\"id\":1006,\"nameArabic\":\"بشكشكي\",\"nameEnglish\":\"FRUNZE\",\"isActive\":true,\"lastUpdated\":\"2022-06-02T00:20:05Z\",\"sectors\":null},{\"id\":985,\"nameArabic\":\"قندهار\",\"nameEnglish\":\"KANDAHAR\",\"isActive\":true,\"lastUpdated\":\"2022-06-02T00:25:20Z\",\"sectors\":null},{\"id\":736,\"nameArabic\":\"طبركا\",\"nameEnglish\":\"Tabrka\",\"isActive\":true,\"lastUpdated\":\"2022-06-02T01:16:50Z\",\"sectors\":null},{\"id\":953,\"nameArabic\":\"سوهاج\",\"nameEnglish\":\"Sohag\",\"isActive\":true,\"lastUpdated\":\"2022-06-02T00:25:24Z\",\"sectors\":null},{\"id\":816,\"nameArabic\":\"كوتشين\",\"nameEnglish\":\"Cochin\",\"isActive\":true,\"lastUpdated\":\"2022-06-02T01:06:13Z\",\"sectors\":null},{\"id\":789,\"nameArabic\":\"فيصل اباد\",\"nameEnglish\":\"Faisalabad\",\"isActive\":true,\"lastUpdated\":\"2022-06-02T01:27:12Z\",\"sectors\":null},{\"id\":1013,\"nameArabic\":\"كازان\",\"nameEnglish\":\"KAZAN\",\"isActive\":true,\"lastUpdated\":\"2022-06-02T00:37:19Z\",\"sectors\":null},{\"id\":794,\"nameArabic\":\"كايسيري\",\"nameEnglish\":\"KAYSERI\",\"isActive\":true,\"lastUpdated\":\"2022-06-02T01:21:58Z\",\"sectors\":null},{\"id\":764,\"nameArabic\":\"طنجه\",\"nameEnglish\":\"Tangier\",\"isActive\":true,\"lastUpdated\":\"2022-06-02T01:27:13Z\",\"sectors\":null},{\"id\":780,\"nameArabic\":\"شهيراز\",\"nameEnglish\":\"Shahyraz\",\"isActive\":true,\"lastUpdated\":\"2022-06-02T00:37:28Z\",\"sectors\":null},{\"id\":712,\"nameArabic\":\"طشقند\",\"nameEnglish\":\"Tashkent\",\"isActive\":true,\"lastUpdated\":\"2022-06-02T01:27:13Z\",\"sectors\":null},{\"id\":824,\"nameArabic\":\"سمكرند\",\"nameEnglish\":\"Samarqand\",\"isActive\":true,\"lastUpdated\":\"2022-06-02T00:37:28Z\",\"sectors\":null},{\"id\":993,\"nameArabic\":\"كرابي\",\"nameEnglish\":\"KRBI\",\"isActive\":true,\"lastUpdated\":\"2022-06-02T01:22:03Z\",\"sectors\":null},{\"id\":820,\"nameArabic\":\"كاليكوت\",\"nameEnglish\":\"CALICUT\",\"isActive\":true,\"lastUpdated\":\"2022-06-02T01:27:21Z\",\"sectors\":null},{\"id\":91,\"nameArabic\":\"كانو\",\"nameEnglish\":\"KANO\",\"isActive\":true,\"lastUpdated\":\"2022-06-02T01:22:03Z\",\"sectors\":null},{\"id\":125,\"nameArabic\":\"كابل\",\"nameEnglish\":\"Kabul\",\"isActive\":true,\"lastUpdated\":\"2022-06-02T00:42:58Z\",\"sectors\":null},{\"id\":34,\"nameArabic\":\"فيينا\",\"nameEnglish\":\"Vienna\",\"isActive\":true,\"lastUpdated\":\"2022-06-02T00:42:59Z\",\"sectors\":null}]}\" contains \"content\".","status":"passed","stage":"finished","steps":[],"attachments":[{"name":"Validation Test Data - Expected Value","source":"2504528e-bacf-4a13-8a6c-2c65493aa4ec-attachment"},{"name":"Validation Test Data - Actual Value","source":"dec5e0e0-5e8c-4b63-830c-228528093385-attachment"}],"parameters":[{"name":"customLog","value":"Assertion Passed: \"{\"page\":0,\"size\":20,\"totalPages\":36,\"totalElements\":706,\"content\":[{\"id\":1071,\"nameArabic\":\"مطار دنيزلي كارداك\",\"nameEnglish\":\"Denizli Cardak Airport\",\"isActive\":true,\"lastUpdated\":\"2022-06-02T00:13:35Z\",\"sectors\":null},{\"id\":36,\"nameArabic\":\"كوالالمبور\",\"nameEnglish\":\"Kuala Lumpur\",\"isActive\":true,\"lastUpdated\":\"2022-06-02T01:21:49Z\",\"sectors\":null},{\"id\":849,\"nameArabic\":\"سولنجين\",\"nameEnglish\":\"Solngen\",\"isActive\":true,\"lastUpdated\":\"2022-06-02T01:37:02Z\",\"sectors\":null},{\"id\":1006,\"nameArabic\":\"بشكشكي\",\"nameEnglish\":\"FRUNZE\",\"isActive\":true,\"lastUpdated\":\"2022-06-02T00:20:05Z\",\"sectors\":null},{\"id\":985,\"nameArabic\":\"قندهار\",\"nameEnglish\":\"KANDAHAR\",\"isActive\":true,\"lastUpdated\":\"2022-06-02T00:25:20Z\",\"sectors\":null},{\"id\":736,\"nameArabic\":\"طبركا\",\"nameEnglish\":\"Tabrka\",\"isActive\":true,\"lastUpdated\":\"2022-06-02T01:16:50Z\",\"sectors\":null},{\"id\":953,\"nameArabic\":\"سوهاج\",\"nameEnglish\":\"Sohag\",\"isActive\":true,\"lastUpdated\":\"2022-06-02T00:25:24Z\",\"sectors\":null},{\"id\":816,\"nameArabic\":\"كوتشين\",\"nameEnglish\":\"Cochin\",\"isActive\":true,\"lastUpdated\":\"2022-06-02T01:06:13Z\",\"sectors\":null},{\"id\":789,\"nameArabic\":\"فيصل اباد\",\"nameEnglish\":\"Faisalabad\",\"isActive\":true,\"lastUpdated\":\"2022-06-02T01:27:12Z\",\"sectors\":null},{\"id\":1013,\"nameArabic\":\"كازان\",\"nameEnglish\":\"KAZAN\",\"isActive\":true,\"lastUpdated\":\"2022-06-02T00:37:19Z\",\"sectors\":null},{\"id\":794,\"nameArabic\":\"كايسيري\",\"nameEnglish\":\"KAYSERI\",\"isActive\":true,\"lastUpdated\":\"2022-06-02T01:21:58Z\",\"sectors\":null},{\"id\":764,\"nameArabic\":\"طنجه\",\"nameEnglish\":\"Tangier\",\"isActive\":true,\"lastUpdated\":\"2022-06-02T01:27:13Z\",\"sectors\":null},{\"id\":780,\"nameArabic\":\"شهيراز\",\"nameEnglish\":\"Shahyraz\",\"isActive\":true,\"lastUpdated\":\"2022-06-02T00:37:28Z\",\"sectors\":null},{\"id\":712,\"nameArabic\":\"طشقند\",\"nameEnglish\":\"Tashkent\",\"isActive\":true,\"lastUpdated\":\"2022-06-02T01:27:13Z\",\"sectors\":null},{\"id\":824,\"nameArabic\":\"سمكرند\",\"nameEnglish\":\"Samarqand\",\"isActive\":true,\"lastUpdated\":\"2022-06-02T00:37:28Z\",\"sectors\":null},{\"id\":993,\"nameArabic\":\"كرابي\",\"nameEnglish\":\"KRBI\",\"isActive\":true,\"lastUpdated\":\"2022-06-02T01:22:03Z\",\"sectors\":null},{\"id\":820,\"nameArabic\":\"كاليكوت\",\"nameEnglish\":\"CALICUT\",\"isActive\":true,\"lastUpdated\":\"2022-06-02T01:27:21Z\",\"sectors\":null},{\"id\":91,\"nameArabic\":\"كانو\",\"nameEnglish\":\"KANO\",\"isActive\":true,\"lastUpdated\":\"2022-06-02T01:22:03Z\",\"sectors\":null},{\"id\":125,\"nameArabic\":\"كابل\",\"nameEnglish\":\"Kabul\",\"isActive\":true,\"lastUpdated\":\"2022-06-02T00:42:58Z\",\"sectors\":null},{\"id\":34,\"nameArabic\":\"فيينا\",\"nameEnglish\":\"Vienna\",\"isActive\":true,\"lastUpdated\":\"2022-06-02T00:42:59Z\",\"sectors\":null}]}\" contains \"content\"."},{"name":"stepLog","value":"Assertion \"ValidateEquals\" PASSED. Expected and Actual values are attached. Comparison Type \"CONTAINS\". Validation Type \"POSITIVE\"."},{"name":"attachments","value":"[[Validation Test Data, Expected Value, content], [Validation Test Data, Actual Value, {\"page\":0,\"size\":20,\"totalPages\":36,\"totalElements\":706,\"content\":[{\"id\":1071,\"nameArabic\":\"مطار دنيزلي كارداك\",\"nameEnglish\":\"Denizli Cardak Airport\",\"isActive\":true,\"lastUpdated\":\"2022-06-02T00:13:35Z\",\"sectors\":null},{\"id\":36,\"nameArabic\":\"كوالالمبور\",\"nameEnglish\":\"Kuala Lumpur\",\"isActive\":true,\"lastUpdated\":\"2022-06-02T01:21:49Z\",\"sectors\":null},{\"id\":849,\"nameArabic\":\"سولنجين\",\"nameEnglish\":\"Solngen\",\"isActive\":true,\"lastUpdated\":\"2022-06-02T01:37:02Z\",\"sectors\":null},{\"id\":1006,\"nameArabic\":\"بشكشكي\",\"nameEnglish\":\"FRUNZE\",\"isActive\":true,\"lastUpdated\":\"2022-06-02T00:20:05Z\",\"sectors\":null},{\"id\":985,\"nameArabic\":\"قندهار\",\"nameEnglish\":\"KANDAHAR\",\"isActive\":true,\"lastUpdated\":\"2022-06-02T00:25:20Z\",\"sectors\":null},{\"id\":736,\"nameArabic\":\"طبركا\",\"nameEnglish\":\"Tabrka\",\"isActive\":true,\"lastUpdated\":\"2022-06-02T01:16:50Z\",\"sectors\":null},{\"id\":953,\"nameArabic\":\"سوهاج\",\"nameEnglish\":\"Sohag\",\"isActive\":true,\"lastUpdated\":\"2022-06-02T00:25:24Z\",\"sectors\":null},{\"id\":816,\"nameArabic\":\"كوتشين\",\"nameEnglish\":\"Cochin\",\"isActive\":true,\"lastUpdated\":\"2022-06-02T01:06:13Z\",\"sectors\":null},{\"id\":789,\"nameArabic\":\"فيصل اباد\",\"nameEnglish\":\"Faisalabad\",\"isActive\":true,\"lastUpdated\":\"2022-06-02T01:27:12Z\",\"sectors\":null},{\"id\":1013,\"nameArabic\":\"كازان\",\"nameEnglish\":\"KAZAN\",\"isActive\":true,\"lastUpdated\":\"2022-06-02T00:37:19Z\",\"sectors\":null},{\"id\":794,\"nameArabic\":\"كايسيري\",\"nameEnglish\":\"KAYSERI\",\"isActive\":true,\"lastUpdated\":\"2022-06-02T01:21:58Z\",\"sectors\":null},{\"id\":764,\"nameArabic\":\"طنجه\",\"nameEnglish\":\"Tangier\",\"isActive\":true,\"lastUpdated\":\"2022-06-02T01:27:13Z\",\"sectors\":null},{\"id\":780,\"nameArabic\":\"شهيراز\",\"nameEnglish\":\"Shahyraz\",\"isActive\":true,\"lastUpdated\":\"2022-06-02T00:37:28Z\",\"sectors\":null},{\"id\":712,\"nameArabic\":\"طشقند\",\"nameEnglish\":\"Tashkent\",\"isActive\":true,\"lastUpdated\":\"2022-06-02T01:27:13Z\",\"sectors\":null},{\"id\":824,\"nameArabic\":\"سمكرند\",\"nameEnglish\":\"Samarqand\",\"isActive\":true,\"lastUpdated\":\"2022-06-02T00:37:28Z\",\"sectors\":null},{\"id\":993,\"nameArabic\":\"كرابي\",\"nameEnglish\":\"KRBI\",\"isActive\":true,\"lastUpdated\":\"2022-06-02T01:22:03Z\",\"sectors\":null},{\"id\":820,\"nameArabic\":\"كاليكوت\",\"nameEnglish\":\"CALICUT\",\"isActive\":true,\"lastUpdated\":\"2022-06-02T01:27:21Z\",\"sectors\":null},{\"id\":91,\"nameArabic\":\"كانو\",\"nameEnglish\":\"KANO\",\"isActive\":true,\"lastUpdated\":\"2022-06-02T01:22:03Z\",\"sectors\":null},{\"id\":125,\"nameArabic\":\"كابل\",\"nameEnglish\":\"Kabul\",\"isActive\":true,\"lastUpdated\":\"2022-06-02T00:42:58Z\",\"sectors\":null},{\"id\":34,\"nameArabic\":\"فيينا\",\"nameEnglish\":\"Vienna\",\"isActive\":true,\"lastUpdated\":\"2022-06-02T00:42:59Z\",\"sectors\":null}]}]]"}],"start":1667309494355,"stop":1667309494358},{"name":"Assertion Passed: Check that content object is not null.","status":"passed","stage":"finished","steps":[],"attachments":[{"name":"Validation Test Data - Expected Value","source":"86c8b35b-2d20-4367-b7cc-4967e9b77640-attachment"},{"name":"Validation Test Data - Actual Value","source":"b0589b0d-afe7-48ed-b58d-beaac8e9b834-attachment"}],"parameters":[{"name":"customLog","value":"Assertion Passed: Check that content object is not null."},{"name":"stepLog","value":"Assertion \"ValidateEquals\" PASSED. Expected and Actual values are attached. Comparison Type \"EQUALS\". Validation Type \"NEGATIVE\"."},{"name":"attachments","value":"[[Validation Test Data, Expected Value, null], [Validation Test Data, Actual Value, [{\"id\":1071,\"nameArabic\":\"مطار دنيزلي كارداك\",\"nameEnglish\":\"Denizli Cardak Airport\",\"isActive\":true,\"lastUpdated\":\"2022-06-02T00:13:35Z\",\"sectors\":null},{\"id\":36,\"nameArabic\":\"كوالالمبور\",\"nameEnglish\":\"Kuala Lumpur\",\"isActive\":true,\"lastUpdated\":\"2022-06-02T01:21:49Z\",\"sectors\":null},{\"id\":849,\"nameArabic\":\"سولنجين\",\"nameEnglish\":\"Solngen\",\"isActive\":true,\"lastUpdated\":\"2022-06-02T01:37:02Z\",\"sectors\":null},{\"id\":1006,\"nameArabic\":\"بشكشكي\",\"nameEnglish\":\"FRUNZE\",\"isActive\":true,\"lastUpdated\":\"2022-06-02T00:20:05Z\",\"sectors\":null},{\"id\":985,\"nameArabic\":\"قندهار\",\"nameEnglish\":\"KANDAHAR\",\"isActive\":true,\"lastUpdated\":\"2022-06-02T00:25:20Z\",\"sectors\":null},{\"id\":736,\"nameArabic\":\"طبركا\",\"nameEnglish\":\"Tabrka\",\"isActive\":true,\"lastUpdated\":\"2022-06-02T01:16:50Z\",\"sectors\":null},{\"id\":953,\"nameArabic\":\"سوهاج\",\"nameEnglish\":\"Sohag\",\"isActive\":true,\"lastUpdated\":\"2022-06-02T00:25:24Z\",\"sectors\":null},{\"id\":816,\"nameArabic\":\"كوتشين\",\"nameEnglish\":\"Cochin\",\"isActive\":true,\"lastUpdated\":\"2022-06-02T01:06:13Z\",\"sectors\":null},{\"id\":789,\"nameArabic\":\"فيصل اباد\",\"nameEnglish\":\"Faisalabad\",\"isActive\":true,\"lastUpdated\":\"2022-06-02T01:27:12Z\",\"sectors\":null},{\"id\":1013,\"nameArabic\":\"كازان\",\"nameEnglish\":\"KAZAN\",\"isActive\":true,\"lastUpdated\":\"2022-06-02T00:37:19Z\",\"sectors\":null},{\"id\":794,\"nameArabic\":\"كايسيري\",\"nameEnglish\":\"KAYSERI\",\"isActive\":true,\"lastUpdated\":\"2022-06-02T01:21:58Z\",\"sectors\":null},{\"id\":764,\"nameArabic\":\"طنجه\",\"nameEnglish\":\"Tangier\",\"isActive\":true,\"lastUpdated\":\"2022-06-02T01:27:13Z\",\"sectors\":null},{\"id\":780,\"nameArabic\":\"شهيراز\",\"nameEnglish\":\"Shahyraz\",\"isActive\":true,\"lastUpdated\":\"2022-06-02T00:37:28Z\",\"sectors\":null},{\"id\":712,\"nameArabic\":\"طشقند\",\"nameEnglish\":\"Tashkent\",\"isActive\":true,\"lastUpdated\":\"2022-06-02T01:27:13Z\",\"sectors\":null},{\"id\":824,\"nameArabic\":\"سمكرند\",\"nameEnglish\":\"Samarqand\",\"isActive\":true,\"lastUpdated\":\"2022-06-02T00:37:28Z\",\"sectors\":null},{\"id\":993,\"nameArabic\":\"كرابي\",\"nameEnglish\":\"KRBI\",\"isActive\":true,\"lastUpdated\":\"2022-06-02T01:22:03Z\",\"sectors\":null},{\"id\":820,\"nameArabic\":\"كاليكوت\",\"nameEnglish\":\"CALICUT\",\"isActive\":true,\"lastUpdated\":\"2022-06-02T01:27:21Z\",\"sectors\":null},{\"id\":91,\"nameArabic\":\"كانو\",\"nameEnglish\":\"KANO\",\"isActive\":true,\"lastUpdated\":\"2022-06-02T01:22:03Z\",\"sectors\":null},{\"id\":125,\"nameArabic\":\"كابل\",\"nameEnglish\":\"Kabul\",\"isActive\":true,\"lastUpdated\":\"2022-06-02T00:42:58Z\",\"sectors\":null},{\"id\":34,\"nameArabic\":\"فيينا\",\"nameEnglish\":\"Vienna\",\"isActive\":true,\"lastUpdated\":\"2022-06-02T00:42:59Z\",\"sectors\":null}]]]"}],"start":1667309494533,"stop":1667309494537},{"name":"Assertion Passed: The API response schema matches that in this file \"src/test/resources/testDataFiles/Lookups_cities_schema.json\".","status":"passed","stage":"finished","steps":[],"attachments":[{"name":"Validation Test Data - Expected JSON Value","source":"99d0d3eb-d8bd-4dd6-bb93-7d3ea9f30d20-attachment.json","type":"text/json"},{"name":"Validation Test Data - Actual JSON Value","source":"dd785c30-c5ef-4fc9-a6c5-917dff7ddcb6-attachment.json","type":"text/json"}],"parameters":[{"name":"customLog","value":"Assertion Passed: The API response schema matches that in this file \"src/test/resources/testDataFiles/Lookups_cities_schema.json\"."},{"name":"stepLog","value":"Assertion \"ValidateResponseFileSchema\" PASSED. Expected \"Response data should match the JSON File in this path 'C:\\eclipse-workspace\\MyProjects\\TASystemsAPIs\\src\\test\\resources\\testDataFiles\\Lookups_cities_schema.json'\" and Actual \"TRUE\". Comparison Type \"EQUALS\". Validation Type \"POSITIVE\"."},{"name":"attachments","value":"[[Validation Test Data, Expected JSON Value, java.io.ByteArrayInputStream@3a66fb8f], [Validation Test Data, Actual JSON Value, java.io.ByteArrayInputStream@64e08192]]"}],"start":1667309495662,"stop":1667309495667}],"attachments":[{"name":"SHAFT Engine Logs - Current Method log: Valid_GET_all_cities_Lookups_Rq_TC","source":"e84c7436-c683-4a1c-95db-dcaaeed96468-attachment.txt","type":"text/plain"}],"parameters":[],"start":1667309489063,"stop":1667309495677}