
################################################################################################################################################
Starting Execution:	"2 out of 56" test cases in the current suite
Test Method:		"SteeringCompanyAPI_TestCases.Test_Lookups_Cases.Valid_GET_all_cities_Lookups_by_Qry_Rq_TC"
Test Description:	"TC002 - Perform Get all cities API by parameters Qry with valid user name and password and return with token"
################################################################################################################################################
[ReportManager] File Action "DoesFileExist" successfully performed. With the following test data "File Path: "SteeringCompanyAPI_TestData/SteeringCompanyAPI_TestData.xlsx"". @12-01-2023 11:55:59.0330 AM
[ReportManager] Loaded Test Data: "src/test/resources/testDataFiles/SteeringCompanyAPI_TestData/SteeringCompanyAPI_TestData.xlsx". @12-01-2023 11:55:59.0377 AM
[ReportManager] Successfully created attachment "Test Data - Excel" @12-01-2023 11:55:59.0379 AM
[ReportManager] Response status code: "200", status line: "HTTP/1.1 200 OK" @12-01-2023 11:55:59.0994 AM
[ReportManager] Assertion Passed: Evaluating the actual response status code against the expected one... @12-01-2023 11:55:59.0996 AM
[ReportManager] Perform request "POST | Target Status Code: 200 | Service URL: https://auth-demo.np.transporticonline.com/auth/realms/tic/protocol/openid-connect/token | Content Type: application/x-www-form-urlencoded | Response Time: 603ms". @12-01-2023 11:56:00.0018 AM
[ReportManager] Successfully created attachment "API Request - Specifications" @12-01-2023 11:56:00.0020 AM
[ReportManager] Successfully created attachment "API Request - Body" @12-01-2023 11:56:00.0022 AM
[ReportManager] Successfully created attachment "API Response - JSON Body" @12-01-2023 11:56:00.0025 AM
[ReportManager] Assertion Passed: Check Response Status Code is 200 and it is valid. @12-01-2023 11:56:00.0026 AM
[ReportManager] File Action "DoesFileExist" successfully performed. With the following test data "File Path: "SteeringCompanyAPI_TestData/SteeringCompanyAPI_TestData.xlsx"". @12-01-2023 11:56:00.0046 AM
[ReportManager] Loaded Test Data: "src/test/resources/testDataFiles/SteeringCompanyAPI_TestData/SteeringCompanyAPI_TestData.xlsx". @12-01-2023 11:56:00.0097 AM
[ReportManager] Successfully created attachment "Test Data - Excel" @12-01-2023 11:56:00.0099 AM
[ReportManager] Response status code: "200", status line: "HTTP/1.1 200 " @12-01-2023 11:56:00.0619 AM
[ReportManager] Assertion Passed: Evaluating the actual response status code against the expected one... @12-01-2023 11:56:00.0619 AM
[ReportManager] Perform request "GET | Target Status Code: 200 | Service URL: https://api-demo.np.transporticonline.com/steeringcompanies/v1/lookups/cities | Content Type: */* | Response Time: 477ms". @12-01-2023 11:56:00.0637 AM
[ReportManager] Successfully created attachment "API Request - Specifications" @12-01-2023 11:56:00.0638 AM
[ReportManager] Successfully created attachment "API Response - JSON Body" @12-01-2023 11:56:00.0639 AM
[ReportManager] Assertion Passed: "200" is equal to "200". @12-01-2023 11:56:00.0639 AM
[ReportManager] Verification Passed: "477" is greater than or equal to "1.1". @12-01-2023 11:56:00.0640 AM
[ReportManager] Verification Passed: "477" is less than or equal to "10000". @12-01-2023 11:56:00.0640 AM
[ReportManager] Assertion Passed: "{"page":0,"size":3,"totalPages":237,"totalElements":709,"content":[{"id":36,"nameArabic":"??????????","nameEnglish":"Kuala Lumpur","isActive":true,"lastUpdated":"2022-06-02T01:21:49Z","sectors":null},{"id":849,"nameArabic":"???????","nameEnglish":"Solngen","isActive":true,"lastUpdated":"2022-06-02T01:37:02Z","sectors":null},{"id":1006,"nameArabic":"??????","nameEnglish":"FRUNZE","isActive":true,"lastUpdated":"2022-06-02T00:20:05Z","sectors":null}]}" contains "content". @12-01-2023 11:56:00.0640 AM
[ReportManager] Get response jsonvalue "content". @12-01-2023 11:56:00.0641 AM
[ReportManager] Assertion Passed: Check that content object is not null. @12-01-2023 11:56:00.0642 AM
[ReportManager] File Action "DoesFileExist" successfully performed. With the following test data "File Path: "Schemas/Lookups_cities_schema.json"". @12-01-2023 11:56:00.0643 AM
[ReportManager] File Action "DoesFileExist" successfully performed. With the following test data "File Path: "src/test/resources/testDataFiles/Schemas/Lookups_cities_schema.json"". @12-01-2023 11:56:00.0643 AM
[ReportManager] File Action "GetAbsolutePath" successfully performed. With the following test data "Relative Folder Path: "src/test/resources/testDataFiles/Schemas/Lookups_cities_schema.json"". @12-01-2023 11:56:00.0643 AM
[ReportManager] File Action "DoesFileExist" successfully performed. With the following test data "File Path: "C:\eclipse-workspace\MyProjects\TASystemsAPIs\src\test\resources\testDataFiles\Schemas\Lookups_cities_schema.json"". @12-01-2023 11:56:00.0653 AM
[ReportManager] File Action "GetAbsolutePath" successfully performed. With the following test data "Relative Folder Path: "C:\eclipse-workspace\MyProjects\TASystemsAPIs\src\test\resources\testDataFiles\Schemas\Lookups_cities_schema.json"". @12-01-2023 11:56:00.0654 AM
[ReportManager] File Action "ReadFile" successfully performed. With the following test data "File Path: "C:\eclipse-workspace\MyProjects\TASystemsAPIs\src\test\resources\testDataFiles\Schemas\Lookups_cities_schema.json"". @12-01-2023 11:56:00.0654 AM
[ReportManager] Assertion Passed: The API response schema matches that in this file "src/test/resources/testDataFiles/Schemas/Lookups_cities_schema.json". @12-01-2023 11:56:00.0656 AM
[ReportManager] Successfully created attachment "Validation Test Data - Expected JSON Value" @12-01-2023 11:56:00.0657 AM
[ReportManager] Successfully created attachment "Validation Test Data - Actual JSON Value" @12-01-2023 11:56:00.0659 AM