
################################################################################################################################################
Starting Execution:	"102 out of 111" test cases in the current suite
Test Method:		"SteeringCompanyAPI_TestCases.Test_PeriodProgramTemplate_Cases.Get_Valid_all_PeriodProgramTemplate_by_Qry_Rq_TC"
Test Description:	"TC002  -PeriodProgramTemplate-   Perform Get all PeriodProgramTemplate API with pagination with valid user name and password"
################################################################################################################################################
[ReportManager] File Action "DoesFileExist" successfully performed. With the following test data "File Path: "SteeringCompanyAPI_TestData/SteeringCompanyAPI_TestData.xlsx"". @28-02-2023 13:18:02.0601 PM
[ReportManager] Loaded Test Data: "src/test/resources/testDataFiles/SteeringCompanyAPI_TestData/SteeringCompanyAPI_TestData.xlsx". @28-02-2023 13:18:02.0640 PM
[ReportManager] Successfully created attachment "Test Data - Excel" @28-02-2023 13:18:02.0641 PM
[ReportManager] Response status code: "200", status line: "HTTP/1.1 200 OK" @28-02-2023 13:18:03.0268 PM
[ReportManager] Assertion Passed: Evaluating the actual response status code against the expected one... @28-02-2023 13:18:03.0269 PM
[ReportManager] Perform request "POST | Target Status Code: 200 | Service URL: https://auth-demo.np.transporticonline.com/auth/realms/tic/protocol/openid-connect/token | Content Type: application/x-www-form-urlencoded | Response Time: 624ms". @28-02-2023 13:18:03.0282 PM
[ReportManager] Successfully created attachment "API Request - Specifications" @28-02-2023 13:18:03.0283 PM
[ReportManager] Successfully created attachment "API Request - Body" @28-02-2023 13:18:03.0284 PM
[ReportManager] Successfully created attachment "API Response - JSON Body" @28-02-2023 13:18:03.0284 PM
[ReportManager] Assertion Passed: Check Response Status Code is 200 and it is valid. @28-02-2023 13:18:03.0285 PM
[ReportManager] File Action "DoesFileExist" successfully performed. With the following test data "File Path: "SteeringCompanyAPI_TestData/SteeringCompanyAPI_TestData.xlsx"". @28-02-2023 13:18:03.0307 PM
[ReportManager] Loaded Test Data: "src/test/resources/testDataFiles/SteeringCompanyAPI_TestData/SteeringCompanyAPI_TestData.xlsx". @28-02-2023 13:18:03.0338 PM
[ReportManager] Successfully created attachment "Test Data - Excel" @28-02-2023 13:18:03.0339 PM
[ReportManager] Response status code: "200", status line: "HTTP/1.1 200 " @28-02-2023 13:18:03.0895 PM
[ReportManager] Assertion Passed: Evaluating the actual response status code against the expected one... @28-02-2023 13:18:03.0896 PM
[ReportManager] Perform request "GET | Target Status Code: 200 | Service URL: https://api-demo.np.transporticonline.com/steeringcompanies/v1/periodProgramTemplates | Content Type: */* | Response Time: 551ms". @28-02-2023 13:18:04.0012 PM
[ReportManager] Successfully created attachment "API Request - Specifications" @28-02-2023 13:18:04.0012 PM
[ReportManager] Successfully created attachment "API Response - JSON Body" @28-02-2023 13:18:04.0014 PM
[ReportManager] Assertion Passed: "200" is equal to "200". @28-02-2023 13:18:04.0014 PM
[ReportManager] Verification Passed: "551" is greater than or equal to "1.1". @28-02-2023 13:18:04.0014 PM
[ReportManager] Verification Passed: "551" is less than or equal to "10000". @28-02-2023 13:18:04.0014 PM
[ReportManager] Assertion Passed: "{"page":0,"size":20,"totalPages":6,"totalElements":102,"content":[{"id":213,"seasonType":"umrah","saleSystem":"GDS","programType":"Routes","programMechanism":"reservations","routeId":60,"season":1444,"vehicleTypeId":4,"vehicleCategoryId":1,"minimumModelYear":2010,"maximumModelYear":2022,"minimumVehiclePricePer":1200,"minimumSeat":5,"maximumSeat":9,"templatePeriodStartDate":"2022-09-05T00:00:00Z","templatePeriodEndDate":"2022-09-12T00:00:00Z","templatePeriodMaximumQuota":100,"isActive":true},{"id":214,"seasonType":"umrah","saleSystem":"GDS","programType":"Routes","programMechanism":"reservations","routeId":60,"season":1444,"vehicleTypeId":4,"vehicleCategoryId":2,"minimumModelYear":2010,"maximumModelYear":2022,"minimumVehiclePricePer":1200,"minimumSeat":5,"maximumSeat":9,"templatePeriodStartDate":"2022-09-05T00:00:00Z","templatePeriodEndDate":"2022-09-12T00:00:00Z","templatePeriodMaximumQuota":100,"isActive":true},{"id":215,"seasonType":"umrah","saleSystem":"GDS","programType":"Routes","programMechanism":"reservations","routeId":60,"season":1444,"vehicleTypeId":4,"vehicleCategoryId":3,"minimumModelYear":2010,"maximumModelYear":2022,"minimumVehiclePricePer":1200,"minimumSeat":5,"maximumSeat":9,"templatePeriodStartDate":"2022-09-05T00:00:00Z","templatePeriodEndDate":"2022-09-12T00:00:00Z","templatePeriodMaximumQuota":100,"isActive":true},{"id":265,"seasonType":"umrah","saleSystem":"GDS","programType":"Routes","programMechanism":"reservations","routeId":60,"season":1444,"vehicleTypeId":2,"vehicleCategoryId":1,"minimumModelYear":2010,"maximumModelYear":2022,"minimumVehiclePricePer":10,"minimumSeat":3,"maximumSeat":7,"templatePeriodStartDate":"2023-03-27T00:00:00Z","templatePeriodEndDate":"2023-04-02T00:00:00Z","templatePeriodMaximumQuota":50,"isActive":true},{"id":223,"seasonType":"umrah","saleSystem":"GDS","programType":"Routes","programMechanism":"reservations","routeId":60,"season":1444,"vehicleTypeId":2,"vehicleCategoryId":1,"minimumModelYear":2010,"maximumModelYear":2022,"minimumVehiclePricePer":12,"minimumSeat":2,"maximumSeat":7,"templatePeriodStartDate":"2022-09-01T00:00:00Z","templatePeriodEndDate":"2022-09-11T00:00:00Z","templatePeriodMaximumQuota":101,"isActive":true},{"id":224,"seasonType":"umrah","saleSystem":"GDS","programType":"Routes","programMechanism":"reservations","routeId":60,"season":1444,"vehicleTypeId":4,"vehicleCategoryId":1,"minimumModelYear":2010,"maximumModelYear":2022,"minimumVehiclePricePer":3500,"minimumSeat":5,"maximumSeat":8,"templatePeriodStartDate":"2021-01-02T00:00:00Z","templatePeriodEndDate":"2021-01-31T00:00:00Z","templatePeriodMaximumQuota":200,"isActive":true},{"id":225,"seasonType":"umrah","saleSystem":"GDS","programType":"Routes","programMechanism":"reservations","routeId":60,"season":1444,"vehicleTypeId":4,"vehicleCategoryId":2,"minimumModelYear":2010,"maximumModelYear":2022,"minimumVehiclePricePer":3500,"minimumSeat":5,"maximumSeat":8,"templatePeriodStartDate":"2021-01-02T00:00:00Z","templatePeriodEndDate":"2021-01-31T00:00:00Z","templatePeriodMaximumQuota":200,"isActive":true},{"id":226,"seasonType":"umrah","saleSystem":"GDS","programType":"Routes","programMechanism":"reservations","routeId":60,"season":1444,"vehicleTypeId":4,"vehicleCategoryId":3,"minimumModelYear":2010,"maximumModelYear":2022,"minimumVehiclePricePer":3500,"minimumSeat":5,"maximumSeat":8,"templatePeriodStartDate":"2021-01-02T00:00:00Z","templatePeriodEndDate":"2021-01-31T00:00:00Z","templatePeriodMaximumQuota":200,"isActive":true},{"id":227,"seasonType":"umrah","saleSystem":"GDS","programType":"Routes","programMechanism":"reservations","routeId":58,"season":1444,"vehicleTypeId":4,"vehicleCategoryId":1,"minimumModelYear":2010,"maximumModelYear":2022,"minimumVehiclePricePer":3500,"minimumSeat":6,"maximumSeat":8,"templatePeriodStartDate":"2021-01-02T00:00:00Z","templatePeriodEndDate":"2021-01-31T00:00:00Z","templatePeriodMaximumQuota":200,"isActive":true},{"id":228,"seasonType":"umrah","saleSystem":"GDS","programType":"Routes","programMechanism":"reservations","routeId":58,"season":1444,"vehicleTypeId":4,"vehicleCategoryId":2,"minimumModelYear":2010,"maximumModelYear":2022,"minimumVehiclePricePer":3500,"minimumSeat":6,"maximumSeat":8,"templatePeriodStartDate":"2021-01-02T00:00:00Z","templatePeriodEndDate":"2021-01-31T00:00:00Z","templatePeriodMaximumQuota":200,"isActive":true},{"id":229,"seasonType":"umrah","saleSystem":"GDS","programType":"Routes","programMechanism":"reservations","routeId":58,"season":1444,"vehicleTypeId":4,"vehicleCategoryId":3,"minimumModelYear":2010,"maximumModelYear":2022,"minimumVehiclePricePer":3500,"minimumSeat":8,"maximumSeat":9,"templatePeriodStartDate":"2021-01-02T00:00:00Z","templatePeriodEndDate":"2021-01-31T00:00:00Z","templatePeriodMaximumQuota":200,"isActive":true},{"id":237,"seasonType":"umrah","saleSystem":"GDS","programType":"Routes","programMechanism":"reservations","routeId":60,"season":1444,"vehicleTypeId":4,"vehicleCategoryId":1,"minimumModelYear":2010,"maximumModelYear":2022,"minimumVehiclePricePer":3500,"minimumSeat":7,"maximumSeat":13,"templatePeriodStartDate":"2022-09-15T00:00:00Z","templatePeriodEndDate":"2022-09-15T00:00:00Z","templatePeriodMaximumQuota":1000,"isActive":true},{"id":238,"seasonType":"umrah","saleSystem":"GDS","programType":"Routes","programMechanism":"reservations","routeId":60,"season":1444,"vehicleTypeId":4,"vehicleCategoryId":2,"minimumModelYear":2010,"maximumModelYear":2022,"minimumVehiclePricePer":3500,"minimumSeat":7,"maximumSeat":13,"templatePeriodStartDate":"2022-09-15T00:00:00Z","templatePeriodEndDate":"2022-09-15T00:00:00Z","templatePeriodMaximumQuota":1000,"isActive":true},{"id":239,"seasonType":"umrah","saleSystem":"GDS","programType":"Routes","programMechanism":"reservations","routeId":60,"season":1444,"vehicleTypeId":4,"vehicleCategoryId":3,"minimumModelYear":2010,"maximumModelYear":2022,"minimumVehiclePricePer":3500,"minimumSeat":7,"maximumSeat":13,"templatePeriodStartDate":"2022-09-15T00:00:00Z","templatePeriodEndDate":"2022-09-15T00:00:00Z","templatePeriodMaximumQuota":1000,"isActive":true},{"id":240,"seasonType":"umrah","saleSystem":"GDS","programType":"Routes","programMechanism":"reservations","routeId":58,"season":1444,"vehicleTypeId":1,"vehicleCategoryId":1,"minimumModelYear":2010,"maximumModelYear":2022,"minimumVehiclePricePer":3500,"minimumSeat":1,"maximumSeat":4,"templatePeriodStartDate":"2022-09-15T00:00:00Z","templatePeriodEndDate":"2022-09-15T00:00:00Z","templatePeriodMaximumQuota":1000,"isActive":true},{"id":241,"seasonType":"umrah","saleSystem":"GDS","programType":"Routes","programMechanism":"reservations","routeId":58,"season":1444,"vehicleTypeId":1,"vehicleCategoryId":2,"minimumModelYear":2010,"maximumModelYear":2022,"minimumVehiclePricePer":3500,"minimumSeat":1,"maximumSeat":4,"templatePeriodStartDate":"2022-09-15T00:00:00Z","templatePeriodEndDate":"2022-09-15T00:00:00Z","templatePeriodMaximumQuota":1000,"isActive":true},{"id":242,"seasonType":"umrah","saleSystem":"GDS","programType":"Routes","programMechanism":"reservations","routeId":58,"season":1444,"vehicleTypeId":1,"vehicleCategoryId":3,"minimumModelYear":2010,"maximumModelYear":2022,"minimumVehiclePricePer":3500,"minimumSeat":1,"maximumSeat":4,"templatePeriodStartDate":"2022-09-15T00:00:00Z","templatePeriodEndDate":"2022-09-15T00:00:00Z","templatePeriodMaximumQuota":1000,"isActive":true},{"id":244,"seasonType":"umrah","saleSystem":"GDS","programType":"Routes","programMechanism":"reservations","routeId":58,"season":1444,"vehicleTypeId":2,"vehicleCategoryId":2,"minimumModelYear":2010,"maximumModelYear":2022,"minimumVehiclePricePer":3500,"minimumSeat":5,"maximumSeat":7,"templatePeriodStartDate":"2022-09-15T00:00:00Z","templatePeriodEndDate":"2022-12-13T00:00:00Z","templatePeriodMaximumQuota":1000,"isActive":true},{"id":245,"seasonType":"umrah","saleSystem":"GDS","programType":"Routes","programMechanism":"reservations","routeId":58,"season":1444,"vehicleTypeId":2,"vehicleCategoryId":3,"minimumModelYear":2010,"maximumModelYear":2022,"minimumVehiclePricePer":3500,"minimumSeat":5,"maximumSeat":7,"templatePeriodStartDate":"2022-09-15T00:00:00Z","templatePeriodEndDate":"2022-12-13T00:00:00Z","templatePeriodMaximumQuota":1000,"isActive":true},{"id":246,"seasonType":"umrah","saleSystem":"GDS","programType":"Routes","programMechanism":"reservations","routeId":58,"season":1444,"vehicleTypeId":4,"vehicleCategoryId":1,"minimumModelYear":2010,"maximumModelYear":2022,"minimumVehiclePricePer":3500,"minimumSeat":7,"maximumSeat":13,"templatePeriodStartDate":"2022-09-15T00:00:00Z","templatePeriodEndDate":"2022-12-13T00:00:00Z","templatePeriodMaximumQuota":1000,"isActive":true}]}" contains "content". @28-02-2023 13:18:04.0014 PM
[ReportManager] Successfully created attachment "Validation Test Data - Expected Value" @28-02-2023 13:18:04.0015 PM
[ReportManager] Successfully created attachment "Validation Test Data - Actual Value" @28-02-2023 13:18:04.0016 PM
[ReportManager] Get response jsonvalue "content". @28-02-2023 13:18:04.0019 PM
[ReportManager] Assertion Passed: Check that content object is not null. @28-02-2023 13:18:04.0019 PM
[ReportManager] Successfully created attachment "Validation Test Data - Expected Value" @28-02-2023 13:18:04.0020 PM
[ReportManager] Successfully created attachment "Validation Test Data - Actual Value" @28-02-2023 13:18:04.0021 PM
[ReportManager] File Action "DoesFileExist" successfully performed. With the following test data "File Path: "Schemas/PeriodProgramTemplates_schema.json"". @28-02-2023 13:18:04.0021 PM
[ReportManager] File Action "DoesFileExist" successfully performed. With the following test data "File Path: "src/test/resources/testDataFiles/Schemas/PeriodProgramTemplates_schema.json"". @28-02-2023 13:18:04.0022 PM
[ReportManager] File Action "GetAbsolutePath" successfully performed. With the following test data "Relative Folder Path: "src/test/resources/testDataFiles/Schemas/PeriodProgramTemplates_schema.json"". @28-02-2023 13:18:04.0022 PM
[ReportManager] File Action "DoesFileExist" successfully performed. With the following test data "File Path: "C:\eclipse-workspace\MyProjects\TASystemsAPIs\src\test\resources\testDataFiles\Schemas\PeriodProgramTemplates_schema.json"". @28-02-2023 13:18:04.0029 PM
[ReportManager] File Action "GetAbsolutePath" successfully performed. With the following test data "Relative Folder Path: "C:\eclipse-workspace\MyProjects\TASystemsAPIs\src\test\resources\testDataFiles\Schemas\PeriodProgramTemplates_schema.json"". @28-02-2023 13:18:04.0029 PM
[ReportManager] File Action "ReadFile" successfully performed. With the following test data "File Path: "C:\eclipse-workspace\MyProjects\TASystemsAPIs\src\test\resources\testDataFiles\Schemas\PeriodProgramTemplates_schema.json"". @28-02-2023 13:18:04.0030 PM
[ReportManager] Assertion Passed: The API response schema matches that in this file "src/test/resources/testDataFiles/Schemas/PeriodProgramTemplates_schema.json". @28-02-2023 13:18:04.0032 PM
[ReportManager] Successfully created attachment "Validation Test Data - Expected JSON Value" @28-02-2023 13:18:04.0033 PM
[ReportManager] Successfully created attachment "Validation Test Data - Actual JSON Value" @28-02-2023 13:18:04.0034 PM