{"uuid":"145382ef-77f8-44f0-998c-2d316c19ac7f","historyId":"3cb044767af6f7737554bcc7b11e9225","fullName":"SteeringCompanyAPI_TestCases.Test_Commissions_Cases.Valid_GET_all_OTAs_by_Qry_Rq_TC","labels":[{"name":"package","value":"SteeringCompanyAPI_TestCases.Test_Commissions_Cases"},{"name":"testClass","value":"SteeringCompanyAPI_TestCases.Test_Commissions_Cases"},{"name":"testMethod","value":"Valid_GET_all_OTAs_by_Qry_Rq_TC"},{"name":"parentSuite","value":"Suite"},{"name":"suite","value":"Test"},{"name":"subSuite","value":"SteeringCompanyAPI_TestCases.Test_Commissions_Cases"},{"name":"host","value":"TW-1056"},{"name":"thread","value":"15616@TW-1056.main(1)"},{"name":"framework","value":"testng"},{"name":"language","value":"java"},{"name":"story","value":"Retrieving All Active OTAs with Pagination"},{"name":"severity","value":"critical"}],"links":[],"name":"TC017  -OTAs- Perform Get all OTAs API with pagination with valid user name and password","status":"passed","statusDetails":{"known":false,"muted":false,"flaky":false},"stage":"finished","steps":[{"name":"Loaded Test Data: \"src/test/resources/testDataFiles/SteeringCompanyAPI_TestData/SteeringCompanyAPI_TestData.xlsx\".","status":"passed","stage":"finished","steps":[],"attachments":[{"name":"Test Data - Excel","source":"a64e81c8-29ff-4296-af49-0de5b4d7945e-attachment.xlsx","type":"application/vnd.openxmlformats-officedocument.spreadsheetml.sheet"}],"parameters":[{"name":"logText","value":"Loaded Test Data: \"src/test/resources/testDataFiles/SteeringCompanyAPI_TestData/SteeringCompanyAPI_TestData.xlsx\"."},{"name":"attachments","value":"[[Test Data, Excel, java.io.FileInputStream@570903bd]]"}],"start":1677582994265,"stop":1677582994267},{"name":"Assertion Passed: Evaluating the actual response status code against the expected one...","status":"passed","stage":"finished","steps":[],"attachments":[],"parameters":[{"name":"customLog","value":"Assertion Passed: Evaluating the actual response status code against the expected one..."},{"name":"stepLog","value":"Assertion \"ValidateComparativeRelation\" PASSED. Expected \"200\" and Actual \"200\". Comparison Type \"EQUALS\". Validation Type \"POSITIVE\"."},{"name":"attachments","value":"null"}],"start":1677582994885,"stop":1677582994885},{"name":"Perform request \"POST | Target Status Code: 200 | Service URL: https://auth-demo.np.transporticonline.com/auth/realms/tic/protocol/openid-connect/token | Content Type: application/x-www-form-urlencoded | Response Time: 615ms\".","status":"passed","stage":"finished","steps":[],"attachments":[{"name":"API Request - Specifications","source":"1e85f099-962d-4295-afc8-c48f85d0fc51-attachment"},{"name":"API Request - Body","source":"1487cec0-5558-4206-b47f-66e9a18f69d0-attachment"},{"name":"API Response - JSON Body","source":"5eff6036-ec4e-40dd-9761-f8d665c4bbdb-attachment.json","type":"text/json"}],"parameters":[{"name":"logText","value":"Perform request \"POST | Target Status Code: 200 | Service URL: https://auth-demo.np.transporticonline.com/auth/realms/tic/protocol/openid-connect/token | Content Type: application/x-www-form-urlencoded | Response Time: 615ms\"."},{"name":"attachments","value":"[[API Request, Specifications, Headers:\r\n_______________\r\n\r\nContent-Type=application/x-www-form-urlencoded\r\n\r\n], [API Request, Body, java.io.ByteArrayInputStream@436e64b3], null, [API Response, JSON Body, java.io.ByteArrayInputStream@662c71e5]]"}],"start":1677582994905,"stop":1677582994909},{"name":"Assertion Passed: Check Response Status Code is 200 and it is valid.","status":"passed","stage":"finished","steps":[],"attachments":[],"parameters":[{"name":"customLog","value":"Assertion Passed: Check Response Status Code is 200 and it is valid."},{"name":"stepLog","value":"Assertion \"ValidateComparativeRelation\" PASSED. Expected \"200\" and Actual \"200\". Comparison Type \"EQUALS\". Validation Type \"POSITIVE\"."},{"name":"attachments","value":"null"}],"start":1677582994909,"stop":1677582994909},{"name":"Loaded Test Data: \"src/test/resources/testDataFiles/SteeringCompanyAPI_TestData/SteeringCompanyAPI_TestData.xlsx\".","status":"passed","stage":"finished","steps":[],"attachments":[{"name":"Test Data - Excel","source":"ef8136d7-d1b2-422c-ad73-ec4ce65e6a7e-attachment.xlsx","type":"application/vnd.openxmlformats-officedocument.spreadsheetml.sheet"}],"parameters":[{"name":"logText","value":"Loaded Test Data: \"src/test/resources/testDataFiles/SteeringCompanyAPI_TestData/SteeringCompanyAPI_TestData.xlsx\"."},{"name":"attachments","value":"[[Test Data, Excel, java.io.FileInputStream@5f1495c6]]"}],"start":1677582994977,"stop":1677582994979},{"name":"Assertion Passed: Evaluating the actual response status code against the expected one...","status":"passed","stage":"finished","steps":[],"attachments":[],"parameters":[{"name":"customLog","value":"Assertion Passed: Evaluating the actual response status code against the expected one..."},{"name":"stepLog","value":"Assertion \"ValidateComparativeRelation\" PASSED. Expected \"200\" and Actual \"200\". Comparison Type \"EQUALS\". Validation Type \"POSITIVE\"."},{"name":"attachments","value":"null"}],"start":1677582995481,"stop":1677582995481},{"name":"Perform request \"GET | Target Status Code: 200 | Service URL: https://api-demo.np.transporticonline.com/steeringcompanies/v1/otas | Content Type: */* | Response Time: 498ms\".","status":"passed","stage":"finished","steps":[],"attachments":[{"name":"API Request - Specifications","source":"7093b974-9575-4f16-b9bf-e7f60f2cf8e5-attachment"},{"name":"API Response - JSON Body","source":"be7556d2-8d0a-4135-99c8-dd715864b730-attachment.json","type":"text/json"}],"parameters":[{"name":"logText","value":"Perform request \"GET | Target Status Code: 200 | Service URL: https://api-demo.np.transporticonline.com/steeringcompanies/v1/otas | Content Type: */* | Response Time: 498ms\"."},{"name":"attachments","value":"[[API Request, Specifications, Headers:\r\n_______________\r\n\r\nAuthorization=Bearer eyJhbGciOiJSUzI1NiIsInR5cCIgOiAiSldUIiwia2lkIiA6ICJjck9ORDFNdFVPVWhzS2Mtb0ppVFFmb0o1d1l4REF6Y3k0ZjNYZ0dveGdZIn0.eyJleHAiOjE2Nzc2MDQ1OTQsImlhdCI6MTY3NzU4Mjk5NCwianRpIjoiYWJkZjA0MTQtODY0MS00ZWQxLWFmMDQtMTIzNGRhNGQ0NWJiIiwiaXNzIjoiaHR0cHM6Ly9hdXRoLWRlbW8ubnAudHJhbnNwb3J0aWNvbmxpbmUuY29tL2F1dGgvcmVhbG1zL3RpYyIsImF1ZCI6ImFjY291bnQiLCJzdWIiOiI0ZTk3NmQ0NC1iM2ZkLTRjYTktODk1Ny0wYWJiODUwNzNhNzQiLCJ0eXAiOiJCZWFyZXIiLCJhenAiOiJ0aWMtYXBpIiwic2Vzc2lvbl9zdGF0ZSI6IjZlMDRmYTk4LTUxZjAtNDkzYy1iNzcyLTVlN2ZkMmI5OWQwNiIsImFjciI6IjEiLCJhbGxvd2VkLW9yaWdpbnMiOlsiaHR0cHM6Ly9hcGktZGV2Lm5wLnRyYW5zcG9ydGljb25saW5lLmNvbSJdLCJyZWFsbV9hY2Nlc3MiOnsicm9sZXMiOlsib2ZmbGluZV9hY2Nlc3MiLCJkZWZhdWx0LXJvbGVzLXRpYyIsInVtYV9hdXRob3JpemF0aW9uIiwidXNlciJdfSwicmVzb3VyY2VfYWNjZXNzIjp7ImFjY291bnQiOnsicm9sZXMiOlsibWFuYWdlLWFjY291bnQiLCJtYW5hZ2UtYWNjb3VudC1saW5rcyIsInZpZXctcHJvZmlsZSJdfX0sInNjb3BlIjoiZW1haWwgcHJvZmlsZSIsInNpZCI6IjZlMDRmYTk4LTUxZjAtNDkzYy1iNzcyLTVlN2ZkMmI5OWQwNiIsImVtYWlsX3ZlcmlmaWVkIjpmYWxzZSwicHJlZmVycmVkX3VzZXJuYW1lIjoidG9raGkiLCJ0Y0lkIjoiMzE5OTU3In0.Bllsv2132IjkNH9Rgc23AwanLzDhRnO3HBqQJcDe6Gdh2FhSillAYCQ33hRlL19CjDGgFDC4SjR4YGlDUdx-Sja5A7Bwyh6O6x9uq1PePjiCze5eGE8nwGG7k314axsb6QOSWC40u-njT8s0RmakYU1IbzAHxPP8bNxS1g99qljRtLfIgLF_-35G3w-K_b37oMnl4hOptgSTwMLA-09M7i82qXZQBkDMPRnIx9aZSl9VJK_AHlfIcibLBH1v2dkrGAAiw-M8D2uJttdoO-dLoNvwmfKlCn3G6Zhh6QPmmgAQwBpeG3tuewgls8mkub6YgX6_cAaWYeisFS-Ba1V7eQ\r\nContent-Type=*/*\r\n\r\nQuery Parameters:\r\n_______________\r\n\r\nsize=test\r\npage=0\r\n], null, [API Response, JSON Body, java.io.ByteArrayInputStream@2409135d]]"}],"start":1677582995498,"stop":1677582995501},{"name":"Assertion Passed: \"200\" is equal to \"200\".","status":"passed","stage":"finished","steps":[],"attachments":[],"parameters":[{"name":"customLog","value":"Assertion Passed: \"200\" is equal to \"200\"."},{"name":"stepLog","value":"Assertion \"ValidateComparativeRelation\" PASSED. Expected \"200\" and Actual \"200\". Comparison Type \"EQUALS\". Validation Type \"POSITIVE\"."},{"name":"attachments","value":"null"}],"start":1677582995502,"stop":1677582995502},{"name":"Verification Passed: \"498\" is greater than or equal to \"1.1\".","status":"passed","stage":"finished","steps":[],"attachments":[],"parameters":[{"name":"customLog","value":"Verification Passed: \"498\" is greater than or equal to \"1.1\"."},{"name":"stepLog","value":"Verification \"ValidateComparativeRelation\" PASSED. Expected \"1.1\" and Actual \"498\". Comparison Type \"GREATER_THAN_OR_EQUALS\". Validation Type \"POSITIVE\"."},{"name":"attachments","value":"null"}],"start":1677582995502,"stop":1677582995502},{"name":"Verification Passed: \"498\" is less than or equal to \"10000\".","status":"passed","stage":"finished","steps":[],"attachments":[],"parameters":[{"name":"customLog","value":"Verification Passed: \"498\" is less than or equal to \"10000\"."},{"name":"stepLog","value":"Verification \"ValidateComparativeRelation\" PASSED. Expected \"10000\" and Actual \"498\". Comparison Type \"LESS_THAN_OR_EQUALS\". Validation Type \"POSITIVE\"."},{"name":"attachments","value":"null"}],"start":1677582995502,"stop":1677582995502},{"name":"Assertion Passed: \"{\"page\":0,\"size\":20,\"totalPages\":3,\"totalElements\":47,\"content\":[{\"otaCode\":\"agoda\",\"nameArabic\":\"-\",\"nameEnglish\":\"agoda_old\",\"isActive\":true,\"isEnable\":true},{\"otaCode\":\"Mawasim\",\"nameArabic\":\"-\",\"nameEnglish\":\"MawasimOTA\",\"isActive\":true,\"isEnable\":true},{\"otaCode\":\"SaudiaHolidaysOTA\",\"nameArabic\":\"-\",\"nameEnglish\":\"SaudiaHolidaysOTA\",\"isActive\":true,\"isEnable\":true},{\"otaCode\":\"HotelGate\",\"nameArabic\":\"-\",\"nameEnglish\":\"HotelGate\",\"isActive\":true,\"isEnable\":false},{\"otaCode\":\"AlrajhiOTA\",\"nameArabic\":\"-\",\"nameEnglish\":\"AlrajhiOTA\",\"isActive\":true,\"isEnable\":true},{\"otaCode\":\"ELAF_OTA\",\"nameArabic\":\"-\",\"nameEnglish\":\"Elaf Travel and Tourism\",\"isActive\":true,\"isEnable\":true},{\"otaCode\":\"WebBedsOTA\",\"nameArabic\":\"-\",\"nameEnglish\":\"WebBeds OTA\",\"isActive\":true,\"isEnable\":true},{\"otaCode\":\"U1470\",\"nameArabic\":\"-\",\"nameEnglish\":\"UmrahOTA\",\"isActive\":true,\"isEnable\":true},{\"otaCode\":\"MyHotel\",\"nameArabic\":\"-\",\"nameEnglish\":\"MyHotel\",\"isActive\":true,\"isEnable\":true},{\"otaCode\":\"Taqneen\",\"nameArabic\":\"-\",\"nameEnglish\":\"Taqneen\",\"isActive\":true,\"isEnable\":true},{\"otaCode\":\"ZamzamOTA\",\"nameArabic\":\"-\",\"nameEnglish\":\"ZamzamOTA\",\"isActive\":true,\"isEnable\":false},{\"otaCode\":\"HuloolAl-Umrah\",\"nameArabic\":\"-\",\"nameEnglish\":\"Hulool Al-Umrah\",\"isActive\":true,\"isEnable\":true},{\"otaCode\":\"UmrahGate\",\"nameArabic\":\"-\",\"nameEnglish\":\"UmrahGate\",\"isActive\":true,\"isEnable\":true},{\"otaCode\":\"WaytoUmrah\",\"nameArabic\":\"-\",\"nameEnglish\":\"WaytoUmrah\",\"isActive\":true,\"isEnable\":true},{\"otaCode\":\"HUBOOKING\",\"nameArabic\":\"-\",\"nameEnglish\":\"HUBOOKING\",\"isActive\":true,\"isEnable\":true},{\"otaCode\":\"MahtatAlAlamOTA\",\"nameArabic\":\"-\",\"nameEnglish\":\"Mahtat Al-Alam\",\"isActive\":true,\"isEnable\":true},{\"otaCode\":\"Akbar\",\"nameArabic\":\"-\",\"nameEnglish\":\"AKBAR TRAVELS OF INDIA PVT LTD\",\"isActive\":true,\"isEnable\":true},{\"otaCode\":\"AnjumOTA\",\"nameArabic\":\"-\",\"nameEnglish\":\"Anjum OTA\",\"isActive\":true,\"isEnable\":false},{\"otaCode\":\"Saudi2GoOTA\",\"nameArabic\":\"-\",\"nameEnglish\":\"Saudi2GoOTA\",\"isActive\":true,\"isEnable\":true},{\"otaCode\":\"EasyUmrahOTA\",\"nameArabic\":\"-\",\"nameEnglish\":\"EasyUmrahOTA\",\"isActive\":true,\"isEnable\":true}]}\" contains \"content\".","status":"passed","stage":"finished","steps":[],"attachments":[{"name":"Validation Test Data - Expected Value","source":"d1abe229-2b93-4156-91c6-1167bc4065fa-attachment"},{"name":"Validation Test Data - Actual Value","source":"be7d685e-0de3-410a-bd59-27c021f12a47-attachment"}],"parameters":[{"name":"customLog","value":"Assertion Passed: \"{\"page\":0,\"size\":20,\"totalPages\":3,\"totalElements\":47,\"content\":[{\"otaCode\":\"agoda\",\"nameArabic\":\"-\",\"nameEnglish\":\"agoda_old\",\"isActive\":true,\"isEnable\":true},{\"otaCode\":\"Mawasim\",\"nameArabic\":\"-\",\"nameEnglish\":\"MawasimOTA\",\"isActive\":true,\"isEnable\":true},{\"otaCode\":\"SaudiaHolidaysOTA\",\"nameArabic\":\"-\",\"nameEnglish\":\"SaudiaHolidaysOTA\",\"isActive\":true,\"isEnable\":true},{\"otaCode\":\"HotelGate\",\"nameArabic\":\"-\",\"nameEnglish\":\"HotelGate\",\"isActive\":true,\"isEnable\":false},{\"otaCode\":\"AlrajhiOTA\",\"nameArabic\":\"-\",\"nameEnglish\":\"AlrajhiOTA\",\"isActive\":true,\"isEnable\":true},{\"otaCode\":\"ELAF_OTA\",\"nameArabic\":\"-\",\"nameEnglish\":\"Elaf Travel and Tourism\",\"isActive\":true,\"isEnable\":true},{\"otaCode\":\"WebBedsOTA\",\"nameArabic\":\"-\",\"nameEnglish\":\"WebBeds OTA\",\"isActive\":true,\"isEnable\":true},{\"otaCode\":\"U1470\",\"nameArabic\":\"-\",\"nameEnglish\":\"UmrahOTA\",\"isActive\":true,\"isEnable\":true},{\"otaCode\":\"MyHotel\",\"nameArabic\":\"-\",\"nameEnglish\":\"MyHotel\",\"isActive\":true,\"isEnable\":true},{\"otaCode\":\"Taqneen\",\"nameArabic\":\"-\",\"nameEnglish\":\"Taqneen\",\"isActive\":true,\"isEnable\":true},{\"otaCode\":\"ZamzamOTA\",\"nameArabic\":\"-\",\"nameEnglish\":\"ZamzamOTA\",\"isActive\":true,\"isEnable\":false},{\"otaCode\":\"HuloolAl-Umrah\",\"nameArabic\":\"-\",\"nameEnglish\":\"Hulool Al-Umrah\",\"isActive\":true,\"isEnable\":true},{\"otaCode\":\"UmrahGate\",\"nameArabic\":\"-\",\"nameEnglish\":\"UmrahGate\",\"isActive\":true,\"isEnable\":true},{\"otaCode\":\"WaytoUmrah\",\"nameArabic\":\"-\",\"nameEnglish\":\"WaytoUmrah\",\"isActive\":true,\"isEnable\":true},{\"otaCode\":\"HUBOOKING\",\"nameArabic\":\"-\",\"nameEnglish\":\"HUBOOKING\",\"isActive\":true,\"isEnable\":true},{\"otaCode\":\"MahtatAlAlamOTA\",\"nameArabic\":\"-\",\"nameEnglish\":\"Mahtat Al-Alam\",\"isActive\":true,\"isEnable\":true},{\"otaCode\":\"Akbar\",\"nameArabic\":\"-\",\"nameEnglish\":\"AKBAR TRAVELS OF INDIA PVT LTD\",\"isActive\":true,\"isEnable\":true},{\"otaCode\":\"AnjumOTA\",\"nameArabic\":\"-\",\"nameEnglish\":\"Anjum OTA\",\"isActive\":true,\"isEnable\":false},{\"otaCode\":\"Saudi2GoOTA\",\"nameArabic\":\"-\",\"nameEnglish\":\"Saudi2GoOTA\",\"isActive\":true,\"isEnable\":true},{\"otaCode\":\"EasyUmrahOTA\",\"nameArabic\":\"-\",\"nameEnglish\":\"EasyUmrahOTA\",\"isActive\":true,\"isEnable\":true}]}\" contains \"content\"."},{"name":"stepLog","value":"Assertion \"ValidateEquals\" PASSED. Expected and Actual values are attached. Comparison Type \"CONTAINS\". Validation Type \"POSITIVE\"."},{"name":"attachments","value":"[[Validation Test Data, Expected Value, content], [Validation Test Data, Actual Value, {\"page\":0,\"size\":20,\"totalPages\":3,\"totalElements\":47,\"content\":[{\"otaCode\":\"agoda\",\"nameArabic\":\"-\",\"nameEnglish\":\"agoda_old\",\"isActive\":true,\"isEnable\":true},{\"otaCode\":\"Mawasim\",\"nameArabic\":\"-\",\"nameEnglish\":\"MawasimOTA\",\"isActive\":true,\"isEnable\":true},{\"otaCode\":\"SaudiaHolidaysOTA\",\"nameArabic\":\"-\",\"nameEnglish\":\"SaudiaHolidaysOTA\",\"isActive\":true,\"isEnable\":true},{\"otaCode\":\"HotelGate\",\"nameArabic\":\"-\",\"nameEnglish\":\"HotelGate\",\"isActive\":true,\"isEnable\":false},{\"otaCode\":\"AlrajhiOTA\",\"nameArabic\":\"-\",\"nameEnglish\":\"AlrajhiOTA\",\"isActive\":true,\"isEnable\":true},{\"otaCode\":\"ELAF_OTA\",\"nameArabic\":\"-\",\"nameEnglish\":\"Elaf Travel and Tourism\",\"isActive\":true,\"isEnable\":true},{\"otaCode\":\"WebBedsOTA\",\"nameArabic\":\"-\",\"nameEnglish\":\"WebBeds OTA\",\"isActive\":true,\"isEnable\":true},{\"otaCode\":\"U1470\",\"nameArabic\":\"-\",\"nameEnglish\":\"UmrahOTA\",\"isActive\":true,\"isEnable\":true},{\"otaCode\":\"MyHotel\",\"nameArabic\":\"-\",\"nameEnglish\":\"MyHotel\",\"isActive\":true,\"isEnable\":true},{\"otaCode\":\"Taqneen\",\"nameArabic\":\"-\",\"nameEnglish\":\"Taqneen\",\"isActive\":true,\"isEnable\":true},{\"otaCode\":\"ZamzamOTA\",\"nameArabic\":\"-\",\"nameEnglish\":\"ZamzamOTA\",\"isActive\":true,\"isEnable\":false},{\"otaCode\":\"HuloolAl-Umrah\",\"nameArabic\":\"-\",\"nameEnglish\":\"Hulool Al-Umrah\",\"isActive\":true,\"isEnable\":true},{\"otaCode\":\"UmrahGate\",\"nameArabic\":\"-\",\"nameEnglish\":\"UmrahGate\",\"isActive\":true,\"isEnable\":true},{\"otaCode\":\"WaytoUmrah\",\"nameArabic\":\"-\",\"nameEnglish\":\"WaytoUmrah\",\"isActive\":true,\"isEnable\":true},{\"otaCode\":\"HUBOOKING\",\"nameArabic\":\"-\",\"nameEnglish\":\"HUBOOKING\",\"isActive\":true,\"isEnable\":true},{\"otaCode\":\"MahtatAlAlamOTA\",\"nameArabic\":\"-\",\"nameEnglish\":\"Mahtat Al-Alam\",\"isActive\":true,\"isEnable\":true},{\"otaCode\":\"Akbar\",\"nameArabic\":\"-\",\"nameEnglish\":\"AKBAR TRAVELS OF INDIA PVT LTD\",\"isActive\":true,\"isEnable\":true},{\"otaCode\":\"AnjumOTA\",\"nameArabic\":\"-\",\"nameEnglish\":\"Anjum OTA\",\"isActive\":true,\"isEnable\":false},{\"otaCode\":\"Saudi2GoOTA\",\"nameArabic\":\"-\",\"nameEnglish\":\"Saudi2GoOTA\",\"isActive\":true,\"isEnable\":true},{\"otaCode\":\"EasyUmrahOTA\",\"nameArabic\":\"-\",\"nameEnglish\":\"EasyUmrahOTA\",\"isActive\":true,\"isEnable\":true}]}]]"}],"start":1677582995503,"stop":1677582995508},{"name":"Assertion Passed: Check that content object is not null.","status":"passed","stage":"finished","steps":[],"attachments":[{"name":"Validation Test Data - Expected Value","source":"c0a76b13-ec19-403d-aa95-4bf26e38b7b9-attachment"},{"name":"Validation Test Data - Actual Value","source":"9ad7b8d5-908f-454f-8dd5-17214691699c-attachment"}],"parameters":[{"name":"customLog","value":"Assertion Passed: Check that content object is not null."},{"name":"stepLog","value":"Assertion \"ValidateEquals\" PASSED. Expected and Actual values are attached. Comparison Type \"EQUALS\". Validation Type \"NEGATIVE\"."},{"name":"attachments","value":"[[Validation Test Data, Expected Value, null], [Validation Test Data, Actual Value, [{\"otaCode\":\"agoda\",\"nameArabic\":\"-\",\"nameEnglish\":\"agoda_old\",\"isActive\":true,\"isEnable\":true},{\"otaCode\":\"Mawasim\",\"nameArabic\":\"-\",\"nameEnglish\":\"MawasimOTA\",\"isActive\":true,\"isEnable\":true},{\"otaCode\":\"SaudiaHolidaysOTA\",\"nameArabic\":\"-\",\"nameEnglish\":\"SaudiaHolidaysOTA\",\"isActive\":true,\"isEnable\":true},{\"otaCode\":\"HotelGate\",\"nameArabic\":\"-\",\"nameEnglish\":\"HotelGate\",\"isActive\":true,\"isEnable\":false},{\"otaCode\":\"AlrajhiOTA\",\"nameArabic\":\"-\",\"nameEnglish\":\"AlrajhiOTA\",\"isActive\":true,\"isEnable\":true},{\"otaCode\":\"ELAF_OTA\",\"nameArabic\":\"-\",\"nameEnglish\":\"Elaf Travel and Tourism\",\"isActive\":true,\"isEnable\":true},{\"otaCode\":\"WebBedsOTA\",\"nameArabic\":\"-\",\"nameEnglish\":\"WebBeds OTA\",\"isActive\":true,\"isEnable\":true},{\"otaCode\":\"U1470\",\"nameArabic\":\"-\",\"nameEnglish\":\"UmrahOTA\",\"isActive\":true,\"isEnable\":true},{\"otaCode\":\"MyHotel\",\"nameArabic\":\"-\",\"nameEnglish\":\"MyHotel\",\"isActive\":true,\"isEnable\":true},{\"otaCode\":\"Taqneen\",\"nameArabic\":\"-\",\"nameEnglish\":\"Taqneen\",\"isActive\":true,\"isEnable\":true},{\"otaCode\":\"ZamzamOTA\",\"nameArabic\":\"-\",\"nameEnglish\":\"ZamzamOTA\",\"isActive\":true,\"isEnable\":false},{\"otaCode\":\"HuloolAl-Umrah\",\"nameArabic\":\"-\",\"nameEnglish\":\"Hulool Al-Umrah\",\"isActive\":true,\"isEnable\":true},{\"otaCode\":\"UmrahGate\",\"nameArabic\":\"-\",\"nameEnglish\":\"UmrahGate\",\"isActive\":true,\"isEnable\":true},{\"otaCode\":\"WaytoUmrah\",\"nameArabic\":\"-\",\"nameEnglish\":\"WaytoUmrah\",\"isActive\":true,\"isEnable\":true},{\"otaCode\":\"HUBOOKING\",\"nameArabic\":\"-\",\"nameEnglish\":\"HUBOOKING\",\"isActive\":true,\"isEnable\":true},{\"otaCode\":\"MahtatAlAlamOTA\",\"nameArabic\":\"-\",\"nameEnglish\":\"Mahtat Al-Alam\",\"isActive\":true,\"isEnable\":true},{\"otaCode\":\"Akbar\",\"nameArabic\":\"-\",\"nameEnglish\":\"AKBAR TRAVELS OF INDIA PVT LTD\",\"isActive\":true,\"isEnable\":true},{\"otaCode\":\"AnjumOTA\",\"nameArabic\":\"-\",\"nameEnglish\":\"Anjum OTA\",\"isActive\":true,\"isEnable\":false},{\"otaCode\":\"Saudi2GoOTA\",\"nameArabic\":\"-\",\"nameEnglish\":\"Saudi2GoOTA\",\"isActive\":true,\"isEnable\":true},{\"otaCode\":\"EasyUmrahOTA\",\"nameArabic\":\"-\",\"nameEnglish\":\"EasyUmrahOTA\",\"isActive\":true,\"isEnable\":true}]]]"}],"start":1677582995510,"stop":1677582995513},{"name":"Assertion Passed: The API response schema matches that in this file \"src/test/resources/testDataFiles/Schemas/OTAs_schema.json\".","status":"passed","stage":"finished","steps":[],"attachments":[{"name":"Validation Test Data - Expected JSON Value","source":"338b7736-8201-4f68-b2a7-f2f42125d48a-attachment.json","type":"text/json"},{"name":"Validation Test Data - Actual JSON Value","source":"28cf7d89-6325-4940-a359-90c702d1a214-attachment.json","type":"text/json"}],"parameters":[{"name":"customLog","value":"Assertion Passed: The API response schema matches that in this file \"src/test/resources/testDataFiles/Schemas/OTAs_schema.json\"."},{"name":"stepLog","value":"Assertion \"ValidateResponseFileSchema\" PASSED. Expected \"Response data should match the JSON File in this path 'C:\\eclipse-workspace\\MyProjects\\TASystemsAPIs\\src\\test\\resources\\testDataFiles\\Schemas\\OTAs_schema.json'\" and Actual \"TRUE\". Comparison Type \"EQUALS\". Validation Type \"POSITIVE\"."},{"name":"attachments","value":"[[Validation Test Data, Expected JSON Value, java.io.ByteArrayInputStream@3c2fdd04], [Validation Test Data, Actual JSON Value, java.io.ByteArrayInputStream@46ff06df]]"}],"start":1677582995520,"stop":1677582995522}],"attachments":[{"name":"SHAFT Engine Logs - Current Method log: Valid_GET_all_OTAs_by_Qry_Rq_TC","source":"bd7d84cd-5b25-4c6b-9a8f-3e6f1ef15d04-attachment.txt","type":"text/plain"}],"parameters":[],"start":1677582994210,"stop":1677582995523}