{"uuid":"18aeb19f-4363-4c7a-b8d8-2e9405fa0e1e","historyId":"1ee66c37f44545e65a59a3dbc44247b","fullName":"SteeringCompanyAPI_TestCases.Test_Commissions_Cases.Valid_GET_all_Commissions_by_Qry_Rq_TC","labels":[{"name":"package","value":"SteeringCompanyAPI_TestCases.Test_Commissions_Cases"},{"name":"testClass","value":"SteeringCompanyAPI_TestCases.Test_Commissions_Cases"},{"name":"testMethod","value":"Valid_GET_all_Commissions_by_Qry_Rq_TC"},{"name":"parentSuite","value":"Suite"},{"name":"suite","value":"Test"},{"name":"subSuite","value":"SteeringCompanyAPI_TestCases.Test_Commissions_Cases"},{"name":"host","value":"TW-1056"},{"name":"thread","value":"12248@TW-1056.main(1)"},{"name":"framework","value":"testng"},{"name":"language","value":"java"},{"name":"story","value":"Retrieving All Active Commission with Pagination"},{"name":"severity","value":"critical"}],"links":[],"name":"TC002  -Commission- Perform Get all Commissions API with pagination with valid user name and password","status":"passed","statusDetails":{"known":false,"muted":false,"flaky":false},"stage":"finished","steps":[{"name":"Loaded Test Data: \"src/test/resources/testDataFiles/SteeringCompanyAPI_TestData/SteeringCompanyAPI_TestData.xlsx\".","status":"passed","stage":"finished","steps":[],"attachments":[{"name":"Test Data - Excel","source":"9560028f-d66a-4fe6-ad14-35314a50562d-attachment.xlsx","type":"application/vnd.openxmlformats-officedocument.spreadsheetml.sheet"}],"parameters":[{"name":"logText","value":"Loaded Test Data: \"src/test/resources/testDataFiles/SteeringCompanyAPI_TestData/SteeringCompanyAPI_TestData.xlsx\"."},{"name":"attachments","value":"[[Test Data, Excel, java.io.FileInputStream@3bee1bb3]]"}],"start":1675774545345,"stop":1675774545346},{"name":"Assertion Passed: Evaluating the actual response status code against the expected one...","status":"passed","stage":"finished","steps":[],"attachments":[],"parameters":[{"name":"customLog","value":"Assertion Passed: Evaluating the actual response status code against the expected one..."},{"name":"stepLog","value":"Assertion \"ValidateComparativeRelation\" PASSED. Expected \"200\" and Actual \"200\". Comparison Type \"EQUALS\". Validation Type \"POSITIVE\"."},{"name":"attachments","value":"null"}],"start":1675774546706,"stop":1675774546706},{"name":"Perform request \"POST | Target Status Code: 200 | Service URL: https://auth-demo.np.transporticonline.com/auth/realms/tic/protocol/openid-connect/token | Content Type: application/x-www-form-urlencoded | Response Time: 1355ms\".","status":"passed","stage":"finished","steps":[],"attachments":[{"name":"API Request - Specifications","source":"5bac8f84-3889-47cd-a2ba-932a11207503-attachment"},{"name":"API Request - Body","source":"9e0b2ba4-e640-4429-89b2-01a55ba560a1-attachment"},{"name":"API Response - JSON Body","source":"614917f2-e765-47a2-adc6-5ac0eb88c9d5-attachment.json","type":"text/json"}],"parameters":[{"name":"logText","value":"Perform request \"POST | Target Status Code: 200 | Service URL: https://auth-demo.np.transporticonline.com/auth/realms/tic/protocol/openid-connect/token | Content Type: application/x-www-form-urlencoded | Response Time: 1355ms\"."},{"name":"attachments","value":"[[API Request, Specifications, Headers:\r\n_______________\r\n\r\nContent-Type=application/x-www-form-urlencoded\r\n\r\n], [API Request, Body, java.io.ByteArrayInputStream@5514334e], null, [API Response, JSON Body, java.io.ByteArrayInputStream@7acec6db]]"}],"start":1675774546729,"stop":1675774546738},{"name":"Assertion Passed: Check Response Status Code is 200 and it is valid.","status":"passed","stage":"finished","steps":[],"attachments":[],"parameters":[{"name":"customLog","value":"Assertion Passed: Check Response Status Code is 200 and it is valid."},{"name":"stepLog","value":"Assertion \"ValidateComparativeRelation\" PASSED. Expected \"200\" and Actual \"200\". Comparison Type \"EQUALS\". Validation Type \"POSITIVE\"."},{"name":"attachments","value":"null"}],"start":1675774546739,"stop":1675774546739},{"name":"Loaded Test Data: \"src/test/resources/testDataFiles/SteeringCompanyAPI_TestData/SteeringCompanyAPI_TestData.xlsx\".","status":"passed","stage":"finished","steps":[],"attachments":[{"name":"Test Data - Excel","source":"f2322d6a-bce3-417c-a61c-7633ded65ffa-attachment.xlsx","type":"application/vnd.openxmlformats-officedocument.spreadsheetml.sheet"}],"parameters":[{"name":"logText","value":"Loaded Test Data: \"src/test/resources/testDataFiles/SteeringCompanyAPI_TestData/SteeringCompanyAPI_TestData.xlsx\"."},{"name":"attachments","value":"[[Test Data, Excel, java.io.FileInputStream@213eeb34]]"}],"start":1675774546807,"stop":1675774546809},{"name":"Loaded Test Data: \"src/test/resources/testDataFiles/SteeringCompanyAPI_TestData/SteeringCompanyAPI_TestData.xlsx\".","status":"passed","stage":"finished","steps":[],"attachments":[{"name":"Test Data - Excel","source":"135e9d96-f0f6-4a45-8458-216513b9d2fc-attachment.xlsx","type":"application/vnd.openxmlformats-officedocument.spreadsheetml.sheet"}],"parameters":[{"name":"logText","value":"Loaded Test Data: \"src/test/resources/testDataFiles/SteeringCompanyAPI_TestData/SteeringCompanyAPI_TestData.xlsx\"."},{"name":"attachments","value":"[[Test Data, Excel, java.io.FileInputStream@6aabe0c6]]"}],"start":1675774546847,"stop":1675774546849},{"name":"Loaded Test Data: \"src/test/resources/testDataFiles/SteeringCompanyAPI_TestData/SteeringCompanyAPI_TestData.xlsx\".","status":"passed","stage":"finished","steps":[],"attachments":[{"name":"Test Data - Excel","source":"fd6ec280-284e-41d8-97a0-edc1de89facd-attachment.xlsx","type":"application/vnd.openxmlformats-officedocument.spreadsheetml.sheet"}],"parameters":[{"name":"logText","value":"Loaded Test Data: \"src/test/resources/testDataFiles/SteeringCompanyAPI_TestData/SteeringCompanyAPI_TestData.xlsx\"."},{"name":"attachments","value":"[[Test Data, Excel, java.io.FileInputStream@5013c293]]"}],"start":1675774546899,"stop":1675774546902},{"name":"Assertion Passed: Evaluating the actual response status code against the expected one...","status":"passed","stage":"finished","steps":[],"attachments":[],"parameters":[{"name":"customLog","value":"Assertion Passed: Evaluating the actual response status code against the expected one..."},{"name":"stepLog","value":"Assertion \"ValidateComparativeRelation\" PASSED. Expected \"200\" and Actual \"200\". Comparison Type \"EQUALS\". Validation Type \"POSITIVE\"."},{"name":"attachments","value":"null"}],"start":1675774547395,"stop":1675774547395},{"name":"Perform request \"GET | Target Status Code: 200 | Service URL: https://api-demo.np.transporticonline.com/steeringcompanies/v1/commissions | Content Type: */* | Response Time: 487ms\".","status":"passed","stage":"finished","steps":[],"attachments":[{"name":"API Request - Specifications","source":"a3a2e658-37bf-4972-b279-d34864a643d1-attachment"},{"name":"API Response - JSON Body","source":"4ea38381-0656-43fb-8358-6b97e483cbc8-attachment.json","type":"text/json"}],"parameters":[{"name":"logText","value":"Perform request \"GET | Target Status Code: 200 | Service URL: https://api-demo.np.transporticonline.com/steeringcompanies/v1/commissions | Content Type: */* | Response Time: 487ms\"."},{"name":"attachments","value":"[[API Request, Specifications, Headers:\r\n_______________\r\n\r\nAuthorization=Bearer eyJhbGciOiJSUzI1NiIsInR5cCIgOiAiSldUIiwia2lkIiA6ICJjck9ORDFNdFVPVWhzS2Mtb0ppVFFmb0o1d1l4REF6Y3k0ZjNYZ0dveGdZIn0.eyJleHAiOjE2NzU3OTYxNDMsImlhdCI6MTY3NTc3NDU0MywianRpIjoiOTUxZTI0YWItYTFiZS00Mzk0LWE5ODQtMWRlMjRhZWIyZmJkIiwiaXNzIjoiaHR0cHM6Ly9hdXRoLWRlbW8ubnAudHJhbnNwb3J0aWNvbmxpbmUuY29tL2F1dGgvcmVhbG1zL3RpYyIsImF1ZCI6ImFjY291bnQiLCJzdWIiOiI0ZTk3NmQ0NC1iM2ZkLTRjYTktODk1Ny0wYWJiODUwNzNhNzQiLCJ0eXAiOiJCZWFyZXIiLCJhenAiOiJ0aWMtYXBpIiwic2Vzc2lvbl9zdGF0ZSI6ImNmZjI4NzA0LTQ5ODUtNDBlYS04OWYzLTUxODgzNDRiN2Y1MiIsImFjciI6IjEiLCJhbGxvd2VkLW9yaWdpbnMiOlsiaHR0cHM6Ly9hcGktZGV2Lm5wLnRyYW5zcG9ydGljb25saW5lLmNvbSJdLCJyZWFsbV9hY2Nlc3MiOnsicm9sZXMiOlsib2ZmbGluZV9hY2Nlc3MiLCJkZWZhdWx0LXJvbGVzLXRpYyIsInVtYV9hdXRob3JpemF0aW9uIiwidXNlciJdfSwicmVzb3VyY2VfYWNjZXNzIjp7ImFjY291bnQiOnsicm9sZXMiOlsibWFuYWdlLWFjY291bnQiLCJtYW5hZ2UtYWNjb3VudC1saW5rcyIsInZpZXctcHJvZmlsZSJdfX0sInNjb3BlIjoiZW1haWwgcHJvZmlsZSIsInNpZCI6ImNmZjI4NzA0LTQ5ODUtNDBlYS04OWYzLTUxODgzNDRiN2Y1MiIsImVtYWlsX3ZlcmlmaWVkIjpmYWxzZSwicHJlZmVycmVkX3VzZXJuYW1lIjoidG9raGkiLCJ0Y0lkIjoiMzE5OTU3In0.XyRFTk5x0Dcr1ieNn1nQijQJtShXJa98sGv4Q9qknaLhw4eoPEqA5z7RzJ1Y_9s4xeMKa764rVshGDY1XKiE4tz6Cav9A2b1ppEIJZt8ZwwGfEhzvHpZVvnykJ8FWIN2nIx7bqN6EXtAouO8bZJR2IwVEDgiIfwcp8oY5y4DPGfx6OP9S8XtyJsa4QqDJFCKN1D7zexoOM8S2P-T913_YdhkZeDZ9p-oZZMfUuh8TEnYzfQPFnJdferZOFXfD1Hb7vPXcV7d7yI2BBpczzZcfOI8xO8HxoQ_b505knyOsgPAYSMr5jgnEQllHsNaQ4zDuJiHBWFdYV4g3F9UW1qbyA\r\nContent-Type=*/*\r\n\r\nQuery Parameters:\r\n_______________\r\n\r\nsize=1\r\npage=1\r\n], null, [API Response, JSON Body, java.io.ByteArrayInputStream@72bb0967]]"}],"start":1675774547413,"stop":1675774547419},{"name":"Assertion Passed: \"200\" is equal to \"200\".","status":"passed","stage":"finished","steps":[],"attachments":[],"parameters":[{"name":"customLog","value":"Assertion Passed: \"200\" is equal to \"200\"."},{"name":"stepLog","value":"Assertion \"ValidateComparativeRelation\" PASSED. Expected \"200\" and Actual \"200\". Comparison Type \"EQUALS\". Validation Type \"POSITIVE\"."},{"name":"attachments","value":"null"}],"start":1675774547420,"stop":1675774547421},{"name":"Verification Passed: \"487\" is greater than or equal to \"1.1\".","status":"passed","stage":"finished","steps":[],"attachments":[],"parameters":[{"name":"customLog","value":"Verification Passed: \"487\" is greater than or equal to \"1.1\"."},{"name":"stepLog","value":"Verification \"ValidateComparativeRelation\" PASSED. Expected \"1.1\" and Actual \"487\". Comparison Type \"GREATER_THAN_OR_EQUALS\". Validation Type \"POSITIVE\"."},{"name":"attachments","value":"null"}],"start":1675774547421,"stop":1675774547421},{"name":"Verification Passed: \"487\" is less than or equal to \"30000\".","status":"passed","stage":"finished","steps":[],"attachments":[],"parameters":[{"name":"customLog","value":"Verification Passed: \"487\" is less than or equal to \"30000\"."},{"name":"stepLog","value":"Verification \"ValidateComparativeRelation\" PASSED. Expected \"30000\" and Actual \"487\". Comparison Type \"LESS_THAN_OR_EQUALS\". Validation Type \"POSITIVE\"."},{"name":"attachments","value":"null"}],"start":1675774547422,"stop":1675774547422},{"name":"Assertion Passed: \"{\"page\":1,\"size\":1,\"totalPages\":18,\"totalElements\":18,\"content\":[{\"otaCode\":\"AlrajhiOTA\",\"baseCommission\":3.0,\"addCommission\":0.0,\"lastUpdated\":\"2022-12-15T17:21:34.550112\",\"isActive\":true}]}\" contains \"content\".","status":"passed","stage":"finished","steps":[],"attachments":[],"parameters":[{"name":"customLog","value":"Assertion Passed: \"{\"page\":1,\"size\":1,\"totalPages\":18,\"totalElements\":18,\"content\":[{\"otaCode\":\"AlrajhiOTA\",\"baseCommission\":3.0,\"addCommission\":0.0,\"lastUpdated\":\"2022-12-15T17:21:34.550112\",\"isActive\":true}]}\" contains \"content\"."},{"name":"stepLog","value":"Assertion \"ValidateEquals\" PASSED. Expected \"content\" and Actual \"{\"page\":1,\"size\":1,\"totalPages\":18,\"totalElements\":18,\"content\":[{\"otaCode\":\"AlrajhiOTA\",\"baseCommission\":3.0,\"addCommission\":0.0,\"lastUpdated\":\"2022-12-15T17:21:34.550112\",\"isActive\":true}]}\". Comparison Type \"CONTAINS\". Validation Type \"POSITIVE\"."},{"name":"attachments","value":"null"}],"start":1675774547422,"stop":1675774547422},{"name":"Assertion Passed: Check that content object is not null.","status":"passed","stage":"finished","steps":[],"attachments":[],"parameters":[{"name":"customLog","value":"Assertion Passed: Check that content object is not null."},{"name":"stepLog","value":"Assertion \"ValidateEquals\" PASSED. Expected \"null\" and Actual \"[{\"otaCode\":\"AlrajhiOTA\",\"baseCommission\":3.0,\"addCommission\":0.0,\"lastUpdated\":\"2022-12-15T17:21:34.550112\",\"isActive\":true}]\". Comparison Type \"EQUALS\". Validation Type \"NEGATIVE\"."},{"name":"attachments","value":"null"}],"start":1675774547424,"stop":1675774547424},{"name":"Assertion Passed: The API response schema matches that in this file \"src/test/resources/testDataFiles/Schemas/Commission_schema.json\".","status":"passed","stage":"finished","steps":[],"attachments":[{"name":"Validation Test Data - Expected JSON Value","source":"e69fa200-31ed-42a7-aebf-73dc5f5a6d4d-attachment.json","type":"text/json"},{"name":"Validation Test Data - Actual JSON Value","source":"36b94645-20a7-4621-a02d-b716a510c9bf-attachment.json","type":"text/json"}],"parameters":[{"name":"customLog","value":"Assertion Passed: The API response schema matches that in this file \"src/test/resources/testDataFiles/Schemas/Commission_schema.json\"."},{"name":"stepLog","value":"Assertion \"ValidateResponseFileSchema\" PASSED. Expected \"Response data should match the JSON File in this path 'C:\\eclipse-workspace\\MyProjects\\TASystemsAPIs\\src\\test\\resources\\testDataFiles\\Schemas\\Commission_schema.json'\" and Actual \"TRUE\". Comparison Type \"EQUALS\". Validation Type \"POSITIVE\"."},{"name":"attachments","value":"[[Validation Test Data, Expected JSON Value, java.io.ByteArrayInputStream@602397ef], [Validation Test Data, Actual JSON Value, java.io.ByteArrayInputStream@72ef05e4]]"}],"start":1675774547432,"stop":1675774547439}],"attachments":[{"name":"SHAFT Engine Logs - Current Method log: Valid_GET_all_Commissions_by_Qry_Rq_TC","source":"60bb0531-9167-4e49-9a60-4b2eed9af92c-attachment.txt","type":"text/plain"}],"parameters":[],"start":1675774545292,"stop":1675774547443}