[ReportManager] Setting discrete logging to: "false" @28-09-2022 19:00:05.0510 PM

################################################################################################################################################
Starting Execution:	"4 out of 10" test cases in the current suite
Test Method:		"SteeringCompanyAPI_TestCases.Test_Case.Valid_GET_all_ports_Lookups_Rq_TC"
################################################################################################################################################
[ReportManager] Setting discrete logging to: "false" @28-09-2022 19:00:05.0510 PM
[ReportManager] Setting discrete logging to: "true" @28-09-2022 19:00:06.0199 PM
[ReportManager] Response status code: "200", status line: "HTTP/1.1 200 OK" @28-09-2022 19:00:06.0199 PM
[ReportManager] Assertion Passed: Evaluating the actual response status code against the expected one... @28-09-2022 19:00:06.0200 PM
[ReportManager] Setting discrete logging to: "false" @28-09-2022 19:00:06.0201 PM
[ReportManager] Perform request "POST | Target Status Code: 200 | Service URL: https://auth-demo.np.transporticonline.com/auth/realms/tic/protocol/openid-connect/token | Content Type: application/x-www-form-urlencoded | Response Time: 679ms". @28-09-2022 19:00:06.0223 PM
[ReportManager] Successfully created attachment "API Request - Specifications" @28-09-2022 19:00:06.0224 PM
[ReportManager] Successfully created attachment "API Request - Body" @28-09-2022 19:00:06.0225 PM
[ReportManager] Successfully created attachment "API Response - JSON Body" @28-09-2022 19:00:06.0226 PM
[ReportManager] Assertion Passed: "200" is equal to "200". @28-09-2022 19:00:06.0226 PM
[ReportManager] Verification Passed: "679" is greater than or equal to "1.1". @28-09-2022 19:00:06.0227 PM
[ReportManager] Verification Passed: "679" is less than or equal to "10000". @28-09-2022 19:00:06.0227 PM
[ReportManager] Assertion Passed: "{"access_token":"eyJhbGciOiJSUzI1NiIsInR5cCIgOiAiSldUIiwia2lkIiA6ICJjck9ORDFNdFVPVWhzS2Mtb0ppVFFmb0o1d1l4REF6Y3k0ZjNYZ0dveGdZIn0.eyJleHAiOjE2NjQzODQ3MDYsImlhdCI6MTY2NDM4NDQwNiwianRpIjoiZTgzMjRiOGQtNTEzNC00ODM0LWIzZjgtZjk3NmRlZThiODMxIiwiaXNzIjoiaHR0cHM6Ly9hdXRoLWRlbW8ubnAudHJhbnNwb3J0aWNvbmxpbmUuY29tL2F1dGgvcmVhbG1zL3RpYyIsImF1ZCI6ImFjY291bnQiLCJzdWIiOiI0ZTk3NmQ0NC1iM2ZkLTRjYTktODk1Ny0wYWJiODUwNzNhNzQiLCJ0eXAiOiJCZWFyZXIiLCJhenAiOiJ0aWMtYXBpIiwic2Vzc2lvbl9zdGF0ZSI6ImViNjE5MzkxLWMwYmYtNGY2NS04MTk1LWM2NzBiZjJjY2I1ZCIsImFjciI6IjEiLCJhbGxvd2VkLW9yaWdpbnMiOlsiaHR0cHM6Ly9hcGktZGV2Lm5wLnRyYW5zcG9ydGljb25saW5lLmNvbSJdLCJyZWFsbV9hY2Nlc3MiOnsicm9sZXMiOlsib2ZmbGluZV9hY2Nlc3MiLCJkZWZhdWx0LXJvbGVzLXRpYyIsInVtYV9hdXRob3JpemF0aW9uIiwidXNlciJdfSwicmVzb3VyY2VfYWNjZXNzIjp7ImFjY291bnQiOnsicm9sZXMiOlsibWFuYWdlLWFjY291bnQiLCJtYW5hZ2UtYWNjb3VudC1saW5rcyIsInZpZXctcHJvZmlsZSJdfX0sInNjb3BlIjoiZW1haWwgcHJvZmlsZSIsInNpZCI6ImViNjE5MzkxLWMwYmYtNGY2NS04MTk1LWM2NzBiZjJjY2I1ZCIsImVtYWlsX3ZlcmlmaWVkIjpmYWxzZSwicHJlZmVycmVkX3VzZXJuYW1lIjoidG9raGkiLCJ0Y0lkIjoiMzE5OTU3In0.Ij6wHFvIUnORh_znvyjrMASfLhBfxHoJAjOVUFzPKuAmVhorsbo-xsoSfWsXnLjEDMtDQhjbwmftSnleoJViYyfpBP_5xUY-8B9m4KXuZ-DaRP5VF3U8nHfuq6l8Ns-owyuBMDiH5o0pc72hSuHTLH5cRa745t7v3kxlHzA18BKF-arqUpsavp5zgqHJ0X2RiRbn1hWVW1UBjFC0k4ZUc9dS60L772IPXk4oPD0Kke03B72EmmJfy0tcAc1IeNDw2KXhlbiSwNG42lau9m4lB1dkmaQnlgqpEzGi6aoMnTZvOOhrf5nibvGUVeTrfENG9HKcTtt8Ttu4wR9WvKZp1g","expires_in":300,"refresh_expires_in":1800,"refresh_token":"eyJhbGciOiJIUzI1NiIsInR5cCIgOiAiSldUIiwia2lkIiA6ICJkMTFjNTY4Yi1iMjAyLTQzYjgtYTBiMy1hYWI4ZWMyYWQzZDEifQ.eyJleHAiOjE2NjQzODYyMDYsImlhdCI6MTY2NDM4NDQwNiwianRpIjoiYzg1ZDk2OTYtMmQ5Mi00ZmM2LWI2MGEtZWFmNGE3ZmViODE0IiwiaXNzIjoiaHR0cHM6Ly9hdXRoLWRlbW8ubnAudHJhbnNwb3J0aWNvbmxpbmUuY29tL2F1dGgvcmVhbG1zL3RpYyIsImF1ZCI6Imh0dHBzOi8vYXV0aC1kZW1vLm5wLnRyYW5zcG9ydGljb25saW5lLmNvbS9hdXRoL3JlYWxtcy90aWMiLCJzdWIiOiI0ZTk3NmQ0NC1iM2ZkLTRjYTktODk1Ny0wYWJiODUwNzNhNzQiLCJ0eXAiOiJSZWZyZXNoIiwiYXpwIjoidGljLWFwaSIsInNlc3Npb25fc3RhdGUiOiJlYjYxOTM5MS1jMGJmLTRmNjUtODE5NS1jNjcwYmYyY2NiNWQiLCJzY29wZSI6ImVtYWlsIHByb2ZpbGUiLCJzaWQiOiJlYjYxOTM5MS1jMGJmLTRmNjUtODE5NS1jNjcwYmYyY2NiNWQifQ.hnrkspwDC1RY2kX5BXyhXZGy6uCZN63D7akNzKxe31k","token_type":"Bearer","not-before-policy":0,"session_state":"eb619391-c0bf-4f65-8195-c670bf2ccb5d","scope":"email profile"}" contains "access_token". @28-09-2022 19:00:06.0228 PM
[ReportManager] Successfully created attachment "Validation Test Data - Expected Value" @28-09-2022 19:00:06.0229 PM
[ReportManager] Successfully created attachment "Validation Test Data - Actual Value" @28-09-2022 19:00:06.0230 PM
[ReportManager] Get response jsonvalue "access_token". @28-09-2022 19:00:06.0232 PM
[ReportManager] Assertion Passed: Check that Access token is not null. @28-09-2022 19:00:06.0232 PM
[ReportManager] Successfully created attachment "Validation Test Data - Expected Value" @28-09-2022 19:00:06.0234 PM
[ReportManager] Successfully created attachment "Validation Test Data - Actual Value" @28-09-2022 19:00:06.0235 PM
[ReportManager] File Action "DoesFileExist" successfully performed. With the following test data "File Path: "Token_schema.json"". @28-09-2022 19:00:06.0235 PM
[ReportManager] File Action "DoesFileExist" successfully performed. With the following test data "File Path: "src/test/resources/testDataFiles/Token_schema.json"". @28-09-2022 19:00:06.0236 PM
[ReportManager] File Action "GetAbsolutePath" successfully performed. With the following test data "Relative Folder Path: "src/test/resources/testDataFiles/Token_schema.json"". @28-09-2022 19:00:06.0236 PM
[ReportManager] File Action "DoesFileExist" successfully performed. With the following test data "File Path: "C:\eclipse-workspace\MyProjects\TASystemsAPIs\src\test\resources\testDataFiles\Token_schema.json"". @28-09-2022 19:00:06.0243 PM
[ReportManager] File Action "GetAbsolutePath" successfully performed. With the following test data "Relative Folder Path: "C:\eclipse-workspace\MyProjects\TASystemsAPIs\src\test\resources\testDataFiles\Token_schema.json"". @28-09-2022 19:00:06.0243 PM
[ReportManager] File Action "ReadFromFile" successfully performed. With the following test data "File Path: "C:\eclipse-workspace\MyProjects\TASystemsAPIs\src\test\resources\testDataFiles\Token_schema.json"". @28-09-2022 19:00:06.0243 PM
[ReportManager] Assertion Passed: The API response schema matches that in this file "src/test/resources/testDataFiles/Token_schema.json". @28-09-2022 19:00:06.0244 PM
[ReportManager] Successfully created attachment "Validation Test Data - Expected JSON Value" @28-09-2022 19:00:06.0246 PM
[ReportManager] Successfully created attachment "Validation Test Data - Actual JSON Value" @28-09-2022 19:00:06.0247 PM
[ReportManager] Verification Passed: "679" is greater than or equal to "1.1". @28-09-2022 19:00:06.0261 PM
[ReportManager] Verification Passed: "679" is less than or equal to "10000". @28-09-2022 19:00:06.0262 PM
[ReportManager] Setting discrete logging to: "true" @28-09-2022 19:00:06.0641 PM
[ReportManager] Response status code: "200", status line: "HTTP/1.1 200 " @28-09-2022 19:00:06.0641 PM
[ReportManager] Assertion Passed: Evaluating the actual response status code against the expected one... @28-09-2022 19:00:06.0641 PM
[ReportManager] Setting discrete logging to: "false" @28-09-2022 19:00:06.0642 PM
[ReportManager] Perform request "GET | Target Status Code: 200 | Service URL: https://api-demo.np.transporticonline.com/steeringcompanies/v1/lookups/ports | Content Type: */* | Response Time: 360ms". @28-09-2022 19:00:06.0660 PM
[ReportManager] Successfully created attachment "API Request - Specifications" @28-09-2022 19:00:06.0661 PM
[ReportManager] Successfully created attachment "API Response - JSON Body" @28-09-2022 19:00:06.0663 PM
[ReportManager] Assertion Passed: "200" is equal to "200". @28-09-2022 19:00:06.0663 PM
[ReportManager] Verification Passed: "360" is greater than or equal to "1.1". @28-09-2022 19:00:06.0664 PM
[ReportManager] Verification Passed: "360" is less than or equal to "10000". @28-09-2022 19:00:06.0664 PM
[ReportManager] Assertion Passed: "{"page":0,"size":2147483647,"totalPages":1,"totalElements":29,"content":[{"id":59,"nameArabic":"???? ??? ","nameEnglish":"Alab Port","cityId":656,"isActive":true,"lastUpdated":"2020-10-22T18:41:32Z","sectors":null},{"id":53,"nameArabic":"????? ???? ???????","nameEnglish":"Yanbu Commercial Port","cityId":646,"isActive":true,"lastUpdated":"2020-10-22T18:41:32Z","sectors":null},{"id":49,"nameArabic":"???? ????? ????","nameEnglish":"Jadedat Arar Port","cityId":612,"isActive":true,"lastUpdated":"2020-10-22T18:41:32Z","sectors":null},{"id":65,"nameArabic":"???? ???????","nameEnglish":"Alwadeah Port","cityId":664,"isActive":true,"lastUpdated":"2020-10-22T18:41:32Z","sectors":null},{"id":41,"nameArabic":"???? ????? ???? ??????","nameEnglish":"King Khalid International Airport","cityId":601,"isActive":true,"lastUpdated":"2020-10-22T18:41:32Z","sectors":null},{"id":71,"nameArabic":"???? ????? 5 - ???? ????? ???","nameEnglish":"???? ????? 5 - ???? ????? ???","cityId":602,"isActive":true,"lastUpdated":"2020-10-22T18:41:32Z","sectors":null},{"id":48,"nameArabic":"???? ???? ????","nameEnglish":"Halat Amar Port","cityId":606,"isActive":true,"lastUpdated":"2020-10-22T18:41:32Z","sectors":null},{"id":54,"nameArabic":"???? ???????","nameEnglish":"Alkhadra Port","cityId":664,"isActive":true,"lastUpdated":"2020-10-22T18:41:32Z","sectors":null},{"id":58,"nameArabic":"???? ????? ???","nameEnglish":"King Fahad Airport","cityId":607,"isActive":true,"lastUpdated":"2020-10-22T18:41:32Z","sectors":null},{"id":66,"nameArabic":"???? ?????-1???? ????? ????? ","nameEnglish":"???? ?????-1???? ????? ????? ","cityId":602,"isActive":true,"lastUpdated":"2020-10-22T18:41:32Z","sectors":null},{"id":72,"nameArabic":"???? ????? ?????? - ?? ??????","nameEnglish":"Empty quarter Port","isActive":true,"lastUpdated":"2022-06-29T08:08:58Z","sectors":null},{"id":50,"nameArabic":"???? ????? ??? ?????? ??????","nameEnglish":"KING ABDUL AZIZ INTERNATIONAL AIRPORT","cityId":602,"isActive":true,"lastUpdated":"2020-10-22T18:41:32Z","sectors":null},{"id":45,"nameArabic":"???? ????","nameEnglish":"Salwa Port","cityId":672,"isActive":true,"lastUpdated":"2020-10-22T18:41:32Z","sectors":null},{"id":63,"nameArabic":"???? ??????","nameEnglish":"Altaif Airport","cityId":604,"isActive":true,"lastUpdated":"2020-10-22T18:41:32Z","sectors":null},{"id":4,"nameArabic":"?????","nameEnglish":"albalad","isActive":true,"lastUpdated":null,"sectors":null},{"id":55,"nameArabic":"???? ??????","nameEnglish":"Altowal Port","cityId":607,"isActive":true,"lastUpdated":"2020-10-22T18:41:32Z","sectors":null},{"id":5,"nameArabic":"???? ????? 2-???? ??????","nameEnglish":"???? ????? 2-???? ??????","cityId":602,"isActive":true,"lastUpdated":"2020-10-22T18:41:32Z","sectors":null},{"id":70,"nameArabic":"???? ????? 4-???? ????","nameEnglish":"???? ????? 4-???? ????","cityId":602,"isActive":true,"lastUpdated":"2020-10-22T18:41:32Z","sectors":null},{"id":69,"nameArabic":"???? ????? 3-???????","nameEnglish":"???? ????? 3-???????","cityId":602,"isActive":true,"lastUpdated":"2020-10-22T18:41:32Z","sectors":null},{"id":68,"nameArabic":"???? ????? 6 - ???? ???","nameEnglish":"???? ????? 6 - ???? ???","cityId":602,"isActive":true,"lastUpdated":"2020-10-22T18:41:32Z","sectors":null},{"id":43,"nameArabic":"???? ??????","nameEnglish":"Alkhafji Port","cityId":631,"isActive":true,"lastUpdated":"2020-10-22T18:41:32Z","sectors":null},{"id":67,"nameArabic":"??????????????????? ?????","nameEnglish":"Prince AbdulMohsen Bin Abdulaziz Airport","isActive":true,"lastUpdated":null,"sectors":null},{"id":47,"nameArabic":"???? ???????","nameEnglish":"Albatha Port","cityId":672,"isActive":true,"lastUpdated":"2020-10-22T18:41:32Z","sectors":null},{"id":52,"nameArabic":"????? ??? ????????","nameEnglish":"JEDDAH ISLAMIC PORT","cityId":602,"isActive":true,"lastUpdated":"2020-10-22T18:41:32Z","sectors":null},{"id":56,"nameArabic":"???? ???????","nameEnglish":"Alhadithah Port","cityId":641,"isActive":true,"lastUpdated":"2020-10-22T18:41:32Z","sectors":null},{"id":46,"nameArabic":"??? ????? ???","nameEnglish":"King Fahad Bridge","cityId":608,"isActive":true,"lastUpdated":"2020-10-22T18:41:32Z","sectors":null},{"id":51,"nameArabic":"???? ?????? ????","nameEnglish":"PRINCE MOHAMMAD INTERNATIONAL AIRPORT","cityId":605,"isActive":true,"lastUpdated":"2020-10-22T18:41:32Z","sectors":null},{"id":44,"nameArabic":"???? ??????","nameEnglish":"Alraqai Port","cityId":630,"isActive":true,"lastUpdated":"2020-10-22T18:41:32Z","sectors":null},{"id":64,"nameArabic":"???? ????","nameEnglish":"Abha Airport","cityId":613,"isActive":true,"lastUpdated":"2020-10-22T18:41:32Z","sectors":null}]}" contains "content". @28-09-2022 19:00:06.0664 PM
[ReportManager] Successfully created attachment "Validation Test Data - Expected Value" @28-09-2022 19:00:06.0665 PM
[ReportManager] Successfully created attachment "Validation Test Data - Actual Value" @28-09-2022 19:00:06.0668 PM
[ReportManager] Get response jsonvalue "content". @28-09-2022 19:00:06.0673 PM
[ReportManager] Assertion Passed: Check that content object is not null. @28-09-2022 19:00:06.0674 PM
[ReportManager] Successfully created attachment "Validation Test Data - Expected Value" @28-09-2022 19:00:06.0674 PM
[ReportManager] Successfully created attachment "Validation Test Data - Actual Value" @28-09-2022 19:00:06.0676 PM
[ReportManager] File Action "DoesFileExist" successfully performed. With the following test data "File Path: "Lookups_ports_schema.json"". @28-09-2022 19:00:06.0676 PM
[ReportManager] File Action "DoesFileExist" successfully performed. With the following test data "File Path: "src/test/resources/testDataFiles/Lookups_ports_schema.json"". @28-09-2022 19:00:06.0676 PM
[ReportManager] File Action "GetAbsolutePath" successfully performed. With the following test data "Relative Folder Path: "src/test/resources/testDataFiles/Lookups_ports_schema.json"". @28-09-2022 19:00:06.0676 PM
[ReportManager] File Action "DoesFileExist" successfully performed. With the following test data "File Path: "C:\eclipse-workspace\MyProjects\TASystemsAPIs\src\test\resources\testDataFiles\Lookups_ports_schema.json"". @28-09-2022 19:00:06.0682 PM
[ReportManager] File Action "GetAbsolutePath" successfully performed. With the following test data "Relative Folder Path: "C:\eclipse-workspace\MyProjects\TASystemsAPIs\src\test\resources\testDataFiles\Lookups_ports_schema.json"". @28-09-2022 19:00:06.0683 PM
[ReportManager] File Action "ReadFromFile" successfully performed. With the following test data "File Path: "C:\eclipse-workspace\MyProjects\TASystemsAPIs\src\test\resources\testDataFiles\Lookups_ports_schema.json"". @28-09-2022 19:00:06.0684 PM
[ReportManager] Assertion Passed: The API response schema matches that in this file "src/test/resources/testDataFiles/Lookups_ports_schema.json". @28-09-2022 19:00:06.0686 PM
[ReportManager] Successfully created attachment "Validation Test Data - Expected JSON Value" @28-09-2022 19:00:06.0688 PM
[ReportManager] Successfully created attachment "Validation Test Data - Actual JSON Value" @28-09-2022 19:00:06.0690 PM
[ReportManager] Verification Passed: "360" is greater than or equal to "1.1". @28-09-2022 19:00:06.0691 PM
[ReportManager] Verification Passed: "360" is less than or equal to "10000". @28-09-2022 19:00:06.0692 PM
[ReportManager] Setting discrete logging to: "true" @28-09-2022 19:00:07.0036 PM
[ReportManager] Response status code: "200", status line: "HTTP/1.1 200 " @28-09-2022 19:00:07.0036 PM
[ReportManager] Assertion Passed: Evaluating the actual response status code against the expected one... @28-09-2022 19:00:07.0037 PM
[ReportManager] Setting discrete logging to: "false" @28-09-2022 19:00:07.0037 PM
[ReportManager] Perform request "GET | Target Status Code: 200 | Service URL: https://api-demo.np.transporticonline.com/steeringcompanies/v1/lookups/ports | Content Type: */* | Response Time: 340ms". @28-09-2022 19:00:07.0063 PM
[ReportManager] Successfully created attachment "API Request - Specifications" @28-09-2022 19:00:07.0063 PM
[ReportManager] Successfully created attachment "API Response - JSON Body" @28-09-2022 19:00:07.0064 PM
[ReportManager] Assertion Passed: "200" is equal to "200". @28-09-2022 19:00:07.0064 PM
[ReportManager] Verification Passed: "340" is greater than or equal to "1.1". @28-09-2022 19:00:07.0065 PM
[ReportManager] Verification Passed: "340" is less than or equal to "10000". @28-09-2022 19:00:07.0065 PM
[ReportManager] Assertion Passed: "{"page":0,"size":3,"totalPages":10,"totalElements":29,"content":[{"id":59,"nameArabic":"???? ??? ","nameEnglish":"Alab Port","cityId":656,"isActive":true,"lastUpdated":"2020-10-22T18:41:32Z","sectors":null},{"id":53,"nameArabic":"????? ???? ???????","nameEnglish":"Yanbu Commercial Port","cityId":646,"isActive":true,"lastUpdated":"2020-10-22T18:41:32Z","sectors":null},{"id":49,"nameArabic":"???? ????? ????","nameEnglish":"Jadedat Arar Port","cityId":612,"isActive":true,"lastUpdated":"2020-10-22T18:41:32Z","sectors":null}]}" contains "content". @28-09-2022 19:00:07.0065 PM
[ReportManager] Successfully created attachment "Validation Test Data - Expected Value" @28-09-2022 19:00:07.0066 PM
[ReportManager] Successfully created attachment "Validation Test Data - Actual Value" @28-09-2022 19:00:07.0067 PM
[ReportManager] Get response jsonvalue "content". @28-09-2022 19:00:07.0068 PM
[ReportManager] Assertion Passed: Check that content object is not null. @28-09-2022 19:00:07.0069 PM
[ReportManager] File Action "DoesFileExist" successfully performed. With the following test data "File Path: "Lookups_ports_schema.json"". @28-09-2022 19:00:07.0069 PM
[ReportManager] File Action "DoesFileExist" successfully performed. With the following test data "File Path: "src/test/resources/testDataFiles/Lookups_ports_schema.json"". @28-09-2022 19:00:07.0070 PM
[ReportManager] File Action "GetAbsolutePath" successfully performed. With the following test data "Relative Folder Path: "src/test/resources/testDataFiles/Lookups_ports_schema.json"". @28-09-2022 19:00:07.0070 PM
[ReportManager] File Action "DoesFileExist" successfully performed. With the following test data "File Path: "C:\eclipse-workspace\MyProjects\TASystemsAPIs\src\test\resources\testDataFiles\Lookups_ports_schema.json"". @28-09-2022 19:00:07.0079 PM
[ReportManager] File Action "GetAbsolutePath" successfully performed. With the following test data "Relative Folder Path: "C:\eclipse-workspace\MyProjects\TASystemsAPIs\src\test\resources\testDataFiles\Lookups_ports_schema.json"". @28-09-2022 19:00:07.0079 PM
[ReportManager] File Action "ReadFromFile" successfully performed. With the following test data "File Path: "C:\eclipse-workspace\MyProjects\TASystemsAPIs\src\test\resources\testDataFiles\Lookups_ports_schema.json"". @28-09-2022 19:00:07.0079 PM
[ReportManager] Assertion Passed: The API response schema matches that in this file "src/test/resources/testDataFiles/Lookups_ports_schema.json". @28-09-2022 19:00:07.0079 PM
[ReportManager] Successfully created attachment "Validation Test Data - Expected JSON Value" @28-09-2022 19:00:07.0081 PM
[ReportManager] Successfully created attachment "Validation Test Data - Actual JSON Value" @28-09-2022 19:00:07.0082 PM
[ReportManager] Verification Passed: "340" is greater than or equal to "1.1". @28-09-2022 19:00:07.0082 PM
[ReportManager] Verification Passed: "340" is less than or equal to "10000". @28-09-2022 19:00:07.0082 PM