{
  "size": 1,
  "totalPages": 18,
  "page": 1,
  "content": [
    {
      "lastUpdated": "2022-12-15T17:21:34.550112",
      "otaCode": "AlrajhiOTA",
      "baseCommission": 3.0,
      "isActive": true,
      "addCommission": 0.0
    }
  ],
  "totalElements": 18
}