
################################################################################################################################################
Starting Execution:	"44 out of 111" test cases in the current suite
Test Method:		"SteeringCompanyAPI_TestCases.Test_Commissions_Cases.Valid_GET_all_OTAs_by_Qry_Rq_TC"
Test Description:	"TC017  -OTAs- Perform Get all OTAs API with pagination with valid user name and password"
################################################################################################################################################
[ReportManager] File Action "DoesFileExist" successfully performed. With the following test data "File Path: "SteeringCompanyAPI_TestData/SteeringCompanyAPI_TestData.xlsx"". @28-02-2023 13:16:31.0239 PM
[ReportManager] Loaded Test Data: "src/test/resources/testDataFiles/SteeringCompanyAPI_TestData/SteeringCompanyAPI_TestData.xlsx". @28-02-2023 13:16:31.0280 PM
[ReportManager] Successfully created attachment "Test Data - Excel" @28-02-2023 13:16:31.0282 PM
[ReportManager] Response status code: "200", status line: "HTTP/1.1 200 OK" @28-02-2023 13:16:31.0916 PM
[ReportManager] Assertion Passed: Evaluating the actual response status code against the expected one... @28-02-2023 13:16:31.0917 PM
[ReportManager] Perform request "POST | Target Status Code: 200 | Service URL: https://auth-demo.np.transporticonline.com/auth/realms/tic/protocol/openid-connect/token | Content Type: application/x-www-form-urlencoded | Response Time: 632ms". @28-02-2023 13:16:31.0943 PM
[ReportManager] Successfully created attachment "API Request - Specifications" @28-02-2023 13:16:31.0944 PM
[ReportManager] Successfully created attachment "API Request - Body" @28-02-2023 13:16:31.0946 PM
[ReportManager] Successfully created attachment "API Response - JSON Body" @28-02-2023 13:16:31.0948 PM
[ReportManager] Assertion Passed: Check Response Status Code is 200 and it is valid. @28-02-2023 13:16:31.0949 PM
[ReportManager] File Action "DoesFileExist" successfully performed. With the following test data "File Path: "SteeringCompanyAPI_TestData/SteeringCompanyAPI_TestData.xlsx"". @28-02-2023 13:16:31.0971 PM
[ReportManager] Loaded Test Data: "src/test/resources/testDataFiles/SteeringCompanyAPI_TestData/SteeringCompanyAPI_TestData.xlsx". @28-02-2023 13:16:32.0010 PM
[ReportManager] Successfully created attachment "Test Data - Excel" @28-02-2023 13:16:32.0011 PM
[ReportManager] Response status code: "200", status line: "HTTP/1.1 200 " @28-02-2023 13:16:32.0509 PM
[ReportManager] Assertion Passed: Evaluating the actual response status code against the expected one... @28-02-2023 13:16:32.0509 PM
[ReportManager] Perform request "GET | Target Status Code: 200 | Service URL: https://api-demo.np.transporticonline.com/steeringcompanies/v1/otas | Content Type: */* | Response Time: 495ms". @28-02-2023 13:16:32.0521 PM
[ReportManager] Successfully created attachment "API Request - Specifications" @28-02-2023 13:16:32.0522 PM
[ReportManager] Successfully created attachment "API Response - JSON Body" @28-02-2023 13:16:32.0522 PM
[ReportManager] Assertion Passed: "200" is equal to "200". @28-02-2023 13:16:32.0523 PM
[ReportManager] Verification Passed: "495" is greater than or equal to "1.1". @28-02-2023 13:16:32.0523 PM
[ReportManager] Verification Passed: "495" is less than or equal to "10000". @28-02-2023 13:16:32.0523 PM
[ReportManager] Assertion Passed: "{"page":1,"size":1,"totalPages":47,"totalElements":47,"content":[{"otaCode":"Mawasim","nameArabic":"-","nameEnglish":"MawasimOTA","isActive":true,"isEnable":true}]}" contains "content". @28-02-2023 13:16:32.0523 PM
[ReportManager] Get response jsonvalue "content". @28-02-2023 13:16:32.0524 PM
[ReportManager] Assertion Passed: Check that content object is not null. @28-02-2023 13:16:32.0525 PM
[ReportManager] File Action "DoesFileExist" successfully performed. With the following test data "File Path: "Schemas/OTAs_schema.json"". @28-02-2023 13:16:32.0526 PM
[ReportManager] File Action "DoesFileExist" successfully performed. With the following test data "File Path: "src/test/resources/testDataFiles/Schemas/OTAs_schema.json"". @28-02-2023 13:16:32.0527 PM
[ReportManager] File Action "GetAbsolutePath" successfully performed. With the following test data "Relative Folder Path: "src/test/resources/testDataFiles/Schemas/OTAs_schema.json"". @28-02-2023 13:16:32.0527 PM
[ReportManager] File Action "DoesFileExist" successfully performed. With the following test data "File Path: "C:\eclipse-workspace\MyProjects\TASystemsAPIs\src\test\resources\testDataFiles\Schemas\OTAs_schema.json"". @28-02-2023 13:16:32.0533 PM
[ReportManager] File Action "GetAbsolutePath" successfully performed. With the following test data "Relative Folder Path: "C:\eclipse-workspace\MyProjects\TASystemsAPIs\src\test\resources\testDataFiles\Schemas\OTAs_schema.json"". @28-02-2023 13:16:32.0534 PM
[ReportManager] File Action "ReadFile" successfully performed. With the following test data "File Path: "C:\eclipse-workspace\MyProjects\TASystemsAPIs\src\test\resources\testDataFiles\Schemas\OTAs_schema.json"". @28-02-2023 13:16:32.0534 PM
[ReportManager] Assertion Passed: The API response schema matches that in this file "src/test/resources/testDataFiles/Schemas/OTAs_schema.json". @28-02-2023 13:16:32.0536 PM
[ReportManager] Successfully created attachment "Validation Test Data - Expected JSON Value" @28-02-2023 13:16:32.0538 PM
[ReportManager] Successfully created attachment "Validation Test Data - Actual JSON Value" @28-02-2023 13:16:32.0539 PM