[ReportManager] Setting discrete logging to: "false" @03-10-2022 15:19:33.0104 PM

################################################################################################################################################
Starting Execution:	"10 out of 13" test cases in the current suite
Test Method:		"SteeringCompanyAPI_TestCases.Test_Case.Valid_GET_all_terminals_Lookups_Rq_TC"
################################################################################################################################################
[ReportManager] Setting discrete logging to: "false" @03-10-2022 15:19:33.0105 PM
[ReportManager] Setting discrete logging to: "true" @03-10-2022 15:19:33.0956 PM
[ReportManager] Response status code: "200", status line: "HTTP/1.1 200 OK" @03-10-2022 15:19:33.0956 PM
[ReportManager] Assertion Passed: Evaluating the actual response status code against the expected one... @03-10-2022 15:19:33.0956 PM
[ReportManager] Setting discrete logging to: "false" @03-10-2022 15:19:33.0956 PM
[ReportManager] Perform request "POST | Target Status Code: 200 | Service URL: https://auth-demo.np.transporticonline.com/auth/realms/tic/protocol/openid-connect/token | Content Type: application/x-www-form-urlencoded | Response Time: 850ms". @03-10-2022 15:19:33.0972 PM
[ReportManager] Successfully created attachment "API Request - Specifications" @03-10-2022 15:19:33.0974 PM
[ReportManager] Successfully created attachment "API Request - Body" @03-10-2022 15:19:33.0974 PM
[ReportManager] Successfully created attachment "API Response - JSON Body" @03-10-2022 15:19:33.0976 PM
[ReportManager] Assertion Passed: "200" is equal to "200". @03-10-2022 15:19:33.0976 PM
[ReportManager] Verification Passed: "850" is greater than or equal to "1.1". @03-10-2022 15:19:33.0977 PM
[ReportManager] Verification Passed: "850" is less than or equal to "10000". @03-10-2022 15:19:33.0977 PM
[ReportManager] Assertion Passed: "{"access_token":"eyJhbGciOiJSUzI1NiIsInR5cCIgOiAiSldUIiwia2lkIiA6ICJjck9ORDFNdFVPVWhzS2Mtb0ppVFFmb0o1d1l4REF6Y3k0ZjNYZ0dveGdZIn0.eyJleHAiOjE2NjQ4MDM0NzIsImlhdCI6MTY2NDgwMzE3MiwianRpIjoiZmUyMzdkNjMtYTc4My00YTBhLWE2MzEtOTg3MTRhM2ZhZmMyIiwiaXNzIjoiaHR0cHM6Ly9hdXRoLWRlbW8ubnAudHJhbnNwb3J0aWNvbmxpbmUuY29tL2F1dGgvcmVhbG1zL3RpYyIsImF1ZCI6ImFjY291bnQiLCJzdWIiOiI0ZTk3NmQ0NC1iM2ZkLTRjYTktODk1Ny0wYWJiODUwNzNhNzQiLCJ0eXAiOiJCZWFyZXIiLCJhenAiOiJ0aWMtYXBpIiwic2Vzc2lvbl9zdGF0ZSI6IjY0YzBiMzM4LWRkM2YtNGRlNi04YzVmLTIyOTc0ZGFiYjEyYyIsImFjciI6IjEiLCJhbGxvd2VkLW9yaWdpbnMiOlsiaHR0cHM6Ly9hcGktZGV2Lm5wLnRyYW5zcG9ydGljb25saW5lLmNvbSJdLCJyZWFsbV9hY2Nlc3MiOnsicm9sZXMiOlsib2ZmbGluZV9hY2Nlc3MiLCJkZWZhdWx0LXJvbGVzLXRpYyIsInVtYV9hdXRob3JpemF0aW9uIiwidXNlciJdfSwicmVzb3VyY2VfYWNjZXNzIjp7ImFjY291bnQiOnsicm9sZXMiOlsibWFuYWdlLWFjY291bnQiLCJtYW5hZ2UtYWNjb3VudC1saW5rcyIsInZpZXctcHJvZmlsZSJdfX0sInNjb3BlIjoiZW1haWwgcHJvZmlsZSIsInNpZCI6IjY0YzBiMzM4LWRkM2YtNGRlNi04YzVmLTIyOTc0ZGFiYjEyYyIsImVtYWlsX3ZlcmlmaWVkIjpmYWxzZSwicHJlZmVycmVkX3VzZXJuYW1lIjoidG9raGkiLCJ0Y0lkIjoiMzE5OTU3In0.E_tmCvGaU9tQ9JT-LMBtTynZCMdKWVMuDtOqusaOs8cNRGv33IutcmgeL2ZUJoI2XnNo-N6GB4FH2yn_UB4yo-ieNgBvf9u_UJPIdYQ397P6yiom2Xxa_JtHPgS62fYLkikUQA2ga3Dv0tz_E4BK_nWjFL-BHdNkTHgb1iTgikzEFQ9u9OM3GCJC8FuFqplAn-HhFJ_8FOg8ZFE8Sii1cS8z_tLrA4JkEgKaXD6IXTspOhkha_p0Nl9vnRcVfRfL8cUKD8LK8Y1PaR_aMkoqKDZH57i5-c48cwWGFXmzTPibQ9NT9JLKLj4RiW_PLlkRYWJRGhHjwIljKZanJPmzrg","expires_in":300,"refresh_expires_in":1800,"refresh_token":"eyJhbGciOiJIUzI1NiIsInR5cCIgOiAiSldUIiwia2lkIiA6ICJkMTFjNTY4Yi1iMjAyLTQzYjgtYTBiMy1hYWI4ZWMyYWQzZDEifQ.eyJleHAiOjE2NjQ4MDQ5NzIsImlhdCI6MTY2NDgwMzE3MiwianRpIjoiMTJhYzc3ZjQtNDk1ZC00ZTU4LWFiNWYtN2NiZjk4ZGRkNWQzIiwiaXNzIjoiaHR0cHM6Ly9hdXRoLWRlbW8ubnAudHJhbnNwb3J0aWNvbmxpbmUuY29tL2F1dGgvcmVhbG1zL3RpYyIsImF1ZCI6Imh0dHBzOi8vYXV0aC1kZW1vLm5wLnRyYW5zcG9ydGljb25saW5lLmNvbS9hdXRoL3JlYWxtcy90aWMiLCJzdWIiOiI0ZTk3NmQ0NC1iM2ZkLTRjYTktODk1Ny0wYWJiODUwNzNhNzQiLCJ0eXAiOiJSZWZyZXNoIiwiYXpwIjoidGljLWFwaSIsInNlc3Npb25fc3RhdGUiOiI2NGMwYjMzOC1kZDNmLTRkZTYtOGM1Zi0yMjk3NGRhYmIxMmMiLCJzY29wZSI6ImVtYWlsIHByb2ZpbGUiLCJzaWQiOiI2NGMwYjMzOC1kZDNmLTRkZTYtOGM1Zi0yMjk3NGRhYmIxMmMifQ.ZpY1BNlnYgfpDdCd2_WQrglnGLskWsQegxA8O5uVqIo","token_type":"Bearer","not-before-policy":0,"session_state":"64c0b338-dd3f-4de6-8c5f-22974dabb12c","scope":"email profile"}" contains "access_token". @03-10-2022 15:19:33.0978 PM
[ReportManager] Successfully created attachment "Validation Test Data - Expected Value" @03-10-2022 15:19:33.0981 PM
[ReportManager] Successfully created attachment "Validation Test Data - Actual Value" @03-10-2022 15:19:33.0981 PM
[ReportManager] Get response jsonvalue "access_token". @03-10-2022 15:19:33.0982 PM
[ReportManager] Assertion Passed: Check that Access token is not null. @03-10-2022 15:19:33.0982 PM
[ReportManager] Successfully created attachment "Validation Test Data - Expected Value" @03-10-2022 15:19:33.0982 PM
[ReportManager] Successfully created attachment "Validation Test Data - Actual Value" @03-10-2022 15:19:33.0983 PM
[ReportManager] File Action "DoesFileExist" successfully performed. With the following test data "File Path: "Token_schema.json"". @03-10-2022 15:19:33.0983 PM
[ReportManager] File Action "DoesFileExist" successfully performed. With the following test data "File Path: "src/test/resources/testDataFiles/Token_schema.json"". @03-10-2022 15:19:33.0983 PM
[ReportManager] File Action "GetAbsolutePath" successfully performed. With the following test data "Relative Folder Path: "src/test/resources/testDataFiles/Token_schema.json"". @03-10-2022 15:19:33.0983 PM
[ReportManager] File Action "DoesFileExist" successfully performed. With the following test data "File Path: "C:\eclipse-workspace\MyProjects\TASystemsAPIs\src\test\resources\testDataFiles\Token_schema.json"". @03-10-2022 15:19:33.0990 PM
[ReportManager] File Action "GetAbsolutePath" successfully performed. With the following test data "Relative Folder Path: "C:\eclipse-workspace\MyProjects\TASystemsAPIs\src\test\resources\testDataFiles\Token_schema.json"". @03-10-2022 15:19:33.0990 PM
[ReportManager] File Action "ReadFromFile" successfully performed. With the following test data "File Path: "C:\eclipse-workspace\MyProjects\TASystemsAPIs\src\test\resources\testDataFiles\Token_schema.json"". @03-10-2022 15:19:33.0991 PM
[ReportManager] Assertion Passed: The API response schema matches that in this file "src/test/resources/testDataFiles/Token_schema.json". @03-10-2022 15:19:33.0992 PM
[ReportManager] Successfully created attachment "Validation Test Data - Expected JSON Value" @03-10-2022 15:19:33.0995 PM
[ReportManager] Successfully created attachment "Validation Test Data - Actual JSON Value" @03-10-2022 15:19:33.0997 PM
[ReportManager] Verification Passed: "850" is greater than or equal to "1.1". @03-10-2022 15:19:34.0020 PM
[ReportManager] Verification Passed: "850" is less than or equal to "10000". @03-10-2022 15:19:34.0021 PM
[ReportManager] Setting discrete logging to: "true" @03-10-2022 15:19:35.0765 PM
[ReportManager] Response status code: "200", status line: "HTTP/1.1 200 " @03-10-2022 15:19:35.0765 PM
[ReportManager] Assertion Passed: Evaluating the actual response status code against the expected one... @03-10-2022 15:19:35.0765 PM
[ReportManager] Setting discrete logging to: "false" @03-10-2022 15:19:35.0765 PM
[ReportManager] Perform request "GET | Target Status Code: 200 | Service URL: https://api-demo.np.transporticonline.com/steeringcompanies/v1/lookups/terminals | Content Type: */* | Response Time: 1720ms". @03-10-2022 15:19:35.0881 PM
[ReportManager] Successfully created attachment "API Request - Specifications" @03-10-2022 15:19:35.0882 PM
[ReportManager] Successfully created attachment "API Response - JSON Body" @03-10-2022 15:19:35.0882 PM
[ReportManager] Assertion Passed: "200" is equal to "200". @03-10-2022 15:19:35.0883 PM
[ReportManager] Verification Passed: "1720" is greater than or equal to "1.1". @03-10-2022 15:19:35.0883 PM
[ReportManager] Verification Passed: "1720" is less than or equal to "10000". @03-10-2022 15:19:35.0883 PM
[ReportManager] Assertion Passed: "{"page":0,"size":2147483647,"totalPages":1,"totalElements":13,"content":[{"id":20,"nameArabic":"???? ????????","nameEnglish":"Departure Terminal","isActive":false,"lastUpdated":"2021-04-11T21:05:44Z","portId":51,"sectors":null},{"id":12,"nameArabic":"??????? - ???? ?????? ???? ???","nameEnglish":"","isActive":false,"lastUpdated":"2021-04-11T21:05:58Z","code":"","portId":51,"sectors":null},{"id":7,"nameArabic":"??????? ?????? ??????","nameEnglish":"Madinah Fast Track Terminal","isActive":false,"lastUpdated":"2021-04-11T21:06:12Z","code":"","portId":51,"sectors":null},{"id":1,"nameArabic":"???? ?????? ???","nameEnglish":"Jeddah Hajj Terminal","isActive":false,"lastUpdated":"2021-04-11T21:06:20Z","code":"H","portId":50,"sectors":null},{"id":6,"nameArabic":"????? ??? ????????","nameEnglish":"Jeddah Sea Ports","isActive":true,"lastUpdated":null,"code":"P","portId":52,"sectors":null},{"id":8,"nameArabic":"????? ????","nameEnglish":"Trustees Yanbo TERMINAL","isActive":true,"lastUpdated":null,"code":"B","portId":53,"sectors":null},{"id":9,"nameArabic":"???? ?????? ??? ?????? ?? ??? ??????","nameEnglish":"Abdul Mohsin bin Abdulaziz Airport","isActive":true,"lastUpdated":null,"code":"Y","portId":67,"sectors":null},{"id":10,"nameArabic":"???? ?????? ??????? ?? ????","nameEnglish":"International Arrival Terminal on Yanbo","isActive":true,"lastUpdated":null,"code":"TR3","portId":67,"sectors":null},{"id":11,"nameArabic":"?????? 1","nameEnglish":"TERMINAL 1","isActive":true,"lastUpdated":null,"code":"T1","portId":50,"sectors":null},{"id":2,"nameArabic":"??? ?????? ????????","nameEnglish":"Jeddah South Terminal","isActive":true,"lastUpdated":"2020-10-15T12:35:51Z","code":"S","portId":50,"sectors":null},{"id":3,"nameArabic":"??? ?????? ????????","nameEnglish":"Jeddah North Terminal","isActive":true,"lastUpdated":"2020-10-15T12:35:51Z","code":"N","portId":50,"sectors":null},{"id":5,"nameArabic":"??????? ?????? ???????","nameEnglish":"Madinah Intarnational Terminal","isActive":true,"lastUpdated":"2020-10-15T12:35:51Z","code":"I","portId":51,"sectors":null},{"id":4,"nameArabic":"???? ?????? ???????","nameEnglish":"Madinah Hajj Terminal","isActive":true,"lastUpdated":"2020-12-15T10:56:54Z","code":"H","portId":51,"sectors":null}]}" contains "content". @03-10-2022 15:19:35.0883 PM
[ReportManager] Successfully created attachment "Validation Test Data - Expected Value" @03-10-2022 15:19:35.0885 PM
[ReportManager] Successfully created attachment "Validation Test Data - Actual Value" @03-10-2022 15:19:35.0887 PM
[ReportManager] Get response jsonvalue "content". @03-10-2022 15:19:35.0891 PM
[ReportManager] Assertion Passed: Check that content object is not null. @03-10-2022 15:19:35.0891 PM
[ReportManager] Successfully created attachment "Validation Test Data - Expected Value" @03-10-2022 15:19:35.0893 PM
[ReportManager] Successfully created attachment "Validation Test Data - Actual Value" @03-10-2022 15:19:35.0894 PM
[ReportManager] File Action "DoesFileExist" successfully performed. With the following test data "File Path: "Lookups_terminals_schema.json"". @03-10-2022 15:19:35.0894 PM
[ReportManager] File Action "DoesFileExist" successfully performed. With the following test data "File Path: "src/test/resources/testDataFiles/Lookups_terminals_schema.json"". @03-10-2022 15:19:35.0895 PM
[ReportManager] File Action "GetAbsolutePath" successfully performed. With the following test data "Relative Folder Path: "src/test/resources/testDataFiles/Lookups_terminals_schema.json"". @03-10-2022 15:19:35.0895 PM
[ReportManager] File Action "DoesFileExist" successfully performed. With the following test data "File Path: "C:\eclipse-workspace\MyProjects\TASystemsAPIs\src\test\resources\testDataFiles\Lookups_terminals_schema.json"". @03-10-2022 15:19:35.0920 PM
[ReportManager] File Action "GetAbsolutePath" successfully performed. With the following test data "Relative Folder Path: "C:\eclipse-workspace\MyProjects\TASystemsAPIs\src\test\resources\testDataFiles\Lookups_terminals_schema.json"". @03-10-2022 15:19:35.0920 PM
[ReportManager] File Action "ReadFromFile" successfully performed. With the following test data "File Path: "C:\eclipse-workspace\MyProjects\TASystemsAPIs\src\test\resources\testDataFiles\Lookups_terminals_schema.json"". @03-10-2022 15:19:35.0921 PM
[ReportManager] Assertion Passed: The API response schema matches that in this file "src/test/resources/testDataFiles/Lookups_terminals_schema.json". @03-10-2022 15:19:35.0923 PM
[ReportManager] Successfully created attachment "Validation Test Data - Expected JSON Value" @03-10-2022 15:19:35.0926 PM
[ReportManager] Successfully created attachment "Validation Test Data - Actual JSON Value" @03-10-2022 15:19:35.0927 PM
[ReportManager] Verification Passed: "1720" is greater than or equal to "1.1". @03-10-2022 15:19:35.0928 PM
[ReportManager] Verification Passed: "1720" is less than or equal to "10000". @03-10-2022 15:19:35.0928 PM
[ReportManager] Setting discrete logging to: "true" @03-10-2022 15:19:36.0545 PM
[ReportManager] Response status code: "200", status line: "HTTP/1.1 200 " @03-10-2022 15:19:36.0545 PM
[ReportManager] Assertion Passed: Evaluating the actual response status code against the expected one... @03-10-2022 15:19:36.0545 PM
[ReportManager] Setting discrete logging to: "false" @03-10-2022 15:19:36.0545 PM
[ReportManager] Perform request "GET | Target Status Code: 200 | Service URL: https://api-demo.np.transporticonline.com/steeringcompanies/v1/lookups/terminals | Content Type: */* | Response Time: 614ms". @03-10-2022 15:19:36.0574 PM
[ReportManager] Successfully created attachment "API Request - Specifications" @03-10-2022 15:19:36.0576 PM
[ReportManager] Successfully created attachment "API Response - JSON Body" @03-10-2022 15:19:36.0578 PM
[ReportManager] Assertion Passed: "200" is equal to "200". @03-10-2022 15:19:36.0579 PM
[ReportManager] Verification Passed: "614" is greater than or equal to "1.1". @03-10-2022 15:19:36.0579 PM
[ReportManager] Verification Passed: "614" is less than or equal to "10000". @03-10-2022 15:19:36.0580 PM
[ReportManager] Assertion Passed: "{"page":0,"size":3,"totalPages":5,"totalElements":13,"content":[{"id":20,"nameArabic":"???? ????????","nameEnglish":"Departure Terminal","isActive":false,"lastUpdated":"2021-04-11T21:05:44Z","portId":51,"sectors":null},{"id":12,"nameArabic":"??????? - ???? ?????? ???? ???","nameEnglish":"","isActive":false,"lastUpdated":"2021-04-11T21:05:58Z","code":"","portId":51,"sectors":null},{"id":7,"nameArabic":"??????? ?????? ??????","nameEnglish":"Madinah Fast Track Terminal","isActive":false,"lastUpdated":"2021-04-11T21:06:12Z","code":"","portId":51,"sectors":null}]}" contains "content". @03-10-2022 15:19:36.0580 PM
[ReportManager] Successfully created attachment "Validation Test Data - Expected Value" @03-10-2022 15:19:36.0582 PM
[ReportManager] Successfully created attachment "Validation Test Data - Actual Value" @03-10-2022 15:19:36.0583 PM
[ReportManager] Get response jsonvalue "content". @03-10-2022 15:19:36.0585 PM
[ReportManager] Assertion Passed: Check that content object is not null. @03-10-2022 15:19:36.0585 PM
[ReportManager] Successfully created attachment "Validation Test Data - Expected Value" @03-10-2022 15:19:36.0586 PM
[ReportManager] Successfully created attachment "Validation Test Data - Actual Value" @03-10-2022 15:19:36.0586 PM
[ReportManager] File Action "DoesFileExist" successfully performed. With the following test data "File Path: "Lookups_terminals_schema.json"". @03-10-2022 15:19:36.0587 PM
[ReportManager] File Action "DoesFileExist" successfully performed. With the following test data "File Path: "src/test/resources/testDataFiles/Lookups_terminals_schema.json"". @03-10-2022 15:19:36.0587 PM
[ReportManager] File Action "GetAbsolutePath" successfully performed. With the following test data "Relative Folder Path: "src/test/resources/testDataFiles/Lookups_terminals_schema.json"". @03-10-2022 15:19:36.0588 PM
[ReportManager] File Action "DoesFileExist" successfully performed. With the following test data "File Path: "C:\eclipse-workspace\MyProjects\TASystemsAPIs\src\test\resources\testDataFiles\Lookups_terminals_schema.json"". @03-10-2022 15:19:36.0596 PM
[ReportManager] File Action "GetAbsolutePath" successfully performed. With the following test data "Relative Folder Path: "C:\eclipse-workspace\MyProjects\TASystemsAPIs\src\test\resources\testDataFiles\Lookups_terminals_schema.json"". @03-10-2022 15:19:36.0596 PM
[ReportManager] File Action "ReadFromFile" successfully performed. With the following test data "File Path: "C:\eclipse-workspace\MyProjects\TASystemsAPIs\src\test\resources\testDataFiles\Lookups_terminals_schema.json"". @03-10-2022 15:19:36.0596 PM
[ReportManager] Assertion Passed: The API response schema matches that in this file "src/test/resources/testDataFiles/Lookups_terminals_schema.json". @03-10-2022 15:19:36.0597 PM
[ReportManager] Successfully created attachment "Validation Test Data - Expected JSON Value" @03-10-2022 15:19:36.0599 PM
[ReportManager] Successfully created attachment "Validation Test Data - Actual JSON Value" @03-10-2022 15:19:36.0600 PM
[ReportManager] Verification Passed: "614" is greater than or equal to "1.1". @03-10-2022 15:19:36.0601 PM
[ReportManager] Verification Passed: "614" is less than or equal to "10000". @03-10-2022 15:19:36.0601 PM