{"uuid":"24349734-8b91-47db-b0f2-84fccedd9653","historyId":"3cb044767af6f7737554bcc7b11e9225","fullName":"SteeringCompanyAPI_TestCases.Test_Commissions_Cases.Valid_GET_all_OTAs_by_Qry_Rq_TC","labels":[{"name":"package","value":"SteeringCompanyAPI_TestCases.Test_Commissions_Cases"},{"name":"testClass","value":"SteeringCompanyAPI_TestCases.Test_Commissions_Cases"},{"name":"testMethod","value":"Valid_GET_all_OTAs_by_Qry_Rq_TC"},{"name":"parentSuite","value":"Suite"},{"name":"suite","value":"Test"},{"name":"subSuite","value":"SteeringCompanyAPI_TestCases.Test_Commissions_Cases"},{"name":"host","value":"TW-1056"},{"name":"thread","value":"12248@TW-1056.main(1)"},{"name":"framework","value":"testng"},{"name":"language","value":"java"},{"name":"story","value":"Retrieving All Active OTAs with Pagination"},{"name":"severity","value":"critical"}],"links":[],"name":"TC017  -OTAs- Perform Get all OTAs API with pagination with valid user name and password","status":"passed","statusDetails":{"known":false,"muted":false,"flaky":false},"stage":"finished","steps":[{"name":"Loaded Test Data: \"src/test/resources/testDataFiles/SteeringCompanyAPI_TestData/SteeringCompanyAPI_TestData.xlsx\".","status":"passed","stage":"finished","steps":[],"attachments":[{"name":"Test Data - Excel","source":"b3a4926a-a956-4d1c-8134-af3770bc8fce-attachment.xlsx","type":"application/vnd.openxmlformats-officedocument.spreadsheetml.sheet"}],"parameters":[{"name":"logText","value":"Loaded Test Data: \"src/test/resources/testDataFiles/SteeringCompanyAPI_TestData/SteeringCompanyAPI_TestData.xlsx\"."},{"name":"attachments","value":"[[Test Data, Excel, java.io.FileInputStream@3921c432]]"}],"start":1675774572927,"stop":1675774572928},{"name":"Assertion Passed: Evaluating the actual response status code against the expected one...","status":"passed","stage":"finished","steps":[],"attachments":[],"parameters":[{"name":"customLog","value":"Assertion Passed: Evaluating the actual response status code against the expected one..."},{"name":"stepLog","value":"Assertion \"ValidateComparativeRelation\" PASSED. Expected \"200\" and Actual \"200\". Comparison Type \"EQUALS\". Validation Type \"POSITIVE\"."},{"name":"attachments","value":"null"}],"start":1675774573532,"stop":1675774573532},{"name":"Perform request \"POST | Target Status Code: 200 | Service URL: https://auth-demo.np.transporticonline.com/auth/realms/tic/protocol/openid-connect/token | Content Type: application/x-www-form-urlencoded | Response Time: 600ms\".","status":"passed","stage":"finished","steps":[],"attachments":[{"name":"API Request - Specifications","source":"ec85cdcd-c70c-41d4-a416-98233ffdf7dd-attachment"},{"name":"API Request - Body","source":"b3a991af-5146-425c-a90b-2427b42d5abb-attachment"},{"name":"API Response - JSON Body","source":"15c647b0-53d3-4935-acb1-01aaf2d7e4ef-attachment.json","type":"text/json"}],"parameters":[{"name":"logText","value":"Perform request \"POST | Target Status Code: 200 | Service URL: https://auth-demo.np.transporticonline.com/auth/realms/tic/protocol/openid-connect/token | Content Type: application/x-www-form-urlencoded | Response Time: 600ms\"."},{"name":"attachments","value":"[[API Request, Specifications, Headers:\r\n_______________\r\n\r\nContent-Type=application/x-www-form-urlencoded\r\n\r\n], [API Request, Body, java.io.ByteArrayInputStream@c65734e], null, [API Response, JSON Body, java.io.ByteArrayInputStream@7b97c11]]"}],"start":1675774573558,"stop":1675774573566},{"name":"Assertion Passed: Check Response Status Code is 200 and it is valid.","status":"passed","stage":"finished","steps":[],"attachments":[],"parameters":[{"name":"customLog","value":"Assertion Passed: Check Response Status Code is 200 and it is valid."},{"name":"stepLog","value":"Assertion \"ValidateComparativeRelation\" PASSED. Expected \"200\" and Actual \"200\". Comparison Type \"EQUALS\". Validation Type \"POSITIVE\"."},{"name":"attachments","value":"null"}],"start":1675774573566,"stop":1675774573566},{"name":"Loaded Test Data: \"src/test/resources/testDataFiles/SteeringCompanyAPI_TestData/SteeringCompanyAPI_TestData.xlsx\".","status":"passed","stage":"finished","steps":[],"attachments":[{"name":"Test Data - Excel","source":"4f6e7337-ffd0-4ca2-9edb-5ed5828fcfa4-attachment.xlsx","type":"application/vnd.openxmlformats-officedocument.spreadsheetml.sheet"}],"parameters":[{"name":"logText","value":"Loaded Test Data: \"src/test/resources/testDataFiles/SteeringCompanyAPI_TestData/SteeringCompanyAPI_TestData.xlsx\"."},{"name":"attachments","value":"[[Test Data, Excel, java.io.FileInputStream@57b2e99]]"}],"start":1675774573634,"stop":1675774573636},{"name":"Loaded Test Data: \"src/test/resources/testDataFiles/SteeringCompanyAPI_TestData/SteeringCompanyAPI_TestData.xlsx\".","status":"passed","stage":"finished","steps":[],"attachments":[{"name":"Test Data - Excel","source":"29b6f6ff-0936-4b00-82d1-a5ee1bacb758-attachment.xlsx","type":"application/vnd.openxmlformats-officedocument.spreadsheetml.sheet"}],"parameters":[{"name":"logText","value":"Loaded Test Data: \"src/test/resources/testDataFiles/SteeringCompanyAPI_TestData/SteeringCompanyAPI_TestData.xlsx\"."},{"name":"attachments","value":"[[Test Data, Excel, java.io.FileInputStream@50dc7396]]"}],"start":1675774573690,"stop":1675774573692},{"name":"Loaded Test Data: \"src/test/resources/testDataFiles/SteeringCompanyAPI_TestData/SteeringCompanyAPI_TestData.xlsx\".","status":"passed","stage":"finished","steps":[],"attachments":[{"name":"Test Data - Excel","source":"9e704a03-6ac3-4d62-8e6f-530725f4dde5-attachment.xlsx","type":"application/vnd.openxmlformats-officedocument.spreadsheetml.sheet"}],"parameters":[{"name":"logText","value":"Loaded Test Data: \"src/test/resources/testDataFiles/SteeringCompanyAPI_TestData/SteeringCompanyAPI_TestData.xlsx\"."},{"name":"attachments","value":"[[Test Data, Excel, java.io.FileInputStream@2185b6d1]]"}],"start":1675774573737,"stop":1675774573739},{"name":"Assertion Passed: Evaluating the actual response status code against the expected one...","status":"passed","stage":"finished","steps":[],"attachments":[],"parameters":[{"name":"customLog","value":"Assertion Passed: Evaluating the actual response status code against the expected one..."},{"name":"stepLog","value":"Assertion \"ValidateComparativeRelation\" PASSED. Expected \"200\" and Actual \"200\". Comparison Type \"EQUALS\". Validation Type \"POSITIVE\"."},{"name":"attachments","value":"null"}],"start":1675774574265,"stop":1675774574265},{"name":"Perform request \"GET | Target Status Code: 200 | Service URL: https://api-demo.np.transporticonline.com/steeringcompanies/v1/otas | Content Type: */* | Response Time: 522ms\".","status":"passed","stage":"finished","steps":[],"attachments":[{"name":"API Request - Specifications","source":"4aca655a-5421-4e2f-8422-0e384d5f6014-attachment"},{"name":"API Response - JSON Body","source":"b81f9088-83ff-4de1-9ed5-7ea86d958961-attachment.json","type":"text/json"}],"parameters":[{"name":"logText","value":"Perform request \"GET | Target Status Code: 200 | Service URL: https://api-demo.np.transporticonline.com/steeringcompanies/v1/otas | Content Type: */* | Response Time: 522ms\"."},{"name":"attachments","value":"[[API Request, Specifications, Headers:\r\n_______________\r\n\r\nAuthorization=Bearer eyJhbGciOiJSUzI1NiIsInR5cCIgOiAiSldUIiwia2lkIiA6ICJjck9ORDFNdFVPVWhzS2Mtb0ppVFFmb0o1d1l4REF6Y3k0ZjNYZ0dveGdZIn0.eyJleHAiOjE2NzU3OTYxNzAsImlhdCI6MTY3NTc3NDU3MCwianRpIjoiNGYwNDExOGUtYjUxNC00NTE3LThmN2ItODc2YTFmZDk2NTgyIiwiaXNzIjoiaHR0cHM6Ly9hdXRoLWRlbW8ubnAudHJhbnNwb3J0aWNvbmxpbmUuY29tL2F1dGgvcmVhbG1zL3RpYyIsImF1ZCI6ImFjY291bnQiLCJzdWIiOiI0ZTk3NmQ0NC1iM2ZkLTRjYTktODk1Ny0wYWJiODUwNzNhNzQiLCJ0eXAiOiJCZWFyZXIiLCJhenAiOiJ0aWMtYXBpIiwic2Vzc2lvbl9zdGF0ZSI6ImI1NDg4OTJkLWMyODYtNDg0Ni1iMGIxLTY3YjRjYjVmYWJmZiIsImFjciI6IjEiLCJhbGxvd2VkLW9yaWdpbnMiOlsiaHR0cHM6Ly9hcGktZGV2Lm5wLnRyYW5zcG9ydGljb25saW5lLmNvbSJdLCJyZWFsbV9hY2Nlc3MiOnsicm9sZXMiOlsib2ZmbGluZV9hY2Nlc3MiLCJkZWZhdWx0LXJvbGVzLXRpYyIsInVtYV9hdXRob3JpemF0aW9uIiwidXNlciJdfSwicmVzb3VyY2VfYWNjZXNzIjp7ImFjY291bnQiOnsicm9sZXMiOlsibWFuYWdlLWFjY291bnQiLCJtYW5hZ2UtYWNjb3VudC1saW5rcyIsInZpZXctcHJvZmlsZSJdfX0sInNjb3BlIjoiZW1haWwgcHJvZmlsZSIsInNpZCI6ImI1NDg4OTJkLWMyODYtNDg0Ni1iMGIxLTY3YjRjYjVmYWJmZiIsImVtYWlsX3ZlcmlmaWVkIjpmYWxzZSwicHJlZmVycmVkX3VzZXJuYW1lIjoidG9raGkiLCJ0Y0lkIjoiMzE5OTU3In0.A5foqhOiZYKuWd7GqRBDu6und5wiVBoXDRfTBm-OGwzHem3Jlwt1XoHsyOChfaD7fddT0xtSzKeBWO6rlqOdua7PTvq8sgaWAKm4nzLcDwu-7Pi6Rd9q2VVXFOP874Uz0u93ZoOmfuL4a09aCdvhlY4oqANYf-lrovO2Ezh7k657KBySD5bDu2CsnXDLaHVQPX14EZM3giGecQn0kHw7gy7W3chgUNIXSHd9cTOlhccufc-KYNiAzVwdYJkeK8Y9gDWMB4jK6c_P14HZEEs-YouBTLurQi5cdYHT45Hyh5G6ezmAYPZmzuMdXdUzk5WVQCWVAW-eFEsWjWVzjLMlJA\r\nContent-Type=*/*\r\n\r\nQuery Parameters:\r\n_______________\r\n\r\nsize=10\r\npage=test\r\n], null, [API Response, JSON Body, java.io.ByteArrayInputStream@53011b2d]]"}],"start":1675774574296,"stop":1675774574300},{"name":"Assertion Passed: \"200\" is equal to \"200\".","status":"passed","stage":"finished","steps":[],"attachments":[],"parameters":[{"name":"customLog","value":"Assertion Passed: \"200\" is equal to \"200\"."},{"name":"stepLog","value":"Assertion \"ValidateComparativeRelation\" PASSED. Expected \"200\" and Actual \"200\". Comparison Type \"EQUALS\". Validation Type \"POSITIVE\"."},{"name":"attachments","value":"null"}],"start":1675774574300,"stop":1675774574300},{"name":"Verification Passed: \"522\" is greater than or equal to \"1.1\".","status":"passed","stage":"finished","steps":[],"attachments":[],"parameters":[{"name":"customLog","value":"Verification Passed: \"522\" is greater than or equal to \"1.1\"."},{"name":"stepLog","value":"Verification \"ValidateComparativeRelation\" PASSED. Expected \"1.1\" and Actual \"522\". Comparison Type \"GREATER_THAN_OR_EQUALS\". Validation Type \"POSITIVE\"."},{"name":"attachments","value":"null"}],"start":1675774574301,"stop":1675774574301},{"name":"Verification Passed: \"522\" is less than or equal to \"10000\".","status":"passed","stage":"finished","steps":[],"attachments":[],"parameters":[{"name":"customLog","value":"Verification Passed: \"522\" is less than or equal to \"10000\"."},{"name":"stepLog","value":"Verification \"ValidateComparativeRelation\" PASSED. Expected \"10000\" and Actual \"522\". Comparison Type \"LESS_THAN_OR_EQUALS\". Validation Type \"POSITIVE\"."},{"name":"attachments","value":"null"}],"start":1675774574301,"stop":1675774574301},{"name":"Assertion Passed: \"{\"page\":0,\"size\":10,\"totalPages\":5,\"totalElements\":47,\"content\":[{\"otaCode\":\"agoda\",\"nameArabic\":\"-\",\"nameEnglish\":\"agoda_old\",\"isActive\":true,\"isEnable\":true},{\"otaCode\":\"Mawasim\",\"nameArabic\":\"-\",\"nameEnglish\":\"MawasimOTA\",\"isActive\":true,\"isEnable\":true},{\"otaCode\":\"SaudiaHolidaysOTA\",\"nameArabic\":\"-\",\"nameEnglish\":\"SaudiaHolidaysOTA\",\"isActive\":true,\"isEnable\":true},{\"otaCode\":\"HotelGate\",\"nameArabic\":\"-\",\"nameEnglish\":\"HotelGate\",\"isActive\":true,\"isEnable\":false},{\"otaCode\":\"AlrajhiOTA\",\"nameArabic\":\"-\",\"nameEnglish\":\"AlrajhiOTA\",\"isActive\":true,\"isEnable\":true},{\"otaCode\":\"ELAF_OTA\",\"nameArabic\":\"-\",\"nameEnglish\":\"Elaf Travel and Tourism\",\"isActive\":true,\"isEnable\":true},{\"otaCode\":\"WebBedsOTA\",\"nameArabic\":\"-\",\"nameEnglish\":\"WebBeds OTA\",\"isActive\":true,\"isEnable\":true},{\"otaCode\":\"U1470\",\"nameArabic\":\"-\",\"nameEnglish\":\"UmrahOTA\",\"isActive\":true,\"isEnable\":true},{\"otaCode\":\"MyHotel\",\"nameArabic\":\"-\",\"nameEnglish\":\"MyHotel\",\"isActive\":true,\"isEnable\":true},{\"otaCode\":\"Taqneen\",\"nameArabic\":\"-\",\"nameEnglish\":\"Taqneen\",\"isActive\":true,\"isEnable\":true}]}\" contains \"content\".","status":"passed","stage":"finished","steps":[],"attachments":[{"name":"Validation Test Data - Expected Value","source":"f832bb6f-e605-4cfc-807a-0f5bb21dd71b-attachment"},{"name":"Validation Test Data - Actual Value","source":"2f302656-9252-4e0a-86cc-900394d530cb-attachment"}],"parameters":[{"name":"customLog","value":"Assertion Passed: \"{\"page\":0,\"size\":10,\"totalPages\":5,\"totalElements\":47,\"content\":[{\"otaCode\":\"agoda\",\"nameArabic\":\"-\",\"nameEnglish\":\"agoda_old\",\"isActive\":true,\"isEnable\":true},{\"otaCode\":\"Mawasim\",\"nameArabic\":\"-\",\"nameEnglish\":\"MawasimOTA\",\"isActive\":true,\"isEnable\":true},{\"otaCode\":\"SaudiaHolidaysOTA\",\"nameArabic\":\"-\",\"nameEnglish\":\"SaudiaHolidaysOTA\",\"isActive\":true,\"isEnable\":true},{\"otaCode\":\"HotelGate\",\"nameArabic\":\"-\",\"nameEnglish\":\"HotelGate\",\"isActive\":true,\"isEnable\":false},{\"otaCode\":\"AlrajhiOTA\",\"nameArabic\":\"-\",\"nameEnglish\":\"AlrajhiOTA\",\"isActive\":true,\"isEnable\":true},{\"otaCode\":\"ELAF_OTA\",\"nameArabic\":\"-\",\"nameEnglish\":\"Elaf Travel and Tourism\",\"isActive\":true,\"isEnable\":true},{\"otaCode\":\"WebBedsOTA\",\"nameArabic\":\"-\",\"nameEnglish\":\"WebBeds OTA\",\"isActive\":true,\"isEnable\":true},{\"otaCode\":\"U1470\",\"nameArabic\":\"-\",\"nameEnglish\":\"UmrahOTA\",\"isActive\":true,\"isEnable\":true},{\"otaCode\":\"MyHotel\",\"nameArabic\":\"-\",\"nameEnglish\":\"MyHotel\",\"isActive\":true,\"isEnable\":true},{\"otaCode\":\"Taqneen\",\"nameArabic\":\"-\",\"nameEnglish\":\"Taqneen\",\"isActive\":true,\"isEnable\":true}]}\" contains \"content\"."},{"name":"stepLog","value":"Assertion \"ValidateEquals\" PASSED. Expected and Actual values are attached. Comparison Type \"CONTAINS\". Validation Type \"POSITIVE\"."},{"name":"attachments","value":"[[Validation Test Data, Expected Value, content], [Validation Test Data, Actual Value, {\"page\":0,\"size\":10,\"totalPages\":5,\"totalElements\":47,\"content\":[{\"otaCode\":\"agoda\",\"nameArabic\":\"-\",\"nameEnglish\":\"agoda_old\",\"isActive\":true,\"isEnable\":true},{\"otaCode\":\"Mawasim\",\"nameArabic\":\"-\",\"nameEnglish\":\"MawasimOTA\",\"isActive\":true,\"isEnable\":true},{\"otaCode\":\"SaudiaHolidaysOTA\",\"nameArabic\":\"-\",\"nameEnglish\":\"SaudiaHolidaysOTA\",\"isActive\":true,\"isEnable\":true},{\"otaCode\":\"HotelGate\",\"nameArabic\":\"-\",\"nameEnglish\":\"HotelGate\",\"isActive\":true,\"isEnable\":false},{\"otaCode\":\"AlrajhiOTA\",\"nameArabic\":\"-\",\"nameEnglish\":\"AlrajhiOTA\",\"isActive\":true,\"isEnable\":true},{\"otaCode\":\"ELAF_OTA\",\"nameArabic\":\"-\",\"nameEnglish\":\"Elaf Travel and Tourism\",\"isActive\":true,\"isEnable\":true},{\"otaCode\":\"WebBedsOTA\",\"nameArabic\":\"-\",\"nameEnglish\":\"WebBeds OTA\",\"isActive\":true,\"isEnable\":true},{\"otaCode\":\"U1470\",\"nameArabic\":\"-\",\"nameEnglish\":\"UmrahOTA\",\"isActive\":true,\"isEnable\":true},{\"otaCode\":\"MyHotel\",\"nameArabic\":\"-\",\"nameEnglish\":\"MyHotel\",\"isActive\":true,\"isEnable\":true},{\"otaCode\":\"Taqneen\",\"nameArabic\":\"-\",\"nameEnglish\":\"Taqneen\",\"isActive\":true,\"isEnable\":true}]}]]"}],"start":1675774574301,"stop":1675774574304},{"name":"Assertion Passed: Check that content object is not null.","status":"passed","stage":"finished","steps":[],"attachments":[{"name":"Validation Test Data - Expected Value","source":"34e0e344-1576-4b49-b5c5-58787070eaa1-attachment"},{"name":"Validation Test Data - Actual Value","source":"3396cb13-ef71-4f9d-9336-df33fcda00ca-attachment"}],"parameters":[{"name":"customLog","value":"Assertion Passed: Check that content object is not null."},{"name":"stepLog","value":"Assertion \"ValidateEquals\" PASSED. Expected and Actual values are attached. Comparison Type \"EQUALS\". Validation Type \"NEGATIVE\"."},{"name":"attachments","value":"[[Validation Test Data, Expected Value, null], [Validation Test Data, Actual Value, [{\"otaCode\":\"agoda\",\"nameArabic\":\"-\",\"nameEnglish\":\"agoda_old\",\"isActive\":true,\"isEnable\":true},{\"otaCode\":\"Mawasim\",\"nameArabic\":\"-\",\"nameEnglish\":\"MawasimOTA\",\"isActive\":true,\"isEnable\":true},{\"otaCode\":\"SaudiaHolidaysOTA\",\"nameArabic\":\"-\",\"nameEnglish\":\"SaudiaHolidaysOTA\",\"isActive\":true,\"isEnable\":true},{\"otaCode\":\"HotelGate\",\"nameArabic\":\"-\",\"nameEnglish\":\"HotelGate\",\"isActive\":true,\"isEnable\":false},{\"otaCode\":\"AlrajhiOTA\",\"nameArabic\":\"-\",\"nameEnglish\":\"AlrajhiOTA\",\"isActive\":true,\"isEnable\":true},{\"otaCode\":\"ELAF_OTA\",\"nameArabic\":\"-\",\"nameEnglish\":\"Elaf Travel and Tourism\",\"isActive\":true,\"isEnable\":true},{\"otaCode\":\"WebBedsOTA\",\"nameArabic\":\"-\",\"nameEnglish\":\"WebBeds OTA\",\"isActive\":true,\"isEnable\":true},{\"otaCode\":\"U1470\",\"nameArabic\":\"-\",\"nameEnglish\":\"UmrahOTA\",\"isActive\":true,\"isEnable\":true},{\"otaCode\":\"MyHotel\",\"nameArabic\":\"-\",\"nameEnglish\":\"MyHotel\",\"isActive\":true,\"isEnable\":true},{\"otaCode\":\"Taqneen\",\"nameArabic\":\"-\",\"nameEnglish\":\"Taqneen\",\"isActive\":true,\"isEnable\":true}]]]"}],"start":1675774574307,"stop":1675774574311},{"name":"Assertion Passed: The API response schema matches that in this file \"src/test/resources/testDataFiles/Schemas/OTAs_schema.json\".","status":"passed","stage":"finished","steps":[],"attachments":[{"name":"Validation Test Data - Expected JSON Value","source":"e70eb71e-e8c3-41e5-ae5f-1262576caf3a-attachment.json","type":"text/json"},{"name":"Validation Test Data - Actual JSON Value","source":"2b0e46d1-9264-4024-96bf-c20b60a20d14-attachment.json","type":"text/json"}],"parameters":[{"name":"customLog","value":"Assertion Passed: The API response schema matches that in this file \"src/test/resources/testDataFiles/Schemas/OTAs_schema.json\"."},{"name":"stepLog","value":"Assertion \"ValidateResponseFileSchema\" PASSED. Expected \"Response data should match the JSON File in this path 'C:\\eclipse-workspace\\MyProjects\\TASystemsAPIs\\src\\test\\resources\\testDataFiles\\Schemas\\OTAs_schema.json'\" and Actual \"TRUE\". Comparison Type \"EQUALS\". Validation Type \"POSITIVE\"."},{"name":"attachments","value":"[[Validation Test Data, Expected JSON Value, java.io.ByteArrayInputStream@5a0fc6cd], [Validation Test Data, Actual JSON Value, java.io.ByteArrayInputStream@11009075]]"}],"start":1675774574329,"stop":1675774574334}],"attachments":[{"name":"SHAFT Engine Logs - Current Method log: Valid_GET_all_OTAs_by_Qry_Rq_TC","source":"9a5f4bb5-2afe-4090-8f9d-d2095343ad25-attachment.txt","type":"text/plain"}],"parameters":[],"start":1675774572884,"stop":1675774574336}