[ReportManager] Setting discrete logging to: "false" @28-09-2022 19:00:11.0509 PM

################################################################################################################################################
Starting Execution:	"7 out of 10" test cases in the current suite
Test Method:		"SteeringCompanyAPI_TestCases.Test_Case.Valid_GET_all_terminals_Lookups_Rq_TC"
################################################################################################################################################
[ReportManager] Setting discrete logging to: "false" @28-09-2022 19:00:11.0509 PM
[ReportManager] Setting discrete logging to: "true" @28-09-2022 19:00:12.0272 PM
[ReportManager] Response status code: "200", status line: "HTTP/1.1 200 OK" @28-09-2022 19:00:12.0272 PM
[ReportManager] Assertion Passed: Evaluating the actual response status code against the expected one... @28-09-2022 19:00:12.0273 PM
[ReportManager] Setting discrete logging to: "false" @28-09-2022 19:00:12.0273 PM
[ReportManager] Perform request "POST | Target Status Code: 200 | Service URL: https://auth-demo.np.transporticonline.com/auth/realms/tic/protocol/openid-connect/token | Content Type: application/x-www-form-urlencoded | Response Time: 761ms". @28-09-2022 19:00:12.0282 PM
[ReportManager] Successfully created attachment "API Request - Specifications" @28-09-2022 19:00:12.0282 PM
[ReportManager] Successfully created attachment "API Request - Body" @28-09-2022 19:00:12.0283 PM
[ReportManager] Successfully created attachment "API Response - JSON Body" @28-09-2022 19:00:12.0283 PM
[ReportManager] Assertion Passed: "200" is equal to "200". @28-09-2022 19:00:12.0284 PM
[ReportManager] Verification Passed: "761" is greater than or equal to "1.1". @28-09-2022 19:00:12.0284 PM
[ReportManager] Verification Passed: "761" is less than or equal to "10000". @28-09-2022 19:00:12.0284 PM
[ReportManager] Assertion Passed: "{"access_token":"eyJhbGciOiJSUzI1NiIsInR5cCIgOiAiSldUIiwia2lkIiA6ICJjck9ORDFNdFVPVWhzS2Mtb0ppVFFmb0o1d1l4REF6Y3k0ZjNYZ0dveGdZIn0.eyJleHAiOjE2NjQzODQ3MTEsImlhdCI6MTY2NDM4NDQxMSwianRpIjoiYjg4MDA3ZDQtYTE3NS00MjQxLThhYTQtMTExZmVhNzgyNzUwIiwiaXNzIjoiaHR0cHM6Ly9hdXRoLWRlbW8ubnAudHJhbnNwb3J0aWNvbmxpbmUuY29tL2F1dGgvcmVhbG1zL3RpYyIsImF1ZCI6ImFjY291bnQiLCJzdWIiOiI0ZTk3NmQ0NC1iM2ZkLTRjYTktODk1Ny0wYWJiODUwNzNhNzQiLCJ0eXAiOiJCZWFyZXIiLCJhenAiOiJ0aWMtYXBpIiwic2Vzc2lvbl9zdGF0ZSI6IjI1ZmQ1M2QyLWIyZDctNDQ5YS1hZGM4LWJkOWJhMWJkMzMyOCIsImFjciI6IjEiLCJhbGxvd2VkLW9yaWdpbnMiOlsiaHR0cHM6Ly9hcGktZGV2Lm5wLnRyYW5zcG9ydGljb25saW5lLmNvbSJdLCJyZWFsbV9hY2Nlc3MiOnsicm9sZXMiOlsib2ZmbGluZV9hY2Nlc3MiLCJkZWZhdWx0LXJvbGVzLXRpYyIsInVtYV9hdXRob3JpemF0aW9uIiwidXNlciJdfSwicmVzb3VyY2VfYWNjZXNzIjp7ImFjY291bnQiOnsicm9sZXMiOlsibWFuYWdlLWFjY291bnQiLCJtYW5hZ2UtYWNjb3VudC1saW5rcyIsInZpZXctcHJvZmlsZSJdfX0sInNjb3BlIjoiZW1haWwgcHJvZmlsZSIsInNpZCI6IjI1ZmQ1M2QyLWIyZDctNDQ5YS1hZGM4LWJkOWJhMWJkMzMyOCIsImVtYWlsX3ZlcmlmaWVkIjpmYWxzZSwicHJlZmVycmVkX3VzZXJuYW1lIjoidG9raGkiLCJ0Y0lkIjoiMzE5OTU3In0.g7TQ2Rm3oGBRffVm2jbeyxcSGxPJ031OHxTHnOLgUpRIjL4TtvEeIl5g5xYZyC4It9vmPTTDTWs_URcMU-ZFqzjLPakMSnn-xHFf00SUYVlCO4gO-zi1xGjcOOit23j-phDxoAQqgmHe1o2_SswLlZO47zIAYmLdSMrAFM5vHeD3fx4g1gUhaazYLRdVlMjxq5DhJ-ENFEXPXZrPdNLFIfx547bO4tGa_r3Sra7zs9brXSs2sEBjtPOyjg-hxz8duL83PZxtvoVsAQ4N7dfd2lMuJdKuxRM7F8yuW62ImQFxxtl2blmLoamQQScCCnpyjUw6F9m1xmMiRlLVQ4DZqg","expires_in":300,"refresh_expires_in":1800,"refresh_token":"eyJhbGciOiJIUzI1NiIsInR5cCIgOiAiSldUIiwia2lkIiA6ICJkMTFjNTY4Yi1iMjAyLTQzYjgtYTBiMy1hYWI4ZWMyYWQzZDEifQ.eyJleHAiOjE2NjQzODYyMTEsImlhdCI6MTY2NDM4NDQxMSwianRpIjoiZDAwY2VhNTYtYjYzNC00NTFmLWE2YzQtOWI0NTc5NjhlMGU3IiwiaXNzIjoiaHR0cHM6Ly9hdXRoLWRlbW8ubnAudHJhbnNwb3J0aWNvbmxpbmUuY29tL2F1dGgvcmVhbG1zL3RpYyIsImF1ZCI6Imh0dHBzOi8vYXV0aC1kZW1vLm5wLnRyYW5zcG9ydGljb25saW5lLmNvbS9hdXRoL3JlYWxtcy90aWMiLCJzdWIiOiI0ZTk3NmQ0NC1iM2ZkLTRjYTktODk1Ny0wYWJiODUwNzNhNzQiLCJ0eXAiOiJSZWZyZXNoIiwiYXpwIjoidGljLWFwaSIsInNlc3Npb25fc3RhdGUiOiIyNWZkNTNkMi1iMmQ3LTQ0OWEtYWRjOC1iZDliYTFiZDMzMjgiLCJzY29wZSI6ImVtYWlsIHByb2ZpbGUiLCJzaWQiOiIyNWZkNTNkMi1iMmQ3LTQ0OWEtYWRjOC1iZDliYTFiZDMzMjgifQ.lFdorVhbKBEOoL1i0HmnmV03WnsDTVu6U4i7yiRWThM","token_type":"Bearer","not-before-policy":0,"session_state":"25fd53d2-b2d7-449a-adc8-bd9ba1bd3328","scope":"email profile"}" contains "access_token". @28-09-2022 19:00:12.0284 PM
[ReportManager] Successfully created attachment "Validation Test Data - Expected Value" @28-09-2022 19:00:12.0284 PM
[ReportManager] Successfully created attachment "Validation Test Data - Actual Value" @28-09-2022 19:00:12.0285 PM
[ReportManager] Get response jsonvalue "access_token". @28-09-2022 19:00:12.0285 PM
[ReportManager] Assertion Passed: Check that Access token is not null. @28-09-2022 19:00:12.0285 PM
[ReportManager] Successfully created attachment "Validation Test Data - Expected Value" @28-09-2022 19:00:12.0286 PM
[ReportManager] Successfully created attachment "Validation Test Data - Actual Value" @28-09-2022 19:00:12.0286 PM
[ReportManager] File Action "DoesFileExist" successfully performed. With the following test data "File Path: "Token_schema.json"". @28-09-2022 19:00:12.0286 PM
[ReportManager] File Action "DoesFileExist" successfully performed. With the following test data "File Path: "src/test/resources/testDataFiles/Token_schema.json"". @28-09-2022 19:00:12.0287 PM
[ReportManager] File Action "GetAbsolutePath" successfully performed. With the following test data "Relative Folder Path: "src/test/resources/testDataFiles/Token_schema.json"". @28-09-2022 19:00:12.0287 PM
[ReportManager] File Action "DoesFileExist" successfully performed. With the following test data "File Path: "C:\eclipse-workspace\MyProjects\TASystemsAPIs\src\test\resources\testDataFiles\Token_schema.json"". @28-09-2022 19:00:12.0290 PM
[ReportManager] File Action "GetAbsolutePath" successfully performed. With the following test data "Relative Folder Path: "C:\eclipse-workspace\MyProjects\TASystemsAPIs\src\test\resources\testDataFiles\Token_schema.json"". @28-09-2022 19:00:12.0290 PM
[ReportManager] File Action "ReadFromFile" successfully performed. With the following test data "File Path: "C:\eclipse-workspace\MyProjects\TASystemsAPIs\src\test\resources\testDataFiles\Token_schema.json"". @28-09-2022 19:00:12.0290 PM
[ReportManager] Assertion Passed: The API response schema matches that in this file "src/test/resources/testDataFiles/Token_schema.json". @28-09-2022 19:00:12.0290 PM
[ReportManager] Successfully created attachment "Validation Test Data - Expected JSON Value" @28-09-2022 19:00:12.0291 PM
[ReportManager] Successfully created attachment "Validation Test Data - Actual JSON Value" @28-09-2022 19:00:12.0291 PM
[ReportManager] Verification Passed: "761" is greater than or equal to "1.1". @28-09-2022 19:00:12.0299 PM
[ReportManager] Verification Passed: "761" is less than or equal to "10000". @28-09-2022 19:00:12.0299 PM
[ReportManager] Setting discrete logging to: "true" @28-09-2022 19:00:12.0887 PM
[ReportManager] Response status code: "200", status line: "HTTP/1.1 200 " @28-09-2022 19:00:12.0887 PM
[ReportManager] Assertion Passed: Evaluating the actual response status code against the expected one... @28-09-2022 19:00:12.0887 PM
[ReportManager] Setting discrete logging to: "false" @28-09-2022 19:00:12.0887 PM
[ReportManager] Perform request "GET | Target Status Code: 200 | Service URL: https://api-demo.np.transporticonline.com/steeringcompanies/v1/lookups/terminals | Content Type: */* | Response Time: 575ms". @28-09-2022 19:00:12.0899 PM
[ReportManager] Successfully created attachment "API Request - Specifications" @28-09-2022 19:00:12.0900 PM
[ReportManager] Successfully created attachment "API Response - JSON Body" @28-09-2022 19:00:12.0901 PM
[ReportManager] Assertion Passed: "200" is equal to "200". @28-09-2022 19:00:12.0901 PM
[ReportManager] Verification Passed: "575" is greater than or equal to "1.1". @28-09-2022 19:00:12.0901 PM
[ReportManager] Verification Passed: "575" is less than or equal to "10000". @28-09-2022 19:00:12.0902 PM
[ReportManager] Assertion Passed: "{"page":0,"size":2147483647,"totalPages":1,"totalElements":13,"content":[{"id":20,"nameArabic":"???? ????????","nameEnglish":"Departure Terminal","isActive":false,"lastUpdated":"2021-04-11T21:05:44Z","portId":51,"sectors":null},{"id":12,"nameArabic":"??????? - ???? ?????? ???? ???","nameEnglish":"","isActive":false,"lastUpdated":"2021-04-11T21:05:58Z","code":"","portId":51,"sectors":null},{"id":7,"nameArabic":"??????? ?????? ??????","nameEnglish":"Madinah Fast Track Terminal","isActive":false,"lastUpdated":"2021-04-11T21:06:12Z","code":"","portId":51,"sectors":null},{"id":1,"nameArabic":"???? ?????? ???","nameEnglish":"Jeddah Hajj Terminal","isActive":false,"lastUpdated":"2021-04-11T21:06:20Z","code":"H","portId":50,"sectors":null},{"id":6,"nameArabic":"????? ??? ????????","nameEnglish":"Jeddah Sea Ports","isActive":true,"lastUpdated":null,"code":"P","portId":52,"sectors":null},{"id":8,"nameArabic":"????? ????","nameEnglish":"Trustees Yanbo TERMINAL","isActive":true,"lastUpdated":null,"code":"B","portId":53,"sectors":null},{"id":9,"nameArabic":"???? ?????? ??? ?????? ?? ??? ??????","nameEnglish":"Abdul Mohsin bin Abdulaziz Airport","isActive":true,"lastUpdated":null,"code":"Y","portId":67,"sectors":null},{"id":10,"nameArabic":"???? ?????? ??????? ?? ????","nameEnglish":"International Arrival Terminal on Yanbo","isActive":true,"lastUpdated":null,"code":"TR3","portId":67,"sectors":null},{"id":11,"nameArabic":"?????? 1","nameEnglish":"TERMINAL 1","isActive":true,"lastUpdated":null,"code":"T1","portId":50,"sectors":null},{"id":2,"nameArabic":"??? ?????? ????????","nameEnglish":"Jeddah South Terminal","isActive":true,"lastUpdated":"2020-10-15T12:35:51Z","code":"S","portId":50,"sectors":null},{"id":3,"nameArabic":"??? ?????? ????????","nameEnglish":"Jeddah North Terminal","isActive":true,"lastUpdated":"2020-10-15T12:35:51Z","code":"N","portId":50,"sectors":null},{"id":5,"nameArabic":"??????? ?????? ???????","nameEnglish":"Madinah Intarnational Terminal","isActive":true,"lastUpdated":"2020-10-15T12:35:51Z","code":"I","portId":51,"sectors":null},{"id":4,"nameArabic":"???? ?????? ???????","nameEnglish":"Madinah Hajj Terminal","isActive":true,"lastUpdated":"2020-12-15T10:56:54Z","code":"H","portId":51,"sectors":null}]}" contains "content". @28-09-2022 19:00:12.0902 PM
[ReportManager] Successfully created attachment "Validation Test Data - Expected Value" @28-09-2022 19:00:12.0902 PM
[ReportManager] Successfully created attachment "Validation Test Data - Actual Value" @28-09-2022 19:00:12.0903 PM
[ReportManager] Get response jsonvalue "content". @28-09-2022 19:00:12.0903 PM
[ReportManager] Assertion Passed: Check that content object is not null. @28-09-2022 19:00:12.0904 PM
[ReportManager] Successfully created attachment "Validation Test Data - Expected Value" @28-09-2022 19:00:12.0904 PM
[ReportManager] Successfully created attachment "Validation Test Data - Actual Value" @28-09-2022 19:00:12.0905 PM
[ReportManager] File Action "DoesFileExist" successfully performed. With the following test data "File Path: "Lookups_terminals_schema.json"". @28-09-2022 19:00:12.0905 PM
[ReportManager] File Action "DoesFileExist" successfully performed. With the following test data "File Path: "src/test/resources/testDataFiles/Lookups_terminals_schema.json"". @28-09-2022 19:00:12.0905 PM
[ReportManager] File Action "GetAbsolutePath" successfully performed. With the following test data "Relative Folder Path: "src/test/resources/testDataFiles/Lookups_terminals_schema.json"". @28-09-2022 19:00:12.0905 PM
[ReportManager] File Action "DoesFileExist" successfully performed. With the following test data "File Path: "C:\eclipse-workspace\MyProjects\TASystemsAPIs\src\test\resources\testDataFiles\Lookups_terminals_schema.json"". @28-09-2022 19:00:12.0962 PM
[ReportManager] File Action "GetAbsolutePath" successfully performed. With the following test data "Relative Folder Path: "C:\eclipse-workspace\MyProjects\TASystemsAPIs\src\test\resources\testDataFiles\Lookups_terminals_schema.json"". @28-09-2022 19:00:12.0962 PM
[ReportManager] File Action "ReadFromFile" successfully performed. With the following test data "File Path: "C:\eclipse-workspace\MyProjects\TASystemsAPIs\src\test\resources\testDataFiles\Lookups_terminals_schema.json"". @28-09-2022 19:00:12.0963 PM
[ReportManager] Assertion Passed: The API response schema matches that in this file "src/test/resources/testDataFiles/Lookups_terminals_schema.json". @28-09-2022 19:00:12.0964 PM
[ReportManager] Successfully created attachment "Validation Test Data - Expected JSON Value" @28-09-2022 19:00:12.0965 PM
[ReportManager] Successfully created attachment "Validation Test Data - Actual JSON Value" @28-09-2022 19:00:12.0966 PM
[ReportManager] Verification Passed: "575" is greater than or equal to "1.1". @28-09-2022 19:00:12.0966 PM
[ReportManager] Verification Passed: "575" is less than or equal to "10000". @28-09-2022 19:00:12.0966 PM
[ReportManager] Setting discrete logging to: "true" @28-09-2022 19:00:14.0706 PM
[ReportManager] Response status code: "200", status line: "HTTP/1.1 200 " @28-09-2022 19:00:14.0706 PM
[ReportManager] Assertion Passed: Evaluating the actual response status code against the expected one... @28-09-2022 19:00:14.0707 PM
[ReportManager] Setting discrete logging to: "false" @28-09-2022 19:00:14.0707 PM
[ReportManager] Perform request "GET | Target Status Code: 200 | Service URL: https://api-demo.np.transporticonline.com/steeringcompanies/v1/lookups/terminals | Content Type: */* | Response Time: 1739ms". @28-09-2022 19:00:14.0719 PM
[ReportManager] Successfully created attachment "API Request - Specifications" @28-09-2022 19:00:14.0719 PM
[ReportManager] Successfully created attachment "API Response - JSON Body" @28-09-2022 19:00:14.0720 PM
[ReportManager] Assertion Passed: "200" is equal to "200". @28-09-2022 19:00:14.0720 PM
[ReportManager] Verification Passed: "1739" is greater than or equal to "1.1". @28-09-2022 19:00:14.0721 PM
[ReportManager] Verification Passed: "1739" is less than or equal to "10000". @28-09-2022 19:00:14.0721 PM
[ReportManager] Assertion Passed: "{"page":0,"size":3,"totalPages":5,"totalElements":13,"content":[{"id":20,"nameArabic":"???? ????????","nameEnglish":"Departure Terminal","isActive":false,"lastUpdated":"2021-04-11T21:05:44Z","portId":51,"sectors":null},{"id":12,"nameArabic":"??????? - ???? ?????? ???? ???","nameEnglish":"","isActive":false,"lastUpdated":"2021-04-11T21:05:58Z","code":"","portId":51,"sectors":null},{"id":7,"nameArabic":"??????? ?????? ??????","nameEnglish":"Madinah Fast Track Terminal","isActive":false,"lastUpdated":"2021-04-11T21:06:12Z","code":"","portId":51,"sectors":null}]}" contains "content". @28-09-2022 19:00:14.0722 PM
[ReportManager] Successfully created attachment "Validation Test Data - Expected Value" @28-09-2022 19:00:14.0722 PM
[ReportManager] Successfully created attachment "Validation Test Data - Actual Value" @28-09-2022 19:00:14.0722 PM
[ReportManager] Get response jsonvalue "content". @28-09-2022 19:00:14.0723 PM
[ReportManager] Assertion Passed: Check that content object is not null. @28-09-2022 19:00:14.0723 PM
[ReportManager] Successfully created attachment "Validation Test Data - Expected Value" @28-09-2022 19:00:14.0724 PM
[ReportManager] Successfully created attachment "Validation Test Data - Actual Value" @28-09-2022 19:00:14.0724 PM
[ReportManager] File Action "DoesFileExist" successfully performed. With the following test data "File Path: "Lookups_terminals_schema.json"". @28-09-2022 19:00:14.0724 PM
[ReportManager] File Action "DoesFileExist" successfully performed. With the following test data "File Path: "src/test/resources/testDataFiles/Lookups_terminals_schema.json"". @28-09-2022 19:00:14.0724 PM
[ReportManager] File Action "GetAbsolutePath" successfully performed. With the following test data "Relative Folder Path: "src/test/resources/testDataFiles/Lookups_terminals_schema.json"". @28-09-2022 19:00:14.0724 PM
[ReportManager] File Action "DoesFileExist" successfully performed. With the following test data "File Path: "C:\eclipse-workspace\MyProjects\TASystemsAPIs\src\test\resources\testDataFiles\Lookups_terminals_schema.json"". @28-09-2022 19:00:14.0727 PM
[ReportManager] File Action "GetAbsolutePath" successfully performed. With the following test data "Relative Folder Path: "C:\eclipse-workspace\MyProjects\TASystemsAPIs\src\test\resources\testDataFiles\Lookups_terminals_schema.json"". @28-09-2022 19:00:14.0727 PM
[ReportManager] File Action "ReadFromFile" successfully performed. With the following test data "File Path: "C:\eclipse-workspace\MyProjects\TASystemsAPIs\src\test\resources\testDataFiles\Lookups_terminals_schema.json"". @28-09-2022 19:00:14.0727 PM
[ReportManager] Assertion Passed: The API response schema matches that in this file "src/test/resources/testDataFiles/Lookups_terminals_schema.json". @28-09-2022 19:00:14.0728 PM
[ReportManager] Successfully created attachment "Validation Test Data - Expected JSON Value" @28-09-2022 19:00:14.0729 PM
[ReportManager] Successfully created attachment "Validation Test Data - Actual JSON Value" @28-09-2022 19:00:14.0730 PM
[ReportManager] Verification Passed: "1739" is greater than or equal to "1.1". @28-09-2022 19:00:14.0730 PM
[ReportManager] Verification Passed: "1739" is less than or equal to "10000". @28-09-2022 19:00:14.0730 PM