
################################################################################################################################################
Starting Execution:	"2 out of 54" test cases in the current suite
Test Method:		"SteeringCompanyAPI_TestCases.Test_Lookups_Cases.Valid_GET_all_cities_Lookups_by_Qry_Rq_TC"
Test Description:	"TC002 - Perform Get all cities API by parameters Qry with valid user name and password and return with token"
################################################################################################################################################
[ReportManager] File Action "DoesFileExist" successfully performed. With the following test data "File Path: "SteeringCompanyAPI_TestData/SteeringCompanyAPI_TestData.xlsx"". @10-01-2023 15:27:45.0140 PM
[ReportManager] Loaded Test Data: "src/test/resources/testDataFiles/SteeringCompanyAPI_TestData/SteeringCompanyAPI_TestData.xlsx". @10-01-2023 15:27:45.0181 PM
[ReportManager] Successfully created attachment "Test Data - Excel" @10-01-2023 15:27:45.0183 PM
[ReportManager] Response status code: "200", status line: "HTTP/1.1 200 OK" @10-01-2023 15:27:45.0844 PM
[ReportManager] Assertion Passed: Evaluating the actual response status code against the expected one... @10-01-2023 15:27:45.0845 PM
[ReportManager] Perform request "POST | Target Status Code: 200 | Service URL: https://auth-demo.np.transporticonline.com/auth/realms/tic/protocol/openid-connect/token | Content Type: application/x-www-form-urlencoded | Response Time: 654ms". @10-01-2023 15:27:45.0859 PM
[ReportManager] Successfully created attachment "API Request - Specifications" @10-01-2023 15:27:45.0860 PM
[ReportManager] Successfully created attachment "API Request - Body" @10-01-2023 15:27:45.0861 PM
[ReportManager] Successfully created attachment "API Response - JSON Body" @10-01-2023 15:27:45.0862 PM
[ReportManager] Assertion Passed: Check Response Status Code is 200 and it is valid. @10-01-2023 15:27:45.0862 PM
[ReportManager] File Action "DoesFileExist" successfully performed. With the following test data "File Path: "SteeringCompanyAPI_TestData/SteeringCompanyAPI_TestData.xlsx"". @10-01-2023 15:27:45.0873 PM
[ReportManager] Loaded Test Data: "src/test/resources/testDataFiles/SteeringCompanyAPI_TestData/SteeringCompanyAPI_TestData.xlsx". @10-01-2023 15:27:45.0897 PM
[ReportManager] Successfully created attachment "Test Data - Excel" @10-01-2023 15:27:45.0898 PM
[ReportManager] Response status code: "200", status line: "HTTP/1.1 200 " @10-01-2023 15:27:46.0426 PM
[ReportManager] Assertion Passed: Evaluating the actual response status code against the expected one... @10-01-2023 15:27:46.0426 PM
[ReportManager] Perform request "GET | Target Status Code: 200 | Service URL: https://api-demo.np.transporticonline.com/steeringcompanies/v1/lookups/cities | Content Type: */* | Response Time: 500ms". @10-01-2023 15:27:46.0444 PM
[ReportManager] Successfully created attachment "API Request - Specifications" @10-01-2023 15:27:46.0445 PM
[ReportManager] Successfully created attachment "API Response - JSON Body" @10-01-2023 15:27:46.0447 PM
[ReportManager] Assertion Passed: "200" is equal to "200". @10-01-2023 15:27:46.0448 PM
[ReportManager] Verification Passed: "500" is greater than or equal to "1.1". @10-01-2023 15:27:46.0449 PM
[ReportManager] Verification Passed: "500" is less than or equal to "10000". @10-01-2023 15:27:46.0450 PM
[ReportManager] Assertion Passed: "{"page":0,"size":3,"totalPages":237,"totalElements":709,"content":[{"id":36,"nameArabic":"??????????","nameEnglish":"Kuala Lumpur","isActive":true,"lastUpdated":"2022-06-02T01:21:49Z","sectors":null},{"id":849,"nameArabic":"???????","nameEnglish":"Solngen","isActive":true,"lastUpdated":"2022-06-02T01:37:02Z","sectors":null},{"id":1006,"nameArabic":"??????","nameEnglish":"FRUNZE","isActive":true,"lastUpdated":"2022-06-02T00:20:05Z","sectors":null}]}" contains "content". @10-01-2023 15:27:46.0452 PM
[ReportManager] Get response jsonvalue "content". @10-01-2023 15:27:46.0453 PM
[ReportManager] Assertion Passed: Check that content object is not null. @10-01-2023 15:27:46.0454 PM
[ReportManager] File Action "DoesFileExist" successfully performed. With the following test data "File Path: "Schemas/Lookups_cities_schema.json"". @10-01-2023 15:27:46.0454 PM
[ReportManager] File Action "DoesFileExist" successfully performed. With the following test data "File Path: "src/test/resources/testDataFiles/Schemas/Lookups_cities_schema.json"". @10-01-2023 15:27:46.0455 PM
[ReportManager] File Action "GetAbsolutePath" successfully performed. With the following test data "Relative Folder Path: "src/test/resources/testDataFiles/Schemas/Lookups_cities_schema.json"". @10-01-2023 15:27:46.0455 PM
[ReportManager] File Action "DoesFileExist" successfully performed. With the following test data "File Path: "C:\eclipse-workspace\MyProjects\TASystemsAPIs\src\test\resources\testDataFiles\Schemas\Lookups_cities_schema.json"". @10-01-2023 15:27:46.0466 PM
[ReportManager] File Action "GetAbsolutePath" successfully performed. With the following test data "Relative Folder Path: "C:\eclipse-workspace\MyProjects\TASystemsAPIs\src\test\resources\testDataFiles\Schemas\Lookups_cities_schema.json"". @10-01-2023 15:27:46.0466 PM
[ReportManager] File Action "ReadFile" successfully performed. With the following test data "File Path: "C:\eclipse-workspace\MyProjects\TASystemsAPIs\src\test\resources\testDataFiles\Schemas\Lookups_cities_schema.json"". @10-01-2023 15:27:46.0467 PM
[ReportManager] Assertion Passed: The API response schema matches that in this file "src/test/resources/testDataFiles/Schemas/Lookups_cities_schema.json". @10-01-2023 15:27:46.0468 PM
[ReportManager] Successfully created attachment "Validation Test Data - Expected JSON Value" @10-01-2023 15:27:46.0469 PM
[ReportManager] Successfully created attachment "Validation Test Data - Actual JSON Value" @10-01-2023 15:27:46.0470 PM