
################################################################################################################################################
Starting Execution:	"8 out of 70" test cases in the current suite
Test Method:		"SteeringCompanyAPI_TestCases.Test_Lookups_Cases.Valid_GET_all_cities_Lookups_by_Qry_Rq_TC"
Test Description:	"TC002 - Perform Get all cities API by parameters Qry with valid user name and password and return with token"
################################################################################################################################################
[ReportManager] File Action "DoesFileExist" successfully performed. With the following test data "File Path: "SteeringCompanyAPI_TestData/SteeringCompanyAPI_TestData.xlsx"". @22-01-2023 15:41:12.0242 PM
[ReportManager] Loaded Test Data: "src/test/resources/testDataFiles/SteeringCompanyAPI_TestData/SteeringCompanyAPI_TestData.xlsx". @22-01-2023 15:41:12.0516 PM
[ReportManager] Successfully created attachment "Test Data - Excel" @22-01-2023 15:41:12.0520 PM
[ReportManager] Response status code: "200", status line: "HTTP/1.1 200 OK" @22-01-2023 15:41:13.0218 PM
[ReportManager] Assertion Passed: Evaluating the actual response status code against the expected one... @22-01-2023 15:41:13.0220 PM
[ReportManager] Perform request "POST | Target Status Code: 200 | Service URL: https://auth-demo.np.transporticonline.com/auth/realms/tic/protocol/openid-connect/token | Content Type: application/x-www-form-urlencoded | Response Time: 663ms". @22-01-2023 15:41:13.0298 PM
[ReportManager] Successfully created attachment "API Request - Specifications" @22-01-2023 15:41:13.0299 PM
[ReportManager] Successfully created attachment "API Request - Body" @22-01-2023 15:41:13.0301 PM
[ReportManager] Successfully created attachment "API Response - JSON Body" @22-01-2023 15:41:13.0303 PM
[ReportManager] Assertion Passed: Check Response Status Code is 200 and it is valid. @22-01-2023 15:41:13.0313 PM
[ReportManager] File Action "DoesFileExist" successfully performed. With the following test data "File Path: "SteeringCompanyAPI_TestData/SteeringCompanyAPI_TestData.xlsx"". @22-01-2023 15:41:13.0379 PM
[ReportManager] Loaded Test Data: "src/test/resources/testDataFiles/SteeringCompanyAPI_TestData/SteeringCompanyAPI_TestData.xlsx". @22-01-2023 15:41:13.0579 PM
[ReportManager] Successfully created attachment "Test Data - Excel" @22-01-2023 15:41:13.0588 PM
[ReportManager] Response status code: "200", status line: "HTTP/1.1 200 " @22-01-2023 15:41:15.0325 PM
[ReportManager] Assertion Passed: Evaluating the actual response status code against the expected one... @22-01-2023 15:41:15.0326 PM
[ReportManager] Perform request "GET | Target Status Code: 200 | Service URL: https://api-demo.np.transporticonline.com/steeringcompanies/v1/lookups/cities | Content Type: */* | Response Time: 1662ms". @22-01-2023 15:41:15.0354 PM
[ReportManager] Successfully created attachment "API Request - Specifications" @22-01-2023 15:41:15.0356 PM
[ReportManager] Successfully created attachment "API Response - JSON Body" @22-01-2023 15:41:15.0362 PM
[ReportManager] Assertion Passed: "200" is equal to "200". @22-01-2023 15:41:15.0363 PM
[ReportManager] Verification Passed: "1662" is greater than or equal to "1.1". @22-01-2023 15:41:15.0364 PM
[ReportManager] Verification Passed: "1662" is less than or equal to "10000". @22-01-2023 15:41:15.0365 PM
[ReportManager] Assertion Passed: "{"page":0,"size":3,"totalPages":237,"totalElements":709,"content":[{"id":36,"nameArabic":"??????????","nameEnglish":"Kuala Lumpur","isActive":true,"lastUpdated":"2022-06-02T01:21:49Z","sectors":null},{"id":849,"nameArabic":"???????","nameEnglish":"Solngen","isActive":true,"lastUpdated":"2022-06-02T01:37:02Z","sectors":null},{"id":1006,"nameArabic":"??????","nameEnglish":"FRUNZE","isActive":true,"lastUpdated":"2022-06-02T00:20:05Z","sectors":null}]}" contains "content". @22-01-2023 15:41:15.0367 PM
[ReportManager] Get response jsonvalue "content". @22-01-2023 15:41:15.0371 PM
[ReportManager] Assertion Passed: Check that content object is not null. @22-01-2023 15:41:15.0373 PM
[ReportManager] File Action "DoesFileExist" successfully performed. With the following test data "File Path: "Schemas/Lookups_cities_schema.json"". @22-01-2023 15:41:15.0375 PM
[ReportManager] File Action "DoesFileExist" successfully performed. With the following test data "File Path: "src/test/resources/testDataFiles/Schemas/Lookups_cities_schema.json"". @22-01-2023 15:41:15.0375 PM
[ReportManager] File Action "GetAbsolutePath" successfully performed. With the following test data "Relative Folder Path: "src/test/resources/testDataFiles/Schemas/Lookups_cities_schema.json"". @22-01-2023 15:41:15.0376 PM
[ReportManager] File Action "DoesFileExist" successfully performed. With the following test data "File Path: "C:\eclipse-workspace\MyProjects\TASystemsAPIs\src\test\resources\testDataFiles\Schemas\Lookups_cities_schema.json"". @22-01-2023 15:41:15.0393 PM
[ReportManager] File Action "GetAbsolutePath" successfully performed. With the following test data "Relative Folder Path: "C:\eclipse-workspace\MyProjects\TASystemsAPIs\src\test\resources\testDataFiles\Schemas\Lookups_cities_schema.json"". @22-01-2023 15:41:15.0394 PM
[ReportManager] File Action "ReadFile" successfully performed. With the following test data "File Path: "C:\eclipse-workspace\MyProjects\TASystemsAPIs\src\test\resources\testDataFiles\Schemas\Lookups_cities_schema.json"". @22-01-2023 15:41:15.0395 PM
[ReportManager] Assertion Passed: The API response schema matches that in this file "src/test/resources/testDataFiles/Schemas/Lookups_cities_schema.json". @22-01-2023 15:41:15.0397 PM
[ReportManager] Successfully created attachment "Validation Test Data - Expected JSON Value" @22-01-2023 15:41:15.0398 PM
[ReportManager] Successfully created attachment "Validation Test Data - Actual JSON Value" @22-01-2023 15:41:15.0401 PM