[ReportManager] Setting discrete logging to: "false" @03-10-2022 13:40:23.0107 PM

################################################################################################################################################
Starting Execution:	"7 out of 13" test cases in the current suite
Test Method:		"SteeringCompanyAPI_TestCases.Test_Case.Valid_GET_all_ports_Lookups_Rq_TC"
################################################################################################################################################
[ReportManager] Setting discrete logging to: "false" @03-10-2022 13:40:23.0107 PM
[ReportManager] Setting discrete logging to: "true" @03-10-2022 13:40:23.0750 PM
[ReportManager] Response status code: "200", status line: "HTTP/1.1 200 OK" @03-10-2022 13:40:23.0751 PM
[ReportManager] Assertion Passed: Evaluating the actual response status code against the expected one... @03-10-2022 13:40:23.0751 PM
[ReportManager] Setting discrete logging to: "false" @03-10-2022 13:40:23.0751 PM
[ReportManager] Perform request "POST | Target Status Code: 200 | Service URL: https://auth-demo.np.transporticonline.com/auth/realms/tic/protocol/openid-connect/token | Content Type: application/x-www-form-urlencoded | Response Time: 638ms". @03-10-2022 13:40:23.0766 PM
[ReportManager] Successfully created attachment "API Request - Specifications" @03-10-2022 13:40:23.0769 PM
[ReportManager] Successfully created attachment "API Request - Body" @03-10-2022 13:40:23.0769 PM
[ReportManager] Successfully created attachment "API Response - JSON Body" @03-10-2022 13:40:23.0771 PM
[ReportManager] Assertion Passed: "200" is equal to "200". @03-10-2022 13:40:23.0771 PM
[ReportManager] Verification Passed: "638" is greater than or equal to "1.1". @03-10-2022 13:40:23.0772 PM
[ReportManager] Verification Passed: "638" is less than or equal to "10000". @03-10-2022 13:40:23.0772 PM
[ReportManager] Assertion Passed: "{"access_token":"eyJhbGciOiJSUzI1NiIsInR5cCIgOiAiSldUIiwia2lkIiA6ICJjck9ORDFNdFVPVWhzS2Mtb0ppVFFmb0o1d1l4REF6Y3k0ZjNYZ0dveGdZIn0.eyJleHAiOjE2NjQ3OTc1MjIsImlhdCI6MTY2NDc5NzIyMiwianRpIjoiZTBjNGJhZDAtNTMyMS00NjMyLWI0MGMtZjE0YzRiYWIwMTljIiwiaXNzIjoiaHR0cHM6Ly9hdXRoLWRlbW8ubnAudHJhbnNwb3J0aWNvbmxpbmUuY29tL2F1dGgvcmVhbG1zL3RpYyIsImF1ZCI6ImFjY291bnQiLCJzdWIiOiI0ZTk3NmQ0NC1iM2ZkLTRjYTktODk1Ny0wYWJiODUwNzNhNzQiLCJ0eXAiOiJCZWFyZXIiLCJhenAiOiJ0aWMtYXBpIiwic2Vzc2lvbl9zdGF0ZSI6IjkwMjkyYzdlLWJkYmYtNDFkYi05MTg5LWQ1NDZlZTUzZGU3MCIsImFjciI6IjEiLCJhbGxvd2VkLW9yaWdpbnMiOlsiaHR0cHM6Ly9hcGktZGV2Lm5wLnRyYW5zcG9ydGljb25saW5lLmNvbSJdLCJyZWFsbV9hY2Nlc3MiOnsicm9sZXMiOlsib2ZmbGluZV9hY2Nlc3MiLCJkZWZhdWx0LXJvbGVzLXRpYyIsInVtYV9hdXRob3JpemF0aW9uIiwidXNlciJdfSwicmVzb3VyY2VfYWNjZXNzIjp7ImFjY291bnQiOnsicm9sZXMiOlsibWFuYWdlLWFjY291bnQiLCJtYW5hZ2UtYWNjb3VudC1saW5rcyIsInZpZXctcHJvZmlsZSJdfX0sInNjb3BlIjoiZW1haWwgcHJvZmlsZSIsInNpZCI6IjkwMjkyYzdlLWJkYmYtNDFkYi05MTg5LWQ1NDZlZTUzZGU3MCIsImVtYWlsX3ZlcmlmaWVkIjpmYWxzZSwicHJlZmVycmVkX3VzZXJuYW1lIjoidG9raGkiLCJ0Y0lkIjoiMzE5OTU3In0.R6q86K4tmlK7IR-qWZuKxlctzjfKRzhStCNXTbkYJbBu44-w4a9JuQ-SzXd2cqo7bloi5t_6rvsNc6Z7Y0BDsdegSyNzRxsVPAwDcOWOaxc2Zfnbh-uQzM6mLiB_7_udaNJ6ZekJNI5BHxtIGaWbC0jOxUajhqKry_iEK4jQy181J3hCycscqhzMWcHWgx1ayDbCzcAgsU9Y4gu8B8B0v741z9KicIS5C0czbKdW_X3pnABdQ9c1CnOmaLNmvrAznXF6fTuFEGvboTyQu6Zoy3HKI6bn76xrtbMC4KLuy9ADTzdP8B1IDtlSv1n_5cfgOPysVc5WYcwwueG741Whpg","expires_in":300,"refresh_expires_in":1800,"refresh_token":"eyJhbGciOiJIUzI1NiIsInR5cCIgOiAiSldUIiwia2lkIiA6ICJkMTFjNTY4Yi1iMjAyLTQzYjgtYTBiMy1hYWI4ZWMyYWQzZDEifQ.eyJleHAiOjE2NjQ3OTkwMjIsImlhdCI6MTY2NDc5NzIyMiwianRpIjoiMTFmMTE4ZjUtNTNiZi00NzU0LWI0ODItMGEyYjk2OTVlMWY3IiwiaXNzIjoiaHR0cHM6Ly9hdXRoLWRlbW8ubnAudHJhbnNwb3J0aWNvbmxpbmUuY29tL2F1dGgvcmVhbG1zL3RpYyIsImF1ZCI6Imh0dHBzOi8vYXV0aC1kZW1vLm5wLnRyYW5zcG9ydGljb25saW5lLmNvbS9hdXRoL3JlYWxtcy90aWMiLCJzdWIiOiI0ZTk3NmQ0NC1iM2ZkLTRjYTktODk1Ny0wYWJiODUwNzNhNzQiLCJ0eXAiOiJSZWZyZXNoIiwiYXpwIjoidGljLWFwaSIsInNlc3Npb25fc3RhdGUiOiI5MDI5MmM3ZS1iZGJmLTQxZGItOTE4OS1kNTQ2ZWU1M2RlNzAiLCJzY29wZSI6ImVtYWlsIHByb2ZpbGUiLCJzaWQiOiI5MDI5MmM3ZS1iZGJmLTQxZGItOTE4OS1kNTQ2ZWU1M2RlNzAifQ.mfgB11NxDuv6-RDhZN8ILS-N5OOK0XDvQ5DWDibJVC0","token_type":"Bearer","not-before-policy":0,"session_state":"90292c7e-bdbf-41db-9189-d546ee53de70","scope":"email profile"}" contains "access_token". @03-10-2022 13:40:23.0773 PM
[ReportManager] Successfully created attachment "Validation Test Data - Expected Value" @03-10-2022 13:40:23.0773 PM
[ReportManager] Successfully created attachment "Validation Test Data - Actual Value" @03-10-2022 13:40:23.0775 PM
[ReportManager] Get response jsonvalue "access_token". @03-10-2022 13:40:23.0777 PM
[ReportManager] Assertion Passed: Check that Access token is not null. @03-10-2022 13:40:23.0778 PM
[ReportManager] Successfully created attachment "Validation Test Data - Expected Value" @03-10-2022 13:40:23.0779 PM
[ReportManager] Successfully created attachment "Validation Test Data - Actual Value" @03-10-2022 13:40:23.0780 PM
[ReportManager] File Action "DoesFileExist" successfully performed. With the following test data "File Path: "Token_schema.json"". @03-10-2022 13:40:23.0781 PM
[ReportManager] File Action "DoesFileExist" successfully performed. With the following test data "File Path: "src/test/resources/testDataFiles/Token_schema.json"". @03-10-2022 13:40:23.0781 PM
[ReportManager] File Action "GetAbsolutePath" successfully performed. With the following test data "Relative Folder Path: "src/test/resources/testDataFiles/Token_schema.json"". @03-10-2022 13:40:23.0782 PM
[ReportManager] File Action "DoesFileExist" successfully performed. With the following test data "File Path: "C:\eclipse-workspace\MyProjects\TASystemsAPIs\src\test\resources\testDataFiles\Token_schema.json"". @03-10-2022 13:40:23.0787 PM
[ReportManager] File Action "GetAbsolutePath" successfully performed. With the following test data "Relative Folder Path: "C:\eclipse-workspace\MyProjects\TASystemsAPIs\src\test\resources\testDataFiles\Token_schema.json"". @03-10-2022 13:40:23.0787 PM
[ReportManager] File Action "ReadFromFile" successfully performed. With the following test data "File Path: "C:\eclipse-workspace\MyProjects\TASystemsAPIs\src\test\resources\testDataFiles\Token_schema.json"". @03-10-2022 13:40:23.0787 PM
[ReportManager] Assertion Passed: The API response schema matches that in this file "src/test/resources/testDataFiles/Token_schema.json". @03-10-2022 13:40:23.0788 PM
[ReportManager] Successfully created attachment "Validation Test Data - Expected JSON Value" @03-10-2022 13:40:23.0790 PM
[ReportManager] Successfully created attachment "Validation Test Data - Actual JSON Value" @03-10-2022 13:40:23.0792 PM
[ReportManager] Verification Passed: "638" is greater than or equal to "1.1". @03-10-2022 13:40:23.0810 PM
[ReportManager] Verification Passed: "638" is less than or equal to "10000". @03-10-2022 13:40:23.0811 PM
[ReportManager] Setting discrete logging to: "true" @03-10-2022 13:40:24.0415 PM
[ReportManager] Response status code: "200", status line: "HTTP/1.1 200 " @03-10-2022 13:40:24.0415 PM
[ReportManager] Assertion Passed: Evaluating the actual response status code against the expected one... @03-10-2022 13:40:24.0415 PM
[ReportManager] Setting discrete logging to: "false" @03-10-2022 13:40:24.0416 PM
[ReportManager] Perform request "GET | Target Status Code: 200 | Service URL: https://api-demo.np.transporticonline.com/steeringcompanies/v1/lookups/ports | Content Type: */* | Response Time: 586ms". @03-10-2022 13:40:24.0446 PM
[ReportManager] Successfully created attachment "API Request - Specifications" @03-10-2022 13:40:24.0448 PM
[ReportManager] Successfully created attachment "API Response - JSON Body" @03-10-2022 13:40:24.0450 PM
[ReportManager] Assertion Passed: "200" is equal to "200". @03-10-2022 13:40:24.0451 PM
[ReportManager] Verification Passed: "586" is greater than or equal to "1.1". @03-10-2022 13:40:24.0451 PM
[ReportManager] Verification Passed: "586" is less than or equal to "10000". @03-10-2022 13:40:24.0452 PM
[ReportManager] Assertion Passed: "{"page":0,"size":2147483647,"totalPages":1,"totalElements":29,"content":[{"id":59,"nameArabic":"???? ??? ","nameEnglish":"Alab Port","cityId":656,"isActive":true,"lastUpdated":"2020-10-22T18:41:32Z","sectors":null},{"id":53,"nameArabic":"????? ???? ???????","nameEnglish":"Yanbu Commercial Port","cityId":646,"isActive":true,"lastUpdated":"2020-10-22T18:41:32Z","sectors":null},{"id":49,"nameArabic":"???? ????? ????","nameEnglish":"Jadedat Arar Port","cityId":612,"isActive":true,"lastUpdated":"2020-10-22T18:41:32Z","sectors":null},{"id":65,"nameArabic":"???? ???????","nameEnglish":"Alwadeah Port","cityId":664,"isActive":true,"lastUpdated":"2020-10-22T18:41:32Z","sectors":null},{"id":41,"nameArabic":"???? ????? ???? ??????","nameEnglish":"King Khalid International Airport","cityId":601,"isActive":true,"lastUpdated":"2020-10-22T18:41:32Z","sectors":null},{"id":71,"nameArabic":"???? ????? 5 - ???? ????? ???","nameEnglish":"???? ????? 5 - ???? ????? ???","cityId":602,"isActive":true,"lastUpdated":"2020-10-22T18:41:32Z","sectors":null},{"id":48,"nameArabic":"???? ???? ????","nameEnglish":"Halat Amar Port","cityId":606,"isActive":true,"lastUpdated":"2020-10-22T18:41:32Z","sectors":null},{"id":54,"nameArabic":"???? ???????","nameEnglish":"Alkhadra Port","cityId":664,"isActive":true,"lastUpdated":"2020-10-22T18:41:32Z","sectors":null},{"id":58,"nameArabic":"???? ????? ???","nameEnglish":"King Fahad Airport","cityId":607,"isActive":true,"lastUpdated":"2020-10-22T18:41:32Z","sectors":null},{"id":66,"nameArabic":"???? ?????-1???? ????? ????? ","nameEnglish":"???? ?????-1???? ????? ????? ","cityId":602,"isActive":true,"lastUpdated":"2020-10-22T18:41:32Z","sectors":null},{"id":72,"nameArabic":"???? ????? ?????? - ?? ??????","nameEnglish":"Empty quarter Port","isActive":true,"lastUpdated":"2022-06-29T08:08:58Z","sectors":null},{"id":50,"nameArabic":"???? ????? ??? ?????? ??????","nameEnglish":"KING ABDUL AZIZ INTERNATIONAL AIRPORT","cityId":602,"isActive":true,"lastUpdated":"2020-10-22T18:41:32Z","sectors":null},{"id":45,"nameArabic":"???? ????","nameEnglish":"Salwa Port","cityId":672,"isActive":true,"lastUpdated":"2020-10-22T18:41:32Z","sectors":null},{"id":63,"nameArabic":"???? ??????","nameEnglish":"Altaif Airport","cityId":604,"isActive":true,"lastUpdated":"2020-10-22T18:41:32Z","sectors":null},{"id":4,"nameArabic":"?????","nameEnglish":"albalad","isActive":true,"lastUpdated":null,"sectors":null},{"id":55,"nameArabic":"???? ??????","nameEnglish":"Altowal Port","cityId":607,"isActive":true,"lastUpdated":"2020-10-22T18:41:32Z","sectors":null},{"id":5,"nameArabic":"???? ????? 2-???? ??????","nameEnglish":"???? ????? 2-???? ??????","cityId":602,"isActive":true,"lastUpdated":"2020-10-22T18:41:32Z","sectors":null},{"id":70,"nameArabic":"???? ????? 4-???? ????","nameEnglish":"???? ????? 4-???? ????","cityId":602,"isActive":true,"lastUpdated":"2020-10-22T18:41:32Z","sectors":null},{"id":69,"nameArabic":"???? ????? 3-???????","nameEnglish":"???? ????? 3-???????","cityId":602,"isActive":true,"lastUpdated":"2020-10-22T18:41:32Z","sectors":null},{"id":68,"nameArabic":"???? ????? 6 - ???? ???","nameEnglish":"???? ????? 6 - ???? ???","cityId":602,"isActive":true,"lastUpdated":"2020-10-22T18:41:32Z","sectors":null},{"id":43,"nameArabic":"???? ??????","nameEnglish":"Alkhafji Port","cityId":631,"isActive":true,"lastUpdated":"2020-10-22T18:41:32Z","sectors":null},{"id":67,"nameArabic":"??????????????????? ?????","nameEnglish":"Prince AbdulMohsen Bin Abdulaziz Airport","isActive":true,"lastUpdated":null,"sectors":null},{"id":47,"nameArabic":"???? ???????","nameEnglish":"Albatha Port","cityId":672,"isActive":true,"lastUpdated":"2020-10-22T18:41:32Z","sectors":null},{"id":52,"nameArabic":"????? ??? ????????","nameEnglish":"JEDDAH ISLAMIC PORT","cityId":602,"isActive":true,"lastUpdated":"2020-10-22T18:41:32Z","sectors":null},{"id":56,"nameArabic":"???? ???????","nameEnglish":"Alhadithah Port","cityId":641,"isActive":true,"lastUpdated":"2020-10-22T18:41:32Z","sectors":null},{"id":46,"nameArabic":"??? ????? ???","nameEnglish":"King Fahad Bridge","cityId":608,"isActive":true,"lastUpdated":"2020-10-22T18:41:32Z","sectors":null},{"id":51,"nameArabic":"???? ?????? ????","nameEnglish":"PRINCE MOHAMMAD INTERNATIONAL AIRPORT","cityId":605,"isActive":true,"lastUpdated":"2020-10-22T18:41:32Z","sectors":null},{"id":44,"nameArabic":"???? ??????","nameEnglish":"Alraqai Port","cityId":630,"isActive":true,"lastUpdated":"2020-10-22T18:41:32Z","sectors":null},{"id":64,"nameArabic":"???? ????","nameEnglish":"Abha Airport","cityId":613,"isActive":true,"lastUpdated":"2020-10-22T18:41:32Z","sectors":null}]}" contains "content". @03-10-2022 13:40:24.0452 PM
[ReportManager] Successfully created attachment "Validation Test Data - Expected Value" @03-10-2022 13:40:24.0454 PM
[ReportManager] Successfully created attachment "Validation Test Data - Actual Value" @03-10-2022 13:40:24.0457 PM
[ReportManager] Get response jsonvalue "content". @03-10-2022 13:40:24.0461 PM
[ReportManager] Assertion Passed: Check that content object is not null. @03-10-2022 13:40:24.0461 PM
[ReportManager] Successfully created attachment "Validation Test Data - Expected Value" @03-10-2022 13:40:24.0463 PM
[ReportManager] Successfully created attachment "Validation Test Data - Actual Value" @03-10-2022 13:40:24.0465 PM
[ReportManager] File Action "DoesFileExist" successfully performed. With the following test data "File Path: "Lookups_ports_schema.json"". @03-10-2022 13:40:24.0466 PM
[ReportManager] File Action "DoesFileExist" successfully performed. With the following test data "File Path: "src/test/resources/testDataFiles/Lookups_ports_schema.json"". @03-10-2022 13:40:24.0466 PM
[ReportManager] File Action "GetAbsolutePath" successfully performed. With the following test data "Relative Folder Path: "src/test/resources/testDataFiles/Lookups_ports_schema.json"". @03-10-2022 13:40:24.0466 PM
[ReportManager] File Action "DoesFileExist" successfully performed. With the following test data "File Path: "C:\eclipse-workspace\MyProjects\TASystemsAPIs\src\test\resources\testDataFiles\Lookups_ports_schema.json"". @03-10-2022 13:40:24.0471 PM
[ReportManager] File Action "GetAbsolutePath" successfully performed. With the following test data "Relative Folder Path: "C:\eclipse-workspace\MyProjects\TASystemsAPIs\src\test\resources\testDataFiles\Lookups_ports_schema.json"". @03-10-2022 13:40:24.0471 PM
[ReportManager] File Action "ReadFromFile" successfully performed. With the following test data "File Path: "C:\eclipse-workspace\MyProjects\TASystemsAPIs\src\test\resources\testDataFiles\Lookups_ports_schema.json"". @03-10-2022 13:40:24.0473 PM
[ReportManager] Assertion Passed: The API response schema matches that in this file "src/test/resources/testDataFiles/Lookups_ports_schema.json". @03-10-2022 13:40:24.0474 PM
[ReportManager] Successfully created attachment "Validation Test Data - Expected JSON Value" @03-10-2022 13:40:24.0475 PM
[ReportManager] Successfully created attachment "Validation Test Data - Actual JSON Value" @03-10-2022 13:40:24.0476 PM
[ReportManager] Verification Passed: "586" is greater than or equal to "1.1". @03-10-2022 13:40:24.0478 PM
[ReportManager] Verification Passed: "586" is less than or equal to "10000". @03-10-2022 13:40:24.0478 PM
[ReportManager] Setting discrete logging to: "true" @03-10-2022 13:40:25.0003 PM
[ReportManager] Response status code: "200", status line: "HTTP/1.1 200 " @03-10-2022 13:40:25.0003 PM
[ReportManager] Assertion Passed: Evaluating the actual response status code against the expected one... @03-10-2022 13:40:25.0004 PM
[ReportManager] Setting discrete logging to: "false" @03-10-2022 13:40:25.0004 PM
[ReportManager] Perform request "GET | Target Status Code: 200 | Service URL: https://api-demo.np.transporticonline.com/steeringcompanies/v1/lookups/ports | Content Type: */* | Response Time: 522ms". @03-10-2022 13:40:25.0028 PM
[ReportManager] Successfully created attachment "API Request - Specifications" @03-10-2022 13:40:25.0030 PM
[ReportManager] Successfully created attachment "API Response - JSON Body" @03-10-2022 13:40:25.0032 PM
[ReportManager] Assertion Passed: "200" is equal to "200". @03-10-2022 13:40:25.0032 PM
[ReportManager] Verification Passed: "522" is greater than or equal to "1.1". @03-10-2022 13:40:25.0034 PM
[ReportManager] Verification Passed: "522" is less than or equal to "10000". @03-10-2022 13:40:25.0034 PM
[ReportManager] Assertion Passed: "{"page":0,"size":3,"totalPages":10,"totalElements":29,"content":[{"id":59,"nameArabic":"???? ??? ","nameEnglish":"Alab Port","cityId":656,"isActive":true,"lastUpdated":"2020-10-22T18:41:32Z","sectors":null},{"id":53,"nameArabic":"????? ???? ???????","nameEnglish":"Yanbu Commercial Port","cityId":646,"isActive":true,"lastUpdated":"2020-10-22T18:41:32Z","sectors":null},{"id":49,"nameArabic":"???? ????? ????","nameEnglish":"Jadedat Arar Port","cityId":612,"isActive":true,"lastUpdated":"2020-10-22T18:41:32Z","sectors":null}]}" contains "content". @03-10-2022 13:40:25.0034 PM
[ReportManager] Successfully created attachment "Validation Test Data - Expected Value" @03-10-2022 13:40:25.0035 PM
[ReportManager] Successfully created attachment "Validation Test Data - Actual Value" @03-10-2022 13:40:25.0037 PM
[ReportManager] Get response jsonvalue "content". @03-10-2022 13:40:25.0039 PM
[ReportManager] Assertion Passed: Check that content object is not null. @03-10-2022 13:40:25.0041 PM
[ReportManager] File Action "DoesFileExist" successfully performed. With the following test data "File Path: "Lookups_ports_schema.json"". @03-10-2022 13:40:25.0041 PM
[ReportManager] File Action "DoesFileExist" successfully performed. With the following test data "File Path: "src/test/resources/testDataFiles/Lookups_ports_schema.json"". @03-10-2022 13:40:25.0042 PM
[ReportManager] File Action "GetAbsolutePath" successfully performed. With the following test data "Relative Folder Path: "src/test/resources/testDataFiles/Lookups_ports_schema.json"". @03-10-2022 13:40:25.0042 PM
[ReportManager] File Action "DoesFileExist" successfully performed. With the following test data "File Path: "C:\eclipse-workspace\MyProjects\TASystemsAPIs\src\test\resources\testDataFiles\Lookups_ports_schema.json"". @03-10-2022 13:40:25.0050 PM
[ReportManager] File Action "GetAbsolutePath" successfully performed. With the following test data "Relative Folder Path: "C:\eclipse-workspace\MyProjects\TASystemsAPIs\src\test\resources\testDataFiles\Lookups_ports_schema.json"". @03-10-2022 13:40:25.0051 PM
[ReportManager] File Action "ReadFromFile" successfully performed. With the following test data "File Path: "C:\eclipse-workspace\MyProjects\TASystemsAPIs\src\test\resources\testDataFiles\Lookups_ports_schema.json"". @03-10-2022 13:40:25.0051 PM
[ReportManager] Assertion Passed: The API response schema matches that in this file "src/test/resources/testDataFiles/Lookups_ports_schema.json". @03-10-2022 13:40:25.0052 PM
[ReportManager] Successfully created attachment "Validation Test Data - Expected JSON Value" @03-10-2022 13:40:25.0054 PM
[ReportManager] Successfully created attachment "Validation Test Data - Actual JSON Value" @03-10-2022 13:40:25.0055 PM
[ReportManager] Verification Passed: "522" is greater than or equal to "1.1". @03-10-2022 13:40:25.0056 PM
[ReportManager] Verification Passed: "522" is less than or equal to "10000". @03-10-2022 13:40:25.0056 PM