
################################################################################################################################################
Starting Execution:	"50 out of 110" test cases in the current suite
Test Method:		"SteeringCompanyAPI_TestCases.Test_Commissions_Cases.Valid_GET_all_OTAs_by_Qry_Rq_TC"
Test Description:	"TC017  -OTAs- Perform Get all OTAs API with pagination with valid user name and password"
################################################################################################################################################
[ReportManager] File Action "DoesFileExist" successfully performed. With the following test data "File Path: "SteeringCompanyAPI_TestData/SteeringCompanyAPI_TestData.xlsx"". @07-02-2023 14:56:17.0309 PM
[ReportManager] Loaded Test Data: "src/test/resources/testDataFiles/SteeringCompanyAPI_TestData/SteeringCompanyAPI_TestData.xlsx". @07-02-2023 14:56:17.0372 PM
[ReportManager] Successfully created attachment "Test Data - Excel" @07-02-2023 14:56:17.0373 PM
[ReportManager] Response status code: "200", status line: "HTTP/1.1 200 OK" @07-02-2023 14:56:18.0229 PM
[ReportManager] Assertion Passed: Evaluating the actual response status code against the expected one... @07-02-2023 14:56:18.0229 PM
[ReportManager] Perform request "POST | Target Status Code: 200 | Service URL: https://auth-demo.np.transporticonline.com/auth/realms/tic/protocol/openid-connect/token | Content Type: application/x-www-form-urlencoded | Response Time: 850ms". @07-02-2023 14:56:18.0249 PM
[ReportManager] Successfully created attachment "API Request - Specifications" @07-02-2023 14:56:18.0250 PM
[ReportManager] Successfully created attachment "API Request - Body" @07-02-2023 14:56:18.0251 PM
[ReportManager] Successfully created attachment "API Response - JSON Body" @07-02-2023 14:56:18.0251 PM
[ReportManager] Assertion Passed: Check Response Status Code is 200 and it is valid. @07-02-2023 14:56:18.0252 PM
[ReportManager] File Action "DoesFileExist" successfully performed. With the following test data "File Path: "SteeringCompanyAPI_TestData/SteeringCompanyAPI_TestData.xlsx"". @07-02-2023 14:56:18.0271 PM
[ReportManager] Loaded Test Data: "src/test/resources/testDataFiles/SteeringCompanyAPI_TestData/SteeringCompanyAPI_TestData.xlsx". @07-02-2023 14:56:18.0339 PM
[ReportManager] Successfully created attachment "Test Data - Excel" @07-02-2023 14:56:18.0342 PM
[ReportManager] File Action "DoesFileExist" successfully performed. With the following test data "File Path: "SteeringCompanyAPI_TestData/SteeringCompanyAPI_TestData.xlsx"". @07-02-2023 14:56:18.0342 PM
[ReportManager] Loaded Test Data: "src/test/resources/testDataFiles/SteeringCompanyAPI_TestData/SteeringCompanyAPI_TestData.xlsx". @07-02-2023 14:56:18.0398 PM
[ReportManager] Successfully created attachment "Test Data - Excel" @07-02-2023 14:56:18.0400 PM
[ReportManager] File Action "DoesFileExist" successfully performed. With the following test data "File Path: "SteeringCompanyAPI_TestData/SteeringCompanyAPI_TestData.xlsx"". @07-02-2023 14:56:18.0401 PM
[ReportManager] Loaded Test Data: "src/test/resources/testDataFiles/SteeringCompanyAPI_TestData/SteeringCompanyAPI_TestData.xlsx". @07-02-2023 14:56:18.0443 PM
[ReportManager] Successfully created attachment "Test Data - Excel" @07-02-2023 14:56:18.0448 PM
[ReportManager] Response status code: "200", status line: "HTTP/1.1 200 " @07-02-2023 14:56:19.0350 PM
[ReportManager] Assertion Passed: Evaluating the actual response status code against the expected one... @07-02-2023 14:56:19.0350 PM
[ReportManager] Perform request "GET | Target Status Code: 200 | Service URL: https://api-demo.np.transporticonline.com/steeringcompanies/v1/otas | Content Type: */* | Response Time: 901ms". @07-02-2023 14:56:19.0372 PM
[ReportManager] Successfully created attachment "API Request - Specifications" @07-02-2023 14:56:19.0374 PM
[ReportManager] Successfully created attachment "API Response - JSON Body" @07-02-2023 14:56:19.0376 PM
[ReportManager] Assertion Passed: "200" is equal to "200". @07-02-2023 14:56:19.0377 PM
[ReportManager] Verification Passed: "901" is greater than or equal to "1.1". @07-02-2023 14:56:19.0377 PM
[ReportManager] Verification Passed: "901" is less than or equal to "10000". @07-02-2023 14:56:19.0377 PM
[ReportManager] Assertion Passed: "{"page":0,"size":20,"totalPages":3,"totalElements":47,"content":[{"otaCode":"agoda","nameArabic":"-","nameEnglish":"agoda_old","isActive":true,"isEnable":true},{"otaCode":"Mawasim","nameArabic":"-","nameEnglish":"MawasimOTA","isActive":true,"isEnable":true},{"otaCode":"SaudiaHolidaysOTA","nameArabic":"-","nameEnglish":"SaudiaHolidaysOTA","isActive":true,"isEnable":true},{"otaCode":"HotelGate","nameArabic":"-","nameEnglish":"HotelGate","isActive":true,"isEnable":false},{"otaCode":"AlrajhiOTA","nameArabic":"-","nameEnglish":"AlrajhiOTA","isActive":true,"isEnable":true},{"otaCode":"ELAF_OTA","nameArabic":"-","nameEnglish":"Elaf Travel and Tourism","isActive":true,"isEnable":true},{"otaCode":"WebBedsOTA","nameArabic":"-","nameEnglish":"WebBeds OTA","isActive":true,"isEnable":true},{"otaCode":"U1470","nameArabic":"-","nameEnglish":"UmrahOTA","isActive":true,"isEnable":true},{"otaCode":"MyHotel","nameArabic":"-","nameEnglish":"MyHotel","isActive":true,"isEnable":true},{"otaCode":"Taqneen","nameArabic":"-","nameEnglish":"Taqneen","isActive":true,"isEnable":true},{"otaCode":"ZamzamOTA","nameArabic":"-","nameEnglish":"ZamzamOTA","isActive":true,"isEnable":false},{"otaCode":"HuloolAl-Umrah","nameArabic":"-","nameEnglish":"Hulool Al-Umrah","isActive":true,"isEnable":true},{"otaCode":"UmrahGate","nameArabic":"-","nameEnglish":"UmrahGate","isActive":true,"isEnable":true},{"otaCode":"WaytoUmrah","nameArabic":"-","nameEnglish":"WaytoUmrah","isActive":true,"isEnable":true},{"otaCode":"HUBOOKING","nameArabic":"-","nameEnglish":"HUBOOKING","isActive":true,"isEnable":true},{"otaCode":"MahtatAlAlamOTA","nameArabic":"-","nameEnglish":"Mahtat Al-Alam","isActive":true,"isEnable":true},{"otaCode":"Akbar","nameArabic":"-","nameEnglish":"AKBAR TRAVELS OF INDIA PVT LTD","isActive":true,"isEnable":true},{"otaCode":"AnjumOTA","nameArabic":"-","nameEnglish":"Anjum OTA","isActive":true,"isEnable":false},{"otaCode":"Saudi2GoOTA","nameArabic":"-","nameEnglish":"Saudi2GoOTA","isActive":true,"isEnable":true},{"otaCode":"EasyUmrahOTA","nameArabic":"-","nameEnglish":"EasyUmrahOTA","isActive":true,"isEnable":true}]}" contains "content". @07-02-2023 14:56:19.0378 PM
[ReportManager] Successfully created attachment "Validation Test Data - Expected Value" @07-02-2023 14:56:19.0379 PM
[ReportManager] Successfully created attachment "Validation Test Data - Actual Value" @07-02-2023 14:56:19.0380 PM
[ReportManager] Get response jsonvalue "content". @07-02-2023 14:56:19.0382 PM
[ReportManager] Assertion Passed: Check that content object is not null. @07-02-2023 14:56:19.0382 PM
[ReportManager] Successfully created attachment "Validation Test Data - Expected Value" @07-02-2023 14:56:19.0384 PM
[ReportManager] Successfully created attachment "Validation Test Data - Actual Value" @07-02-2023 14:56:19.0386 PM
[ReportManager] File Action "DoesFileExist" successfully performed. With the following test data "File Path: "Schemas/OTAs_schema.json"". @07-02-2023 14:56:19.0387 PM
[ReportManager] File Action "DoesFileExist" successfully performed. With the following test data "File Path: "src/test/resources/testDataFiles/Schemas/OTAs_schema.json"". @07-02-2023 14:56:19.0388 PM
[ReportManager] File Action "GetAbsolutePath" successfully performed. With the following test data "Relative Folder Path: "src/test/resources/testDataFiles/Schemas/OTAs_schema.json"". @07-02-2023 14:56:19.0389 PM
[ReportManager] File Action "DoesFileExist" successfully performed. With the following test data "File Path: "C:\eclipse-workspace\MyProjects\TASystemsAPIs\src\test\resources\testDataFiles\Schemas\OTAs_schema.json"". @07-02-2023 14:56:19.0392 PM
[ReportManager] File Action "GetAbsolutePath" successfully performed. With the following test data "Relative Folder Path: "C:\eclipse-workspace\MyProjects\TASystemsAPIs\src\test\resources\testDataFiles\Schemas\OTAs_schema.json"". @07-02-2023 14:56:19.0392 PM
[ReportManager] File Action "ReadFile" successfully performed. With the following test data "File Path: "C:\eclipse-workspace\MyProjects\TASystemsAPIs\src\test\resources\testDataFiles\Schemas\OTAs_schema.json"". @07-02-2023 14:56:19.0392 PM
[ReportManager] Assertion Passed: The API response schema matches that in this file "src/test/resources/testDataFiles/Schemas/OTAs_schema.json". @07-02-2023 14:56:19.0393 PM
[ReportManager] Successfully created attachment "Validation Test Data - Expected JSON Value" @07-02-2023 14:56:19.0394 PM
[ReportManager] Successfully created attachment "Validation Test Data - Actual JSON Value" @07-02-2023 14:56:19.0394 PM