
################################################################################################################################################
Starting Execution:	"9 out of 27" test cases in the current suite
Test Method:		"SteeringCompanyAPI_TestCases.Test_PeriodProgram_Cases.Valid_Get_All_PeriodProgram_Pagination_TC"
Test Description:	"TC002 -PeriodProgram- Perform Get Valid all PeriodProgram withPagenation"
################################################################################################################################################
[ReportManager] File Action "DoesFileExist" successfully performed. With the following test data "File Path: "SteeringCompanyAPI_TestData/SteeringCompanyAPI_TestData.xlsx"". @03-04-2023 13:39:38.0447 PM
[ReportManager] Loaded Test Data: "src/test/resources/testDataFiles/SteeringCompanyAPI_TestData/SteeringCompanyAPI_TestData.xlsx". @03-04-2023 13:39:38.0484 PM
[ReportManager] Successfully created attachment "Test Data - Excel" @03-04-2023 13:39:38.0486 PM
[ReportManager] Response status code: "200", status line: "HTTP/1.1 200 OK" @03-04-2023 13:39:39.0439 PM
[ReportManager] Assertion Passed: Evaluating the actual response status code against the expected one... @03-04-2023 13:39:39.0439 PM
[ReportManager] Perform request "POST | Target Status Code: 200 | Service URL: https://auth-demo.np.transporticonline.com/auth/realms/tic/protocol/openid-connect/token | Content Type: application/x-www-form-urlencoded | Response Time: 951ms". @03-04-2023 13:39:39.0448 PM
[ReportManager] Successfully created attachment "API Request - Specifications" @03-04-2023 13:39:39.0449 PM
[ReportManager] Successfully created attachment "API Request - Body" @03-04-2023 13:39:39.0449 PM
[ReportManager] Successfully created attachment "API Response - JSON Body" @03-04-2023 13:39:39.0450 PM
[ReportManager] Assertion Passed: Check Response Status Code is 200 and it is valid. @03-04-2023 13:39:39.0450 PM
[ReportManager] File Action "DoesFileExist" successfully performed. With the following test data "File Path: "SteeringCompanyAPI_TestData/SteeringCompanyAPI_TestData.xlsx"". @03-04-2023 13:39:39.0457 PM
[ReportManager] Loaded Test Data: "src/test/resources/testDataFiles/SteeringCompanyAPI_TestData/SteeringCompanyAPI_TestData.xlsx". @03-04-2023 13:39:39.0496 PM
[ReportManager] Successfully created attachment "Test Data - Excel" @03-04-2023 13:39:39.0497 PM
[ReportManager] File Action "DoesFileExist" successfully performed. With the following test data "File Path: "SteeringCompanyAPI_TestData/SteeringCompanyAPI_TestData.xlsx"". @03-04-2023 13:39:39.0498 PM
[ReportManager] Loaded Test Data: "src/test/resources/testDataFiles/SteeringCompanyAPI_TestData/SteeringCompanyAPI_TestData.xlsx". @03-04-2023 13:39:39.0525 PM
[ReportManager] Successfully created attachment "Test Data - Excel" @03-04-2023 13:39:39.0526 PM
[ReportManager] File Action "DoesFileExist" successfully performed. With the following test data "File Path: "SteeringCompanyAPI_TestData/SteeringCompanyAPI_TestData.xlsx"". @03-04-2023 13:39:39.0527 PM
[ReportManager] Loaded Test Data: "src/test/resources/testDataFiles/SteeringCompanyAPI_TestData/SteeringCompanyAPI_TestData.xlsx". @03-04-2023 13:39:39.0598 PM
[ReportManager] Successfully created attachment "Test Data - Excel" @03-04-2023 13:39:39.0599 PM
[ReportManager] Response status code: "200", status line: "HTTP/1.1 200 " @03-04-2023 13:39:41.0986 PM
[ReportManager] Assertion Passed: Evaluating the actual response status code against the expected one... @03-04-2023 13:39:41.0987 PM
[ReportManager] Perform request "GET | Target Status Code: 200 | Service URL: https://api-demo.np.transporticonline.com/steeringcompanies/v1/periodPrograms | Content Type: */* | Response Time: 2385ms". @03-04-2023 13:39:42.0012 PM
[ReportManager] Successfully created attachment "API Request - Specifications" @03-04-2023 13:39:42.0013 PM
[ReportManager] Successfully created attachment "API Response - JSON Body" @03-04-2023 13:39:42.0014 PM
[ReportManager] Assertion Passed: "200" is equal to "200". @03-04-2023 13:39:42.0014 PM
[ReportManager] Verification Passed: "2385" is greater than or equal to "1.1". @03-04-2023 13:39:42.0014 PM
[ReportManager] Verification Passed: "2385" is less than or equal to "30000". @03-04-2023 13:39:42.0014 PM
[ReportManager] Assertion Passed: "{"page":0,"size":10,"totalPages":14,"totalElements":138,"content":[{"id":1021,"templateId":252,"periodMaxQuotaPerPeriod":92,"minimumModelYear":2010,"maximumModelYear":2011,"minimumSeat":11,"maximumSeat":11,"vehiclePricePer":1.0,"creationPeriodId":142,"isActive":true,"policyInfo":{}},{"id":1003,"templateId":229,"periodMaxQuotaPerPeriod":92,"minimumModelYear":2010,"maximumModelYear":2011,"minimumSeat":7,"maximumSeat":8,"vehiclePricePer":3500.0,"creationPeriodId":113,"isActive":true,"policyInfo":{"cancellationPolicy":{"id":3,"nameArabic":"سياسة الالغاء 2","nameEnglish":"Cancellation 2","descriptionArabic":"سياسة الالغاء 2","descriptionEnglish":"Cancellation 2","isActive":true,"chargeUnit":"days","deadline":3,"chargeType":"percentage","chargeValue":15.00},"paymentPolicy":{"id":3,"nameArabic":"سياسات الدفع","nameEnglish":"Payment policies","descriptionArabic":"يتم دفع قيمة البرنامج كاملة عند تأكيد الحجز ويصدر الرقم المرجعي بعد دفع قيمة الحجز","descriptionEnglish":"The value of the reservation must be paid upon confirmation of the reservation and the reference nu","isActive":true,"refundType":"apply_cancellation_policy","isRefundable":true,"cancellationPolicyId":4},"usagePolicy":{"id":3,"nameArabic":"سياسات الاستخدام","nameEnglish":"Usage policies","descriptionArabic":"يكون استخدام الحافلة لنقل المعتمرين المعنيين بالحجز ويعتبر الحجز لاغي في حالة استخدام الحافلة لنقل معتمرين غير مشمولين بنفس الحجز","descriptionEnglish":"The use of the bus to transport the pilgrims included with the reservation and the reservation is included null in the case of using the bus to transport pilgrims who are not included in the same r","isActive":true},"taxesPolicy":{"id":3,"nameArabic":"الضريبة المطبقة","nameEnglish":"Applicable tax","descriptionArabic":"يتم تطبيق النسبة الضريبية المعتمدة حسب انظمة المملكة العربية السعودية المشمولة بها هذه الخدمة","descriptionEnglish":"The approved tax rate is applied according to the regulations of the Kingdom of Saudi Arabia in whi","isActive":false,"chargeType":"percentage","chargeValue":15.00},"generalPolicy":{"id":3,"nameArabic":"سياسات عامة","nameEnglish":"General policies","descriptionArabic":"تسري جميع الشروط والانظمة المعتمدة من الجهات المعنية في وزارة الحج ووزارةالنقل والنقابة العامة للسيارات بهذا الخصوص","descriptionEnglish":"All conditions and regulations approved by the concerned authorities in the Ministry of Hajj the Ministry of Transport and the General cars Syndicate shall apply in this regard","isActive":true}}},{"id":1022,"templateId":252,"periodMaxQuotaPerPeriod":92,"minimumModelYear":2010,"maximumModelYear":2011,"minimumSeat":9,"maximumSeat":11,"vehiclePricePer":1.0,"creationPeriodId":142,"isActive":true,"policyInfo":{}},{"id":1023,"templateId":252,"periodMaxQuotaPerPeriod":92,"minimumModelYear":2010,"maximumModelYear":2011,"minimumSeat":11,"maximumSeat":11,"vehiclePricePer":1.0,"creationPeriodId":142,"isActive":true,"policyInfo":{"cancellationPolicy":{"id":3,"nameArabic":"سياسة الالغاء 2","nameEnglish":"Cancellation 2","descriptionArabic":"سياسة الالغاء 2","descriptionEnglish":"Cancellation 2","isActive":true,"chargeUnit":"days","deadline":3,"chargeType":"percentage","chargeValue":15.00},"paymentPolicy":{"id":3,"nameArabic":"سياسات الدفع","nameEnglish":"Payment policies","descriptionArabic":"يتم دفع قيمة البرنامج كاملة عند تأكيد الحجز ويصدر الرقم المرجعي بعد دفع قيمة الحجز","descriptionEnglish":"The value of the reservation must be paid upon confirmation of the reservation and the reference nu","isActive":true,"refundType":"apply_cancellation_policy","isRefundable":true,"cancellationPolicyId":4},"usagePolicy":{"id":3,"nameArabic":"سياسات الاستخدام","nameEnglish":"Usage policies","descriptionArabic":"يكون استخدام الحافلة لنقل المعتمرين المعنيين بالحجز ويعتبر الحجز لاغي في حالة استخدام الحافلة لنقل معتمرين غير مشمولين بنفس الحجز","descriptionEnglish":"The use of the bus to transport the pilgrims included with the reservation and the reservation is included null in the case of using the bus to transport pilgrims who are not included in the same r","isActive":true},"taxesPolicy":{"id":3,"nameArabic":"الضريبة المطبقة","nameEnglish":"Applicable tax","descriptionArabic":"يتم تطبيق النسبة الضريبية المعتمدة حسب انظمة المملكة العربية السعودية المشمولة بها هذه الخدمة","descriptionEnglish":"The approved tax rate is applied according to the regulations of the Kingdom of Saudi Arabia in whi","isActive":false,"chargeType":"percentage","chargeValue":15.00},"generalPolicy":{"id":3,"nameArabic":"سياسات عامة","nameEnglish":"General policies","descriptionArabic":"تسري جميع الشروط والانظمة المعتمدة من الجهات المعنية في وزارة الحج ووزارةالنقل والنقابة العامة للسيارات بهذا الخصوص","descriptionEnglish":"All conditions and regulations approved by the concerned authorities in the Ministry of Hajj the Ministry of Transport and the General cars Syndicate shall apply in this regard","isActive":true}}},{"id":1024,"templateId":252,"periodMaxQuotaPerPeriod":92,"minimumModelYear":2010,"maximumModelYear":2011,"minimumSeat":11,"maximumSeat":11,"vehiclePricePer":1.0,"creationPeriodId":142,"isActive":true,"policyInfo":{"cancellationPolicy":{"id":3,"nameArabic":"سياسة الالغاء 2","nameEnglish":"Cancellation 2","descriptionArabic":"سياسة الالغاء 2","descriptionEnglish":"Cancellation 2","isActive":true,"chargeUnit":"days","deadline":3,"chargeType":"percentage","chargeValue":15.00},"paymentPolicy":{"id":3,"nameArabic":"سياسات الدفع","nameEnglish":"Payment policies","descriptionArabic":"يتم دفع قيمة البرنامج كاملة عند تأكيد الحجز ويصدر الرقم المرجعي بعد دفع قيمة الحجز","descriptionEnglish":"The value of the reservation must be paid upon confirmation of the reservation and the reference nu","isActive":true,"refundType":"apply_cancellation_policy","isRefundable":true,"cancellationPolicyId":4},"taxesPolicy":{"id":3,"nameArabic":"الضريبة المطبقة","nameEnglish":"Applicable tax","descriptionArabic":"يتم تطبيق النسبة الضريبية المعتمدة حسب انظمة المملكة العربية السعودية المشمولة بها هذه الخدمة","descriptionEnglish":"The approved tax rate is applied according to the regulations of the Kingdom of Saudi Arabia in whi","isActive":false,"chargeType":"percentage","chargeValue":15.00},"generalPolicy":{"id":3,"nameArabic":"سياسات عامة","nameEnglish":"General policies","descriptionArabic":"تسري جميع الشروط والانظمة المعتمدة من الجهات المعنية في وزارة الحج ووزارةالنقل والنقابة العامة للسيارات بهذا الخصوص","descriptionEnglish":"All conditions and regulations approved by the concerned authorities in the Ministry of Hajj the Ministry of Transport and the General cars Syndicate shall apply in this regard","isActive":true}}},{"id":1009,"templateId":230,"periodMaxQuotaPerPeriod":92,"minimumModelYear":2010,"maximumModelYear":2011,"minimumSeat":7,"maximumSeat":8,"vehiclePricePer":1.0,"creationPeriodId":123,"isActive":true,"policyInfo":{"cancellationPolicy":{"id":3,"nameArabic":"سياسة الالغاء 2","nameEnglish":"Cancellation 2","descriptionArabic":"سياسة الالغاء 2","descriptionEnglish":"Cancellation 2","isActive":true,"chargeUnit":"days","deadline":3,"chargeType":"percentage","chargeValue":15.00},"paymentPolicy":{"id":3,"nameArabic":"سياسات الدفع","nameEnglish":"Payment policies","descriptionArabic":"يتم دفع قيمة البرنامج كاملة عند تأكيد الحجز ويصدر الرقم المرجعي بعد دفع قيمة الحجز","descriptionEnglish":"The value of the reservation must be paid upon confirmation of the reservation and the reference nu","isActive":true,"refundType":"apply_cancellation_policy","isRefundable":true,"cancellationPolicyId":4},"usagePolicy":{"id":3,"nameArabic":"سياسات الاستخدام","nameEnglish":"Usage policies","descriptionArabic":"يكون استخدام الحافلة لنقل المعتمرين المعنيين بالحجز ويعتبر الحجز لاغي في حالة استخدام الحافلة لنقل معتمرين غير مشمولين بنفس الحجز","descriptionEnglish":"The use of the bus to transport the pilgrims included with the reservation and the reservation is included null in the case of using the bus to transport pilgrims who are not included in the same r","isActive":true},"taxesPolicy":{"id":3,"nameArabic":"الضريبة المطبقة","nameEnglish":"Applicable tax","descriptionArabic":"يتم تطبيق النسبة الضريبية المعتمدة حسب انظمة المملكة العربية السعودية المشمولة بها هذه الخدمة","descriptionEnglish":"The approved tax rate is applied according to the regulations of the Kingdom of Saudi Arabia in whi","isActive":false,"chargeType":"percentage","chargeValue":15.00},"generalPolicy":{"id":3,"nameArabic":"سياسات عامة","nameEnglish":"General policies","descriptionArabic":"تسري جميع الشروط والانظمة المعتمدة من الجهات المعنية في وزارة الحج ووزارةالنقل والنقابة العامة للسيارات بهذا الخصوص","descriptionEnglish":"All conditions and regulations approved by the concerned authorities in the Ministry of Hajj the Ministry of Transport and the General cars Syndicate shall apply in this regard","isActive":true}}},{"id":1025,"templateId":252,"periodMaxQuotaPerPeriod":92,"minimumModelYear":2010,"maximumModelYear":2011,"minimumSeat":11,"maximumSeat":11,"vehiclePricePer":1.0,"creationPeriodId":142,"isActive":true,"policyInfo":{"cancellationPolicy":{"id":3,"nameArabic":"سياسة الالغاء 2","nameEnglish":"Cancellation 2","descriptionArabic":"سياسة الالغاء 2","descriptionEnglish":"Cancellation 2","isActive":true,"chargeUnit":"days","deadline":3,"chargeType":"percentage","chargeValue":15.00},"paymentPolicy":{"id":3,"nameArabic":"سياسات الدفع","nameEnglish":"Payment policies","descriptionArabic":"يتم دفع قيمة البرنامج كاملة عند تأكيد الحجز ويصدر الرقم المرجعي بعد دفع قيمة الحجز","descriptionEnglish":"The value of the reservation must be paid upon confirmation of the reservation and the reference nu","isActive":true,"refundType":"apply_cancellation_policy","isRefundable":true,"cancellationPolicyId":4},"taxesPolicy":{"id":3,"nameArabic":"الضريبة المطبقة","nameEnglish":"Applicable tax","descriptionArabic":"يتم تطبيق النسبة الضريبية المعتمدة حسب انظمة المملكة العربية السعودية المشمولة بها هذه الخدمة","descriptionEnglish":"The approved tax rate is applied according to the regulations of the Kingdom of Saudi Arabia in whi","isActive":false,"chargeType":"percentage","chargeValue":15.00},"generalPolicy":{"id":3,"nameArabic":"سياسات عامة","nameEnglish":"General policies","descriptionArabic":"تسري جميع الشروط والانظمة المعتمدة من الجهات المعنية في وزارة الحج ووزارةالنقل والنقابة العامة للسيارات بهذا الخصوص","descriptionEnglish":"All conditions and regulations approved by the concerned authorities in the Ministry of Hajj the Ministry of Transport and the General cars Syndicate shall apply in this regard","isActive":true}}},{"id":1019,"templateId":252,"periodMaxQuotaPerPeriod":92,"minimumModelYear":2010,"maximumModelYear":2011,"minimumSeat":11,"maximumSeat":11,"vehiclePricePer":1.0,"creationPeriodId":142,"isActive":true,"policyInfo":{"cancellationPolicy":{"id":3,"nameArabic":"سياسة الالغاء 2","nameEnglish":"Cancellation 2","descriptionArabic":"سياسة الالغاء 2","descriptionEnglish":"Cancellation 2","isActive":true,"chargeUnit":"days","deadline":3,"chargeType":"percentage","chargeValue":15.00},"paymentPolicy":{"id":3,"nameArabic":"سياسات الدفع","nameEnglish":"Payment policies","descriptionArabic":"يتم دفع قيمة البرنامج كاملة عند تأكيد الحجز ويصدر الرقم المرجعي بعد دفع قيمة الحجز","descriptionEnglish":"The value of the reservation must be paid upon confirmation of the reservation and the reference nu","isActive":true,"refundType":"apply_cancellation_policy","isRefundable":true,"cancellationPolicyId":4},"usagePolicy":{"id":3,"nameArabic":"سياسات الاستخدام","nameEnglish":"Usage policies","descriptionArabic":"يكون استخدام الحافلة لنقل المعتمرين المعنيين بالحجز ويعتبر الحجز لاغي في حالة استخدام الحافلة لنقل معتمرين غير مشمولين بنفس الحجز","descriptionEnglish":"The use of the bus to transport the pilgrims included with the reservation and the reservation is included null in the case of using the bus to transport pilgrims who are not included in the same r","isActive":true},"taxesPolicy":{"id":3,"nameArabic":"الضريبة المطبقة","nameEnglish":"Applicable tax","descriptionArabic":"يتم تطبيق النسبة الضريبية المعتمدة حسب انظمة المملكة العربية السعودية المشمولة بها هذه الخدمة","descriptionEnglish":"The approved tax rate is applied according to the regulations of the Kingdom of Saudi Arabia in whi","isActive":false,"chargeType":"percentage","chargeValue":15.00},"generalPolicy":{"id":3,"nameArabic":"سياسات عامة","nameEnglish":"General policies","descriptionArabic":"تسري جميع الشروط والانظمة المعتمدة من الجهات المعنية في وزارة الحج ووزارةالنقل والنقابة العامة للسيارات بهذا الخصوص","descriptionEnglish":"All conditions and regulations approved by the concerned authorities in the Ministry of Hajj the Ministry of Transport and the General cars Syndicate shall apply in this regard","isActive":true}}},{"id":1027,"templateId":252,"periodMaxQuotaPerPeriod":10,"minimumModelYear":2021,"maximumModelYear":2021,"minimumSeat":9,"maximumSeat":11,"vehiclePricePer":1.0,"creationPeriodId":142,"isActive":true,"policyInfo":{}},{"id":1028,"templateId":252,"periodMaxQuotaPerPeriod":1000,"minimumModelYear":2010,"maximumModelYear":2022,"minimumSeat":9,"maximumSeat":11,"vehiclePricePer":3500.0,"creationPeriodId":142,"isActive":true,"policyInfo":{}}]}" contains "content". @03-04-2023 13:39:42.0015 PM
[ReportManager] Successfully created attachment "Validation Test Data - Expected Value" @03-04-2023 13:39:42.0015 PM
[ReportManager] Successfully created attachment "Validation Test Data - Actual Value" @03-04-2023 13:39:42.0016 PM
[ReportManager] Get response jsonvalue "content". @03-04-2023 13:39:42.0019 PM
[ReportManager] Assertion Passed: Check that content object is not null. @03-04-2023 13:39:42.0019 PM
[ReportManager] Successfully created attachment "Validation Test Data - Expected Value" @03-04-2023 13:39:42.0020 PM
[ReportManager] Successfully created attachment "Validation Test Data - Actual Value" @03-04-2023 13:39:42.0021 PM
[ReportManager] File Action "DoesFileExist" successfully performed. With the following test data "File Path: "Schemas/GetAllPeriodProgram_schema.json"". @03-04-2023 13:39:42.0021 PM
[ReportManager] File Action "DoesFileExist" successfully performed. With the following test data "File Path: "src/test/resources/testDataFiles/Schemas/GetAllPeriodProgram_schema.json"". @03-04-2023 13:39:42.0021 PM
[ReportManager] File Action "GetAbsolutePath" successfully performed. With the following test data "Relative Folder Path: "src/test/resources/testDataFiles/Schemas/GetAllPeriodProgram_schema.json"". @03-04-2023 13:39:42.0021 PM
[ReportManager] File Action "DoesFileExist" successfully performed. With the following test data "File Path: "C:\eclipse-workspace\MyProjects\TASystemsAPIs\src\test\resources\testDataFiles\Schemas\GetAllPeriodProgram_schema.json"". @03-04-2023 13:39:42.0034 PM
[ReportManager] File Action "GetAbsolutePath" successfully performed. With the following test data "Relative Folder Path: "C:\eclipse-workspace\MyProjects\TASystemsAPIs\src\test\resources\testDataFiles\Schemas\GetAllPeriodProgram_schema.json"". @03-04-2023 13:39:42.0035 PM
[ReportManager] File Action "ReadFile" successfully performed. With the following test data "File Path: "C:\eclipse-workspace\MyProjects\TASystemsAPIs\src\test\resources\testDataFiles\Schemas\GetAllPeriodProgram_schema.json"". @03-04-2023 13:39:42.0035 PM
[ReportManager] Assertion Passed: The API response schema matches that in this file "src/test/resources/testDataFiles/Schemas/GetAllPeriodProgram_schema.json". @03-04-2023 13:39:42.0037 PM
[ReportManager] Successfully created attachment "Validation Test Data - Expected JSON Value" @03-04-2023 13:39:42.0038 PM
[ReportManager] Successfully created attachment "Validation Test Data - Actual JSON Value" @03-04-2023 13:39:42.0039 PM