[ReportManager] Setting discrete logging to: "false" @02-10-2022 20:52:41.0849 PM

################################################################################################################################################
Starting Execution:	"10 out of 13" test cases in the current suite
Test Method:		"SteeringCompanyAPI_TestCases.Test_Case.Valid_GET_all_terminals_Lookups_Rq_TC"
################################################################################################################################################
[ReportManager] Setting discrete logging to: "false" @02-10-2022 20:52:41.0849 PM
[ReportManager] Setting discrete logging to: "true" @02-10-2022 20:52:42.0311 PM
[ReportManager] Response status code: "200", status line: "HTTP/1.1 200 OK" @02-10-2022 20:52:42.0311 PM
[ReportManager] Assertion Passed: Evaluating the actual response status code against the expected one... @02-10-2022 20:52:42.0313 PM
[ReportManager] Setting discrete logging to: "false" @02-10-2022 20:52:42.0313 PM
[ReportManager] Perform request "POST | Target Status Code: 200 | Service URL: https://auth-demo.np.transporticonline.com/auth/realms/tic/protocol/openid-connect/token | Content Type: application/x-www-form-urlencoded | Response Time: 462ms". @02-10-2022 20:52:42.0331 PM
[ReportManager] Successfully created attachment "API Request - Specifications" @02-10-2022 20:52:42.0331 PM
[ReportManager] Successfully created attachment "API Request - Body" @02-10-2022 20:52:42.0341 PM
[ReportManager] Successfully created attachment "API Response - JSON Body" @02-10-2022 20:52:42.0341 PM
[ReportManager] Assertion Passed: "200" is equal to "200". @02-10-2022 20:52:42.0341 PM
[ReportManager] Verification Passed: "462" is greater than or equal to "1.1". @02-10-2022 20:52:42.0341 PM
[ReportManager] Verification Passed: "462" is less than or equal to "10000". @02-10-2022 20:52:42.0341 PM
[ReportManager] Assertion Passed: "{"access_token":"eyJhbGciOiJSUzI1NiIsInR5cCIgOiAiSldUIiwia2lkIiA6ICJjck9ORDFNdFVPVWhzS2Mtb0ppVFFmb0o1d1l4REF6Y3k0ZjNYZ0dveGdZIn0.eyJleHAiOjE2NjQ3MzcwNjIsImlhdCI6MTY2NDczNjc2MiwianRpIjoiYmZjOGIwY2UtZGI4Zi00NmNkLThjOGItOGEwODY2N2FkM2FhIiwiaXNzIjoiaHR0cHM6Ly9hdXRoLWRlbW8ubnAudHJhbnNwb3J0aWNvbmxpbmUuY29tL2F1dGgvcmVhbG1zL3RpYyIsImF1ZCI6ImFjY291bnQiLCJzdWIiOiI0ZTk3NmQ0NC1iM2ZkLTRjYTktODk1Ny0wYWJiODUwNzNhNzQiLCJ0eXAiOiJCZWFyZXIiLCJhenAiOiJ0aWMtYXBpIiwic2Vzc2lvbl9zdGF0ZSI6ImFlNjNmN2E2LTJlMTctNDJiYS04OTA4LTk4ZDQ1YzY5ZTg4ZiIsImFjciI6IjEiLCJhbGxvd2VkLW9yaWdpbnMiOlsiaHR0cHM6Ly9hcGktZGV2Lm5wLnRyYW5zcG9ydGljb25saW5lLmNvbSJdLCJyZWFsbV9hY2Nlc3MiOnsicm9sZXMiOlsib2ZmbGluZV9hY2Nlc3MiLCJkZWZhdWx0LXJvbGVzLXRpYyIsInVtYV9hdXRob3JpemF0aW9uIiwidXNlciJdfSwicmVzb3VyY2VfYWNjZXNzIjp7ImFjY291bnQiOnsicm9sZXMiOlsibWFuYWdlLWFjY291bnQiLCJtYW5hZ2UtYWNjb3VudC1saW5rcyIsInZpZXctcHJvZmlsZSJdfX0sInNjb3BlIjoiZW1haWwgcHJvZmlsZSIsInNpZCI6ImFlNjNmN2E2LTJlMTctNDJiYS04OTA4LTk4ZDQ1YzY5ZTg4ZiIsImVtYWlsX3ZlcmlmaWVkIjpmYWxzZSwicHJlZmVycmVkX3VzZXJuYW1lIjoidG9raGkiLCJ0Y0lkIjoiMzE5OTU3In0.PwQDZkpr1V4Mw2cNFqPtqkcqqrh1hTCRnyK0pzu9qJ21yZX-eMrS_uDmSS3GojbsiWLtDj7qZhm9EYj1lsdBkWxGWViveFEq8DJpJAgKDXZqn5WJ0k-pz1qep0vq4i9Y1PhH1n1fahVVf6MKHudCr5ylJ_8I3Cmmaf6980GW272gJGcQMKRa0r-hB-T_XOyHLh0iZ1KQ_l6livfQdnuaFJRRE9XTTay812Cni9cv5tmzbmeel_fR6pbgdPOCBOGTXwcNglNEdJ0f1pfMDq6aQzCzDMAR-9tot3fvOC9ZHocqiSUUKDM5nZyu9AX0UPHrd3fe4y4Ngcm346Unvt8AsA","expires_in":300,"refresh_expires_in":1800,"refresh_token":"eyJhbGciOiJIUzI1NiIsInR5cCIgOiAiSldUIiwia2lkIiA6ICJkMTFjNTY4Yi1iMjAyLTQzYjgtYTBiMy1hYWI4ZWMyYWQzZDEifQ.eyJleHAiOjE2NjQ3Mzg1NjIsImlhdCI6MTY2NDczNjc2MiwianRpIjoiY2JmMWM3MjQtM2FkYi00ODU5LTgxOTgtZjliMDc1YmJmODUyIiwiaXNzIjoiaHR0cHM6Ly9hdXRoLWRlbW8ubnAudHJhbnNwb3J0aWNvbmxpbmUuY29tL2F1dGgvcmVhbG1zL3RpYyIsImF1ZCI6Imh0dHBzOi8vYXV0aC1kZW1vLm5wLnRyYW5zcG9ydGljb25saW5lLmNvbS9hdXRoL3JlYWxtcy90aWMiLCJzdWIiOiI0ZTk3NmQ0NC1iM2ZkLTRjYTktODk1Ny0wYWJiODUwNzNhNzQiLCJ0eXAiOiJSZWZyZXNoIiwiYXpwIjoidGljLWFwaSIsInNlc3Npb25fc3RhdGUiOiJhZTYzZjdhNi0yZTE3LTQyYmEtODkwOC05OGQ0NWM2OWU4OGYiLCJzY29wZSI6ImVtYWlsIHByb2ZpbGUiLCJzaWQiOiJhZTYzZjdhNi0yZTE3LTQyYmEtODkwOC05OGQ0NWM2OWU4OGYifQ.w4LyX1_YQb5CSIhfH_z1eTnbVyuERFXSbRXsktn9e1w","token_type":"Bearer","not-before-policy":0,"session_state":"ae63f7a6-2e17-42ba-8908-98d45c69e88f","scope":"email profile"}" contains "access_token". @02-10-2022 20:52:42.0346 PM
[ReportManager] Successfully created attachment "Validation Test Data - Expected Value" @02-10-2022 20:52:42.0348 PM
[ReportManager] Successfully created attachment "Validation Test Data - Actual Value" @02-10-2022 20:52:42.0350 PM
[ReportManager] Get response jsonvalue "access_token". @02-10-2022 20:52:42.0353 PM
[ReportManager] Assertion Passed: Check that Access token is not null. @02-10-2022 20:52:42.0353 PM
[ReportManager] Successfully created attachment "Validation Test Data - Expected Value" @02-10-2022 20:52:42.0354 PM
[ReportManager] Successfully created attachment "Validation Test Data - Actual Value" @02-10-2022 20:52:42.0358 PM
[ReportManager] File Action "DoesFileExist" successfully performed. With the following test data "File Path: "Token_schema.json"". @02-10-2022 20:52:42.0358 PM
[ReportManager] File Action "DoesFileExist" successfully performed. With the following test data "File Path: "src/test/resources/testDataFiles/Token_schema.json"". @02-10-2022 20:52:42.0358 PM
[ReportManager] File Action "GetAbsolutePath" successfully performed. With the following test data "Relative Folder Path: "src/test/resources/testDataFiles/Token_schema.json"". @02-10-2022 20:52:42.0358 PM
[ReportManager] File Action "DoesFileExist" successfully performed. With the following test data "File Path: "C:\eclipse-workspace\MyProjects\TASystemsAPIs\src\test\resources\testDataFiles\Token_schema.json"". @02-10-2022 20:52:42.0362 PM
[ReportManager] File Action "GetAbsolutePath" successfully performed. With the following test data "Relative Folder Path: "C:\eclipse-workspace\MyProjects\TASystemsAPIs\src\test\resources\testDataFiles\Token_schema.json"". @02-10-2022 20:52:42.0362 PM
[ReportManager] File Action "ReadFromFile" successfully performed. With the following test data "File Path: "C:\eclipse-workspace\MyProjects\TASystemsAPIs\src\test\resources\testDataFiles\Token_schema.json"". @02-10-2022 20:52:42.0362 PM
[ReportManager] Assertion Passed: The API response schema matches that in this file "src/test/resources/testDataFiles/Token_schema.json". @02-10-2022 20:52:42.0362 PM
[ReportManager] Successfully created attachment "Validation Test Data - Expected JSON Value" @02-10-2022 20:52:42.0371 PM
[ReportManager] Successfully created attachment "Validation Test Data - Actual JSON Value" @02-10-2022 20:52:42.0373 PM
[ReportManager] Verification Passed: "462" is greater than or equal to "1.1". @02-10-2022 20:52:42.0398 PM
[ReportManager] Verification Passed: "462" is less than or equal to "10000". @02-10-2022 20:52:42.0398 PM
[ReportManager] Setting discrete logging to: "true" @02-10-2022 20:52:42.0821 PM
[ReportManager] Response status code: "200", status line: "HTTP/1.1 200 " @02-10-2022 20:52:42.0821 PM
[ReportManager] Assertion Passed: Evaluating the actual response status code against the expected one... @02-10-2022 20:52:42.0821 PM
[ReportManager] Setting discrete logging to: "false" @02-10-2022 20:52:42.0821 PM
[ReportManager] Perform request "GET | Target Status Code: 200 | Service URL: https://api-demo.np.transporticonline.com/steeringcompanies/v1/lookups/terminals | Content Type: */* | Response Time: 390ms". @02-10-2022 20:52:42.0841 PM
[ReportManager] Successfully created attachment "API Request - Specifications" @02-10-2022 20:52:42.0854 PM
[ReportManager] Successfully created attachment "API Response - JSON Body" @02-10-2022 20:52:42.0855 PM
[ReportManager] Assertion Passed: "200" is equal to "200". @02-10-2022 20:52:42.0855 PM
[ReportManager] Verification Passed: "390" is greater than or equal to "1.1". @02-10-2022 20:52:42.0855 PM
[ReportManager] Verification Passed: "390" is less than or equal to "10000". @02-10-2022 20:52:42.0855 PM
[ReportManager] Assertion Passed: "{"page":0,"size":2147483647,"totalPages":1,"totalElements":13,"content":[{"id":20,"nameArabic":"???? ????????","nameEnglish":"Departure Terminal","isActive":false,"lastUpdated":"2021-04-11T21:05:44Z","portId":51,"sectors":null},{"id":12,"nameArabic":"??????? - ???? ?????? ???? ???","nameEnglish":"","isActive":false,"lastUpdated":"2021-04-11T21:05:58Z","code":"","portId":51,"sectors":null},{"id":7,"nameArabic":"??????? ?????? ??????","nameEnglish":"Madinah Fast Track Terminal","isActive":false,"lastUpdated":"2021-04-11T21:06:12Z","code":"","portId":51,"sectors":null},{"id":1,"nameArabic":"???? ?????? ???","nameEnglish":"Jeddah Hajj Terminal","isActive":false,"lastUpdated":"2021-04-11T21:06:20Z","code":"H","portId":50,"sectors":null},{"id":6,"nameArabic":"????? ??? ????????","nameEnglish":"Jeddah Sea Ports","isActive":true,"lastUpdated":null,"code":"P","portId":52,"sectors":null},{"id":8,"nameArabic":"????? ????","nameEnglish":"Trustees Yanbo TERMINAL","isActive":true,"lastUpdated":null,"code":"B","portId":53,"sectors":null},{"id":9,"nameArabic":"???? ?????? ??? ?????? ?? ??? ??????","nameEnglish":"Abdul Mohsin bin Abdulaziz Airport","isActive":true,"lastUpdated":null,"code":"Y","portId":67,"sectors":null},{"id":10,"nameArabic":"???? ?????? ??????? ?? ????","nameEnglish":"International Arrival Terminal on Yanbo","isActive":true,"lastUpdated":null,"code":"TR3","portId":67,"sectors":null},{"id":11,"nameArabic":"?????? 1","nameEnglish":"TERMINAL 1","isActive":true,"lastUpdated":null,"code":"T1","portId":50,"sectors":null},{"id":2,"nameArabic":"??? ?????? ????????","nameEnglish":"Jeddah South Terminal","isActive":true,"lastUpdated":"2020-10-15T12:35:51Z","code":"S","portId":50,"sectors":null},{"id":3,"nameArabic":"??? ?????? ????????","nameEnglish":"Jeddah North Terminal","isActive":true,"lastUpdated":"2020-10-15T12:35:51Z","code":"N","portId":50,"sectors":null},{"id":5,"nameArabic":"??????? ?????? ???????","nameEnglish":"Madinah Intarnational Terminal","isActive":true,"lastUpdated":"2020-10-15T12:35:51Z","code":"I","portId":51,"sectors":null},{"id":4,"nameArabic":"???? ?????? ???????","nameEnglish":"Madinah Hajj Terminal","isActive":true,"lastUpdated":"2020-12-15T10:56:54Z","code":"H","portId":51,"sectors":null}]}" contains "content". @02-10-2022 20:52:42.0855 PM
[ReportManager] Successfully created attachment "Validation Test Data - Expected Value" @02-10-2022 20:52:42.0861 PM
[ReportManager] Successfully created attachment "Validation Test Data - Actual Value" @02-10-2022 20:52:42.0861 PM
[ReportManager] Get response jsonvalue "content". @02-10-2022 20:52:42.0864 PM
[ReportManager] Assertion Passed: Check that content object is not null. @02-10-2022 20:52:42.0864 PM
[ReportManager] Successfully created attachment "Validation Test Data - Expected Value" @02-10-2022 20:52:42.0869 PM
[ReportManager] Successfully created attachment "Validation Test Data - Actual Value" @02-10-2022 20:52:42.0871 PM
[ReportManager] File Action "DoesFileExist" successfully performed. With the following test data "File Path: "Lookups_terminals_schema.json"". @02-10-2022 20:52:42.0871 PM
[ReportManager] File Action "DoesFileExist" successfully performed. With the following test data "File Path: "src/test/resources/testDataFiles/Lookups_terminals_schema.json"". @02-10-2022 20:52:42.0871 PM
[ReportManager] File Action "GetAbsolutePath" successfully performed. With the following test data "Relative Folder Path: "src/test/resources/testDataFiles/Lookups_terminals_schema.json"". @02-10-2022 20:52:42.0871 PM
[ReportManager] File Action "DoesFileExist" successfully performed. With the following test data "File Path: "C:\eclipse-workspace\MyProjects\TASystemsAPIs\src\test\resources\testDataFiles\Lookups_terminals_schema.json"". @02-10-2022 20:52:42.0919 PM
[ReportManager] File Action "GetAbsolutePath" successfully performed. With the following test data "Relative Folder Path: "C:\eclipse-workspace\MyProjects\TASystemsAPIs\src\test\resources\testDataFiles\Lookups_terminals_schema.json"". @02-10-2022 20:52:42.0919 PM
[ReportManager] File Action "ReadFromFile" successfully performed. With the following test data "File Path: "C:\eclipse-workspace\MyProjects\TASystemsAPIs\src\test\resources\testDataFiles\Lookups_terminals_schema.json"". @02-10-2022 20:52:42.0925 PM
[ReportManager] Assertion Passed: The API response schema matches that in this file "src/test/resources/testDataFiles/Lookups_terminals_schema.json". @02-10-2022 20:52:42.0928 PM
[ReportManager] Successfully created attachment "Validation Test Data - Expected JSON Value" @02-10-2022 20:52:42.0931 PM
[ReportManager] Successfully created attachment "Validation Test Data - Actual JSON Value" @02-10-2022 20:52:42.0933 PM
[ReportManager] Verification Passed: "390" is greater than or equal to "1.1". @02-10-2022 20:52:42.0933 PM
[ReportManager] Verification Passed: "390" is less than or equal to "10000". @02-10-2022 20:52:42.0933 PM
[ReportManager] Setting discrete logging to: "true" @02-10-2022 20:52:43.0260 PM
[ReportManager] Response status code: "200", status line: "HTTP/1.1 200 " @02-10-2022 20:52:43.0260 PM
[ReportManager] Assertion Passed: Evaluating the actual response status code against the expected one... @02-10-2022 20:52:43.0260 PM
[ReportManager] Setting discrete logging to: "false" @02-10-2022 20:52:43.0260 PM
[ReportManager] Perform request "GET | Target Status Code: 200 | Service URL: https://api-demo.np.transporticonline.com/steeringcompanies/v1/lookups/terminals | Content Type: */* | Response Time: 327ms". @02-10-2022 20:52:43.0293 PM
[ReportManager] Successfully created attachment "API Request - Specifications" @02-10-2022 20:52:43.0293 PM
[ReportManager] Successfully created attachment "API Response - JSON Body" @02-10-2022 20:52:43.0298 PM
[ReportManager] Assertion Passed: "200" is equal to "200". @02-10-2022 20:52:43.0298 PM
[ReportManager] Verification Passed: "327" is greater than or equal to "1.1". @02-10-2022 20:52:43.0298 PM
[ReportManager] Verification Passed: "327" is less than or equal to "10000". @02-10-2022 20:52:43.0298 PM
[ReportManager] Assertion Passed: "{"page":0,"size":3,"totalPages":5,"totalElements":13,"content":[{"id":20,"nameArabic":"???? ????????","nameEnglish":"Departure Terminal","isActive":false,"lastUpdated":"2021-04-11T21:05:44Z","portId":51,"sectors":null},{"id":12,"nameArabic":"??????? - ???? ?????? ???? ???","nameEnglish":"","isActive":false,"lastUpdated":"2021-04-11T21:05:58Z","code":"","portId":51,"sectors":null},{"id":7,"nameArabic":"??????? ?????? ??????","nameEnglish":"Madinah Fast Track Terminal","isActive":false,"lastUpdated":"2021-04-11T21:06:12Z","code":"","portId":51,"sectors":null}]}" contains "content". @02-10-2022 20:52:43.0298 PM
[ReportManager] Successfully created attachment "Validation Test Data - Expected Value" @02-10-2022 20:52:43.0303 PM
[ReportManager] Successfully created attachment "Validation Test Data - Actual Value" @02-10-2022 20:52:43.0304 PM
[ReportManager] Get response jsonvalue "content". @02-10-2022 20:52:43.0304 PM
[ReportManager] Assertion Passed: Check that content object is not null. @02-10-2022 20:52:43.0304 PM
[ReportManager] Successfully created attachment "Validation Test Data - Expected Value" @02-10-2022 20:52:43.0307 PM
[ReportManager] Successfully created attachment "Validation Test Data - Actual Value" @02-10-2022 20:52:43.0308 PM
[ReportManager] File Action "DoesFileExist" successfully performed. With the following test data "File Path: "Lookups_terminals_schema.json"". @02-10-2022 20:52:43.0308 PM
[ReportManager] File Action "DoesFileExist" successfully performed. With the following test data "File Path: "src/test/resources/testDataFiles/Lookups_terminals_schema.json"". @02-10-2022 20:52:43.0308 PM
[ReportManager] File Action "GetAbsolutePath" successfully performed. With the following test data "Relative Folder Path: "src/test/resources/testDataFiles/Lookups_terminals_schema.json"". @02-10-2022 20:52:43.0308 PM
[ReportManager] File Action "DoesFileExist" successfully performed. With the following test data "File Path: "C:\eclipse-workspace\MyProjects\TASystemsAPIs\src\test\resources\testDataFiles\Lookups_terminals_schema.json"". @02-10-2022 20:52:43.0319 PM
[ReportManager] File Action "GetAbsolutePath" successfully performed. With the following test data "Relative Folder Path: "C:\eclipse-workspace\MyProjects\TASystemsAPIs\src\test\resources\testDataFiles\Lookups_terminals_schema.json"". @02-10-2022 20:52:43.0319 PM
[ReportManager] File Action "ReadFromFile" successfully performed. With the following test data "File Path: "C:\eclipse-workspace\MyProjects\TASystemsAPIs\src\test\resources\testDataFiles\Lookups_terminals_schema.json"". @02-10-2022 20:52:43.0319 PM
[ReportManager] Assertion Passed: The API response schema matches that in this file "src/test/resources/testDataFiles/Lookups_terminals_schema.json". @02-10-2022 20:52:43.0321 PM
[ReportManager] Successfully created attachment "Validation Test Data - Expected JSON Value" @02-10-2022 20:52:43.0325 PM
[ReportManager] Successfully created attachment "Validation Test Data - Actual JSON Value" @02-10-2022 20:52:43.0326 PM
[ReportManager] Verification Passed: "327" is greater than or equal to "1.1". @02-10-2022 20:52:43.0326 PM
[ReportManager] Verification Passed: "327" is less than or equal to "10000". @02-10-2022 20:52:43.0328 PM