[ReportManager] Setting discrete logging to: "false" @29-09-2022 17:22:47.0303 PM

################################################################################################################################################
Starting Execution:	"7 out of 13" test cases in the current suite
Test Method:		"SteeringCompanyAPI_TestCases.Test_Case.Valid_GET_all_ports_Lookups_Rq_TC"
################################################################################################################################################
[ReportManager] Setting discrete logging to: "false" @29-09-2022 17:22:47.0303 PM
[ReportManager] Setting discrete logging to: "true" @29-09-2022 17:22:48.0364 PM
[ReportManager] Response status code: "200", status line: "HTTP/1.1 200 OK" @29-09-2022 17:22:48.0364 PM
[ReportManager] Assertion Passed: Evaluating the actual response status code against the expected one... @29-09-2022 17:22:48.0365 PM
[ReportManager] Setting discrete logging to: "false" @29-09-2022 17:22:48.0365 PM
[ReportManager] Perform request "POST | Target Status Code: 200 | Service URL: https://auth-demo.np.transporticonline.com/auth/realms/tic/protocol/openid-connect/token | Content Type: application/x-www-form-urlencoded | Response Time: 1059ms". @29-09-2022 17:22:48.0379 PM
[ReportManager] Successfully created attachment "API Request - Specifications" @29-09-2022 17:22:48.0380 PM
[ReportManager] Successfully created attachment "API Request - Body" @29-09-2022 17:22:48.0419 PM
[ReportManager] Successfully created attachment "API Response - JSON Body" @29-09-2022 17:22:48.0421 PM
[ReportManager] Assertion Passed: "200" is equal to "200". @29-09-2022 17:22:48.0421 PM
[ReportManager] Verification Passed: "1059" is greater than or equal to "1.1". @29-09-2022 17:22:48.0422 PM
[ReportManager] Verification Passed: "1059" is less than or equal to "10000". @29-09-2022 17:22:48.0422 PM
[ReportManager] Assertion Passed: "{"access_token":"eyJhbGciOiJSUzI1NiIsInR5cCIgOiAiSldUIiwia2lkIiA6ICJjck9ORDFNdFVPVWhzS2Mtb0ppVFFmb0o1d1l4REF6Y3k0ZjNYZ0dveGdZIn0.eyJleHAiOjE2NjQ0NjUyNjYsImlhdCI6MTY2NDQ2NDk2NiwianRpIjoiNjcwNWFhN2MtZmM3Yy00Y2QyLTkzYzktMWEwMWUxMTUwM2ViIiwiaXNzIjoiaHR0cHM6Ly9hdXRoLWRlbW8ubnAudHJhbnNwb3J0aWNvbmxpbmUuY29tL2F1dGgvcmVhbG1zL3RpYyIsImF1ZCI6ImFjY291bnQiLCJzdWIiOiI0ZTk3NmQ0NC1iM2ZkLTRjYTktODk1Ny0wYWJiODUwNzNhNzQiLCJ0eXAiOiJCZWFyZXIiLCJhenAiOiJ0aWMtYXBpIiwic2Vzc2lvbl9zdGF0ZSI6IjYzODgzNzUzLTA4NzUtNGM3OS1hMjY5LWYwNzlmM2ZiYzk2OSIsImFjciI6IjEiLCJhbGxvd2VkLW9yaWdpbnMiOlsiaHR0cHM6Ly9hcGktZGV2Lm5wLnRyYW5zcG9ydGljb25saW5lLmNvbSJdLCJyZWFsbV9hY2Nlc3MiOnsicm9sZXMiOlsib2ZmbGluZV9hY2Nlc3MiLCJkZWZhdWx0LXJvbGVzLXRpYyIsInVtYV9hdXRob3JpemF0aW9uIiwidXNlciJdfSwicmVzb3VyY2VfYWNjZXNzIjp7ImFjY291bnQiOnsicm9sZXMiOlsibWFuYWdlLWFjY291bnQiLCJtYW5hZ2UtYWNjb3VudC1saW5rcyIsInZpZXctcHJvZmlsZSJdfX0sInNjb3BlIjoiZW1haWwgcHJvZmlsZSIsInNpZCI6IjYzODgzNzUzLTA4NzUtNGM3OS1hMjY5LWYwNzlmM2ZiYzk2OSIsImVtYWlsX3ZlcmlmaWVkIjpmYWxzZSwicHJlZmVycmVkX3VzZXJuYW1lIjoidG9raGkiLCJ0Y0lkIjoiMzE5OTU3In0.Gf0ANlnmKMHGuu1G6v4o15R_Uc-xL83z4bgJ6at53pt0S2UTkgX1TzA6d3dz2unJYNk7nQ-EHkrTKsR3WD8JtAhochbcNd6jkxTMfIt3wmtFiWzYo0Kck067KvK55s7W5vUG2teL5qH2upoakTSWfB3wt0BtQapFg0XO7eDIncFgjicPVtxgpr8P1mWh-GkIP1ku-FXWyHQRzZ7LJjS_edfbdS9Ld3pWgauwt4xf28VEcyUZLScv0fu5ytyFmgtVbHVH9bHJF-Zg89uXbhpRow3opkTZ6G8CnKQCqcETDFi4V8vQ0I_xNycjXJGCGv1ApUvIKplF0j7YBdbmkUaOeA","expires_in":300,"refresh_expires_in":1800,"refresh_token":"eyJhbGciOiJIUzI1NiIsInR5cCIgOiAiSldUIiwia2lkIiA6ICJkMTFjNTY4Yi1iMjAyLTQzYjgtYTBiMy1hYWI4ZWMyYWQzZDEifQ.eyJleHAiOjE2NjQ0NjY3NjYsImlhdCI6MTY2NDQ2NDk2NiwianRpIjoiNWFlM2NiYzItNjU4MC00NWQ0LThjNmUtNmE1MTk3ZTRlMDJmIiwiaXNzIjoiaHR0cHM6Ly9hdXRoLWRlbW8ubnAudHJhbnNwb3J0aWNvbmxpbmUuY29tL2F1dGgvcmVhbG1zL3RpYyIsImF1ZCI6Imh0dHBzOi8vYXV0aC1kZW1vLm5wLnRyYW5zcG9ydGljb25saW5lLmNvbS9hdXRoL3JlYWxtcy90aWMiLCJzdWIiOiI0ZTk3NmQ0NC1iM2ZkLTRjYTktODk1Ny0wYWJiODUwNzNhNzQiLCJ0eXAiOiJSZWZyZXNoIiwiYXpwIjoidGljLWFwaSIsInNlc3Npb25fc3RhdGUiOiI2Mzg4Mzc1My0wODc1LTRjNzktYTI2OS1mMDc5ZjNmYmM5NjkiLCJzY29wZSI6ImVtYWlsIHByb2ZpbGUiLCJzaWQiOiI2Mzg4Mzc1My0wODc1LTRjNzktYTI2OS1mMDc5ZjNmYmM5NjkifQ.s4L0Nir8HZJq_CGuRyTPE98a_mMYyPt1h6VO8WUxBWw","token_type":"Bearer","not-before-policy":0,"session_state":"63883753-0875-4c79-a269-f079f3fbc969","scope":"email profile"}" contains "access_token". @29-09-2022 17:22:48.0422 PM
[ReportManager] Successfully created attachment "Validation Test Data - Expected Value" @29-09-2022 17:22:48.0423 PM
[ReportManager] Successfully created attachment "Validation Test Data - Actual Value" @29-09-2022 17:22:48.0423 PM
[ReportManager] Get response jsonvalue "access_token". @29-09-2022 17:22:48.0424 PM
[ReportManager] Assertion Passed: Check that Access token is not null. @29-09-2022 17:22:48.0424 PM
[ReportManager] Successfully created attachment "Validation Test Data - Expected Value" @29-09-2022 17:22:48.0425 PM
[ReportManager] Successfully created attachment "Validation Test Data - Actual Value" @29-09-2022 17:22:48.0425 PM
[ReportManager] File Action "DoesFileExist" successfully performed. With the following test data "File Path: "Token_schema.json"". @29-09-2022 17:22:48.0426 PM
[ReportManager] File Action "DoesFileExist" successfully performed. With the following test data "File Path: "src/test/resources/testDataFiles/Token_schema.json"". @29-09-2022 17:22:48.0426 PM
[ReportManager] File Action "GetAbsolutePath" successfully performed. With the following test data "Relative Folder Path: "src/test/resources/testDataFiles/Token_schema.json"". @29-09-2022 17:22:48.0426 PM
[ReportManager] File Action "DoesFileExist" successfully performed. With the following test data "File Path: "C:\eclipse-workspace\MyProjects\TASystemsAPIs\src\test\resources\testDataFiles\Token_schema.json"". @29-09-2022 17:22:48.0428 PM
[ReportManager] File Action "GetAbsolutePath" successfully performed. With the following test data "Relative Folder Path: "C:\eclipse-workspace\MyProjects\TASystemsAPIs\src\test\resources\testDataFiles\Token_schema.json"". @29-09-2022 17:22:48.0428 PM
[ReportManager] File Action "ReadFromFile" successfully performed. With the following test data "File Path: "C:\eclipse-workspace\MyProjects\TASystemsAPIs\src\test\resources\testDataFiles\Token_schema.json"". @29-09-2022 17:22:48.0428 PM
[ReportManager] Assertion Passed: The API response schema matches that in this file "src/test/resources/testDataFiles/Token_schema.json". @29-09-2022 17:22:48.0428 PM
[ReportManager] Successfully created attachment "Validation Test Data - Expected JSON Value" @29-09-2022 17:22:48.0429 PM
[ReportManager] Successfully created attachment "Validation Test Data - Actual JSON Value" @29-09-2022 17:22:48.0429 PM
[ReportManager] Verification Passed: "1059" is greater than or equal to "1.1". @29-09-2022 17:22:48.0440 PM
[ReportManager] Verification Passed: "1059" is less than or equal to "10000". @29-09-2022 17:22:48.0440 PM
[ReportManager] Setting discrete logging to: "true" @29-09-2022 17:22:49.0083 PM
[ReportManager] Response status code: "200", status line: "HTTP/1.1 200 " @29-09-2022 17:22:49.0084 PM
[ReportManager] Assertion Passed: Evaluating the actual response status code against the expected one... @29-09-2022 17:22:49.0084 PM
[ReportManager] Setting discrete logging to: "false" @29-09-2022 17:22:49.0085 PM
[ReportManager] Perform request "GET | Target Status Code: 200 | Service URL: https://api-demo.np.transporticonline.com/steeringcompanies/v1/lookups/ports | Content Type: */* | Response Time: 629ms". @29-09-2022 17:22:49.0102 PM
[ReportManager] Successfully created attachment "API Request - Specifications" @29-09-2022 17:22:49.0103 PM
[ReportManager] Successfully created attachment "API Response - JSON Body" @29-09-2022 17:22:49.0104 PM
[ReportManager] Assertion Passed: "200" is equal to "200". @29-09-2022 17:22:49.0104 PM
[ReportManager] Verification Passed: "629" is greater than or equal to "1.1". @29-09-2022 17:22:49.0104 PM
[ReportManager] Verification Passed: "629" is less than or equal to "10000". @29-09-2022 17:22:49.0104 PM
[ReportManager] Assertion Passed: "{"page":0,"size":2147483647,"totalPages":1,"totalElements":29,"content":[{"id":59,"nameArabic":"???? ??? ","nameEnglish":"Alab Port","cityId":656,"isActive":true,"lastUpdated":"2020-10-22T18:41:32Z","sectors":null},{"id":53,"nameArabic":"????? ???? ???????","nameEnglish":"Yanbu Commercial Port","cityId":646,"isActive":true,"lastUpdated":"2020-10-22T18:41:32Z","sectors":null},{"id":49,"nameArabic":"???? ????? ????","nameEnglish":"Jadedat Arar Port","cityId":612,"isActive":true,"lastUpdated":"2020-10-22T18:41:32Z","sectors":null},{"id":65,"nameArabic":"???? ???????","nameEnglish":"Alwadeah Port","cityId":664,"isActive":true,"lastUpdated":"2020-10-22T18:41:32Z","sectors":null},{"id":41,"nameArabic":"???? ????? ???? ??????","nameEnglish":"King Khalid International Airport","cityId":601,"isActive":true,"lastUpdated":"2020-10-22T18:41:32Z","sectors":null},{"id":71,"nameArabic":"???? ????? 5 - ???? ????? ???","nameEnglish":"???? ????? 5 - ???? ????? ???","cityId":602,"isActive":true,"lastUpdated":"2020-10-22T18:41:32Z","sectors":null},{"id":48,"nameArabic":"???? ???? ????","nameEnglish":"Halat Amar Port","cityId":606,"isActive":true,"lastUpdated":"2020-10-22T18:41:32Z","sectors":null},{"id":54,"nameArabic":"???? ???????","nameEnglish":"Alkhadra Port","cityId":664,"isActive":true,"lastUpdated":"2020-10-22T18:41:32Z","sectors":null},{"id":58,"nameArabic":"???? ????? ???","nameEnglish":"King Fahad Airport","cityId":607,"isActive":true,"lastUpdated":"2020-10-22T18:41:32Z","sectors":null},{"id":66,"nameArabic":"???? ?????-1???? ????? ????? ","nameEnglish":"???? ?????-1???? ????? ????? ","cityId":602,"isActive":true,"lastUpdated":"2020-10-22T18:41:32Z","sectors":null},{"id":72,"nameArabic":"???? ????? ?????? - ?? ??????","nameEnglish":"Empty quarter Port","isActive":true,"lastUpdated":"2022-06-29T08:08:58Z","sectors":null},{"id":50,"nameArabic":"???? ????? ??? ?????? ??????","nameEnglish":"KING ABDUL AZIZ INTERNATIONAL AIRPORT","cityId":602,"isActive":true,"lastUpdated":"2020-10-22T18:41:32Z","sectors":null},{"id":45,"nameArabic":"???? ????","nameEnglish":"Salwa Port","cityId":672,"isActive":true,"lastUpdated":"2020-10-22T18:41:32Z","sectors":null},{"id":63,"nameArabic":"???? ??????","nameEnglish":"Altaif Airport","cityId":604,"isActive":true,"lastUpdated":"2020-10-22T18:41:32Z","sectors":null},{"id":4,"nameArabic":"?????","nameEnglish":"albalad","isActive":true,"lastUpdated":null,"sectors":null},{"id":55,"nameArabic":"???? ??????","nameEnglish":"Altowal Port","cityId":607,"isActive":true,"lastUpdated":"2020-10-22T18:41:32Z","sectors":null},{"id":5,"nameArabic":"???? ????? 2-???? ??????","nameEnglish":"???? ????? 2-???? ??????","cityId":602,"isActive":true,"lastUpdated":"2020-10-22T18:41:32Z","sectors":null},{"id":70,"nameArabic":"???? ????? 4-???? ????","nameEnglish":"???? ????? 4-???? ????","cityId":602,"isActive":true,"lastUpdated":"2020-10-22T18:41:32Z","sectors":null},{"id":69,"nameArabic":"???? ????? 3-???????","nameEnglish":"???? ????? 3-???????","cityId":602,"isActive":true,"lastUpdated":"2020-10-22T18:41:32Z","sectors":null},{"id":68,"nameArabic":"???? ????? 6 - ???? ???","nameEnglish":"???? ????? 6 - ???? ???","cityId":602,"isActive":true,"lastUpdated":"2020-10-22T18:41:32Z","sectors":null},{"id":43,"nameArabic":"???? ??????","nameEnglish":"Alkhafji Port","cityId":631,"isActive":true,"lastUpdated":"2020-10-22T18:41:32Z","sectors":null},{"id":67,"nameArabic":"??????????????????? ?????","nameEnglish":"Prince AbdulMohsen Bin Abdulaziz Airport","isActive":true,"lastUpdated":null,"sectors":null},{"id":47,"nameArabic":"???? ???????","nameEnglish":"Albatha Port","cityId":672,"isActive":true,"lastUpdated":"2020-10-22T18:41:32Z","sectors":null},{"id":52,"nameArabic":"????? ??? ????????","nameEnglish":"JEDDAH ISLAMIC PORT","cityId":602,"isActive":true,"lastUpdated":"2020-10-22T18:41:32Z","sectors":null},{"id":56,"nameArabic":"???? ???????","nameEnglish":"Alhadithah Port","cityId":641,"isActive":true,"lastUpdated":"2020-10-22T18:41:32Z","sectors":null},{"id":46,"nameArabic":"??? ????? ???","nameEnglish":"King Fahad Bridge","cityId":608,"isActive":true,"lastUpdated":"2020-10-22T18:41:32Z","sectors":null},{"id":51,"nameArabic":"???? ?????? ????","nameEnglish":"PRINCE MOHAMMAD INTERNATIONAL AIRPORT","cityId":605,"isActive":true,"lastUpdated":"2020-10-22T18:41:32Z","sectors":null},{"id":44,"nameArabic":"???? ??????","nameEnglish":"Alraqai Port","cityId":630,"isActive":true,"lastUpdated":"2020-10-22T18:41:32Z","sectors":null},{"id":64,"nameArabic":"???? ????","nameEnglish":"Abha Airport","cityId":613,"isActive":true,"lastUpdated":"2020-10-22T18:41:32Z","sectors":null}]}" contains "content". @29-09-2022 17:22:49.0105 PM
[ReportManager] Successfully created attachment "Validation Test Data - Expected Value" @29-09-2022 17:22:49.0106 PM
[ReportManager] Successfully created attachment "Validation Test Data - Actual Value" @29-09-2022 17:22:49.0106 PM
[ReportManager] Get response jsonvalue "content". @29-09-2022 17:22:49.0109 PM
[ReportManager] Assertion Passed: Check that content object is not null. @29-09-2022 17:22:49.0109 PM
[ReportManager] Successfully created attachment "Validation Test Data - Expected Value" @29-09-2022 17:22:49.0109 PM
[ReportManager] Successfully created attachment "Validation Test Data - Actual Value" @29-09-2022 17:22:49.0110 PM
[ReportManager] File Action "DoesFileExist" successfully performed. With the following test data "File Path: "Lookups_ports_schema.json"". @29-09-2022 17:22:49.0110 PM
[ReportManager] File Action "DoesFileExist" successfully performed. With the following test data "File Path: "src/test/resources/testDataFiles/Lookups_ports_schema.json"". @29-09-2022 17:22:49.0110 PM
[ReportManager] File Action "GetAbsolutePath" successfully performed. With the following test data "Relative Folder Path: "src/test/resources/testDataFiles/Lookups_ports_schema.json"". @29-09-2022 17:22:49.0110 PM
[ReportManager] File Action "DoesFileExist" successfully performed. With the following test data "File Path: "C:\eclipse-workspace\MyProjects\TASystemsAPIs\src\test\resources\testDataFiles\Lookups_ports_schema.json"". @29-09-2022 17:22:49.0114 PM
[ReportManager] File Action "GetAbsolutePath" successfully performed. With the following test data "Relative Folder Path: "C:\eclipse-workspace\MyProjects\TASystemsAPIs\src\test\resources\testDataFiles\Lookups_ports_schema.json"". @29-09-2022 17:22:49.0114 PM
[ReportManager] File Action "ReadFromFile" successfully performed. With the following test data "File Path: "C:\eclipse-workspace\MyProjects\TASystemsAPIs\src\test\resources\testDataFiles\Lookups_ports_schema.json"". @29-09-2022 17:22:49.0115 PM
[ReportManager] Assertion Passed: The API response schema matches that in this file "src/test/resources/testDataFiles/Lookups_ports_schema.json". @29-09-2022 17:22:49.0116 PM
[ReportManager] Successfully created attachment "Validation Test Data - Expected JSON Value" @29-09-2022 17:22:49.0117 PM
[ReportManager] Successfully created attachment "Validation Test Data - Actual JSON Value" @29-09-2022 17:22:49.0118 PM
[ReportManager] Verification Passed: "629" is greater than or equal to "1.1". @29-09-2022 17:22:49.0118 PM
[ReportManager] Verification Passed: "629" is less than or equal to "10000". @29-09-2022 17:22:49.0119 PM
[ReportManager] Setting discrete logging to: "true" @29-09-2022 17:22:49.0737 PM
[ReportManager] Response status code: "200", status line: "HTTP/1.1 200 " @29-09-2022 17:22:49.0738 PM
[ReportManager] Assertion Passed: Evaluating the actual response status code against the expected one... @29-09-2022 17:22:49.0738 PM
[ReportManager] Setting discrete logging to: "false" @29-09-2022 17:22:49.0738 PM
[ReportManager] Perform request "GET | Target Status Code: 200 | Service URL: https://api-demo.np.transporticonline.com/steeringcompanies/v1/lookups/ports | Content Type: */* | Response Time: 616ms". @29-09-2022 17:22:49.0750 PM
[ReportManager] Successfully created attachment "API Request - Specifications" @29-09-2022 17:22:49.0750 PM
[ReportManager] Successfully created attachment "API Response - JSON Body" @29-09-2022 17:22:49.0751 PM
[ReportManager] Assertion Passed: "200" is equal to "200". @29-09-2022 17:22:49.0752 PM
[ReportManager] Verification Passed: "616" is greater than or equal to "1.1". @29-09-2022 17:22:49.0752 PM
[ReportManager] Verification Passed: "616" is less than or equal to "10000". @29-09-2022 17:22:49.0752 PM
[ReportManager] Assertion Passed: "{"page":0,"size":3,"totalPages":10,"totalElements":29,"content":[{"id":59,"nameArabic":"???? ??? ","nameEnglish":"Alab Port","cityId":656,"isActive":true,"lastUpdated":"2020-10-22T18:41:32Z","sectors":null},{"id":53,"nameArabic":"????? ???? ???????","nameEnglish":"Yanbu Commercial Port","cityId":646,"isActive":true,"lastUpdated":"2020-10-22T18:41:32Z","sectors":null},{"id":49,"nameArabic":"???? ????? ????","nameEnglish":"Jadedat Arar Port","cityId":612,"isActive":true,"lastUpdated":"2020-10-22T18:41:32Z","sectors":null}]}" contains "content". @29-09-2022 17:22:49.0752 PM
[ReportManager] Successfully created attachment "Validation Test Data - Expected Value" @29-09-2022 17:22:49.0753 PM
[ReportManager] Successfully created attachment "Validation Test Data - Actual Value" @29-09-2022 17:22:49.0753 PM
[ReportManager] Get response jsonvalue "content". @29-09-2022 17:22:49.0754 PM
[ReportManager] Assertion Passed: Check that content object is not null. @29-09-2022 17:22:49.0754 PM
[ReportManager] File Action "DoesFileExist" successfully performed. With the following test data "File Path: "Lookups_ports_schema.json"". @29-09-2022 17:22:49.0754 PM
[ReportManager] File Action "DoesFileExist" successfully performed. With the following test data "File Path: "src/test/resources/testDataFiles/Lookups_ports_schema.json"". @29-09-2022 17:22:49.0754 PM
[ReportManager] File Action "GetAbsolutePath" successfully performed. With the following test data "Relative Folder Path: "src/test/resources/testDataFiles/Lookups_ports_schema.json"". @29-09-2022 17:22:49.0754 PM
[ReportManager] File Action "DoesFileExist" successfully performed. With the following test data "File Path: "C:\eclipse-workspace\MyProjects\TASystemsAPIs\src\test\resources\testDataFiles\Lookups_ports_schema.json"". @29-09-2022 17:22:49.0757 PM
[ReportManager] File Action "GetAbsolutePath" successfully performed. With the following test data "Relative Folder Path: "C:\eclipse-workspace\MyProjects\TASystemsAPIs\src\test\resources\testDataFiles\Lookups_ports_schema.json"". @29-09-2022 17:22:49.0758 PM
[ReportManager] File Action "ReadFromFile" successfully performed. With the following test data "File Path: "C:\eclipse-workspace\MyProjects\TASystemsAPIs\src\test\resources\testDataFiles\Lookups_ports_schema.json"". @29-09-2022 17:22:49.0758 PM
[ReportManager] Assertion Passed: The API response schema matches that in this file "src/test/resources/testDataFiles/Lookups_ports_schema.json". @29-09-2022 17:22:49.0759 PM
[ReportManager] Successfully created attachment "Validation Test Data - Expected JSON Value" @29-09-2022 17:22:49.0760 PM
[ReportManager] Successfully created attachment "Validation Test Data - Actual JSON Value" @29-09-2022 17:22:49.0761 PM
[ReportManager] Verification Passed: "616" is greater than or equal to "1.1". @29-09-2022 17:22:49.0761 PM
[ReportManager] Verification Passed: "616" is less than or equal to "10000". @29-09-2022 17:22:49.0763 PM