
################################################################################################################################################
Starting Execution:	"2 out of 5" test cases in the current suite
Test Method:		"SteeringCompanyAPI_TestCases.Test_Lookups_Cases.Valid_GET_all_cities_Lookups_by_Qry_Rq_TC"
Test Description:	"TC002 - Perform Get all cities API by parameters Qry with valid user name and password and return with token"
################################################################################################################################################
[ReportManager] File Action "DoesFileExist" successfully performed. With the following test data "File Path: "SteeringCompanyAPI_TestData/SteeringCompanyAPI_TestData.xlsx"". @18-12-2022 18:22:40.0481 PM
[ReportManager] Loaded Test Data: "src/test/resources/testDataFiles/SteeringCompanyAPI_TestData/SteeringCompanyAPI_TestData.xlsx". @18-12-2022 18:22:40.0528 PM
[ReportManager] Successfully created attachment "Test Data - Excel" @18-12-2022 18:22:40.0565 PM
[ReportManager] Response status code: "200", status line: "HTTP/1.1 200 OK" @18-12-2022 18:22:41.0354 PM
[ReportManager] Assertion Passed: Evaluating the actual response status code against the expected one... @18-12-2022 18:22:41.0355 PM
[ReportManager] Perform request "POST | Target Status Code: 200 | Service URL: https://auth-demo.np.transporticonline.com/auth/realms/tic/protocol/openid-connect/token | Content Type: application/x-www-form-urlencoded | Response Time: 775ms". @18-12-2022 18:22:41.0381 PM
[ReportManager] Successfully created attachment "API Request - Specifications" @18-12-2022 18:22:41.0382 PM
[ReportManager] Successfully created attachment "API Request - Body" @18-12-2022 18:22:41.0384 PM
[ReportManager] Successfully created attachment "API Response - JSON Body" @18-12-2022 18:22:41.0386 PM
[ReportManager] Assertion Passed: Check Response Status Code is 200 and it is valid. @18-12-2022 18:22:41.0388 PM
[ReportManager] File Action "DoesFileExist" successfully performed. With the following test data "File Path: "SteeringCompanyAPI_TestData/SteeringCompanyAPI_TestData.xlsx"". @18-12-2022 18:22:41.0411 PM
[ReportManager] Loaded Test Data: "src/test/resources/testDataFiles/SteeringCompanyAPI_TestData/SteeringCompanyAPI_TestData.xlsx". @18-12-2022 18:22:41.0451 PM
[ReportManager] Successfully created attachment "Test Data - Excel" @18-12-2022 18:22:41.0453 PM
[ReportManager] Response status code: "200", status line: "HTTP/1.1 200 " @18-12-2022 18:22:42.0176 PM
[ReportManager] Assertion Passed: Evaluating the actual response status code against the expected one... @18-12-2022 18:22:42.0178 PM
[ReportManager] Perform request "GET | Target Status Code: 200 | Service URL: https://api-demo.np.transporticonline.com/steeringcompanies/v1/lookups/cities | Content Type: */* | Response Time: 684ms". @18-12-2022 18:22:42.0207 PM
[ReportManager] Successfully created attachment "API Request - Specifications" @18-12-2022 18:22:42.0209 PM
[ReportManager] Successfully created attachment "API Response - JSON Body" @18-12-2022 18:22:42.0212 PM
[ReportManager] Assertion Passed: "200" is equal to "200". @18-12-2022 18:22:42.0214 PM
[ReportManager] Verification Passed: "684" is greater than or equal to "1.1". @18-12-2022 18:22:42.0215 PM
[ReportManager] Verification Passed: "684" is less than or equal to "10000". @18-12-2022 18:22:42.0215 PM
[ReportManager] Assertion Passed: "{"page":0,"size":3,"totalPages":237,"totalElements":709,"content":[{"id":1071,"nameArabic":"???? ?????? ??????","nameEnglish":"Denizli Cardak Airport","isActive":true,"lastUpdated":"2022-06-02T00:13:35Z","sectors":null},{"id":36,"nameArabic":"??????????","nameEnglish":"Kuala Lumpur","isActive":true,"lastUpdated":"2022-06-02T01:21:49Z","sectors":null},{"id":849,"nameArabic":"???????","nameEnglish":"Solngen","isActive":true,"lastUpdated":"2022-06-02T01:37:02Z","sectors":null}]}" contains "content". @18-12-2022 18:22:42.0218 PM
[ReportManager] Get response jsonvalue "content". @18-12-2022 18:22:42.0221 PM
[ReportManager] Assertion Passed: Check that content object is not null. @18-12-2022 18:22:42.0224 PM
[ReportManager] File Action "DoesFileExist" successfully performed. With the following test data "File Path: "Lookups_cities_schema.json"". @18-12-2022 18:22:42.0224 PM
[ReportManager] File Action "DoesFileExist" successfully performed. With the following test data "File Path: "src/test/resources/testDataFiles/Lookups_cities_schema.json"". @18-12-2022 18:22:42.0226 PM
[ReportManager] File Action "GetAbsolutePath" successfully performed. With the following test data "Relative Folder Path: "src/test/resources/testDataFiles/Lookups_cities_schema.json"". @18-12-2022 18:22:42.0229 PM
[ReportManager] File Action "DoesFileExist" successfully performed. With the following test data "File Path: "C:\eclipse-workspace\MyProjects\TASystemsAPIs\src\test\resources\testDataFiles\Lookups_cities_schema.json"". @18-12-2022 18:22:42.0243 PM
[ReportManager] File Action "GetAbsolutePath" successfully performed. With the following test data "Relative Folder Path: "C:\eclipse-workspace\MyProjects\TASystemsAPIs\src\test\resources\testDataFiles\Lookups_cities_schema.json"". @18-12-2022 18:22:42.0244 PM
[ReportManager] File Action "ReadFile" successfully performed. With the following test data "File Path: "C:\eclipse-workspace\MyProjects\TASystemsAPIs\src\test\resources\testDataFiles\Lookups_cities_schema.json"". @18-12-2022 18:22:42.0246 PM
[ReportManager] Assertion Passed: The API response schema matches that in this file "src/test/resources/testDataFiles/Lookups_cities_schema.json". @18-12-2022 18:22:42.0249 PM
[ReportManager] Successfully created attachment "Validation Test Data - Expected JSON Value" @18-12-2022 18:22:42.0251 PM
[ReportManager] Successfully created attachment "Validation Test Data - Actual JSON Value" @18-12-2022 18:22:42.0253 PM