
################################################################################################################################################
Starting Execution:	"43 out of 110" test cases in the current suite
Test Method:		"SteeringCompanyAPI_TestCases.Test_Commissions_Cases.Valid_GET_all_OTAs_by_Qry_Rq_TC"
Test Description:	"TC017  -OTAs- Perform Get all OTAs API with pagination with valid user name and password"
################################################################################################################################################
[ReportManager] File Action "DoesFileExist" successfully performed. With the following test data "File Path: "SteeringCompanyAPI_TestData/SteeringCompanyAPI_TestData.xlsx"". @07-02-2023 14:56:04.0900 PM
[ReportManager] Loaded Test Data: "src/test/resources/testDataFiles/SteeringCompanyAPI_TestData/SteeringCompanyAPI_TestData.xlsx". @07-02-2023 14:56:04.0946 PM
[ReportManager] Successfully created attachment "Test Data - Excel" @07-02-2023 14:56:04.0949 PM
[ReportManager] Response status code: "200", status line: "HTTP/1.1 200 OK" @07-02-2023 14:56:05.0587 PM
[ReportManager] Assertion Passed: Evaluating the actual response status code against the expected one... @07-02-2023 14:56:05.0587 PM
[ReportManager] Perform request "POST | Target Status Code: 200 | Service URL: https://auth-demo.np.transporticonline.com/auth/realms/tic/protocol/openid-connect/token | Content Type: application/x-www-form-urlencoded | Response Time: 634ms". @07-02-2023 14:56:05.0612 PM
[ReportManager] Successfully created attachment "API Request - Specifications" @07-02-2023 14:56:05.0615 PM
[ReportManager] Successfully created attachment "API Request - Body" @07-02-2023 14:56:05.0616 PM
[ReportManager] Successfully created attachment "API Response - JSON Body" @07-02-2023 14:56:05.0617 PM
[ReportManager] Assertion Passed: Check Response Status Code is 200 and it is valid. @07-02-2023 14:56:05.0618 PM
[ReportManager] File Action "DoesFileExist" successfully performed. With the following test data "File Path: "SteeringCompanyAPI_TestData/SteeringCompanyAPI_TestData.xlsx"". @07-02-2023 14:56:05.0636 PM
[ReportManager] Loaded Test Data: "src/test/resources/testDataFiles/SteeringCompanyAPI_TestData/SteeringCompanyAPI_TestData.xlsx". @07-02-2023 14:56:05.0682 PM
[ReportManager] Successfully created attachment "Test Data - Excel" @07-02-2023 14:56:05.0685 PM
[ReportManager] File Action "DoesFileExist" successfully performed. With the following test data "File Path: "SteeringCompanyAPI_TestData/SteeringCompanyAPI_TestData.xlsx"". @07-02-2023 14:56:05.0685 PM
[ReportManager] Loaded Test Data: "src/test/resources/testDataFiles/SteeringCompanyAPI_TestData/SteeringCompanyAPI_TestData.xlsx". @07-02-2023 14:56:05.0724 PM
[ReportManager] Successfully created attachment "Test Data - Excel" @07-02-2023 14:56:05.0726 PM
[ReportManager] File Action "DoesFileExist" successfully performed. With the following test data "File Path: "SteeringCompanyAPI_TestData/SteeringCompanyAPI_TestData.xlsx"". @07-02-2023 14:56:05.0726 PM
[ReportManager] Loaded Test Data: "src/test/resources/testDataFiles/SteeringCompanyAPI_TestData/SteeringCompanyAPI_TestData.xlsx". @07-02-2023 14:56:05.0796 PM
[ReportManager] Successfully created attachment "Test Data - Excel" @07-02-2023 14:56:05.0797 PM
[ReportManager] Response status code: "200", status line: "HTTP/1.1 200 " @07-02-2023 14:56:06.0499 PM
[ReportManager] Assertion Passed: Evaluating the actual response status code against the expected one... @07-02-2023 14:56:06.0500 PM
[ReportManager] Perform request "GET | Target Status Code: 200 | Service URL: https://api-demo.np.transporticonline.com/steeringcompanies/v1/otas | Content Type: */* | Response Time: 697ms". @07-02-2023 14:56:06.0513 PM
[ReportManager] Successfully created attachment "API Request - Specifications" @07-02-2023 14:56:06.0516 PM
[ReportManager] Successfully created attachment "API Response - JSON Body" @07-02-2023 14:56:06.0518 PM
[ReportManager] Assertion Passed: "200" is equal to "200". @07-02-2023 14:56:06.0518 PM
[ReportManager] Verification Passed: "697" is greater than or equal to "1.1". @07-02-2023 14:56:06.0518 PM
[ReportManager] Verification Passed: "697" is less than or equal to "10000". @07-02-2023 14:56:06.0518 PM
[ReportManager] Assertion Passed: "{"page":0,"size":1,"totalPages":47,"totalElements":47,"content":[{"otaCode":"agoda","nameArabic":"-","nameEnglish":"agoda_old","isActive":true,"isEnable":true}]}" contains "content". @07-02-2023 14:56:06.0518 PM
[ReportManager] Get response jsonvalue "content". @07-02-2023 14:56:06.0519 PM
[ReportManager] Assertion Passed: Check that content object is not null. @07-02-2023 14:56:06.0519 PM
[ReportManager] File Action "DoesFileExist" successfully performed. With the following test data "File Path: "Schemas/OTAs_schema.json"". @07-02-2023 14:56:06.0519 PM
[ReportManager] File Action "DoesFileExist" successfully performed. With the following test data "File Path: "src/test/resources/testDataFiles/Schemas/OTAs_schema.json"". @07-02-2023 14:56:06.0519 PM
[ReportManager] File Action "GetAbsolutePath" successfully performed. With the following test data "Relative Folder Path: "src/test/resources/testDataFiles/Schemas/OTAs_schema.json"". @07-02-2023 14:56:06.0520 PM
[ReportManager] File Action "DoesFileExist" successfully performed. With the following test data "File Path: "C:\eclipse-workspace\MyProjects\TASystemsAPIs\src\test\resources\testDataFiles\Schemas\OTAs_schema.json"". @07-02-2023 14:56:06.0522 PM
[ReportManager] File Action "GetAbsolutePath" successfully performed. With the following test data "Relative Folder Path: "C:\eclipse-workspace\MyProjects\TASystemsAPIs\src\test\resources\testDataFiles\Schemas\OTAs_schema.json"". @07-02-2023 14:56:06.0523 PM
[ReportManager] File Action "ReadFile" successfully performed. With the following test data "File Path: "C:\eclipse-workspace\MyProjects\TASystemsAPIs\src\test\resources\testDataFiles\Schemas\OTAs_schema.json"". @07-02-2023 14:56:06.0523 PM
[ReportManager] Assertion Passed: The API response schema matches that in this file "src/test/resources/testDataFiles/Schemas/OTAs_schema.json". @07-02-2023 14:56:06.0523 PM
[ReportManager] Successfully created attachment "Validation Test Data - Expected JSON Value" @07-02-2023 14:56:06.0525 PM
[ReportManager] Successfully created attachment "Validation Test Data - Actual JSON Value" @07-02-2023 14:56:06.0526 PM