{"uuid":"353755a8-d1f4-4722-a67d-04176f48569e","historyId":"7653b5b2be0c5341c428857732852d7c","fullName":"SteeringCompanyAPI_TestCases.Test_PeriodProgramTemplate_Cases.Get_Valid_all_PeriodProgramTemplate_by_Qry_Rq_TC","labels":[{"name":"package","value":"SteeringCompanyAPI_TestCases.Test_PeriodProgramTemplate_Cases"},{"name":"testClass","value":"SteeringCompanyAPI_TestCases.Test_PeriodProgramTemplate_Cases"},{"name":"testMethod","value":"Get_Valid_all_PeriodProgramTemplate_by_Qry_Rq_TC"},{"name":"parentSuite","value":"Suite"},{"name":"suite","value":"Test"},{"name":"subSuite","value":"SteeringCompanyAPI_TestCases.Test_PeriodProgramTemplate_Cases"},{"name":"host","value":"TW-1056"},{"name":"thread","value":"12248@TW-1056.main(1)"},{"name":"framework","value":"testng"},{"name":"language","value":"java"},{"name":"story","value":"Retrieving All Active PeriodProgramTemplate with Pagination"},{"name":"severity","value":"critical"}],"links":[],"name":"TC002  -PeriodProgramTemplate-   Perform Get all PeriodProgramTemplate API with pagination with valid user name and password","status":"passed","statusDetails":{"known":false,"muted":false,"flaky":false},"stage":"finished","steps":[{"name":"Loaded Test Data: \"src/test/resources/testDataFiles/SteeringCompanyAPI_TestData/SteeringCompanyAPI_TestData.xlsx\".","status":"passed","stage":"finished","steps":[],"attachments":[{"name":"Test Data - Excel","source":"49853b47-0633-4942-ac7c-0b95e80d57f2-attachment.xlsx","type":"application/vnd.openxmlformats-officedocument.spreadsheetml.sheet"}],"parameters":[{"name":"logText","value":"Loaded Test Data: \"src/test/resources/testDataFiles/SteeringCompanyAPI_TestData/SteeringCompanyAPI_TestData.xlsx\"."},{"name":"attachments","value":"[[Test Data, Excel, java.io.FileInputStream@10a1e7d6]]"}],"start":1675774652938,"stop":1675774652939},{"name":"Assertion Passed: Evaluating the actual response status code against the expected one...","status":"passed","stage":"finished","steps":[],"attachments":[],"parameters":[{"name":"customLog","value":"Assertion Passed: Evaluating the actual response status code against the expected one..."},{"name":"stepLog","value":"Assertion \"ValidateComparativeRelation\" PASSED. Expected \"200\" and Actual \"200\". Comparison Type \"EQUALS\". Validation Type \"POSITIVE\"."},{"name":"attachments","value":"null"}],"start":1675774653596,"stop":1675774653596},{"name":"Perform request \"POST | Target Status Code: 200 | Service URL: https://auth-demo.np.transporticonline.com/auth/realms/tic/protocol/openid-connect/token | Content Type: application/x-www-form-urlencoded | Response Time: 655ms\".","status":"passed","stage":"finished","steps":[],"attachments":[{"name":"API Request - Specifications","source":"de0f995a-cf64-4f63-8cf3-a1f680f64d87-attachment"},{"name":"API Request - Body","source":"25ba24f8-55f4-4544-a5bb-a03453dec7eb-attachment"},{"name":"API Response - JSON Body","source":"e81859e6-144e-4473-bf0a-ea3e68869e73-attachment.json","type":"text/json"}],"parameters":[{"name":"logText","value":"Perform request \"POST | Target Status Code: 200 | Service URL: https://auth-demo.np.transporticonline.com/auth/realms/tic/protocol/openid-connect/token | Content Type: application/x-www-form-urlencoded | Response Time: 655ms\"."},{"name":"attachments","value":"[[API Request, Specifications, Headers:\r\n_______________\r\n\r\nContent-Type=application/x-www-form-urlencoded\r\n\r\n], [API Request, Body, java.io.ByteArrayInputStream@18aca796], null, [API Response, JSON Body, java.io.ByteArrayInputStream@609b2a43]]"}],"start":1675774653616,"stop":1675774653619},{"name":"Assertion Passed: Check Response Status Code is 200 and it is valid.","status":"passed","stage":"finished","steps":[],"attachments":[],"parameters":[{"name":"customLog","value":"Assertion Passed: Check Response Status Code is 200 and it is valid."},{"name":"stepLog","value":"Assertion \"ValidateComparativeRelation\" PASSED. Expected \"200\" and Actual \"200\". Comparison Type \"EQUALS\". Validation Type \"POSITIVE\"."},{"name":"attachments","value":"null"}],"start":1675774653619,"stop":1675774653619},{"name":"Loaded Test Data: \"src/test/resources/testDataFiles/SteeringCompanyAPI_TestData/SteeringCompanyAPI_TestData.xlsx\".","status":"passed","stage":"finished","steps":[],"attachments":[{"name":"Test Data - Excel","source":"ed869a55-f6f9-48e6-8891-25731106c12e-attachment.xlsx","type":"application/vnd.openxmlformats-officedocument.spreadsheetml.sheet"}],"parameters":[{"name":"logText","value":"Loaded Test Data: \"src/test/resources/testDataFiles/SteeringCompanyAPI_TestData/SteeringCompanyAPI_TestData.xlsx\"."},{"name":"attachments","value":"[[Test Data, Excel, java.io.FileInputStream@10a47166]]"}],"start":1675774653676,"stop":1675774653679},{"name":"Assertion Passed: Evaluating the actual response status code against the expected one...","status":"passed","stage":"finished","steps":[],"attachments":[],"parameters":[{"name":"customLog","value":"Assertion Passed: Evaluating the actual response status code against the expected one..."},{"name":"stepLog","value":"Assertion \"ValidateComparativeRelation\" PASSED. Expected \"200\" and Actual \"200\". Comparison Type \"EQUALS\". Validation Type \"POSITIVE\"."},{"name":"attachments","value":"null"}],"start":1675774654574,"stop":1675774654574},{"name":"Perform request \"GET | Target Status Code: 200 | Service URL: https://api-demo.np.transporticonline.com/steeringcompanies/v1/periodProgramTemplates | Content Type: */* | Response Time: 890ms\".","status":"passed","stage":"finished","steps":[],"attachments":[{"name":"API Request - Specifications","source":"d8c74fe4-f9c8-4b4e-9eaa-ec872732c251-attachment"},{"name":"API Response - JSON Body","source":"880c13a0-9cb5-414d-b0bf-a6940f77ca06-attachment.json","type":"text/json"}],"parameters":[{"name":"logText","value":"Perform request \"GET | Target Status Code: 200 | Service URL: https://api-demo.np.transporticonline.com/steeringcompanies/v1/periodProgramTemplates | Content Type: */* | Response Time: 890ms\"."},{"name":"attachments","value":"[[API Request, Specifications, Headers:\r\n_______________\r\n\r\nAuthorization=Bearer eyJhbGciOiJSUzI1NiIsInR5cCIgOiAiSldUIiwia2lkIiA6ICJjck9ORDFNdFVPVWhzS2Mtb0ppVFFmb0o1d1l4REF6Y3k0ZjNYZ0dveGdZIn0.eyJleHAiOjE2NzU3OTYyNTEsImlhdCI6MTY3NTc3NDY1MSwianRpIjoiNjBhOGMzMzYtNDI3NC00OTJiLTkxNjYtOWQyM2E3OWYzMzU4IiwiaXNzIjoiaHR0cHM6Ly9hdXRoLWRlbW8ubnAudHJhbnNwb3J0aWNvbmxpbmUuY29tL2F1dGgvcmVhbG1zL3RpYyIsImF1ZCI6ImFjY291bnQiLCJzdWIiOiI0ZTk3NmQ0NC1iM2ZkLTRjYTktODk1Ny0wYWJiODUwNzNhNzQiLCJ0eXAiOiJCZWFyZXIiLCJhenAiOiJ0aWMtYXBpIiwic2Vzc2lvbl9zdGF0ZSI6IjU5M2Y4MmEwLWVmYmYtNDVjZS05ZGZmLTc4NDQyZDdjMzI3OSIsImFjciI6IjEiLCJhbGxvd2VkLW9yaWdpbnMiOlsiaHR0cHM6Ly9hcGktZGV2Lm5wLnRyYW5zcG9ydGljb25saW5lLmNvbSJdLCJyZWFsbV9hY2Nlc3MiOnsicm9sZXMiOlsib2ZmbGluZV9hY2Nlc3MiLCJkZWZhdWx0LXJvbGVzLXRpYyIsInVtYV9hdXRob3JpemF0aW9uIiwidXNlciJdfSwicmVzb3VyY2VfYWNjZXNzIjp7ImFjY291bnQiOnsicm9sZXMiOlsibWFuYWdlLWFjY291bnQiLCJtYW5hZ2UtYWNjb3VudC1saW5rcyIsInZpZXctcHJvZmlsZSJdfX0sInNjb3BlIjoiZW1haWwgcHJvZmlsZSIsInNpZCI6IjU5M2Y4MmEwLWVmYmYtNDVjZS05ZGZmLTc4NDQyZDdjMzI3OSIsImVtYWlsX3ZlcmlmaWVkIjpmYWxzZSwicHJlZmVycmVkX3VzZXJuYW1lIjoidG9raGkiLCJ0Y0lkIjoiMzE5OTU3In0.KooXNCuXVsluzTj61em8roKuvSiZYSJOiUGGapr61jRmLgAkatyqzmjdCZND5JF-Jcig7DG1lFtO47hN272HPe1csD5wDGX9x2IEowX8rnGrRr08SuvIppLqr4sMgiyFxflZOhgjklSQeBkaAeiQVoMI7-s85l7NqI39xz1YLl2nQA8J3NSVIpZDnYFYEz4o6qBJkrmxCgRzh-Mm-NG_t-EJhz8X0Nte-FdQqAv89WTbISt7ldnRJt0RJKZKPop0G4YNQ2IjKS4ZO7khKWLEsOUcGOel9FyNKHa4F1CLBxewCRa_MBbGmbxoGjrZ_zSeDo0W3TE9dFTO6L1QjRjWaQ\r\nContent-Type=*/*\r\n\r\nQuery Parameters:\r\n_______________\r\n\r\nsize=1\r\npage=1\r\n], null, [API Response, JSON Body, java.io.ByteArrayInputStream@67f55dc5]]"}],"start":1675774654594,"stop":1675774654596},{"name":"Assertion Passed: \"200\" is equal to \"200\".","status":"passed","stage":"finished","steps":[],"attachments":[],"parameters":[{"name":"customLog","value":"Assertion Passed: \"200\" is equal to \"200\"."},{"name":"stepLog","value":"Assertion \"ValidateComparativeRelation\" PASSED. Expected \"200\" and Actual \"200\". Comparison Type \"EQUALS\". Validation Type \"POSITIVE\"."},{"name":"attachments","value":"null"}],"start":1675774654597,"stop":1675774654597},{"name":"Verification Passed: \"890\" is greater than or equal to \"1.1\".","status":"passed","stage":"finished","steps":[],"attachments":[],"parameters":[{"name":"customLog","value":"Verification Passed: \"890\" is greater than or equal to \"1.1\"."},{"name":"stepLog","value":"Verification \"ValidateComparativeRelation\" PASSED. Expected \"1.1\" and Actual \"890\". Comparison Type \"GREATER_THAN_OR_EQUALS\". Validation Type \"POSITIVE\"."},{"name":"attachments","value":"null"}],"start":1675774654597,"stop":1675774654598},{"name":"Verification Passed: \"890\" is less than or equal to \"10000\".","status":"passed","stage":"finished","steps":[],"attachments":[],"parameters":[{"name":"customLog","value":"Verification Passed: \"890\" is less than or equal to \"10000\"."},{"name":"stepLog","value":"Verification \"ValidateComparativeRelation\" PASSED. Expected \"10000\" and Actual \"890\". Comparison Type \"LESS_THAN_OR_EQUALS\". Validation Type \"POSITIVE\"."},{"name":"attachments","value":"null"}],"start":1675774654598,"stop":1675774654598},{"name":"Assertion Passed: \"{\"page\":1,\"size\":1,\"totalPages\":93,\"totalElements\":93,\"content\":[{\"id\":214,\"seasonType\":\"umrah\",\"saleSystem\":\"GDS\",\"programType\":\"Routes\",\"programMechanism\":\"reservations\",\"routeId\":60,\"season\":1444,\"vehicleTypeId\":4,\"vehicleCategoryId\":2,\"minimumModelYear\":2010,\"maximumModelYear\":2022,\"minimumVehiclePricePer\":1200,\"minimumSeat\":5,\"maximumSeat\":9,\"templatePeriodStartDate\":\"2022-09-05\",\"templatePeriodEndDate\":\"2022-09-12\",\"templatePeriodMaximumQuota\":100,\"isActive\":true}]}\" contains \"content\".","status":"passed","stage":"finished","steps":[],"attachments":[],"parameters":[{"name":"customLog","value":"Assertion Passed: \"{\"page\":1,\"size\":1,\"totalPages\":93,\"totalElements\":93,\"content\":[{\"id\":214,\"seasonType\":\"umrah\",\"saleSystem\":\"GDS\",\"programType\":\"Routes\",\"programMechanism\":\"reservations\",\"routeId\":60,\"season\":1444,\"vehicleTypeId\":4,\"vehicleCategoryId\":2,\"minimumModelYear\":2010,\"maximumModelYear\":2022,\"minimumVehiclePricePer\":1200,\"minimumSeat\":5,\"maximumSeat\":9,\"templatePeriodStartDate\":\"2022-09-05\",\"templatePeriodEndDate\":\"2022-09-12\",\"templatePeriodMaximumQuota\":100,\"isActive\":true}]}\" contains \"content\"."},{"name":"stepLog","value":"Assertion \"ValidateEquals\" PASSED. Expected \"content\" and Actual \"{\"page\":1,\"size\":1,\"totalPages\":93,\"totalElements\":93,\"content\":[{\"id\":214,\"seasonType\":\"umrah\",\"saleSystem\":\"GDS\",\"programType\":\"Routes\",\"programMechanism\":\"reservations\",\"routeId\":60,\"season\":1444,\"vehicleTypeId\":4,\"vehicleCategoryId\":2,\"minimumModelYear\":2010,\"maximumModelYear\":2022,\"minimumVehiclePricePer\":1200,\"minimumSeat\":5,\"maximumSeat\":9,\"templatePeriodStartDate\":\"2022-09-05\",\"templatePeriodEndDate\":\"2022-09-12\",\"templatePeriodMaximumQuota\":100,\"isActive\":true}]}\". Comparison Type \"CONTAINS\". Validation Type \"POSITIVE\"."},{"name":"attachments","value":"null"}],"start":1675774654598,"stop":1675774654598},{"name":"Assertion Passed: Check that content object is not null.","status":"passed","stage":"finished","steps":[],"attachments":[],"parameters":[{"name":"customLog","value":"Assertion Passed: Check that content object is not null."},{"name":"stepLog","value":"Assertion \"ValidateEquals\" PASSED. Expected \"null\" and Actual \"[{\"id\":214,\"seasonType\":\"umrah\",\"saleSystem\":\"GDS\",\"programType\":\"Routes\",\"programMechanism\":\"reservations\",\"routeId\":60,\"season\":1444,\"vehicleTypeId\":4,\"vehicleCategoryId\":2,\"minimumModelYear\":2010,\"maximumModelYear\":2022,\"minimumVehiclePricePer\":1200,\"minimumSeat\":5,\"maximumSeat\":9,\"templatePeriodStartDate\":\"2022-09-05\",\"templatePeriodEndDate\":\"2022-09-12\",\"templatePeriodMaximumQuota\":100,\"isActive\":true}]\". Comparison Type \"EQUALS\". Validation Type \"NEGATIVE\"."},{"name":"attachments","value":"null"}],"start":1675774654599,"stop":1675774654599},{"name":"Assertion Passed: The API response schema matches that in this file \"src/test/resources/testDataFiles/Schemas/PeriodProgramTemplates_schema.json\".","status":"passed","stage":"finished","steps":[],"attachments":[{"name":"Validation Test Data - Expected JSON Value","source":"fdb4ebe0-c503-4459-8f50-2f7e86d9bf95-attachment.json","type":"text/json"},{"name":"Validation Test Data - Actual JSON Value","source":"8dfc9308-4edc-4811-9bff-667c7344bcdf-attachment.json","type":"text/json"}],"parameters":[{"name":"customLog","value":"Assertion Passed: The API response schema matches that in this file \"src/test/resources/testDataFiles/Schemas/PeriodProgramTemplates_schema.json\"."},{"name":"stepLog","value":"Assertion \"ValidateResponseFileSchema\" PASSED. Expected \"Response data should match the JSON File in this path 'C:\\eclipse-workspace\\MyProjects\\TASystemsAPIs\\src\\test\\resources\\testDataFiles\\Schemas\\PeriodProgramTemplates_schema.json'\" and Actual \"TRUE\". Comparison Type \"EQUALS\". Validation Type \"POSITIVE\"."},{"name":"attachments","value":"[[Validation Test Data, Expected JSON Value, java.io.ByteArrayInputStream@5cb9291b], [Validation Test Data, Actual JSON Value, java.io.ByteArrayInputStream@11ef4c3c]]"}],"start":1675774654607,"stop":1675774654608}],"attachments":[{"name":"SHAFT Engine Logs - Current Method log: Get_Valid_all_PeriodProgramTemplate_by_Qry_Rq_TC","source":"254edc41-c4e2-415c-88cc-1857a47cc402-attachment.txt","type":"text/plain"}],"parameters":[],"start":1675774652903,"stop":1675774654609}