[ReportManager] Setting discrete logging to: "false" @04-10-2022 12:54:26.0911 PM

################################################################################################################################################
Starting Execution:	"7 out of 13" test cases in the current suite
Test Method:		"SteeringCompanyAPI_TestCases.Test_Case.Valid_GET_all_ports_Lookups_Rq_TC"
################################################################################################################################################
[ReportManager] Setting discrete logging to: "false" @04-10-2022 12:54:26.0911 PM
[ReportManager] Setting discrete logging to: "true" @04-10-2022 12:54:27.0679 PM
[ReportManager] Response status code: "200", status line: "HTTP/1.1 200 OK" @04-10-2022 12:54:27.0679 PM
[ReportManager] Assertion Passed: Evaluating the actual response status code against the expected one... @04-10-2022 12:54:27.0680 PM
[ReportManager] Setting discrete logging to: "false" @04-10-2022 12:54:27.0680 PM
[ReportManager] Perform request "POST | Target Status Code: 200 | Service URL: https://auth-demo.np.transporticonline.com/auth/realms/tic/protocol/openid-connect/token | Content Type: application/x-www-form-urlencoded | Response Time: 765ms". @04-10-2022 12:54:27.0707 PM
[ReportManager] Successfully created attachment "API Request - Specifications" @04-10-2022 12:54:27.0709 PM
[ReportManager] Successfully created attachment "API Request - Body" @04-10-2022 12:54:27.0711 PM
[ReportManager] Successfully created attachment "API Response - JSON Body" @04-10-2022 12:54:27.0713 PM
[ReportManager] Assertion Passed: "200" is equal to "200". @04-10-2022 12:54:27.0714 PM
[ReportManager] Verification Passed: "765" is greater than or equal to "1.1". @04-10-2022 12:54:27.0715 PM
[ReportManager] Verification Passed: "765" is less than or equal to "10000". @04-10-2022 12:54:27.0715 PM
[ReportManager] Assertion Passed: "{"access_token":"eyJhbGciOiJSUzI1NiIsInR5cCIgOiAiSldUIiwia2lkIiA6ICJjck9ORDFNdFVPVWhzS2Mtb0ppVFFmb0o1d1l4REF6Y3k0ZjNYZ0dveGdZIn0.eyJleHAiOjE2NjQ4ODExNjYsImlhdCI6MTY2NDg4MDg2NiwianRpIjoiM2IyOTdkY2YtMDFmMS00ZDg4LTg1ZWEtYzU2MTZkYmU3OWY0IiwiaXNzIjoiaHR0cHM6Ly9hdXRoLWRlbW8ubnAudHJhbnNwb3J0aWNvbmxpbmUuY29tL2F1dGgvcmVhbG1zL3RpYyIsImF1ZCI6ImFjY291bnQiLCJzdWIiOiI0ZTk3NmQ0NC1iM2ZkLTRjYTktODk1Ny0wYWJiODUwNzNhNzQiLCJ0eXAiOiJCZWFyZXIiLCJhenAiOiJ0aWMtYXBpIiwic2Vzc2lvbl9zdGF0ZSI6IjBiMzVmZjA0LTYwMzEtNDVmMS04M2MyLTRhNmViNjQzNzcwYyIsImFjciI6IjEiLCJhbGxvd2VkLW9yaWdpbnMiOlsiaHR0cHM6Ly9hcGktZGV2Lm5wLnRyYW5zcG9ydGljb25saW5lLmNvbSJdLCJyZWFsbV9hY2Nlc3MiOnsicm9sZXMiOlsib2ZmbGluZV9hY2Nlc3MiLCJkZWZhdWx0LXJvbGVzLXRpYyIsInVtYV9hdXRob3JpemF0aW9uIiwidXNlciJdfSwicmVzb3VyY2VfYWNjZXNzIjp7ImFjY291bnQiOnsicm9sZXMiOlsibWFuYWdlLWFjY291bnQiLCJtYW5hZ2UtYWNjb3VudC1saW5rcyIsInZpZXctcHJvZmlsZSJdfX0sInNjb3BlIjoiZW1haWwgcHJvZmlsZSIsInNpZCI6IjBiMzVmZjA0LTYwMzEtNDVmMS04M2MyLTRhNmViNjQzNzcwYyIsImVtYWlsX3ZlcmlmaWVkIjpmYWxzZSwicHJlZmVycmVkX3VzZXJuYW1lIjoidG9raGkiLCJ0Y0lkIjoiMzE5OTU3In0.XNrEzUd_1OUoU7XQ4d-EYGogzFEiYECompjanU0sffFXwibKei4syCvQdMTUpquaXGVHJdZW1T3Tvp9avImG13bl9QJ1dpxcB-ltl0_TWhLE2CV20c5wI-ECMDoaC0G5n_PQy8vPQ3LmlAVtXhEErpI8CjIbv27_cekwvlegi83NBtJdBYQ5oF49iP4Uus4jZIz3SLMYGiv8yl2XmqFZytcAyRPIPKYoXqmVUj8r_H9dCyVs7H-T4csJEZg9788bCvwLchTl8Sn6ZbA2fjYKKptncqAIfjgOg8PcunjduOaBmBeAUnRLuQcTSERYP4JvyafrWeRdPhK-JCyP1z3nMg","expires_in":300,"refresh_expires_in":1800,"refresh_token":"eyJhbGciOiJIUzI1NiIsInR5cCIgOiAiSldUIiwia2lkIiA6ICJkMTFjNTY4Yi1iMjAyLTQzYjgtYTBiMy1hYWI4ZWMyYWQzZDEifQ.eyJleHAiOjE2NjQ4ODI2NjYsImlhdCI6MTY2NDg4MDg2NiwianRpIjoiMzYzYzRhNDEtY2Q1Yi00ODI0LTljMzUtZjIzNmUzNTAzYzkxIiwiaXNzIjoiaHR0cHM6Ly9hdXRoLWRlbW8ubnAudHJhbnNwb3J0aWNvbmxpbmUuY29tL2F1dGgvcmVhbG1zL3RpYyIsImF1ZCI6Imh0dHBzOi8vYXV0aC1kZW1vLm5wLnRyYW5zcG9ydGljb25saW5lLmNvbS9hdXRoL3JlYWxtcy90aWMiLCJzdWIiOiI0ZTk3NmQ0NC1iM2ZkLTRjYTktODk1Ny0wYWJiODUwNzNhNzQiLCJ0eXAiOiJSZWZyZXNoIiwiYXpwIjoidGljLWFwaSIsInNlc3Npb25fc3RhdGUiOiIwYjM1ZmYwNC02MDMxLTQ1ZjEtODNjMi00YTZlYjY0Mzc3MGMiLCJzY29wZSI6ImVtYWlsIHByb2ZpbGUiLCJzaWQiOiIwYjM1ZmYwNC02MDMxLTQ1ZjEtODNjMi00YTZlYjY0Mzc3MGMifQ.iEnw4dD95SP1v9Ceh2FB3mTOPe7TPOnyntxwl4eTXis","token_type":"Bearer","not-before-policy":0,"session_state":"0b35ff04-6031-45f1-83c2-4a6eb643770c","scope":"email profile"}" contains "access_token". @04-10-2022 12:54:27.0716 PM
[ReportManager] Successfully created attachment "Validation Test Data - Expected Value" @04-10-2022 12:54:27.0718 PM
[ReportManager] Successfully created attachment "Validation Test Data - Actual Value" @04-10-2022 12:54:27.0719 PM
[ReportManager] Get response jsonvalue "access_token". @04-10-2022 12:54:27.0721 PM
[ReportManager] Assertion Passed: Check that Access token is not null. @04-10-2022 12:54:27.0722 PM
[ReportManager] Successfully created attachment "Validation Test Data - Expected Value" @04-10-2022 12:54:27.0723 PM
[ReportManager] Successfully created attachment "Validation Test Data - Actual Value" @04-10-2022 12:54:27.0725 PM
[ReportManager] File Action "DoesFileExist" successfully performed. With the following test data "File Path: "Token_schema.json"". @04-10-2022 12:54:27.0725 PM
[ReportManager] File Action "DoesFileExist" successfully performed. With the following test data "File Path: "src/test/resources/testDataFiles/Token_schema.json"". @04-10-2022 12:54:27.0726 PM
[ReportManager] File Action "GetAbsolutePath" successfully performed. With the following test data "Relative Folder Path: "src/test/resources/testDataFiles/Token_schema.json"". @04-10-2022 12:54:27.0726 PM
[ReportManager] File Action "DoesFileExist" successfully performed. With the following test data "File Path: "C:\eclipse-workspace\MyProjects\TASystemsAPIs\src\test\resources\testDataFiles\Token_schema.json"". @04-10-2022 12:54:27.0731 PM
[ReportManager] File Action "GetAbsolutePath" successfully performed. With the following test data "Relative Folder Path: "C:\eclipse-workspace\MyProjects\TASystemsAPIs\src\test\resources\testDataFiles\Token_schema.json"". @04-10-2022 12:54:27.0731 PM
[ReportManager] File Action "ReadFromFile" successfully performed. With the following test data "File Path: "C:\eclipse-workspace\MyProjects\TASystemsAPIs\src\test\resources\testDataFiles\Token_schema.json"". @04-10-2022 12:54:27.0732 PM
[ReportManager] Assertion Passed: The API response schema matches that in this file "src/test/resources/testDataFiles/Token_schema.json". @04-10-2022 12:54:27.0733 PM
[ReportManager] Successfully created attachment "Validation Test Data - Expected JSON Value" @04-10-2022 12:54:27.0734 PM
[ReportManager] Successfully created attachment "Validation Test Data - Actual JSON Value" @04-10-2022 12:54:27.0736 PM
[ReportManager] Verification Passed: "765" is greater than or equal to "1.1". @04-10-2022 12:54:27.0749 PM
[ReportManager] Verification Passed: "765" is less than or equal to "10000". @04-10-2022 12:54:27.0749 PM
[ReportManager] Setting discrete logging to: "true" @04-10-2022 12:54:28.0370 PM
[ReportManager] Response status code: "200", status line: "HTTP/1.1 200 " @04-10-2022 12:54:28.0370 PM
[ReportManager] Assertion Passed: Evaluating the actual response status code against the expected one... @04-10-2022 12:54:28.0371 PM
[ReportManager] Setting discrete logging to: "false" @04-10-2022 12:54:28.0371 PM
[ReportManager] Perform request "GET | Target Status Code: 200 | Service URL: https://api-demo.np.transporticonline.com/steeringcompanies/v1/lookups/ports | Content Type: */* | Response Time: 600ms". @04-10-2022 12:54:28.0405 PM
[ReportManager] Successfully created attachment "API Request - Specifications" @04-10-2022 12:54:28.0407 PM
[ReportManager] Successfully created attachment "API Response - JSON Body" @04-10-2022 12:54:28.0409 PM
[ReportManager] Assertion Passed: "200" is equal to "200". @04-10-2022 12:54:28.0410 PM
[ReportManager] Verification Passed: "600" is greater than or equal to "1.1". @04-10-2022 12:54:28.0411 PM
[ReportManager] Verification Passed: "600" is less than or equal to "10000". @04-10-2022 12:54:28.0412 PM
[ReportManager] Assertion Passed: "{"page":0,"size":2147483647,"totalPages":1,"totalElements":29,"content":[{"id":59,"nameArabic":"???? ??? ","nameEnglish":"Alab Port","cityId":656,"isActive":true,"lastUpdated":"2020-10-22T18:41:32Z","sectors":null},{"id":53,"nameArabic":"????? ???? ???????","nameEnglish":"Yanbu Commercial Port","cityId":646,"isActive":true,"lastUpdated":"2020-10-22T18:41:32Z","sectors":null},{"id":49,"nameArabic":"???? ????? ????","nameEnglish":"Jadedat Arar Port","cityId":612,"isActive":true,"lastUpdated":"2020-10-22T18:41:32Z","sectors":null},{"id":65,"nameArabic":"???? ???????","nameEnglish":"Alwadeah Port","cityId":664,"isActive":true,"lastUpdated":"2020-10-22T18:41:32Z","sectors":null},{"id":41,"nameArabic":"???? ????? ???? ??????","nameEnglish":"King Khalid International Airport","cityId":601,"isActive":true,"lastUpdated":"2020-10-22T18:41:32Z","sectors":null},{"id":71,"nameArabic":"???? ????? 5 - ???? ????? ???","nameEnglish":"???? ????? 5 - ???? ????? ???","cityId":602,"isActive":true,"lastUpdated":"2020-10-22T18:41:32Z","sectors":null},{"id":48,"nameArabic":"???? ???? ????","nameEnglish":"Halat Amar Port","cityId":606,"isActive":true,"lastUpdated":"2020-10-22T18:41:32Z","sectors":null},{"id":54,"nameArabic":"???? ???????","nameEnglish":"Alkhadra Port","cityId":664,"isActive":true,"lastUpdated":"2020-10-22T18:41:32Z","sectors":null},{"id":58,"nameArabic":"???? ????? ???","nameEnglish":"King Fahad Airport","cityId":607,"isActive":true,"lastUpdated":"2020-10-22T18:41:32Z","sectors":null},{"id":66,"nameArabic":"???? ?????-1???? ????? ????? ","nameEnglish":"???? ?????-1???? ????? ????? ","cityId":602,"isActive":true,"lastUpdated":"2020-10-22T18:41:32Z","sectors":null},{"id":72,"nameArabic":"???? ????? ?????? - ?? ??????","nameEnglish":"Empty quarter Port","isActive":true,"lastUpdated":"2022-06-29T08:08:58Z","sectors":null},{"id":50,"nameArabic":"???? ????? ??? ?????? ??????","nameEnglish":"KING ABDUL AZIZ INTERNATIONAL AIRPORT","cityId":602,"isActive":true,"lastUpdated":"2020-10-22T18:41:32Z","sectors":null},{"id":45,"nameArabic":"???? ????","nameEnglish":"Salwa Port","cityId":672,"isActive":true,"lastUpdated":"2020-10-22T18:41:32Z","sectors":null},{"id":63,"nameArabic":"???? ??????","nameEnglish":"Altaif Airport","cityId":604,"isActive":true,"lastUpdated":"2020-10-22T18:41:32Z","sectors":null},{"id":4,"nameArabic":"?????","nameEnglish":"albalad","isActive":true,"lastUpdated":null,"sectors":null},{"id":55,"nameArabic":"???? ??????","nameEnglish":"Altowal Port","cityId":607,"isActive":true,"lastUpdated":"2020-10-22T18:41:32Z","sectors":null},{"id":5,"nameArabic":"???? ????? 2-???? ??????","nameEnglish":"???? ????? 2-???? ??????","cityId":602,"isActive":true,"lastUpdated":"2020-10-22T18:41:32Z","sectors":null},{"id":70,"nameArabic":"???? ????? 4-???? ????","nameEnglish":"???? ????? 4-???? ????","cityId":602,"isActive":true,"lastUpdated":"2020-10-22T18:41:32Z","sectors":null},{"id":69,"nameArabic":"???? ????? 3-???????","nameEnglish":"???? ????? 3-???????","cityId":602,"isActive":true,"lastUpdated":"2020-10-22T18:41:32Z","sectors":null},{"id":68,"nameArabic":"???? ????? 6 - ???? ???","nameEnglish":"???? ????? 6 - ???? ???","cityId":602,"isActive":true,"lastUpdated":"2020-10-22T18:41:32Z","sectors":null},{"id":43,"nameArabic":"???? ??????","nameEnglish":"Alkhafji Port","cityId":631,"isActive":true,"lastUpdated":"2020-10-22T18:41:32Z","sectors":null},{"id":67,"nameArabic":"??????????????????? ?????","nameEnglish":"Prince AbdulMohsen Bin Abdulaziz Airport","isActive":true,"lastUpdated":null,"sectors":null},{"id":47,"nameArabic":"???? ???????","nameEnglish":"Albatha Port","cityId":672,"isActive":true,"lastUpdated":"2020-10-22T18:41:32Z","sectors":null},{"id":52,"nameArabic":"????? ??? ????????","nameEnglish":"JEDDAH ISLAMIC PORT","cityId":602,"isActive":true,"lastUpdated":"2020-10-22T18:41:32Z","sectors":null},{"id":56,"nameArabic":"???? ???????","nameEnglish":"Alhadithah Port","cityId":641,"isActive":true,"lastUpdated":"2020-10-22T18:41:32Z","sectors":null},{"id":46,"nameArabic":"??? ????? ???","nameEnglish":"King Fahad Bridge","cityId":608,"isActive":true,"lastUpdated":"2020-10-22T18:41:32Z","sectors":null},{"id":51,"nameArabic":"???? ?????? ????","nameEnglish":"PRINCE MOHAMMAD INTERNATIONAL AIRPORT","cityId":605,"isActive":true,"lastUpdated":"2020-10-22T18:41:32Z","sectors":null},{"id":44,"nameArabic":"???? ??????","nameEnglish":"Alraqai Port","cityId":630,"isActive":true,"lastUpdated":"2020-10-22T18:41:32Z","sectors":null},{"id":64,"nameArabic":"???? ????","nameEnglish":"Abha Airport","cityId":613,"isActive":true,"lastUpdated":"2020-10-22T18:41:32Z","sectors":null}]}" contains "content". @04-10-2022 12:54:28.0413 PM
[ReportManager] Successfully created attachment "Validation Test Data - Expected Value" @04-10-2022 12:54:28.0415 PM
[ReportManager] Successfully created attachment "Validation Test Data - Actual Value" @04-10-2022 12:54:28.0416 PM
[ReportManager] Get response jsonvalue "content". @04-10-2022 12:54:28.0420 PM
[ReportManager] Assertion Passed: Check that content object is not null. @04-10-2022 12:54:28.0421 PM
[ReportManager] Successfully created attachment "Validation Test Data - Expected Value" @04-10-2022 12:54:28.0422 PM
[ReportManager] Successfully created attachment "Validation Test Data - Actual Value" @04-10-2022 12:54:28.0424 PM
[ReportManager] File Action "DoesFileExist" successfully performed. With the following test data "File Path: "Lookups_ports_schema.json"". @04-10-2022 12:54:28.0425 PM
[ReportManager] File Action "DoesFileExist" successfully performed. With the following test data "File Path: "src/test/resources/testDataFiles/Lookups_ports_schema.json"". @04-10-2022 12:54:28.0425 PM
[ReportManager] File Action "GetAbsolutePath" successfully performed. With the following test data "Relative Folder Path: "src/test/resources/testDataFiles/Lookups_ports_schema.json"". @04-10-2022 12:54:28.0425 PM
[ReportManager] File Action "DoesFileExist" successfully performed. With the following test data "File Path: "C:\eclipse-workspace\MyProjects\TASystemsAPIs\src\test\resources\testDataFiles\Lookups_ports_schema.json"". @04-10-2022 12:54:28.0432 PM
[ReportManager] File Action "GetAbsolutePath" successfully performed. With the following test data "Relative Folder Path: "C:\eclipse-workspace\MyProjects\TASystemsAPIs\src\test\resources\testDataFiles\Lookups_ports_schema.json"". @04-10-2022 12:54:28.0433 PM
[ReportManager] File Action "ReadFromFile" successfully performed. With the following test data "File Path: "C:\eclipse-workspace\MyProjects\TASystemsAPIs\src\test\resources\testDataFiles\Lookups_ports_schema.json"". @04-10-2022 12:54:28.0434 PM
[ReportManager] Assertion Passed: The API response schema matches that in this file "src/test/resources/testDataFiles/Lookups_ports_schema.json". @04-10-2022 12:54:28.0436 PM
[ReportManager] Successfully created attachment "Validation Test Data - Expected JSON Value" @04-10-2022 12:54:28.0439 PM
[ReportManager] Successfully created attachment "Validation Test Data - Actual JSON Value" @04-10-2022 12:54:28.0441 PM
[ReportManager] Verification Passed: "600" is greater than or equal to "1.1". @04-10-2022 12:54:28.0442 PM
[ReportManager] Verification Passed: "600" is less than or equal to "10000". @04-10-2022 12:54:28.0442 PM
[ReportManager] Setting discrete logging to: "true" @04-10-2022 12:54:28.0993 PM
[ReportManager] Response status code: "200", status line: "HTTP/1.1 200 " @04-10-2022 12:54:28.0993 PM
[ReportManager] Assertion Passed: Evaluating the actual response status code against the expected one... @04-10-2022 12:54:28.0994 PM
[ReportManager] Setting discrete logging to: "false" @04-10-2022 12:54:28.0994 PM
[ReportManager] Perform request "GET | Target Status Code: 200 | Service URL: https://api-demo.np.transporticonline.com/steeringcompanies/v1/lookups/ports | Content Type: */* | Response Time: 546ms". @04-10-2022 12:54:29.0016 PM
[ReportManager] Successfully created attachment "API Request - Specifications" @04-10-2022 12:54:29.0018 PM
[ReportManager] Successfully created attachment "API Response - JSON Body" @04-10-2022 12:54:29.0020 PM
[ReportManager] Assertion Passed: "200" is equal to "200". @04-10-2022 12:54:29.0021 PM
[ReportManager] Verification Passed: "546" is greater than or equal to "1.1". @04-10-2022 12:54:29.0021 PM
[ReportManager] Verification Passed: "546" is less than or equal to "10000". @04-10-2022 12:54:29.0022 PM
[ReportManager] Assertion Passed: "{"page":0,"size":3,"totalPages":10,"totalElements":29,"content":[{"id":59,"nameArabic":"???? ??? ","nameEnglish":"Alab Port","cityId":656,"isActive":true,"lastUpdated":"2020-10-22T18:41:32Z","sectors":null},{"id":53,"nameArabic":"????? ???? ???????","nameEnglish":"Yanbu Commercial Port","cityId":646,"isActive":true,"lastUpdated":"2020-10-22T18:41:32Z","sectors":null},{"id":49,"nameArabic":"???? ????? ????","nameEnglish":"Jadedat Arar Port","cityId":612,"isActive":true,"lastUpdated":"2020-10-22T18:41:32Z","sectors":null}]}" contains "content". @04-10-2022 12:54:29.0022 PM
[ReportManager] Successfully created attachment "Validation Test Data - Expected Value" @04-10-2022 12:54:29.0023 PM
[ReportManager] Successfully created attachment "Validation Test Data - Actual Value" @04-10-2022 12:54:29.0025 PM
[ReportManager] Get response jsonvalue "content". @04-10-2022 12:54:29.0026 PM
[ReportManager] Assertion Passed: Check that content object is not null. @04-10-2022 12:54:29.0028 PM
[ReportManager] File Action "DoesFileExist" successfully performed. With the following test data "File Path: "Lookups_ports_schema.json"". @04-10-2022 12:54:29.0028 PM
[ReportManager] File Action "DoesFileExist" successfully performed. With the following test data "File Path: "src/test/resources/testDataFiles/Lookups_ports_schema.json"". @04-10-2022 12:54:29.0029 PM
[ReportManager] File Action "GetAbsolutePath" successfully performed. With the following test data "Relative Folder Path: "src/test/resources/testDataFiles/Lookups_ports_schema.json"". @04-10-2022 12:54:29.0029 PM
[ReportManager] File Action "DoesFileExist" successfully performed. With the following test data "File Path: "C:\eclipse-workspace\MyProjects\TASystemsAPIs\src\test\resources\testDataFiles\Lookups_ports_schema.json"". @04-10-2022 12:54:29.0037 PM
[ReportManager] File Action "GetAbsolutePath" successfully performed. With the following test data "Relative Folder Path: "C:\eclipse-workspace\MyProjects\TASystemsAPIs\src\test\resources\testDataFiles\Lookups_ports_schema.json"". @04-10-2022 12:54:29.0037 PM
[ReportManager] File Action "ReadFromFile" successfully performed. With the following test data "File Path: "C:\eclipse-workspace\MyProjects\TASystemsAPIs\src\test\resources\testDataFiles\Lookups_ports_schema.json"". @04-10-2022 12:54:29.0038 PM
[ReportManager] Assertion Passed: The API response schema matches that in this file "src/test/resources/testDataFiles/Lookups_ports_schema.json". @04-10-2022 12:54:29.0039 PM
[ReportManager] Successfully created attachment "Validation Test Data - Expected JSON Value" @04-10-2022 12:54:29.0041 PM
[ReportManager] Successfully created attachment "Validation Test Data - Actual JSON Value" @04-10-2022 12:54:29.0043 PM
[ReportManager] Verification Passed: "546" is greater than or equal to "1.1". @04-10-2022 12:54:29.0044 PM
[ReportManager] Verification Passed: "546" is less than or equal to "10000". @04-10-2022 12:54:29.0044 PM