
################################################################################################################################################
Starting Execution:	"94 out of 111" test cases in the current suite
Test Method:		"SteeringCompanyAPI_TestCases.Test_PeriodProgramTemplate_Cases.Get_Valid_all_PeriodProgramTemplate_by_Qry_Rq_TC"
Test Description:	"TC002  -PeriodProgramTemplate-   Perform Get all PeriodProgramTemplate API with pagination with valid user name and password"
################################################################################################################################################
[ReportManager] File Action "DoesFileExist" successfully performed. With the following test data "File Path: "SteeringCompanyAPI_TestData/SteeringCompanyAPI_TestData.xlsx"". @28-02-2023 13:17:47.0992 PM
[ReportManager] Loaded Test Data: "src/test/resources/testDataFiles/SteeringCompanyAPI_TestData/SteeringCompanyAPI_TestData.xlsx". @28-02-2023 13:17:48.0013 PM
[ReportManager] Successfully created attachment "Test Data - Excel" @28-02-2023 13:17:48.0014 PM
[ReportManager] Response status code: "200", status line: "HTTP/1.1 200 OK" @28-02-2023 13:17:49.0191 PM
[ReportManager] Assertion Passed: Evaluating the actual response status code against the expected one... @28-02-2023 13:17:49.0191 PM
[ReportManager] Perform request "POST | Target Status Code: 200 | Service URL: https://auth-demo.np.transporticonline.com/auth/realms/tic/protocol/openid-connect/token | Content Type: application/x-www-form-urlencoded | Response Time: 1176ms". @28-02-2023 13:17:49.0200 PM
[ReportManager] Successfully created attachment "API Request - Specifications" @28-02-2023 13:17:49.0201 PM
[ReportManager] Successfully created attachment "API Request - Body" @28-02-2023 13:17:49.0202 PM
[ReportManager] Successfully created attachment "API Response - JSON Body" @28-02-2023 13:17:49.0203 PM
[ReportManager] Assertion Passed: Check Response Status Code is 200 and it is valid. @28-02-2023 13:17:49.0203 PM
[ReportManager] File Action "DoesFileExist" successfully performed. With the following test data "File Path: "SteeringCompanyAPI_TestData/SteeringCompanyAPI_TestData.xlsx"". @28-02-2023 13:17:49.0211 PM
[ReportManager] Loaded Test Data: "src/test/resources/testDataFiles/SteeringCompanyAPI_TestData/SteeringCompanyAPI_TestData.xlsx". @28-02-2023 13:17:49.0233 PM
[ReportManager] Successfully created attachment "Test Data - Excel" @28-02-2023 13:17:49.0234 PM
[ReportManager] Response status code: "200", status line: "HTTP/1.1 200 " @28-02-2023 13:17:49.0770 PM
[ReportManager] Assertion Passed: Evaluating the actual response status code against the expected one... @28-02-2023 13:17:49.0770 PM
[ReportManager] Perform request "GET | Target Status Code: 200 | Service URL: https://api-demo.np.transporticonline.com/steeringcompanies/v1/periodProgramTemplates | Content Type: */* | Response Time: 534ms". @28-02-2023 13:17:49.0780 PM
[ReportManager] Successfully created attachment "API Request - Specifications" @28-02-2023 13:17:49.0781 PM
[ReportManager] Successfully created attachment "API Response - JSON Body" @28-02-2023 13:17:49.0781 PM
[ReportManager] Assertion Passed: "200" is equal to "200". @28-02-2023 13:17:49.0781 PM
[ReportManager] Verification Passed: "534" is greater than or equal to "1.1". @28-02-2023 13:17:49.0782 PM
[ReportManager] Verification Passed: "534" is less than or equal to "10000". @28-02-2023 13:17:49.0782 PM
[ReportManager] Assertion Passed: "{"page":0,"size":1,"totalPages":102,"totalElements":102,"content":[{"id":213,"seasonType":"umrah","saleSystem":"GDS","programType":"Routes","programMechanism":"reservations","routeId":60,"season":1444,"vehicleTypeId":4,"vehicleCategoryId":1,"minimumModelYear":2010,"maximumModelYear":2022,"minimumVehiclePricePer":1200,"minimumSeat":5,"maximumSeat":9,"templatePeriodStartDate":"2022-09-05T00:00:00Z","templatePeriodEndDate":"2022-09-12T00:00:00Z","templatePeriodMaximumQuota":100,"isActive":true}]}" contains "content". @28-02-2023 13:17:49.0782 PM
[ReportManager] Get response jsonvalue "content". @28-02-2023 13:17:49.0782 PM
[ReportManager] Assertion Passed: Check that content object is not null. @28-02-2023 13:17:49.0782 PM
[ReportManager] File Action "DoesFileExist" successfully performed. With the following test data "File Path: "Schemas/PeriodProgramTemplates_schema.json"". @28-02-2023 13:17:49.0782 PM
[ReportManager] File Action "DoesFileExist" successfully performed. With the following test data "File Path: "src/test/resources/testDataFiles/Schemas/PeriodProgramTemplates_schema.json"". @28-02-2023 13:17:49.0783 PM
[ReportManager] File Action "GetAbsolutePath" successfully performed. With the following test data "Relative Folder Path: "src/test/resources/testDataFiles/Schemas/PeriodProgramTemplates_schema.json"". @28-02-2023 13:17:49.0783 PM
[ReportManager] File Action "DoesFileExist" successfully performed. With the following test data "File Path: "C:\eclipse-workspace\MyProjects\TASystemsAPIs\src\test\resources\testDataFiles\Schemas\PeriodProgramTemplates_schema.json"". @28-02-2023 13:17:49.0785 PM
[ReportManager] File Action "GetAbsolutePath" successfully performed. With the following test data "Relative Folder Path: "C:\eclipse-workspace\MyProjects\TASystemsAPIs\src\test\resources\testDataFiles\Schemas\PeriodProgramTemplates_schema.json"". @28-02-2023 13:17:49.0785 PM
[ReportManager] File Action "ReadFile" successfully performed. With the following test data "File Path: "C:\eclipse-workspace\MyProjects\TASystemsAPIs\src\test\resources\testDataFiles\Schemas\PeriodProgramTemplates_schema.json"". @28-02-2023 13:17:49.0785 PM
[ReportManager] Assertion Passed: The API response schema matches that in this file "src/test/resources/testDataFiles/Schemas/PeriodProgramTemplates_schema.json". @28-02-2023 13:17:49.0785 PM
[ReportManager] Successfully created attachment "Validation Test Data - Expected JSON Value" @28-02-2023 13:17:49.0787 PM
[ReportManager] Successfully created attachment "Validation Test Data - Actual JSON Value" @28-02-2023 13:17:49.0787 PM