{"uuid":"3e71e438-ccc5-4b6c-b67e-f3850390870a","historyId":"3cb044767af6f7737554bcc7b11e9225","fullName":"SteeringCompanyAPI_TestCases.Test_Commissions_Cases.Valid_GET_all_OTAs_by_Qry_Rq_TC","labels":[{"name":"package","value":"SteeringCompanyAPI_TestCases.Test_Commissions_Cases"},{"name":"testClass","value":"SteeringCompanyAPI_TestCases.Test_Commissions_Cases"},{"name":"testMethod","value":"Valid_GET_all_OTAs_by_Qry_Rq_TC"},{"name":"parentSuite","value":"Suite"},{"name":"suite","value":"Test"},{"name":"subSuite","value":"SteeringCompanyAPI_TestCases.Test_Commissions_Cases"},{"name":"host","value":"TW-1056"},{"name":"thread","value":"15616@TW-1056.main(1)"},{"name":"framework","value":"testng"},{"name":"language","value":"java"},{"name":"story","value":"Retrieving All Active OTAs with Pagination"},{"name":"severity","value":"critical"}],"links":[],"name":"TC017  -OTAs- Perform Get all OTAs API with pagination with valid user name and password","status":"passed","statusDetails":{"known":false,"muted":false,"flaky":false},"stage":"finished","steps":[{"name":"Loaded Test Data: \"src/test/resources/testDataFiles/SteeringCompanyAPI_TestData/SteeringCompanyAPI_TestData.xlsx\".","status":"passed","stage":"finished","steps":[],"attachments":[{"name":"Test Data - Excel","source":"7ea807f5-4a96-4c72-b531-dc37b5bae892-attachment.xlsx","type":"application/vnd.openxmlformats-officedocument.spreadsheetml.sheet"}],"parameters":[{"name":"logText","value":"Loaded Test Data: \"src/test/resources/testDataFiles/SteeringCompanyAPI_TestData/SteeringCompanyAPI_TestData.xlsx\"."},{"name":"attachments","value":"[[Test Data, Excel, java.io.FileInputStream@29df2302]]"}],"start":1677582996885,"stop":1677582996890},{"name":"Assertion Passed: Evaluating the actual response status code against the expected one...","status":"passed","stage":"finished","steps":[],"attachments":[],"parameters":[{"name":"customLog","value":"Assertion Passed: Evaluating the actual response status code against the expected one..."},{"name":"stepLog","value":"Assertion \"ValidateComparativeRelation\" PASSED. Expected \"200\" and Actual \"200\". Comparison Type \"EQUALS\". Validation Type \"POSITIVE\"."},{"name":"attachments","value":"null"}],"start":1677582997683,"stop":1677582997683},{"name":"Perform request \"POST | Target Status Code: 200 | Service URL: https://auth-demo.np.transporticonline.com/auth/realms/tic/protocol/openid-connect/token | Content Type: application/x-www-form-urlencoded | Response Time: 788ms\".","status":"passed","stage":"finished","steps":[],"attachments":[{"name":"API Request - Specifications","source":"7b4a613f-6c71-4e35-bf0b-a61acd9068aa-attachment"},{"name":"API Request - Body","source":"430ea938-61f8-4d91-9f3b-0ec6826d4320-attachment"},{"name":"API Response - JSON Body","source":"22f8e258-73b6-4f20-aa69-e76b0912b698-attachment.json","type":"text/json"}],"parameters":[{"name":"logText","value":"Perform request \"POST | Target Status Code: 200 | Service URL: https://auth-demo.np.transporticonline.com/auth/realms/tic/protocol/openid-connect/token | Content Type: application/x-www-form-urlencoded | Response Time: 788ms\"."},{"name":"attachments","value":"[[API Request, Specifications, Headers:\r\n_______________\r\n\r\nContent-Type=application/x-www-form-urlencoded\r\n\r\n], [API Request, Body, java.io.ByteArrayInputStream@7bd5f420], null, [API Response, JSON Body, java.io.ByteArrayInputStream@4520fb54]]"}],"start":1677582997694,"stop":1677582997699},{"name":"Assertion Passed: Check Response Status Code is 200 and it is valid.","status":"passed","stage":"finished","steps":[],"attachments":[],"parameters":[{"name":"customLog","value":"Assertion Passed: Check Response Status Code is 200 and it is valid."},{"name":"stepLog","value":"Assertion \"ValidateComparativeRelation\" PASSED. Expected \"200\" and Actual \"200\". Comparison Type \"EQUALS\". Validation Type \"POSITIVE\"."},{"name":"attachments","value":"null"}],"start":1677582997700,"stop":1677582997700},{"name":"Loaded Test Data: \"src/test/resources/testDataFiles/SteeringCompanyAPI_TestData/SteeringCompanyAPI_TestData.xlsx\".","status":"passed","stage":"finished","steps":[],"attachments":[{"name":"Test Data - Excel","source":"c5dca593-1229-47ea-acb5-c4fdb12f55f4-attachment.xlsx","type":"application/vnd.openxmlformats-officedocument.spreadsheetml.sheet"}],"parameters":[{"name":"logText","value":"Loaded Test Data: \"src/test/resources/testDataFiles/SteeringCompanyAPI_TestData/SteeringCompanyAPI_TestData.xlsx\"."},{"name":"attachments","value":"[[Test Data, Excel, java.io.FileInputStream@2596ae35]]"}],"start":1677582997774,"stop":1677582997775},{"name":"Assertion Passed: Evaluating the actual response status code against the expected one...","status":"passed","stage":"finished","steps":[],"attachments":[],"parameters":[{"name":"customLog","value":"Assertion Passed: Evaluating the actual response status code against the expected one..."},{"name":"stepLog","value":"Assertion \"ValidateComparativeRelation\" PASSED. Expected \"200\" and Actual \"200\". Comparison Type \"EQUALS\". Validation Type \"POSITIVE\"."},{"name":"attachments","value":"null"}],"start":1677582998305,"stop":1677582998306},{"name":"Perform request \"GET | Target Status Code: 200 | Service URL: https://api-demo.np.transporticonline.com/steeringcompanies/v1/otas | Content Type: */* | Response Time: 529ms\".","status":"passed","stage":"finished","steps":[],"attachments":[{"name":"API Request - Specifications","source":"a0c978fc-128a-49f8-8a13-8bf14b6d103f-attachment"},{"name":"API Response - JSON Body","source":"2ccccc4a-a427-4762-a0c8-6ebc5146728a-attachment.json","type":"text/json"}],"parameters":[{"name":"logText","value":"Perform request \"GET | Target Status Code: 200 | Service URL: https://api-demo.np.transporticonline.com/steeringcompanies/v1/otas | Content Type: */* | Response Time: 529ms\"."},{"name":"attachments","value":"[[API Request, Specifications, Headers:\r\n_______________\r\n\r\nAuthorization=Bearer eyJhbGciOiJSUzI1NiIsInR5cCIgOiAiSldUIiwia2lkIiA6ICJjck9ORDFNdFVPVWhzS2Mtb0ppVFFmb0o1d1l4REF6Y3k0ZjNYZ0dveGdZIn0.eyJleHAiOjE2Nzc2MDQ1OTcsImlhdCI6MTY3NzU4Mjk5NywianRpIjoiMDI4ODQxNjctNjVkMS00MmM0LTg4ZTMtYmU0Y2I1OTc3MWFlIiwiaXNzIjoiaHR0cHM6Ly9hdXRoLWRlbW8ubnAudHJhbnNwb3J0aWNvbmxpbmUuY29tL2F1dGgvcmVhbG1zL3RpYyIsImF1ZCI6ImFjY291bnQiLCJzdWIiOiI0ZTk3NmQ0NC1iM2ZkLTRjYTktODk1Ny0wYWJiODUwNzNhNzQiLCJ0eXAiOiJCZWFyZXIiLCJhenAiOiJ0aWMtYXBpIiwic2Vzc2lvbl9zdGF0ZSI6IjRmZmQ1NWE0LTViMDQtNDY2Yi1iNmZkLWU5ZGNlZjZhM2I0MyIsImFjciI6IjEiLCJhbGxvd2VkLW9yaWdpbnMiOlsiaHR0cHM6Ly9hcGktZGV2Lm5wLnRyYW5zcG9ydGljb25saW5lLmNvbSJdLCJyZWFsbV9hY2Nlc3MiOnsicm9sZXMiOlsib2ZmbGluZV9hY2Nlc3MiLCJkZWZhdWx0LXJvbGVzLXRpYyIsInVtYV9hdXRob3JpemF0aW9uIiwidXNlciJdfSwicmVzb3VyY2VfYWNjZXNzIjp7ImFjY291bnQiOnsicm9sZXMiOlsibWFuYWdlLWFjY291bnQiLCJtYW5hZ2UtYWNjb3VudC1saW5rcyIsInZpZXctcHJvZmlsZSJdfX0sInNjb3BlIjoiZW1haWwgcHJvZmlsZSIsInNpZCI6IjRmZmQ1NWE0LTViMDQtNDY2Yi1iNmZkLWU5ZGNlZjZhM2I0MyIsImVtYWlsX3ZlcmlmaWVkIjpmYWxzZSwicHJlZmVycmVkX3VzZXJuYW1lIjoidG9raGkiLCJ0Y0lkIjoiMzE5OTU3In0.GCAWvb-v6s4AQU2Ev4v9q9wSvX35gYgpoMhYmK8Cs6wI0Dw9rcDx9G4pEZHMUd9NPvKztPuz3UM7NneQaOkw58tdjcnj4xfVxgL81YqOe10wOcxIrr49-rBk0r48-WIwLgoHu-3DeMgrcgUdqtaAvZFo9JLqJsGHbgvnFVR2QPtjGJ0RfFQxTBJkdinoLXN4frge9yNjmORSw-piaIOctJBd2gnc_hLgpAnKFQ6oVHOXQTmScaGiciM6mmCQINPfmtRHaUWf2uqij1Vyr7g1Gb6BXc70_LIjswCyIYJN71uaVfTk9SfMvWM84asfO97ujw7aXlwmntnt2uKQz-Udeg\r\nContent-Type=*/*\r\n\r\nQuery Parameters:\r\n_______________\r\n\r\nsize=test\r\npage=test\r\n], null, [API Response, JSON Body, java.io.ByteArrayInputStream@41de90fa]]"}],"start":1677582998330,"stop":1677582998333},{"name":"Assertion Passed: \"200\" is equal to \"200\".","status":"passed","stage":"finished","steps":[],"attachments":[],"parameters":[{"name":"customLog","value":"Assertion Passed: \"200\" is equal to \"200\"."},{"name":"stepLog","value":"Assertion \"ValidateComparativeRelation\" PASSED. Expected \"200\" and Actual \"200\". Comparison Type \"EQUALS\". Validation Type \"POSITIVE\"."},{"name":"attachments","value":"null"}],"start":1677582998333,"stop":1677582998333},{"name":"Verification Passed: \"529\" is greater than or equal to \"1.1\".","status":"passed","stage":"finished","steps":[],"attachments":[],"parameters":[{"name":"customLog","value":"Verification Passed: \"529\" is greater than or equal to \"1.1\"."},{"name":"stepLog","value":"Verification \"ValidateComparativeRelation\" PASSED. Expected \"1.1\" and Actual \"529\". Comparison Type \"GREATER_THAN_OR_EQUALS\". Validation Type \"POSITIVE\"."},{"name":"attachments","value":"null"}],"start":1677582998333,"stop":1677582998333},{"name":"Verification Passed: \"529\" is less than or equal to \"10000\".","status":"passed","stage":"finished","steps":[],"attachments":[],"parameters":[{"name":"customLog","value":"Verification Passed: \"529\" is less than or equal to \"10000\"."},{"name":"stepLog","value":"Verification \"ValidateComparativeRelation\" PASSED. Expected \"10000\" and Actual \"529\". Comparison Type \"LESS_THAN_OR_EQUALS\". Validation Type \"POSITIVE\"."},{"name":"attachments","value":"null"}],"start":1677582998333,"stop":1677582998333},{"name":"Assertion Passed: \"{\"page\":0,\"size\":20,\"totalPages\":3,\"totalElements\":47,\"content\":[{\"otaCode\":\"agoda\",\"nameArabic\":\"-\",\"nameEnglish\":\"agoda_old\",\"isActive\":true,\"isEnable\":true},{\"otaCode\":\"Mawasim\",\"nameArabic\":\"-\",\"nameEnglish\":\"MawasimOTA\",\"isActive\":true,\"isEnable\":true},{\"otaCode\":\"SaudiaHolidaysOTA\",\"nameArabic\":\"-\",\"nameEnglish\":\"SaudiaHolidaysOTA\",\"isActive\":true,\"isEnable\":true},{\"otaCode\":\"HotelGate\",\"nameArabic\":\"-\",\"nameEnglish\":\"HotelGate\",\"isActive\":true,\"isEnable\":false},{\"otaCode\":\"AlrajhiOTA\",\"nameArabic\":\"-\",\"nameEnglish\":\"AlrajhiOTA\",\"isActive\":true,\"isEnable\":true},{\"otaCode\":\"ELAF_OTA\",\"nameArabic\":\"-\",\"nameEnglish\":\"Elaf Travel and Tourism\",\"isActive\":true,\"isEnable\":true},{\"otaCode\":\"WebBedsOTA\",\"nameArabic\":\"-\",\"nameEnglish\":\"WebBeds OTA\",\"isActive\":true,\"isEnable\":true},{\"otaCode\":\"U1470\",\"nameArabic\":\"-\",\"nameEnglish\":\"UmrahOTA\",\"isActive\":true,\"isEnable\":true},{\"otaCode\":\"MyHotel\",\"nameArabic\":\"-\",\"nameEnglish\":\"MyHotel\",\"isActive\":true,\"isEnable\":true},{\"otaCode\":\"Taqneen\",\"nameArabic\":\"-\",\"nameEnglish\":\"Taqneen\",\"isActive\":true,\"isEnable\":true},{\"otaCode\":\"ZamzamOTA\",\"nameArabic\":\"-\",\"nameEnglish\":\"ZamzamOTA\",\"isActive\":true,\"isEnable\":false},{\"otaCode\":\"HuloolAl-Umrah\",\"nameArabic\":\"-\",\"nameEnglish\":\"Hulool Al-Umrah\",\"isActive\":true,\"isEnable\":true},{\"otaCode\":\"UmrahGate\",\"nameArabic\":\"-\",\"nameEnglish\":\"UmrahGate\",\"isActive\":true,\"isEnable\":true},{\"otaCode\":\"WaytoUmrah\",\"nameArabic\":\"-\",\"nameEnglish\":\"WaytoUmrah\",\"isActive\":true,\"isEnable\":true},{\"otaCode\":\"HUBOOKING\",\"nameArabic\":\"-\",\"nameEnglish\":\"HUBOOKING\",\"isActive\":true,\"isEnable\":true},{\"otaCode\":\"MahtatAlAlamOTA\",\"nameArabic\":\"-\",\"nameEnglish\":\"Mahtat Al-Alam\",\"isActive\":true,\"isEnable\":true},{\"otaCode\":\"Akbar\",\"nameArabic\":\"-\",\"nameEnglish\":\"AKBAR TRAVELS OF INDIA PVT LTD\",\"isActive\":true,\"isEnable\":true},{\"otaCode\":\"AnjumOTA\",\"nameArabic\":\"-\",\"nameEnglish\":\"Anjum OTA\",\"isActive\":true,\"isEnable\":false},{\"otaCode\":\"Saudi2GoOTA\",\"nameArabic\":\"-\",\"nameEnglish\":\"Saudi2GoOTA\",\"isActive\":true,\"isEnable\":true},{\"otaCode\":\"EasyUmrahOTA\",\"nameArabic\":\"-\",\"nameEnglish\":\"EasyUmrahOTA\",\"isActive\":true,\"isEnable\":true}]}\" contains \"content\".","status":"passed","stage":"finished","steps":[],"attachments":[{"name":"Validation Test Data - Expected Value","source":"05ff2c96-bb75-4e1e-995d-73200828bb55-attachment"},{"name":"Validation Test Data - Actual Value","source":"fcfe3baa-d8ca-42b1-ae65-b258b28376ab-attachment"}],"parameters":[{"name":"customLog","value":"Assertion Passed: \"{\"page\":0,\"size\":20,\"totalPages\":3,\"totalElements\":47,\"content\":[{\"otaCode\":\"agoda\",\"nameArabic\":\"-\",\"nameEnglish\":\"agoda_old\",\"isActive\":true,\"isEnable\":true},{\"otaCode\":\"Mawasim\",\"nameArabic\":\"-\",\"nameEnglish\":\"MawasimOTA\",\"isActive\":true,\"isEnable\":true},{\"otaCode\":\"SaudiaHolidaysOTA\",\"nameArabic\":\"-\",\"nameEnglish\":\"SaudiaHolidaysOTA\",\"isActive\":true,\"isEnable\":true},{\"otaCode\":\"HotelGate\",\"nameArabic\":\"-\",\"nameEnglish\":\"HotelGate\",\"isActive\":true,\"isEnable\":false},{\"otaCode\":\"AlrajhiOTA\",\"nameArabic\":\"-\",\"nameEnglish\":\"AlrajhiOTA\",\"isActive\":true,\"isEnable\":true},{\"otaCode\":\"ELAF_OTA\",\"nameArabic\":\"-\",\"nameEnglish\":\"Elaf Travel and Tourism\",\"isActive\":true,\"isEnable\":true},{\"otaCode\":\"WebBedsOTA\",\"nameArabic\":\"-\",\"nameEnglish\":\"WebBeds OTA\",\"isActive\":true,\"isEnable\":true},{\"otaCode\":\"U1470\",\"nameArabic\":\"-\",\"nameEnglish\":\"UmrahOTA\",\"isActive\":true,\"isEnable\":true},{\"otaCode\":\"MyHotel\",\"nameArabic\":\"-\",\"nameEnglish\":\"MyHotel\",\"isActive\":true,\"isEnable\":true},{\"otaCode\":\"Taqneen\",\"nameArabic\":\"-\",\"nameEnglish\":\"Taqneen\",\"isActive\":true,\"isEnable\":true},{\"otaCode\":\"ZamzamOTA\",\"nameArabic\":\"-\",\"nameEnglish\":\"ZamzamOTA\",\"isActive\":true,\"isEnable\":false},{\"otaCode\":\"HuloolAl-Umrah\",\"nameArabic\":\"-\",\"nameEnglish\":\"Hulool Al-Umrah\",\"isActive\":true,\"isEnable\":true},{\"otaCode\":\"UmrahGate\",\"nameArabic\":\"-\",\"nameEnglish\":\"UmrahGate\",\"isActive\":true,\"isEnable\":true},{\"otaCode\":\"WaytoUmrah\",\"nameArabic\":\"-\",\"nameEnglish\":\"WaytoUmrah\",\"isActive\":true,\"isEnable\":true},{\"otaCode\":\"HUBOOKING\",\"nameArabic\":\"-\",\"nameEnglish\":\"HUBOOKING\",\"isActive\":true,\"isEnable\":true},{\"otaCode\":\"MahtatAlAlamOTA\",\"nameArabic\":\"-\",\"nameEnglish\":\"Mahtat Al-Alam\",\"isActive\":true,\"isEnable\":true},{\"otaCode\":\"Akbar\",\"nameArabic\":\"-\",\"nameEnglish\":\"AKBAR TRAVELS OF INDIA PVT LTD\",\"isActive\":true,\"isEnable\":true},{\"otaCode\":\"AnjumOTA\",\"nameArabic\":\"-\",\"nameEnglish\":\"Anjum OTA\",\"isActive\":true,\"isEnable\":false},{\"otaCode\":\"Saudi2GoOTA\",\"nameArabic\":\"-\",\"nameEnglish\":\"Saudi2GoOTA\",\"isActive\":true,\"isEnable\":true},{\"otaCode\":\"EasyUmrahOTA\",\"nameArabic\":\"-\",\"nameEnglish\":\"EasyUmrahOTA\",\"isActive\":true,\"isEnable\":true}]}\" contains \"content\"."},{"name":"stepLog","value":"Assertion \"ValidateEquals\" PASSED. Expected and Actual values are attached. Comparison Type \"CONTAINS\". Validation Type \"POSITIVE\"."},{"name":"attachments","value":"[[Validation Test Data, Expected Value, content], [Validation Test Data, Actual Value, {\"page\":0,\"size\":20,\"totalPages\":3,\"totalElements\":47,\"content\":[{\"otaCode\":\"agoda\",\"nameArabic\":\"-\",\"nameEnglish\":\"agoda_old\",\"isActive\":true,\"isEnable\":true},{\"otaCode\":\"Mawasim\",\"nameArabic\":\"-\",\"nameEnglish\":\"MawasimOTA\",\"isActive\":true,\"isEnable\":true},{\"otaCode\":\"SaudiaHolidaysOTA\",\"nameArabic\":\"-\",\"nameEnglish\":\"SaudiaHolidaysOTA\",\"isActive\":true,\"isEnable\":true},{\"otaCode\":\"HotelGate\",\"nameArabic\":\"-\",\"nameEnglish\":\"HotelGate\",\"isActive\":true,\"isEnable\":false},{\"otaCode\":\"AlrajhiOTA\",\"nameArabic\":\"-\",\"nameEnglish\":\"AlrajhiOTA\",\"isActive\":true,\"isEnable\":true},{\"otaCode\":\"ELAF_OTA\",\"nameArabic\":\"-\",\"nameEnglish\":\"Elaf Travel and Tourism\",\"isActive\":true,\"isEnable\":true},{\"otaCode\":\"WebBedsOTA\",\"nameArabic\":\"-\",\"nameEnglish\":\"WebBeds OTA\",\"isActive\":true,\"isEnable\":true},{\"otaCode\":\"U1470\",\"nameArabic\":\"-\",\"nameEnglish\":\"UmrahOTA\",\"isActive\":true,\"isEnable\":true},{\"otaCode\":\"MyHotel\",\"nameArabic\":\"-\",\"nameEnglish\":\"MyHotel\",\"isActive\":true,\"isEnable\":true},{\"otaCode\":\"Taqneen\",\"nameArabic\":\"-\",\"nameEnglish\":\"Taqneen\",\"isActive\":true,\"isEnable\":true},{\"otaCode\":\"ZamzamOTA\",\"nameArabic\":\"-\",\"nameEnglish\":\"ZamzamOTA\",\"isActive\":true,\"isEnable\":false},{\"otaCode\":\"HuloolAl-Umrah\",\"nameArabic\":\"-\",\"nameEnglish\":\"Hulool Al-Umrah\",\"isActive\":true,\"isEnable\":true},{\"otaCode\":\"UmrahGate\",\"nameArabic\":\"-\",\"nameEnglish\":\"UmrahGate\",\"isActive\":true,\"isEnable\":true},{\"otaCode\":\"WaytoUmrah\",\"nameArabic\":\"-\",\"nameEnglish\":\"WaytoUmrah\",\"isActive\":true,\"isEnable\":true},{\"otaCode\":\"HUBOOKING\",\"nameArabic\":\"-\",\"nameEnglish\":\"HUBOOKING\",\"isActive\":true,\"isEnable\":true},{\"otaCode\":\"MahtatAlAlamOTA\",\"nameArabic\":\"-\",\"nameEnglish\":\"Mahtat Al-Alam\",\"isActive\":true,\"isEnable\":true},{\"otaCode\":\"Akbar\",\"nameArabic\":\"-\",\"nameEnglish\":\"AKBAR TRAVELS OF INDIA PVT LTD\",\"isActive\":true,\"isEnable\":true},{\"otaCode\":\"AnjumOTA\",\"nameArabic\":\"-\",\"nameEnglish\":\"Anjum OTA\",\"isActive\":true,\"isEnable\":false},{\"otaCode\":\"Saudi2GoOTA\",\"nameArabic\":\"-\",\"nameEnglish\":\"Saudi2GoOTA\",\"isActive\":true,\"isEnable\":true},{\"otaCode\":\"EasyUmrahOTA\",\"nameArabic\":\"-\",\"nameEnglish\":\"EasyUmrahOTA\",\"isActive\":true,\"isEnable\":true}]}]]"}],"start":1677582998333,"stop":1677582998335},{"name":"Assertion Passed: Check that content object is not null.","status":"passed","stage":"finished","steps":[],"attachments":[{"name":"Validation Test Data - Expected Value","source":"1ccc3f36-e412-464e-be2c-4c1711c0af16-attachment"},{"name":"Validation Test Data - Actual Value","source":"0bb3e032-6e3c-49ff-9e47-75972968666b-attachment"}],"parameters":[{"name":"customLog","value":"Assertion Passed: Check that content object is not null."},{"name":"stepLog","value":"Assertion \"ValidateEquals\" PASSED. Expected and Actual values are attached. Comparison Type \"EQUALS\". Validation Type \"NEGATIVE\"."},{"name":"attachments","value":"[[Validation Test Data, Expected Value, null], [Validation Test Data, Actual Value, [{\"otaCode\":\"agoda\",\"nameArabic\":\"-\",\"nameEnglish\":\"agoda_old\",\"isActive\":true,\"isEnable\":true},{\"otaCode\":\"Mawasim\",\"nameArabic\":\"-\",\"nameEnglish\":\"MawasimOTA\",\"isActive\":true,\"isEnable\":true},{\"otaCode\":\"SaudiaHolidaysOTA\",\"nameArabic\":\"-\",\"nameEnglish\":\"SaudiaHolidaysOTA\",\"isActive\":true,\"isEnable\":true},{\"otaCode\":\"HotelGate\",\"nameArabic\":\"-\",\"nameEnglish\":\"HotelGate\",\"isActive\":true,\"isEnable\":false},{\"otaCode\":\"AlrajhiOTA\",\"nameArabic\":\"-\",\"nameEnglish\":\"AlrajhiOTA\",\"isActive\":true,\"isEnable\":true},{\"otaCode\":\"ELAF_OTA\",\"nameArabic\":\"-\",\"nameEnglish\":\"Elaf Travel and Tourism\",\"isActive\":true,\"isEnable\":true},{\"otaCode\":\"WebBedsOTA\",\"nameArabic\":\"-\",\"nameEnglish\":\"WebBeds OTA\",\"isActive\":true,\"isEnable\":true},{\"otaCode\":\"U1470\",\"nameArabic\":\"-\",\"nameEnglish\":\"UmrahOTA\",\"isActive\":true,\"isEnable\":true},{\"otaCode\":\"MyHotel\",\"nameArabic\":\"-\",\"nameEnglish\":\"MyHotel\",\"isActive\":true,\"isEnable\":true},{\"otaCode\":\"Taqneen\",\"nameArabic\":\"-\",\"nameEnglish\":\"Taqneen\",\"isActive\":true,\"isEnable\":true},{\"otaCode\":\"ZamzamOTA\",\"nameArabic\":\"-\",\"nameEnglish\":\"ZamzamOTA\",\"isActive\":true,\"isEnable\":false},{\"otaCode\":\"HuloolAl-Umrah\",\"nameArabic\":\"-\",\"nameEnglish\":\"Hulool Al-Umrah\",\"isActive\":true,\"isEnable\":true},{\"otaCode\":\"UmrahGate\",\"nameArabic\":\"-\",\"nameEnglish\":\"UmrahGate\",\"isActive\":true,\"isEnable\":true},{\"otaCode\":\"WaytoUmrah\",\"nameArabic\":\"-\",\"nameEnglish\":\"WaytoUmrah\",\"isActive\":true,\"isEnable\":true},{\"otaCode\":\"HUBOOKING\",\"nameArabic\":\"-\",\"nameEnglish\":\"HUBOOKING\",\"isActive\":true,\"isEnable\":true},{\"otaCode\":\"MahtatAlAlamOTA\",\"nameArabic\":\"-\",\"nameEnglish\":\"Mahtat Al-Alam\",\"isActive\":true,\"isEnable\":true},{\"otaCode\":\"Akbar\",\"nameArabic\":\"-\",\"nameEnglish\":\"AKBAR TRAVELS OF INDIA PVT LTD\",\"isActive\":true,\"isEnable\":true},{\"otaCode\":\"AnjumOTA\",\"nameArabic\":\"-\",\"nameEnglish\":\"Anjum OTA\",\"isActive\":true,\"isEnable\":false},{\"otaCode\":\"Saudi2GoOTA\",\"nameArabic\":\"-\",\"nameEnglish\":\"Saudi2GoOTA\",\"isActive\":true,\"isEnable\":true},{\"otaCode\":\"EasyUmrahOTA\",\"nameArabic\":\"-\",\"nameEnglish\":\"EasyUmrahOTA\",\"isActive\":true,\"isEnable\":true}]]]"}],"start":1677582998336,"stop":1677582998339},{"name":"Assertion Passed: The API response schema matches that in this file \"src/test/resources/testDataFiles/Schemas/OTAs_schema.json\".","status":"passed","stage":"finished","steps":[],"attachments":[{"name":"Validation Test Data - Expected JSON Value","source":"7bfd1063-14b0-4926-8209-4462f3326845-attachment.json","type":"text/json"},{"name":"Validation Test Data - Actual JSON Value","source":"f815a1f9-8714-4b4d-ad47-e8c93d978696-attachment.json","type":"text/json"}],"parameters":[{"name":"customLog","value":"Assertion Passed: The API response schema matches that in this file \"src/test/resources/testDataFiles/Schemas/OTAs_schema.json\"."},{"name":"stepLog","value":"Assertion \"ValidateResponseFileSchema\" PASSED. Expected \"Response data should match the JSON File in this path 'C:\\eclipse-workspace\\MyProjects\\TASystemsAPIs\\src\\test\\resources\\testDataFiles\\Schemas\\OTAs_schema.json'\" and Actual \"TRUE\". Comparison Type \"EQUALS\". Validation Type \"POSITIVE\"."},{"name":"attachments","value":"[[Validation Test Data, Expected JSON Value, java.io.ByteArrayInputStream@3826543], [Validation Test Data, Actual JSON Value, java.io.ByteArrayInputStream@4d7ddc1b]]"}],"start":1677582998345,"stop":1677582998347}],"attachments":[{"name":"SHAFT Engine Logs - Current Method log: Valid_GET_all_OTAs_by_Qry_Rq_TC","source":"5cc8fa99-378a-4f9c-90bf-d9b222ae4964-attachment.txt","type":"text/plain"}],"parameters":[],"start":1677582996843,"stop":1677582998348}