[ReportManager] Setting discrete logging to: "false" @29-09-2022 17:22:55.0493 PM

################################################################################################################################################
Starting Execution:	"10 out of 13" test cases in the current suite
Test Method:		"SteeringCompanyAPI_TestCases.Test_Case.Valid_GET_all_terminals_Lookups_Rq_TC"
################################################################################################################################################
[ReportManager] Setting discrete logging to: "false" @29-09-2022 17:22:55.0493 PM
[ReportManager] Setting discrete logging to: "true" @29-09-2022 17:22:56.0173 PM
[ReportManager] Response status code: "200", status line: "HTTP/1.1 200 OK" @29-09-2022 17:22:56.0173 PM
[ReportManager] Assertion Passed: Evaluating the actual response status code against the expected one... @29-09-2022 17:22:56.0174 PM
[ReportManager] Setting discrete logging to: "false" @29-09-2022 17:22:56.0174 PM
[ReportManager] Perform request "POST | Target Status Code: 200 | Service URL: https://auth-demo.np.transporticonline.com/auth/realms/tic/protocol/openid-connect/token | Content Type: application/x-www-form-urlencoded | Response Time: 677ms". @29-09-2022 17:22:56.0184 PM
[ReportManager] Successfully created attachment "API Request - Specifications" @29-09-2022 17:22:56.0185 PM
[ReportManager] Successfully created attachment "API Request - Body" @29-09-2022 17:22:56.0185 PM
[ReportManager] Successfully created attachment "API Response - JSON Body" @29-09-2022 17:22:56.0187 PM
[ReportManager] Assertion Passed: "200" is equal to "200". @29-09-2022 17:22:56.0187 PM
[ReportManager] Verification Passed: "677" is greater than or equal to "1.1". @29-09-2022 17:22:56.0187 PM
[ReportManager] Verification Passed: "677" is less than or equal to "10000". @29-09-2022 17:22:56.0187 PM
[ReportManager] Assertion Passed: "{"access_token":"eyJhbGciOiJSUzI1NiIsInR5cCIgOiAiSldUIiwia2lkIiA6ICJjck9ORDFNdFVPVWhzS2Mtb0ppVFFmb0o1d1l4REF6Y3k0ZjNYZ0dveGdZIn0.eyJleHAiOjE2NjQ0NjUyNzQsImlhdCI6MTY2NDQ2NDk3NCwianRpIjoiNjMyYzBiMjctODA5OC00ZWY1LTljOWYtMmNjY2I5MzFlZGEzIiwiaXNzIjoiaHR0cHM6Ly9hdXRoLWRlbW8ubnAudHJhbnNwb3J0aWNvbmxpbmUuY29tL2F1dGgvcmVhbG1zL3RpYyIsImF1ZCI6ImFjY291bnQiLCJzdWIiOiI0ZTk3NmQ0NC1iM2ZkLTRjYTktODk1Ny0wYWJiODUwNzNhNzQiLCJ0eXAiOiJCZWFyZXIiLCJhenAiOiJ0aWMtYXBpIiwic2Vzc2lvbl9zdGF0ZSI6ImU0ZGNjNzc1LWFkZGQtNDQ3MC1hOTE4LTk4ZmM1MjZlOTMxYiIsImFjciI6IjEiLCJhbGxvd2VkLW9yaWdpbnMiOlsiaHR0cHM6Ly9hcGktZGV2Lm5wLnRyYW5zcG9ydGljb25saW5lLmNvbSJdLCJyZWFsbV9hY2Nlc3MiOnsicm9sZXMiOlsib2ZmbGluZV9hY2Nlc3MiLCJkZWZhdWx0LXJvbGVzLXRpYyIsInVtYV9hdXRob3JpemF0aW9uIiwidXNlciJdfSwicmVzb3VyY2VfYWNjZXNzIjp7ImFjY291bnQiOnsicm9sZXMiOlsibWFuYWdlLWFjY291bnQiLCJtYW5hZ2UtYWNjb3VudC1saW5rcyIsInZpZXctcHJvZmlsZSJdfX0sInNjb3BlIjoiZW1haWwgcHJvZmlsZSIsInNpZCI6ImU0ZGNjNzc1LWFkZGQtNDQ3MC1hOTE4LTk4ZmM1MjZlOTMxYiIsImVtYWlsX3ZlcmlmaWVkIjpmYWxzZSwicHJlZmVycmVkX3VzZXJuYW1lIjoidG9raGkiLCJ0Y0lkIjoiMzE5OTU3In0.Nuhd9DC5YSXfH1MOiIVnQERl6ChCS14hjNTS1_QgKydDjKdcE66730gf0ewXeIlJBtOnjEoMpZMVD4ViqjKnhxGslRLWkhQxC7NtQ5C0wx063JHEJyYRfmIOxxA6WQKizd7SW6rys1RKhKWL14L8Crl1QR99YB662y1hEzdyMqaE4IJ7unJC5JA-Je4pFae8_z9BOqp6KPQjRIgpNyfhLQvSGbTFoFdCJzxFn5qVstO6rzIBYi3GoVi3vQJuNCo8um622fylKoQcxCBfsn3dsOeGMMdpr53rx3KpfRo0LK8JVNQg6Qc6-CwgmC1HgshrPxywsizgEy3EC2RsbxCSWw","expires_in":300,"refresh_expires_in":1800,"refresh_token":"eyJhbGciOiJIUzI1NiIsInR5cCIgOiAiSldUIiwia2lkIiA6ICJkMTFjNTY4Yi1iMjAyLTQzYjgtYTBiMy1hYWI4ZWMyYWQzZDEifQ.eyJleHAiOjE2NjQ0NjY3NzQsImlhdCI6MTY2NDQ2NDk3NCwianRpIjoiZjNhZGY3MTgtODMyNC00MmIxLWFkNWYtMTE4YjQwZmY3YTI2IiwiaXNzIjoiaHR0cHM6Ly9hdXRoLWRlbW8ubnAudHJhbnNwb3J0aWNvbmxpbmUuY29tL2F1dGgvcmVhbG1zL3RpYyIsImF1ZCI6Imh0dHBzOi8vYXV0aC1kZW1vLm5wLnRyYW5zcG9ydGljb25saW5lLmNvbS9hdXRoL3JlYWxtcy90aWMiLCJzdWIiOiI0ZTk3NmQ0NC1iM2ZkLTRjYTktODk1Ny0wYWJiODUwNzNhNzQiLCJ0eXAiOiJSZWZyZXNoIiwiYXpwIjoidGljLWFwaSIsInNlc3Npb25fc3RhdGUiOiJlNGRjYzc3NS1hZGRkLTQ0NzAtYTkxOC05OGZjNTI2ZTkzMWIiLCJzY29wZSI6ImVtYWlsIHByb2ZpbGUiLCJzaWQiOiJlNGRjYzc3NS1hZGRkLTQ0NzAtYTkxOC05OGZjNTI2ZTkzMWIifQ.J5JMSxlLLirMrOR19lmwjIJl8g1YQIqUGBnZdMhEAqs","token_type":"Bearer","not-before-policy":0,"session_state":"e4dcc775-addd-4470-a918-98fc526e931b","scope":"email profile"}" contains "access_token". @29-09-2022 17:22:56.0187 PM
[ReportManager] Successfully created attachment "Validation Test Data - Expected Value" @29-09-2022 17:22:56.0188 PM
[ReportManager] Successfully created attachment "Validation Test Data - Actual Value" @29-09-2022 17:22:56.0188 PM
[ReportManager] Get response jsonvalue "access_token". @29-09-2022 17:22:56.0188 PM
[ReportManager] Assertion Passed: Check that Access token is not null. @29-09-2022 17:22:56.0188 PM
[ReportManager] Successfully created attachment "Validation Test Data - Expected Value" @29-09-2022 17:22:56.0188 PM
[ReportManager] Successfully created attachment "Validation Test Data - Actual Value" @29-09-2022 17:22:56.0189 PM
[ReportManager] File Action "DoesFileExist" successfully performed. With the following test data "File Path: "Token_schema.json"". @29-09-2022 17:22:56.0189 PM
[ReportManager] File Action "DoesFileExist" successfully performed. With the following test data "File Path: "src/test/resources/testDataFiles/Token_schema.json"". @29-09-2022 17:22:56.0189 PM
[ReportManager] File Action "GetAbsolutePath" successfully performed. With the following test data "Relative Folder Path: "src/test/resources/testDataFiles/Token_schema.json"". @29-09-2022 17:22:56.0189 PM
[ReportManager] File Action "DoesFileExist" successfully performed. With the following test data "File Path: "C:\eclipse-workspace\MyProjects\TASystemsAPIs\src\test\resources\testDataFiles\Token_schema.json"". @29-09-2022 17:22:56.0191 PM
[ReportManager] File Action "GetAbsolutePath" successfully performed. With the following test data "Relative Folder Path: "C:\eclipse-workspace\MyProjects\TASystemsAPIs\src\test\resources\testDataFiles\Token_schema.json"". @29-09-2022 17:22:56.0191 PM
[ReportManager] File Action "ReadFromFile" successfully performed. With the following test data "File Path: "C:\eclipse-workspace\MyProjects\TASystemsAPIs\src\test\resources\testDataFiles\Token_schema.json"". @29-09-2022 17:22:56.0191 PM
[ReportManager] Assertion Passed: The API response schema matches that in this file "src/test/resources/testDataFiles/Token_schema.json". @29-09-2022 17:22:56.0191 PM
[ReportManager] Successfully created attachment "Validation Test Data - Expected JSON Value" @29-09-2022 17:22:56.0232 PM
[ReportManager] Successfully created attachment "Validation Test Data - Actual JSON Value" @29-09-2022 17:22:56.0233 PM
[ReportManager] Verification Passed: "677" is greater than or equal to "1.1". @29-09-2022 17:22:56.0240 PM
[ReportManager] Verification Passed: "677" is less than or equal to "10000". @29-09-2022 17:22:56.0240 PM
[ReportManager] Setting discrete logging to: "true" @29-09-2022 17:22:56.0796 PM
[ReportManager] Response status code: "200", status line: "HTTP/1.1 200 " @29-09-2022 17:22:56.0796 PM
[ReportManager] Assertion Passed: Evaluating the actual response status code against the expected one... @29-09-2022 17:22:56.0797 PM
[ReportManager] Setting discrete logging to: "false" @29-09-2022 17:22:56.0797 PM
[ReportManager] Perform request "GET | Target Status Code: 200 | Service URL: https://api-demo.np.transporticonline.com/steeringcompanies/v1/lookups/terminals | Content Type: */* | Response Time: 543ms". @29-09-2022 17:22:56.0812 PM
[ReportManager] Successfully created attachment "API Request - Specifications" @29-09-2022 17:22:56.0813 PM
[ReportManager] Successfully created attachment "API Response - JSON Body" @29-09-2022 17:22:56.0813 PM
[ReportManager] Assertion Passed: "200" is equal to "200". @29-09-2022 17:22:56.0814 PM
[ReportManager] Verification Passed: "543" is greater than or equal to "1.1". @29-09-2022 17:22:56.0814 PM
[ReportManager] Verification Passed: "543" is less than or equal to "10000". @29-09-2022 17:22:56.0814 PM
[ReportManager] Assertion Passed: "{"page":0,"size":2147483647,"totalPages":1,"totalElements":13,"content":[{"id":20,"nameArabic":"???? ????????","nameEnglish":"Departure Terminal","isActive":false,"lastUpdated":"2021-04-11T21:05:44Z","portId":51,"sectors":null},{"id":12,"nameArabic":"??????? - ???? ?????? ???? ???","nameEnglish":"","isActive":false,"lastUpdated":"2021-04-11T21:05:58Z","code":"","portId":51,"sectors":null},{"id":7,"nameArabic":"??????? ?????? ??????","nameEnglish":"Madinah Fast Track Terminal","isActive":false,"lastUpdated":"2021-04-11T21:06:12Z","code":"","portId":51,"sectors":null},{"id":1,"nameArabic":"???? ?????? ???","nameEnglish":"Jeddah Hajj Terminal","isActive":false,"lastUpdated":"2021-04-11T21:06:20Z","code":"H","portId":50,"sectors":null},{"id":6,"nameArabic":"????? ??? ????????","nameEnglish":"Jeddah Sea Ports","isActive":true,"lastUpdated":null,"code":"P","portId":52,"sectors":null},{"id":8,"nameArabic":"????? ????","nameEnglish":"Trustees Yanbo TERMINAL","isActive":true,"lastUpdated":null,"code":"B","portId":53,"sectors":null},{"id":9,"nameArabic":"???? ?????? ??? ?????? ?? ??? ??????","nameEnglish":"Abdul Mohsin bin Abdulaziz Airport","isActive":true,"lastUpdated":null,"code":"Y","portId":67,"sectors":null},{"id":10,"nameArabic":"???? ?????? ??????? ?? ????","nameEnglish":"International Arrival Terminal on Yanbo","isActive":true,"lastUpdated":null,"code":"TR3","portId":67,"sectors":null},{"id":11,"nameArabic":"?????? 1","nameEnglish":"TERMINAL 1","isActive":true,"lastUpdated":null,"code":"T1","portId":50,"sectors":null},{"id":2,"nameArabic":"??? ?????? ????????","nameEnglish":"Jeddah South Terminal","isActive":true,"lastUpdated":"2020-10-15T12:35:51Z","code":"S","portId":50,"sectors":null},{"id":3,"nameArabic":"??? ?????? ????????","nameEnglish":"Jeddah North Terminal","isActive":true,"lastUpdated":"2020-10-15T12:35:51Z","code":"N","portId":50,"sectors":null},{"id":5,"nameArabic":"??????? ?????? ???????","nameEnglish":"Madinah Intarnational Terminal","isActive":true,"lastUpdated":"2020-10-15T12:35:51Z","code":"I","portId":51,"sectors":null},{"id":4,"nameArabic":"???? ?????? ???????","nameEnglish":"Madinah Hajj Terminal","isActive":true,"lastUpdated":"2020-12-15T10:56:54Z","code":"H","portId":51,"sectors":null}]}" contains "content". @29-09-2022 17:22:56.0814 PM
[ReportManager] Successfully created attachment "Validation Test Data - Expected Value" @29-09-2022 17:22:56.0815 PM
[ReportManager] Successfully created attachment "Validation Test Data - Actual Value" @29-09-2022 17:22:56.0816 PM
[ReportManager] Get response jsonvalue "content". @29-09-2022 17:22:56.0817 PM
[ReportManager] Assertion Passed: Check that content object is not null. @29-09-2022 17:22:56.0817 PM
[ReportManager] Successfully created attachment "Validation Test Data - Expected Value" @29-09-2022 17:22:56.0817 PM
[ReportManager] Successfully created attachment "Validation Test Data - Actual Value" @29-09-2022 17:22:56.0819 PM
[ReportManager] File Action "DoesFileExist" successfully performed. With the following test data "File Path: "Lookups_terminals_schema.json"". @29-09-2022 17:22:56.0819 PM
[ReportManager] File Action "DoesFileExist" successfully performed. With the following test data "File Path: "src/test/resources/testDataFiles/Lookups_terminals_schema.json"". @29-09-2022 17:22:56.0819 PM
[ReportManager] File Action "GetAbsolutePath" successfully performed. With the following test data "Relative Folder Path: "src/test/resources/testDataFiles/Lookups_terminals_schema.json"". @29-09-2022 17:22:56.0819 PM
[ReportManager] File Action "DoesFileExist" successfully performed. With the following test data "File Path: "C:\eclipse-workspace\MyProjects\TASystemsAPIs\src\test\resources\testDataFiles\Lookups_terminals_schema.json"". @29-09-2022 17:22:56.0840 PM
[ReportManager] File Action "GetAbsolutePath" successfully performed. With the following test data "Relative Folder Path: "C:\eclipse-workspace\MyProjects\TASystemsAPIs\src\test\resources\testDataFiles\Lookups_terminals_schema.json"". @29-09-2022 17:22:56.0841 PM
[ReportManager] File Action "ReadFromFile" successfully performed. With the following test data "File Path: "C:\eclipse-workspace\MyProjects\TASystemsAPIs\src\test\resources\testDataFiles\Lookups_terminals_schema.json"". @29-09-2022 17:22:56.0841 PM
[ReportManager] Assertion Passed: The API response schema matches that in this file "src/test/resources/testDataFiles/Lookups_terminals_schema.json". @29-09-2022 17:22:56.0842 PM
[ReportManager] Successfully created attachment "Validation Test Data - Expected JSON Value" @29-09-2022 17:22:56.0843 PM
[ReportManager] Successfully created attachment "Validation Test Data - Actual JSON Value" @29-09-2022 17:22:56.0844 PM
[ReportManager] Verification Passed: "543" is greater than or equal to "1.1". @29-09-2022 17:22:56.0845 PM
[ReportManager] Verification Passed: "543" is less than or equal to "10000". @29-09-2022 17:22:56.0847 PM
[ReportManager] Setting discrete logging to: "true" @29-09-2022 17:22:57.0514 PM
[ReportManager] Response status code: "200", status line: "HTTP/1.1 200 " @29-09-2022 17:22:57.0514 PM
[ReportManager] Assertion Passed: Evaluating the actual response status code against the expected one... @29-09-2022 17:22:57.0515 PM
[ReportManager] Setting discrete logging to: "false" @29-09-2022 17:22:57.0515 PM
[ReportManager] Perform request "GET | Target Status Code: 200 | Service URL: https://api-demo.np.transporticonline.com/steeringcompanies/v1/lookups/terminals | Content Type: */* | Response Time: 666ms". @29-09-2022 17:22:57.0525 PM
[ReportManager] Successfully created attachment "API Request - Specifications" @29-09-2022 17:22:57.0525 PM
[ReportManager] Successfully created attachment "API Response - JSON Body" @29-09-2022 17:22:57.0526 PM
[ReportManager] Assertion Passed: "200" is equal to "200". @29-09-2022 17:22:57.0526 PM
[ReportManager] Verification Passed: "666" is greater than or equal to "1.1". @29-09-2022 17:22:57.0526 PM
[ReportManager] Verification Passed: "666" is less than or equal to "10000". @29-09-2022 17:22:57.0526 PM
[ReportManager] Assertion Passed: "{"page":0,"size":3,"totalPages":5,"totalElements":13,"content":[{"id":20,"nameArabic":"???? ????????","nameEnglish":"Departure Terminal","isActive":false,"lastUpdated":"2021-04-11T21:05:44Z","portId":51,"sectors":null},{"id":12,"nameArabic":"??????? - ???? ?????? ???? ???","nameEnglish":"","isActive":false,"lastUpdated":"2021-04-11T21:05:58Z","code":"","portId":51,"sectors":null},{"id":7,"nameArabic":"??????? ?????? ??????","nameEnglish":"Madinah Fast Track Terminal","isActive":false,"lastUpdated":"2021-04-11T21:06:12Z","code":"","portId":51,"sectors":null}]}" contains "content". @29-09-2022 17:22:57.0526 PM
[ReportManager] Successfully created attachment "Validation Test Data - Expected Value" @29-09-2022 17:22:57.0526 PM
[ReportManager] Successfully created attachment "Validation Test Data - Actual Value" @29-09-2022 17:22:57.0527 PM
[ReportManager] Get response jsonvalue "content". @29-09-2022 17:22:57.0528 PM
[ReportManager] Assertion Passed: Check that content object is not null. @29-09-2022 17:22:57.0528 PM
[ReportManager] Successfully created attachment "Validation Test Data - Expected Value" @29-09-2022 17:22:57.0529 PM
[ReportManager] Successfully created attachment "Validation Test Data - Actual Value" @29-09-2022 17:22:57.0529 PM
[ReportManager] File Action "DoesFileExist" successfully performed. With the following test data "File Path: "Lookups_terminals_schema.json"". @29-09-2022 17:22:57.0529 PM
[ReportManager] File Action "DoesFileExist" successfully performed. With the following test data "File Path: "src/test/resources/testDataFiles/Lookups_terminals_schema.json"". @29-09-2022 17:22:57.0529 PM
[ReportManager] File Action "GetAbsolutePath" successfully performed. With the following test data "Relative Folder Path: "src/test/resources/testDataFiles/Lookups_terminals_schema.json"". @29-09-2022 17:22:57.0529 PM
[ReportManager] File Action "DoesFileExist" successfully performed. With the following test data "File Path: "C:\eclipse-workspace\MyProjects\TASystemsAPIs\src\test\resources\testDataFiles\Lookups_terminals_schema.json"". @29-09-2022 17:22:57.0533 PM
[ReportManager] File Action "GetAbsolutePath" successfully performed. With the following test data "Relative Folder Path: "C:\eclipse-workspace\MyProjects\TASystemsAPIs\src\test\resources\testDataFiles\Lookups_terminals_schema.json"". @29-09-2022 17:22:57.0533 PM
[ReportManager] File Action "ReadFromFile" successfully performed. With the following test data "File Path: "C:\eclipse-workspace\MyProjects\TASystemsAPIs\src\test\resources\testDataFiles\Lookups_terminals_schema.json"". @29-09-2022 17:22:57.0533 PM
[ReportManager] Assertion Passed: The API response schema matches that in this file "src/test/resources/testDataFiles/Lookups_terminals_schema.json". @29-09-2022 17:22:57.0534 PM
[ReportManager] Successfully created attachment "Validation Test Data - Expected JSON Value" @29-09-2022 17:22:57.0536 PM
[ReportManager] Successfully created attachment "Validation Test Data - Actual JSON Value" @29-09-2022 17:22:57.0536 PM
[ReportManager] Verification Passed: "666" is greater than or equal to "1.1". @29-09-2022 17:22:57.0536 PM
[ReportManager] Verification Passed: "666" is less than or equal to "10000". @29-09-2022 17:22:57.0536 PM