{"uuid":"40fa1368-d3eb-4803-b5c0-e0ed30d7bf08","historyId":"2c9bf8dd5b9ce2ddce75a09f984901a9","fullName":"SteeringCompanyAPI_TestCases.Test_Lookups_Cases.Valid_GET_all_cities_Lookups_by_Qry_Rq_TC","labels":[{"name":"package","value":"SteeringCompanyAPI_TestCases.Test_Lookups_Cases"},{"name":"testClass","value":"SteeringCompanyAPI_TestCases.Test_Lookups_Cases"},{"name":"testMethod","value":"Valid_GET_all_cities_Lookups_by_Qry_Rq_TC"},{"name":"parentSuite","value":"Suite"},{"name":"suite","value":"Test"},{"name":"subSuite","value":"SteeringCompanyAPI_TestCases.Test_Lookups_Cases"},{"name":"host","value":"TW-1056"},{"name":"thread","value":"16708@TW-1056.main(1)"},{"name":"framework","value":"testng"},{"name":"language","value":"java"}],"links":[],"name":"TC002 - Perform Get all cities API by parameters Qry with valid user name and password and return with token","status":"passed","statusDetails":{"known":false,"muted":false,"flaky":false},"stage":"finished","steps":[{"name":"Loaded Test Data: \"src/test/resources/testDataFiles/SteeringCompanyAPI_TestData/SteeringCompanyAPI_TestData.xlsx\".","status":"passed","stage":"finished","steps":[],"attachments":[{"name":"Test Data - Excel","source":"3ffc1a5b-50f3-4aeb-95f7-f11277a40777-attachment.xlsx","type":"application/vnd.openxmlformats-officedocument.spreadsheetml.sheet"}],"parameters":[{"name":"logText","value":"Loaded Test Data: \"src/test/resources/testDataFiles/SteeringCompanyAPI_TestData/SteeringCompanyAPI_TestData.xlsx\"."},{"name":"attachments","value":"[[Test Data, Excel, java.io.FileInputStream@13e4287c]]"}],"start":1673803711800,"stop":1673803711802},{"name":"Assertion Passed: Evaluating the actual response status code against the expected one...","status":"passed","stage":"finished","steps":[],"attachments":[],"parameters":[{"name":"customLog","value":"Assertion Passed: Evaluating the actual response status code against the expected one..."},{"name":"stepLog","value":"Assertion \"ValidateComparativeRelation\" PASSED. Expected \"200\" and Actual \"200\". Comparison Type \"EQUALS\". Validation Type \"POSITIVE\"."},{"name":"attachments","value":"null"}],"start":1673803712516,"stop":1673803712516},{"name":"Perform request \"POST | Target Status Code: 200 | Service URL: https://auth-demo.np.transporticonline.com/auth/realms/tic/protocol/openid-connect/token | Content Type: application/x-www-form-urlencoded | Response Time: 705ms\".","status":"passed","stage":"finished","steps":[],"attachments":[{"name":"API Request - Specifications","source":"c3db0e58-8694-4214-ac2d-60427505bb39-attachment"},{"name":"API Request - Body","source":"ab62bb84-a8dc-4644-9605-1b4656ba5f91-attachment"},{"name":"API Response - JSON Body","source":"1b0b9db4-a058-4dcd-ae96-bb25f7e3b216-attachment.json","type":"text/json"}],"parameters":[{"name":"logText","value":"Perform request \"POST | Target Status Code: 200 | Service URL: https://auth-demo.np.transporticonline.com/auth/realms/tic/protocol/openid-connect/token | Content Type: application/x-www-form-urlencoded | Response Time: 705ms\"."},{"name":"attachments","value":"[[API Request, Specifications, Headers:\r\n_______________\r\n\r\nContent-Type=application/x-www-form-urlencoded\r\n\r\n], [API Request, Body, java.io.ByteArrayInputStream@2dfb8de3], null, [API Response, JSON Body, java.io.ByteArrayInputStream@3ea4cfe0]]"}],"start":1673803712529,"stop":1673803712532},{"name":"Assertion Passed: Check Response Status Code is 200 and it is valid.","status":"passed","stage":"finished","steps":[],"attachments":[],"parameters":[{"name":"customLog","value":"Assertion Passed: Check Response Status Code is 200 and it is valid."},{"name":"stepLog","value":"Assertion \"ValidateComparativeRelation\" PASSED. Expected \"200\" and Actual \"200\". Comparison Type \"EQUALS\". Validation Type \"POSITIVE\"."},{"name":"attachments","value":"null"}],"start":1673803712532,"stop":1673803712532},{"name":"Loaded Test Data: \"src/test/resources/testDataFiles/SteeringCompanyAPI_TestData/SteeringCompanyAPI_TestData.xlsx\".","status":"passed","stage":"finished","steps":[],"attachments":[{"name":"Test Data - Excel","source":"d8c5d69d-980b-4768-8ddc-7bffc747ad6c-attachment.xlsx","type":"application/vnd.openxmlformats-officedocument.spreadsheetml.sheet"}],"parameters":[{"name":"logText","value":"Loaded Test Data: \"src/test/resources/testDataFiles/SteeringCompanyAPI_TestData/SteeringCompanyAPI_TestData.xlsx\"."},{"name":"attachments","value":"[[Test Data, Excel, java.io.FileInputStream@216d5c70]]"}],"start":1673803712576,"stop":1673803712577},{"name":"Assertion Passed: Evaluating the actual response status code against the expected one...","status":"passed","stage":"finished","steps":[],"attachments":[],"parameters":[{"name":"customLog","value":"Assertion Passed: Evaluating the actual response status code against the expected one..."},{"name":"stepLog","value":"Assertion \"ValidateComparativeRelation\" PASSED. Expected \"200\" and Actual \"200\". Comparison Type \"EQUALS\". Validation Type \"POSITIVE\"."},{"name":"attachments","value":"null"}],"start":1673803713191,"stop":1673803713191},{"name":"Perform request \"GET | Target Status Code: 200 | Service URL: https://api-demo.np.transporticonline.com/steeringcompanies/v1/lookups/cities | Content Type: */* | Response Time: 585ms\".","status":"passed","stage":"finished","steps":[],"attachments":[{"name":"API Request - Specifications","source":"bc7c383f-3ebb-4434-b790-79a9b3f7214b-attachment"},{"name":"API Response - JSON Body","source":"457747fd-b221-44e1-978f-31c7850fbc11-attachment.json","type":"text/json"}],"parameters":[{"name":"logText","value":"Perform request \"GET | Target Status Code: 200 | Service URL: https://api-demo.np.transporticonline.com/steeringcompanies/v1/lookups/cities | Content Type: */* | Response Time: 585ms\"."},{"name":"attachments","value":"[[API Request, Specifications, Headers:\r\n_______________\r\n\r\nAuthorization=Bearer eyJhbGciOiJSUzI1NiIsInR5cCIgOiAiSldUIiwia2lkIiA6ICJjck9ORDFNdFVPVWhzS2Mtb0ppVFFmb0o1d1l4REF6Y3k0ZjNYZ0dveGdZIn0.eyJleHAiOjE2NzM4MjUzMTIsImlhdCI6MTY3MzgwMzcxMiwianRpIjoiZWRjZjllMmItN2ZhOS00YzgyLThiMzMtZTViMjIyYzM4MTNlIiwiaXNzIjoiaHR0cHM6Ly9hdXRoLWRlbW8ubnAudHJhbnNwb3J0aWNvbmxpbmUuY29tL2F1dGgvcmVhbG1zL3RpYyIsImF1ZCI6ImFjY291bnQiLCJzdWIiOiI0ZTk3NmQ0NC1iM2ZkLTRjYTktODk1Ny0wYWJiODUwNzNhNzQiLCJ0eXAiOiJCZWFyZXIiLCJhenAiOiJ0aWMtYXBpIiwic2Vzc2lvbl9zdGF0ZSI6IjI1MjI2OWU4LTM2YWItNGMxMC1hNzRlLTE3ZmMxNWY2YWNiMCIsImFjciI6IjEiLCJhbGxvd2VkLW9yaWdpbnMiOlsiaHR0cHM6Ly9hcGktZGV2Lm5wLnRyYW5zcG9ydGljb25saW5lLmNvbSJdLCJyZWFsbV9hY2Nlc3MiOnsicm9sZXMiOlsib2ZmbGluZV9hY2Nlc3MiLCJkZWZhdWx0LXJvbGVzLXRpYyIsInVtYV9hdXRob3JpemF0aW9uIiwidXNlciJdfSwicmVzb3VyY2VfYWNjZXNzIjp7ImFjY291bnQiOnsicm9sZXMiOlsibWFuYWdlLWFjY291bnQiLCJtYW5hZ2UtYWNjb3VudC1saW5rcyIsInZpZXctcHJvZmlsZSJdfX0sInNjb3BlIjoiZW1haWwgcHJvZmlsZSIsInNpZCI6IjI1MjI2OWU4LTM2YWItNGMxMC1hNzRlLTE3ZmMxNWY2YWNiMCIsImVtYWlsX3ZlcmlmaWVkIjpmYWxzZSwicHJlZmVycmVkX3VzZXJuYW1lIjoidG9raGkiLCJ0Y0lkIjoiMzE5OTU3In0.dgNz6kwulwNsh8OwzSxKKTpSNzc3cp7qwk8DmBHikqIP7SZTejQL9i1K23jkUbxJn5R4EsQNhemyf9XpQyY8FV8VLT2kpdi4OUXwLmXb3D3BZzQBXZIeOjDeyWZWOhhRu0SLg1AAvJewFHT_tVopkKVPnJD1WCJr0ZUoqNi0WuRPukFgmDlXWQIJiIrpVakxAtGEuVHUBVbssr6bssZyr-Nr3zdbTvoUhw9k11_Txe_OYE-xwVaE7sG3IJXJtEoNbFkTj-VP1ZHprSHSAK9vHmAayTcIKFWUgmmRVOtE07P0WnWzr2bmOpRS0lMLtbteUavb3PXa1GR3jF-O8eyWsw\r\nContent-Type=*/*\r\n\r\nQuery Parameters:\r\n_______________\r\n\r\nsize=3\r\npage=0\r\n], null, [API Response, JSON Body, java.io.ByteArrayInputStream@1efc6a80]]"}],"start":1673803713203,"stop":1673803713205},{"name":"Assertion Passed: \"200\" is equal to \"200\".","status":"passed","stage":"finished","steps":[],"attachments":[],"parameters":[{"name":"customLog","value":"Assertion Passed: \"200\" is equal to \"200\"."},{"name":"stepLog","value":"Assertion \"ValidateComparativeRelation\" PASSED. Expected \"200\" and Actual \"200\". Comparison Type \"EQUALS\". Validation Type \"POSITIVE\"."},{"name":"attachments","value":"null"}],"start":1673803713206,"stop":1673803713206},{"name":"Verification Passed: \"585\" is greater than or equal to \"1.1\".","status":"passed","stage":"finished","steps":[],"attachments":[],"parameters":[{"name":"customLog","value":"Verification Passed: \"585\" is greater than or equal to \"1.1\"."},{"name":"stepLog","value":"Verification \"ValidateComparativeRelation\" PASSED. Expected \"1.1\" and Actual \"585\". Comparison Type \"GREATER_THAN_OR_EQUALS\". Validation Type \"POSITIVE\"."},{"name":"attachments","value":"null"}],"start":1673803713206,"stop":1673803713206},{"name":"Verification Passed: \"585\" is less than or equal to \"10000\".","status":"passed","stage":"finished","steps":[],"attachments":[],"parameters":[{"name":"customLog","value":"Verification Passed: \"585\" is less than or equal to \"10000\"."},{"name":"stepLog","value":"Verification \"ValidateComparativeRelation\" PASSED. Expected \"10000\" and Actual \"585\". Comparison Type \"LESS_THAN_OR_EQUALS\". Validation Type \"POSITIVE\"."},{"name":"attachments","value":"null"}],"start":1673803713206,"stop":1673803713206},{"name":"Assertion Passed: \"{\"page\":0,\"size\":3,\"totalPages\":237,\"totalElements\":709,\"content\":[{\"id\":36,\"nameArabic\":\"كوالالمبور\",\"nameEnglish\":\"Kuala Lumpur\",\"isActive\":true,\"lastUpdated\":\"2022-06-02T01:21:49Z\",\"sectors\":null},{\"id\":849,\"nameArabic\":\"سولنجين\",\"nameEnglish\":\"Solngen\",\"isActive\":true,\"lastUpdated\":\"2022-06-02T01:37:02Z\",\"sectors\":null},{\"id\":1006,\"nameArabic\":\"بشكشكي\",\"nameEnglish\":\"FRUNZE\",\"isActive\":true,\"lastUpdated\":\"2022-06-02T00:20:05Z\",\"sectors\":null}]}\" contains \"content\".","status":"passed","stage":"finished","steps":[],"attachments":[],"parameters":[{"name":"customLog","value":"Assertion Passed: \"{\"page\":0,\"size\":3,\"totalPages\":237,\"totalElements\":709,\"content\":[{\"id\":36,\"nameArabic\":\"كوالالمبور\",\"nameEnglish\":\"Kuala Lumpur\",\"isActive\":true,\"lastUpdated\":\"2022-06-02T01:21:49Z\",\"sectors\":null},{\"id\":849,\"nameArabic\":\"سولنجين\",\"nameEnglish\":\"Solngen\",\"isActive\":true,\"lastUpdated\":\"2022-06-02T01:37:02Z\",\"sectors\":null},{\"id\":1006,\"nameArabic\":\"بشكشكي\",\"nameEnglish\":\"FRUNZE\",\"isActive\":true,\"lastUpdated\":\"2022-06-02T00:20:05Z\",\"sectors\":null}]}\" contains \"content\"."},{"name":"stepLog","value":"Assertion \"ValidateEquals\" PASSED. Expected \"content\" and Actual \"{\"page\":0,\"size\":3,\"totalPages\":237,\"totalElements\":709,\"content\":[{\"id\":36,\"nameArabic\":\"كوالالمبور\",\"nameEnglish\":\"Kuala Lumpur\",\"isActive\":true,\"lastUpdated\":\"2022-06-02T01:21:49Z\",\"sectors\":null},{\"id\":849,\"nameArabic\":\"سولنجين\",\"nameEnglish\":\"Solngen\",\"isActive\":true,\"lastUpdated\":\"2022-06-02T01:37:02Z\",\"sectors\":null},{\"id\":1006,\"nameArabic\":\"بشكشكي\",\"nameEnglish\":\"FRUNZE\",\"isActive\":true,\"lastUpdated\":\"2022-06-02T00:20:05Z\",\"sectors\":null}]}\". Comparison Type \"CONTAINS\". Validation Type \"POSITIVE\"."},{"name":"attachments","value":"null"}],"start":1673803713206,"stop":1673803713207},{"name":"Assertion Passed: Check that content object is not null.","status":"passed","stage":"finished","steps":[],"attachments":[],"parameters":[{"name":"customLog","value":"Assertion Passed: Check that content object is not null."},{"name":"stepLog","value":"Assertion \"ValidateEquals\" PASSED. Expected \"null\" and Actual \"[{\"id\":36,\"nameArabic\":\"كوالالمبور\",\"nameEnglish\":\"Kuala Lumpur\",\"isActive\":true,\"lastUpdated\":\"2022-06-02T01:21:49Z\",\"sectors\":null},{\"id\":849,\"nameArabic\":\"سولنجين\",\"nameEnglish\":\"Solngen\",\"isActive\":true,\"lastUpdated\":\"2022-06-02T01:37:02Z\",\"sectors\":null},{\"id\":1006,\"nameArabic\":\"بشكشكي\",\"nameEnglish\":\"FRUNZE\",\"isActive\":true,\"lastUpdated\":\"2022-06-02T00:20:05Z\",\"sectors\":null}]\". Comparison Type \"EQUALS\". Validation Type \"NEGATIVE\"."},{"name":"attachments","value":"null"}],"start":1673803713208,"stop":1673803713208},{"name":"Assertion Passed: The API response schema matches that in this file \"src/test/resources/testDataFiles/Schemas/Lookups_cities_schema.json\".","status":"passed","stage":"finished","steps":[],"attachments":[{"name":"Validation Test Data - Expected JSON Value","source":"512d47bc-7fe0-4613-a7e3-727d6625ed36-attachment.json","type":"text/json"},{"name":"Validation Test Data - Actual JSON Value","source":"e840cbd0-fc7c-49f8-ab5e-167593a83874-attachment.json","type":"text/json"}],"parameters":[{"name":"customLog","value":"Assertion Passed: The API response schema matches that in this file \"src/test/resources/testDataFiles/Schemas/Lookups_cities_schema.json\"."},{"name":"stepLog","value":"Assertion \"ValidateResponseFileSchema\" PASSED. Expected \"Response data should match the JSON File in this path 'C:\\eclipse-workspace\\MyProjects\\TASystemsAPIs\\src\\test\\resources\\testDataFiles\\Schemas\\Lookups_cities_schema.json'\" and Actual \"TRUE\". Comparison Type \"EQUALS\". Validation Type \"POSITIVE\"."},{"name":"attachments","value":"[[Validation Test Data, Expected JSON Value, java.io.ByteArrayInputStream@47bea04a], [Validation Test Data, Actual JSON Value, java.io.ByteArrayInputStream@3aeb6a57]]"}],"start":1673803713221,"stop":1673803713224}],"attachments":[{"name":"SHAFT Engine Logs - Current Method log: Valid_GET_all_cities_Lookups_by_Qry_Rq_TC","source":"80deb715-481a-4f32-8c2e-448b9953fab4-attachment.txt","type":"text/plain"}],"parameters":[],"start":1673803711749,"stop":1673803713226}