{"uuid":"48743320-6ef0-407c-a347-8ecf58d66093","historyId":"3cb044767af6f7737554bcc7b11e9225","fullName":"SteeringCompanyAPI_TestCases.Test_Commissions_Cases.Valid_GET_all_OTAs_by_Qry_Rq_TC","labels":[{"name":"package","value":"SteeringCompanyAPI_TestCases.Test_Commissions_Cases"},{"name":"testClass","value":"SteeringCompanyAPI_TestCases.Test_Commissions_Cases"},{"name":"testMethod","value":"Valid_GET_all_OTAs_by_Qry_Rq_TC"},{"name":"parentSuite","value":"Suite"},{"name":"suite","value":"Test"},{"name":"subSuite","value":"SteeringCompanyAPI_TestCases.Test_Commissions_Cases"},{"name":"host","value":"TW-1056"},{"name":"thread","value":"12248@TW-1056.main(1)"},{"name":"framework","value":"testng"},{"name":"language","value":"java"},{"name":"story","value":"Retrieving All Active OTAs with Pagination"},{"name":"severity","value":"critical"}],"links":[],"name":"TC017  -OTAs- Perform Get all OTAs API with pagination with valid user name and password","status":"passed","statusDetails":{"known":false,"muted":false,"flaky":false},"stage":"finished","steps":[{"name":"Loaded Test Data: \"src/test/resources/testDataFiles/SteeringCompanyAPI_TestData/SteeringCompanyAPI_TestData.xlsx\".","status":"passed","stage":"finished","steps":[],"attachments":[{"name":"Test Data - Excel","source":"8d278b7c-49c9-4198-9410-d0ef1a6cee19-attachment.xlsx","type":"application/vnd.openxmlformats-officedocument.spreadsheetml.sheet"}],"parameters":[{"name":"logText","value":"Loaded Test Data: \"src/test/resources/testDataFiles/SteeringCompanyAPI_TestData/SteeringCompanyAPI_TestData.xlsx\"."},{"name":"attachments","value":"[[Test Data, Excel, java.io.FileInputStream@76ec9702]]"}],"start":1675774574410,"stop":1675774574414},{"name":"Assertion Passed: Evaluating the actual response status code against the expected one...","status":"passed","stage":"finished","steps":[],"attachments":[],"parameters":[{"name":"customLog","value":"Assertion Passed: Evaluating the actual response status code against the expected one..."},{"name":"stepLog","value":"Assertion \"ValidateComparativeRelation\" PASSED. Expected \"200\" and Actual \"200\". Comparison Type \"EQUALS\". Validation Type \"POSITIVE\"."},{"name":"attachments","value":"null"}],"start":1675774575065,"stop":1675774575065},{"name":"Perform request \"POST | Target Status Code: 200 | Service URL: https://auth-demo.np.transporticonline.com/auth/realms/tic/protocol/openid-connect/token | Content Type: application/x-www-form-urlencoded | Response Time: 646ms\".","status":"passed","stage":"finished","steps":[],"attachments":[{"name":"API Request - Specifications","source":"879cfa82-5be7-4fb7-9a31-bdb0442ca0f7-attachment"},{"name":"API Request - Body","source":"b500fdaf-7969-41ba-9f3a-68e7989a02be-attachment"},{"name":"API Response - JSON Body","source":"4c92bdb9-bc2a-4670-9ff3-fdef7310a6ec-attachment.json","type":"text/json"}],"parameters":[{"name":"logText","value":"Perform request \"POST | Target Status Code: 200 | Service URL: https://auth-demo.np.transporticonline.com/auth/realms/tic/protocol/openid-connect/token | Content Type: application/x-www-form-urlencoded | Response Time: 646ms\"."},{"name":"attachments","value":"[[API Request, Specifications, Headers:\r\n_______________\r\n\r\nContent-Type=application/x-www-form-urlencoded\r\n\r\n], [API Request, Body, java.io.ByteArrayInputStream@854d6db], null, [API Response, JSON Body, java.io.ByteArrayInputStream@37156bfb]]"}],"start":1675774575084,"stop":1675774575086},{"name":"Assertion Passed: Check Response Status Code is 200 and it is valid.","status":"passed","stage":"finished","steps":[],"attachments":[],"parameters":[{"name":"customLog","value":"Assertion Passed: Check Response Status Code is 200 and it is valid."},{"name":"stepLog","value":"Assertion \"ValidateComparativeRelation\" PASSED. Expected \"200\" and Actual \"200\". Comparison Type \"EQUALS\". Validation Type \"POSITIVE\"."},{"name":"attachments","value":"null"}],"start":1675774575086,"stop":1675774575086},{"name":"Loaded Test Data: \"src/test/resources/testDataFiles/SteeringCompanyAPI_TestData/SteeringCompanyAPI_TestData.xlsx\".","status":"passed","stage":"finished","steps":[],"attachments":[{"name":"Test Data - Excel","source":"16da0799-6e43-41bc-a14c-e9362aab5c9f-attachment.xlsx","type":"application/vnd.openxmlformats-officedocument.spreadsheetml.sheet"}],"parameters":[{"name":"logText","value":"Loaded Test Data: \"src/test/resources/testDataFiles/SteeringCompanyAPI_TestData/SteeringCompanyAPI_TestData.xlsx\"."},{"name":"attachments","value":"[[Test Data, Excel, java.io.FileInputStream@1199a91]]"}],"start":1675774575132,"stop":1675774575133},{"name":"Loaded Test Data: \"src/test/resources/testDataFiles/SteeringCompanyAPI_TestData/SteeringCompanyAPI_TestData.xlsx\".","status":"passed","stage":"finished","steps":[],"attachments":[{"name":"Test Data - Excel","source":"d097604e-bab8-4185-852e-260be8ebb77b-attachment.xlsx","type":"application/vnd.openxmlformats-officedocument.spreadsheetml.sheet"}],"parameters":[{"name":"logText","value":"Loaded Test Data: \"src/test/resources/testDataFiles/SteeringCompanyAPI_TestData/SteeringCompanyAPI_TestData.xlsx\"."},{"name":"attachments","value":"[[Test Data, Excel, java.io.FileInputStream@165742b1]]"}],"start":1675774575188,"stop":1675774575190},{"name":"Loaded Test Data: \"src/test/resources/testDataFiles/SteeringCompanyAPI_TestData/SteeringCompanyAPI_TestData.xlsx\".","status":"passed","stage":"finished","steps":[],"attachments":[{"name":"Test Data - Excel","source":"e8fa6424-9c53-4000-be40-a66d2bb0519e-attachment.xlsx","type":"application/vnd.openxmlformats-officedocument.spreadsheetml.sheet"}],"parameters":[{"name":"logText","value":"Loaded Test Data: \"src/test/resources/testDataFiles/SteeringCompanyAPI_TestData/SteeringCompanyAPI_TestData.xlsx\"."},{"name":"attachments","value":"[[Test Data, Excel, java.io.FileInputStream@38534024]]"}],"start":1675774575236,"stop":1675774575238},{"name":"Assertion Passed: Evaluating the actual response status code against the expected one...","status":"passed","stage":"finished","steps":[],"attachments":[],"parameters":[{"name":"customLog","value":"Assertion Passed: Evaluating the actual response status code against the expected one..."},{"name":"stepLog","value":"Assertion \"ValidateComparativeRelation\" PASSED. Expected \"200\" and Actual \"200\". Comparison Type \"EQUALS\". Validation Type \"POSITIVE\"."},{"name":"attachments","value":"null"}],"start":1675774575746,"stop":1675774575747},{"name":"Perform request \"GET | Target Status Code: 200 | Service URL: https://api-demo.np.transporticonline.com/steeringcompanies/v1/otas | Content Type: */* | Response Time: 504ms\".","status":"passed","stage":"finished","steps":[],"attachments":[{"name":"API Request - Specifications","source":"df8e65ec-8e30-4c10-a214-62120e436e04-attachment"},{"name":"API Response - JSON Body","source":"dca61186-a5ce-4455-9ccf-14bd7721af8c-attachment.json","type":"text/json"}],"parameters":[{"name":"logText","value":"Perform request \"GET | Target Status Code: 200 | Service URL: https://api-demo.np.transporticonline.com/steeringcompanies/v1/otas | Content Type: */* | Response Time: 504ms\"."},{"name":"attachments","value":"[[API Request, Specifications, Headers:\r\n_______________\r\n\r\nAuthorization=Bearer eyJhbGciOiJSUzI1NiIsInR5cCIgOiAiSldUIiwia2lkIiA6ICJjck9ORDFNdFVPVWhzS2Mtb0ppVFFmb0o1d1l4REF6Y3k0ZjNYZ0dveGdZIn0.eyJleHAiOjE2NzU3OTYxNzIsImlhdCI6MTY3NTc3NDU3MiwianRpIjoiYWMyODA3Y2ItMjQ1Yi00ZDA4LTg5YTUtMmViZDZmZDU4MzVhIiwiaXNzIjoiaHR0cHM6Ly9hdXRoLWRlbW8ubnAudHJhbnNwb3J0aWNvbmxpbmUuY29tL2F1dGgvcmVhbG1zL3RpYyIsImF1ZCI6ImFjY291bnQiLCJzdWIiOiI0ZTk3NmQ0NC1iM2ZkLTRjYTktODk1Ny0wYWJiODUwNzNhNzQiLCJ0eXAiOiJCZWFyZXIiLCJhenAiOiJ0aWMtYXBpIiwic2Vzc2lvbl9zdGF0ZSI6IjhiYzRjNmE0LTdiNWItNGU1ZC05OWNiLTc4MTc2OWFjOWMzZSIsImFjciI6IjEiLCJhbGxvd2VkLW9yaWdpbnMiOlsiaHR0cHM6Ly9hcGktZGV2Lm5wLnRyYW5zcG9ydGljb25saW5lLmNvbSJdLCJyZWFsbV9hY2Nlc3MiOnsicm9sZXMiOlsib2ZmbGluZV9hY2Nlc3MiLCJkZWZhdWx0LXJvbGVzLXRpYyIsInVtYV9hdXRob3JpemF0aW9uIiwidXNlciJdfSwicmVzb3VyY2VfYWNjZXNzIjp7ImFjY291bnQiOnsicm9sZXMiOlsibWFuYWdlLWFjY291bnQiLCJtYW5hZ2UtYWNjb3VudC1saW5rcyIsInZpZXctcHJvZmlsZSJdfX0sInNjb3BlIjoiZW1haWwgcHJvZmlsZSIsInNpZCI6IjhiYzRjNmE0LTdiNWItNGU1ZC05OWNiLTc4MTc2OWFjOWMzZSIsImVtYWlsX3ZlcmlmaWVkIjpmYWxzZSwicHJlZmVycmVkX3VzZXJuYW1lIjoidG9raGkiLCJ0Y0lkIjoiMzE5OTU3In0.Tqr_fyMuLhqttc_60ubLEVwwx8LlWah_fYZ4lapZiBGIIEgKCyelmaIKIGjNatc89hdM9nBF9Zmtr5pisTwSgfAce-LY9jNQXyRH7I-quYdZ1xQ2SXAwqkgHHhao4l9uM7MdwTaqtu15mZbxiRF9okBfj7-sd9G8Yuvz81S1Jt-PKDUNJjBYyANBv8Yt3qvdmnDmdw0Hq1QbWYFMEjw-639st1ThT3jBV0dtLiBBqeGRW-T9A3kUTUfgNB4zB-cQYCehyEaTs_j3xVFvB8ug7leDnzB_7fvizll_FSKMFNC0hG5GMJf8AU0kY0sGvUT8mGQ2RBYX6Bhi3NIInoJCRQ\r\nContent-Type=*/*\r\n\r\nQuery Parameters:\r\n_______________\r\n\r\nsize=test\r\npage=test\r\n], null, [API Response, JSON Body, java.io.ByteArrayInputStream@5a5e0a85]]"}],"start":1675774575770,"stop":1675774575773},{"name":"Assertion Passed: \"200\" is equal to \"200\".","status":"passed","stage":"finished","steps":[],"attachments":[],"parameters":[{"name":"customLog","value":"Assertion Passed: \"200\" is equal to \"200\"."},{"name":"stepLog","value":"Assertion \"ValidateComparativeRelation\" PASSED. Expected \"200\" and Actual \"200\". Comparison Type \"EQUALS\". Validation Type \"POSITIVE\"."},{"name":"attachments","value":"null"}],"start":1675774575773,"stop":1675774575773},{"name":"Verification Passed: \"504\" is greater than or equal to \"1.1\".","status":"passed","stage":"finished","steps":[],"attachments":[],"parameters":[{"name":"customLog","value":"Verification Passed: \"504\" is greater than or equal to \"1.1\"."},{"name":"stepLog","value":"Verification \"ValidateComparativeRelation\" PASSED. Expected \"1.1\" and Actual \"504\". Comparison Type \"GREATER_THAN_OR_EQUALS\". Validation Type \"POSITIVE\"."},{"name":"attachments","value":"null"}],"start":1675774575774,"stop":1675774575774},{"name":"Verification Passed: \"504\" is less than or equal to \"10000\".","status":"passed","stage":"finished","steps":[],"attachments":[],"parameters":[{"name":"customLog","value":"Verification Passed: \"504\" is less than or equal to \"10000\"."},{"name":"stepLog","value":"Verification \"ValidateComparativeRelation\" PASSED. Expected \"10000\" and Actual \"504\". Comparison Type \"LESS_THAN_OR_EQUALS\". Validation Type \"POSITIVE\"."},{"name":"attachments","value":"null"}],"start":1675774575774,"stop":1675774575774},{"name":"Assertion Passed: \"{\"page\":0,\"size\":20,\"totalPages\":3,\"totalElements\":47,\"content\":[{\"otaCode\":\"agoda\",\"nameArabic\":\"-\",\"nameEnglish\":\"agoda_old\",\"isActive\":true,\"isEnable\":true},{\"otaCode\":\"Mawasim\",\"nameArabic\":\"-\",\"nameEnglish\":\"MawasimOTA\",\"isActive\":true,\"isEnable\":true},{\"otaCode\":\"SaudiaHolidaysOTA\",\"nameArabic\":\"-\",\"nameEnglish\":\"SaudiaHolidaysOTA\",\"isActive\":true,\"isEnable\":true},{\"otaCode\":\"HotelGate\",\"nameArabic\":\"-\",\"nameEnglish\":\"HotelGate\",\"isActive\":true,\"isEnable\":false},{\"otaCode\":\"AlrajhiOTA\",\"nameArabic\":\"-\",\"nameEnglish\":\"AlrajhiOTA\",\"isActive\":true,\"isEnable\":true},{\"otaCode\":\"ELAF_OTA\",\"nameArabic\":\"-\",\"nameEnglish\":\"Elaf Travel and Tourism\",\"isActive\":true,\"isEnable\":true},{\"otaCode\":\"WebBedsOTA\",\"nameArabic\":\"-\",\"nameEnglish\":\"WebBeds OTA\",\"isActive\":true,\"isEnable\":true},{\"otaCode\":\"U1470\",\"nameArabic\":\"-\",\"nameEnglish\":\"UmrahOTA\",\"isActive\":true,\"isEnable\":true},{\"otaCode\":\"MyHotel\",\"nameArabic\":\"-\",\"nameEnglish\":\"MyHotel\",\"isActive\":true,\"isEnable\":true},{\"otaCode\":\"Taqneen\",\"nameArabic\":\"-\",\"nameEnglish\":\"Taqneen\",\"isActive\":true,\"isEnable\":true},{\"otaCode\":\"ZamzamOTA\",\"nameArabic\":\"-\",\"nameEnglish\":\"ZamzamOTA\",\"isActive\":true,\"isEnable\":false},{\"otaCode\":\"HuloolAl-Umrah\",\"nameArabic\":\"-\",\"nameEnglish\":\"Hulool Al-Umrah\",\"isActive\":true,\"isEnable\":true},{\"otaCode\":\"UmrahGate\",\"nameArabic\":\"-\",\"nameEnglish\":\"UmrahGate\",\"isActive\":true,\"isEnable\":true},{\"otaCode\":\"WaytoUmrah\",\"nameArabic\":\"-\",\"nameEnglish\":\"WaytoUmrah\",\"isActive\":true,\"isEnable\":true},{\"otaCode\":\"HUBOOKING\",\"nameArabic\":\"-\",\"nameEnglish\":\"HUBOOKING\",\"isActive\":true,\"isEnable\":true},{\"otaCode\":\"MahtatAlAlamOTA\",\"nameArabic\":\"-\",\"nameEnglish\":\"Mahtat Al-Alam\",\"isActive\":true,\"isEnable\":true},{\"otaCode\":\"Akbar\",\"nameArabic\":\"-\",\"nameEnglish\":\"AKBAR TRAVELS OF INDIA PVT LTD\",\"isActive\":true,\"isEnable\":true},{\"otaCode\":\"AnjumOTA\",\"nameArabic\":\"-\",\"nameEnglish\":\"Anjum OTA\",\"isActive\":true,\"isEnable\":false},{\"otaCode\":\"Saudi2GoOTA\",\"nameArabic\":\"-\",\"nameEnglish\":\"Saudi2GoOTA\",\"isActive\":true,\"isEnable\":true},{\"otaCode\":\"EasyUmrahOTA\",\"nameArabic\":\"-\",\"nameEnglish\":\"EasyUmrahOTA\",\"isActive\":true,\"isEnable\":true}]}\" contains \"content\".","status":"passed","stage":"finished","steps":[],"attachments":[{"name":"Validation Test Data - Expected Value","source":"656ce00f-f286-480e-aaec-06fded783050-attachment"},{"name":"Validation Test Data - Actual Value","source":"b80566da-3234-477f-81c8-342a73970285-attachment"}],"parameters":[{"name":"customLog","value":"Assertion Passed: \"{\"page\":0,\"size\":20,\"totalPages\":3,\"totalElements\":47,\"content\":[{\"otaCode\":\"agoda\",\"nameArabic\":\"-\",\"nameEnglish\":\"agoda_old\",\"isActive\":true,\"isEnable\":true},{\"otaCode\":\"Mawasim\",\"nameArabic\":\"-\",\"nameEnglish\":\"MawasimOTA\",\"isActive\":true,\"isEnable\":true},{\"otaCode\":\"SaudiaHolidaysOTA\",\"nameArabic\":\"-\",\"nameEnglish\":\"SaudiaHolidaysOTA\",\"isActive\":true,\"isEnable\":true},{\"otaCode\":\"HotelGate\",\"nameArabic\":\"-\",\"nameEnglish\":\"HotelGate\",\"isActive\":true,\"isEnable\":false},{\"otaCode\":\"AlrajhiOTA\",\"nameArabic\":\"-\",\"nameEnglish\":\"AlrajhiOTA\",\"isActive\":true,\"isEnable\":true},{\"otaCode\":\"ELAF_OTA\",\"nameArabic\":\"-\",\"nameEnglish\":\"Elaf Travel and Tourism\",\"isActive\":true,\"isEnable\":true},{\"otaCode\":\"WebBedsOTA\",\"nameArabic\":\"-\",\"nameEnglish\":\"WebBeds OTA\",\"isActive\":true,\"isEnable\":true},{\"otaCode\":\"U1470\",\"nameArabic\":\"-\",\"nameEnglish\":\"UmrahOTA\",\"isActive\":true,\"isEnable\":true},{\"otaCode\":\"MyHotel\",\"nameArabic\":\"-\",\"nameEnglish\":\"MyHotel\",\"isActive\":true,\"isEnable\":true},{\"otaCode\":\"Taqneen\",\"nameArabic\":\"-\",\"nameEnglish\":\"Taqneen\",\"isActive\":true,\"isEnable\":true},{\"otaCode\":\"ZamzamOTA\",\"nameArabic\":\"-\",\"nameEnglish\":\"ZamzamOTA\",\"isActive\":true,\"isEnable\":false},{\"otaCode\":\"HuloolAl-Umrah\",\"nameArabic\":\"-\",\"nameEnglish\":\"Hulool Al-Umrah\",\"isActive\":true,\"isEnable\":true},{\"otaCode\":\"UmrahGate\",\"nameArabic\":\"-\",\"nameEnglish\":\"UmrahGate\",\"isActive\":true,\"isEnable\":true},{\"otaCode\":\"WaytoUmrah\",\"nameArabic\":\"-\",\"nameEnglish\":\"WaytoUmrah\",\"isActive\":true,\"isEnable\":true},{\"otaCode\":\"HUBOOKING\",\"nameArabic\":\"-\",\"nameEnglish\":\"HUBOOKING\",\"isActive\":true,\"isEnable\":true},{\"otaCode\":\"MahtatAlAlamOTA\",\"nameArabic\":\"-\",\"nameEnglish\":\"Mahtat Al-Alam\",\"isActive\":true,\"isEnable\":true},{\"otaCode\":\"Akbar\",\"nameArabic\":\"-\",\"nameEnglish\":\"AKBAR TRAVELS OF INDIA PVT LTD\",\"isActive\":true,\"isEnable\":true},{\"otaCode\":\"AnjumOTA\",\"nameArabic\":\"-\",\"nameEnglish\":\"Anjum OTA\",\"isActive\":true,\"isEnable\":false},{\"otaCode\":\"Saudi2GoOTA\",\"nameArabic\":\"-\",\"nameEnglish\":\"Saudi2GoOTA\",\"isActive\":true,\"isEnable\":true},{\"otaCode\":\"EasyUmrahOTA\",\"nameArabic\":\"-\",\"nameEnglish\":\"EasyUmrahOTA\",\"isActive\":true,\"isEnable\":true}]}\" contains \"content\"."},{"name":"stepLog","value":"Assertion \"ValidateEquals\" PASSED. Expected and Actual values are attached. Comparison Type \"CONTAINS\". Validation Type \"POSITIVE\"."},{"name":"attachments","value":"[[Validation Test Data, Expected Value, content], [Validation Test Data, Actual Value, {\"page\":0,\"size\":20,\"totalPages\":3,\"totalElements\":47,\"content\":[{\"otaCode\":\"agoda\",\"nameArabic\":\"-\",\"nameEnglish\":\"agoda_old\",\"isActive\":true,\"isEnable\":true},{\"otaCode\":\"Mawasim\",\"nameArabic\":\"-\",\"nameEnglish\":\"MawasimOTA\",\"isActive\":true,\"isEnable\":true},{\"otaCode\":\"SaudiaHolidaysOTA\",\"nameArabic\":\"-\",\"nameEnglish\":\"SaudiaHolidaysOTA\",\"isActive\":true,\"isEnable\":true},{\"otaCode\":\"HotelGate\",\"nameArabic\":\"-\",\"nameEnglish\":\"HotelGate\",\"isActive\":true,\"isEnable\":false},{\"otaCode\":\"AlrajhiOTA\",\"nameArabic\":\"-\",\"nameEnglish\":\"AlrajhiOTA\",\"isActive\":true,\"isEnable\":true},{\"otaCode\":\"ELAF_OTA\",\"nameArabic\":\"-\",\"nameEnglish\":\"Elaf Travel and Tourism\",\"isActive\":true,\"isEnable\":true},{\"otaCode\":\"WebBedsOTA\",\"nameArabic\":\"-\",\"nameEnglish\":\"WebBeds OTA\",\"isActive\":true,\"isEnable\":true},{\"otaCode\":\"U1470\",\"nameArabic\":\"-\",\"nameEnglish\":\"UmrahOTA\",\"isActive\":true,\"isEnable\":true},{\"otaCode\":\"MyHotel\",\"nameArabic\":\"-\",\"nameEnglish\":\"MyHotel\",\"isActive\":true,\"isEnable\":true},{\"otaCode\":\"Taqneen\",\"nameArabic\":\"-\",\"nameEnglish\":\"Taqneen\",\"isActive\":true,\"isEnable\":true},{\"otaCode\":\"ZamzamOTA\",\"nameArabic\":\"-\",\"nameEnglish\":\"ZamzamOTA\",\"isActive\":true,\"isEnable\":false},{\"otaCode\":\"HuloolAl-Umrah\",\"nameArabic\":\"-\",\"nameEnglish\":\"Hulool Al-Umrah\",\"isActive\":true,\"isEnable\":true},{\"otaCode\":\"UmrahGate\",\"nameArabic\":\"-\",\"nameEnglish\":\"UmrahGate\",\"isActive\":true,\"isEnable\":true},{\"otaCode\":\"WaytoUmrah\",\"nameArabic\":\"-\",\"nameEnglish\":\"WaytoUmrah\",\"isActive\":true,\"isEnable\":true},{\"otaCode\":\"HUBOOKING\",\"nameArabic\":\"-\",\"nameEnglish\":\"HUBOOKING\",\"isActive\":true,\"isEnable\":true},{\"otaCode\":\"MahtatAlAlamOTA\",\"nameArabic\":\"-\",\"nameEnglish\":\"Mahtat Al-Alam\",\"isActive\":true,\"isEnable\":true},{\"otaCode\":\"Akbar\",\"nameArabic\":\"-\",\"nameEnglish\":\"AKBAR TRAVELS OF INDIA PVT LTD\",\"isActive\":true,\"isEnable\":true},{\"otaCode\":\"AnjumOTA\",\"nameArabic\":\"-\",\"nameEnglish\":\"Anjum OTA\",\"isActive\":true,\"isEnable\":false},{\"otaCode\":\"Saudi2GoOTA\",\"nameArabic\":\"-\",\"nameEnglish\":\"Saudi2GoOTA\",\"isActive\":true,\"isEnable\":true},{\"otaCode\":\"EasyUmrahOTA\",\"nameArabic\":\"-\",\"nameEnglish\":\"EasyUmrahOTA\",\"isActive\":true,\"isEnable\":true}]}]]"}],"start":1675774575774,"stop":1675774575780},{"name":"Assertion Passed: Check that content object is not null.","status":"passed","stage":"finished","steps":[],"attachments":[{"name":"Validation Test Data - Expected Value","source":"01e8c239-09ab-4ebe-9f7f-10abe4eefe19-attachment"},{"name":"Validation Test Data - Actual Value","source":"3dd764c2-575e-4b72-901d-58f4734b514e-attachment"}],"parameters":[{"name":"customLog","value":"Assertion Passed: Check that content object is not null."},{"name":"stepLog","value":"Assertion \"ValidateEquals\" PASSED. Expected and Actual values are attached. Comparison Type \"EQUALS\". Validation Type \"NEGATIVE\"."},{"name":"attachments","value":"[[Validation Test Data, Expected Value, null], [Validation Test Data, Actual Value, [{\"otaCode\":\"agoda\",\"nameArabic\":\"-\",\"nameEnglish\":\"agoda_old\",\"isActive\":true,\"isEnable\":true},{\"otaCode\":\"Mawasim\",\"nameArabic\":\"-\",\"nameEnglish\":\"MawasimOTA\",\"isActive\":true,\"isEnable\":true},{\"otaCode\":\"SaudiaHolidaysOTA\",\"nameArabic\":\"-\",\"nameEnglish\":\"SaudiaHolidaysOTA\",\"isActive\":true,\"isEnable\":true},{\"otaCode\":\"HotelGate\",\"nameArabic\":\"-\",\"nameEnglish\":\"HotelGate\",\"isActive\":true,\"isEnable\":false},{\"otaCode\":\"AlrajhiOTA\",\"nameArabic\":\"-\",\"nameEnglish\":\"AlrajhiOTA\",\"isActive\":true,\"isEnable\":true},{\"otaCode\":\"ELAF_OTA\",\"nameArabic\":\"-\",\"nameEnglish\":\"Elaf Travel and Tourism\",\"isActive\":true,\"isEnable\":true},{\"otaCode\":\"WebBedsOTA\",\"nameArabic\":\"-\",\"nameEnglish\":\"WebBeds OTA\",\"isActive\":true,\"isEnable\":true},{\"otaCode\":\"U1470\",\"nameArabic\":\"-\",\"nameEnglish\":\"UmrahOTA\",\"isActive\":true,\"isEnable\":true},{\"otaCode\":\"MyHotel\",\"nameArabic\":\"-\",\"nameEnglish\":\"MyHotel\",\"isActive\":true,\"isEnable\":true},{\"otaCode\":\"Taqneen\",\"nameArabic\":\"-\",\"nameEnglish\":\"Taqneen\",\"isActive\":true,\"isEnable\":true},{\"otaCode\":\"ZamzamOTA\",\"nameArabic\":\"-\",\"nameEnglish\":\"ZamzamOTA\",\"isActive\":true,\"isEnable\":false},{\"otaCode\":\"HuloolAl-Umrah\",\"nameArabic\":\"-\",\"nameEnglish\":\"Hulool Al-Umrah\",\"isActive\":true,\"isEnable\":true},{\"otaCode\":\"UmrahGate\",\"nameArabic\":\"-\",\"nameEnglish\":\"UmrahGate\",\"isActive\":true,\"isEnable\":true},{\"otaCode\":\"WaytoUmrah\",\"nameArabic\":\"-\",\"nameEnglish\":\"WaytoUmrah\",\"isActive\":true,\"isEnable\":true},{\"otaCode\":\"HUBOOKING\",\"nameArabic\":\"-\",\"nameEnglish\":\"HUBOOKING\",\"isActive\":true,\"isEnable\":true},{\"otaCode\":\"MahtatAlAlamOTA\",\"nameArabic\":\"-\",\"nameEnglish\":\"Mahtat Al-Alam\",\"isActive\":true,\"isEnable\":true},{\"otaCode\":\"Akbar\",\"nameArabic\":\"-\",\"nameEnglish\":\"AKBAR TRAVELS OF INDIA PVT LTD\",\"isActive\":true,\"isEnable\":true},{\"otaCode\":\"AnjumOTA\",\"nameArabic\":\"-\",\"nameEnglish\":\"Anjum OTA\",\"isActive\":true,\"isEnable\":false},{\"otaCode\":\"Saudi2GoOTA\",\"nameArabic\":\"-\",\"nameEnglish\":\"Saudi2GoOTA\",\"isActive\":true,\"isEnable\":true},{\"otaCode\":\"EasyUmrahOTA\",\"nameArabic\":\"-\",\"nameEnglish\":\"EasyUmrahOTA\",\"isActive\":true,\"isEnable\":true}]]]"}],"start":1675774575784,"stop":1675774575786},{"name":"Assertion Passed: The API response schema matches that in this file \"src/test/resources/testDataFiles/Schemas/OTAs_schema.json\".","status":"passed","stage":"finished","steps":[],"attachments":[{"name":"Validation Test Data - Expected JSON Value","source":"e12919d2-9a21-4da7-be09-2ae41ba05046-attachment.json","type":"text/json"},{"name":"Validation Test Data - Actual JSON Value","source":"43b1f815-95cd-43e6-aaa9-fe7ce27f65a7-attachment.json","type":"text/json"}],"parameters":[{"name":"customLog","value":"Assertion Passed: The API response schema matches that in this file \"src/test/resources/testDataFiles/Schemas/OTAs_schema.json\"."},{"name":"stepLog","value":"Assertion \"ValidateResponseFileSchema\" PASSED. Expected \"Response data should match the JSON File in this path 'C:\\eclipse-workspace\\MyProjects\\TASystemsAPIs\\src\\test\\resources\\testDataFiles\\Schemas\\OTAs_schema.json'\" and Actual \"TRUE\". Comparison Type \"EQUALS\". Validation Type \"POSITIVE\"."},{"name":"attachments","value":"[[Validation Test Data, Expected JSON Value, java.io.ByteArrayInputStream@67ad47dd], [Validation Test Data, Actual JSON Value, java.io.ByteArrayInputStream@43a5e40c]]"}],"start":1675774575798,"stop":1675774575800}],"attachments":[{"name":"SHAFT Engine Logs - Current Method log: Valid_GET_all_OTAs_by_Qry_Rq_TC","source":"6d8a17d6-c310-47ea-a5a4-873decd5056f-attachment.txt","type":"text/plain"}],"parameters":[],"start":1675774574345,"stop":1675774575801}