{"uuid":"4a51b11c-3884-4f60-9b2c-50e4b1a6a343","historyId":"7653b5b2be0c5341c428857732852d7c","fullName":"SteeringCompanyAPI_TestCases.Test_PeriodProgramTemplate_Cases.Get_Valid_all_PeriodProgramTemplate_by_Qry_Rq_TC","labels":[{"name":"package","value":"SteeringCompanyAPI_TestCases.Test_PeriodProgramTemplate_Cases"},{"name":"testClass","value":"SteeringCompanyAPI_TestCases.Test_PeriodProgramTemplate_Cases"},{"name":"testMethod","value":"Get_Valid_all_PeriodProgramTemplate_by_Qry_Rq_TC"},{"name":"parentSuite","value":"Suite"},{"name":"suite","value":"Test"},{"name":"subSuite","value":"SteeringCompanyAPI_TestCases.Test_PeriodProgramTemplate_Cases"},{"name":"host","value":"TW-1056"},{"name":"thread","value":"12936@TW-1056.main(1)"},{"name":"framework","value":"testng"},{"name":"language","value":"java"},{"name":"story","value":"Retrieving All Active PeriodProgramTemplate with Pagination"},{"name":"severity","value":"critical"}],"links":[],"name":"TC002  -PeriodProgramTemplate-   Perform Get all PeriodProgramTemplate API with pagination with valid user name and password","status":"passed","statusDetails":{"known":false,"muted":false,"flaky":false},"stage":"finished","steps":[{"name":"Loaded Test Data: \"src/test/resources/testDataFiles/SteeringCompanyAPI_TestData/SteeringCompanyAPI_TestData.xlsx\".","status":"passed","stage":"finished","steps":[],"attachments":[{"name":"Test Data - Excel","source":"ef4824b9-0853-4a20-867a-b7924a4967ee-attachment.xlsx","type":"application/vnd.openxmlformats-officedocument.spreadsheetml.sheet"}],"parameters":[{"name":"logText","value":"Loaded Test Data: \"src/test/resources/testDataFiles/SteeringCompanyAPI_TestData/SteeringCompanyAPI_TestData.xlsx\"."},{"name":"attachments","value":"[[Test Data, Excel, java.io.FileInputStream@4d3c0cce]]"}],"start":1674642814082,"stop":1674642814083},{"name":"Assertion Passed: Evaluating the actual response status code against the expected one...","status":"passed","stage":"finished","steps":[],"attachments":[],"parameters":[{"name":"customLog","value":"Assertion Passed: Evaluating the actual response status code against the expected one..."},{"name":"stepLog","value":"Assertion \"ValidateComparativeRelation\" PASSED. Expected \"200\" and Actual \"200\". Comparison Type \"EQUALS\". Validation Type \"POSITIVE\"."},{"name":"attachments","value":"null"}],"start":1674642814625,"stop":1674642814625},{"name":"Perform request \"POST | Target Status Code: 200 | Service URL: https://auth-demo.np.transporticonline.com/auth/realms/tic/protocol/openid-connect/token | Content Type: application/x-www-form-urlencoded | Response Time: 539ms\".","status":"passed","stage":"finished","steps":[],"attachments":[{"name":"API Request - Specifications","source":"449afb05-9035-4931-b2e5-baf61c8ca4d1-attachment"},{"name":"API Request - Body","source":"f48622c9-5c0f-4144-9900-f2d3ed9f73ec-attachment"},{"name":"API Response - JSON Body","source":"917d6f43-6121-41d3-b742-008cfd12b0e7-attachment.json","type":"text/json"}],"parameters":[{"name":"logText","value":"Perform request \"POST | Target Status Code: 200 | Service URL: https://auth-demo.np.transporticonline.com/auth/realms/tic/protocol/openid-connect/token | Content Type: application/x-www-form-urlencoded | Response Time: 539ms\"."},{"name":"attachments","value":"[[API Request, Specifications, Headers:\r\n_______________\r\n\r\nContent-Type=application/x-www-form-urlencoded\r\n\r\n], [API Request, Body, java.io.ByteArrayInputStream@497133e2], null, [API Response, JSON Body, java.io.ByteArrayInputStream@61f6784c]]"}],"start":1674642814651,"stop":1674642814654},{"name":"Assertion Passed: Check Response Status Code is 200 and it is valid.","status":"passed","stage":"finished","steps":[],"attachments":[],"parameters":[{"name":"customLog","value":"Assertion Passed: Check Response Status Code is 200 and it is valid."},{"name":"stepLog","value":"Assertion \"ValidateComparativeRelation\" PASSED. Expected \"200\" and Actual \"200\". Comparison Type \"EQUALS\". Validation Type \"POSITIVE\"."},{"name":"attachments","value":"null"}],"start":1674642814654,"stop":1674642814654},{"name":"Loaded Test Data: \"src/test/resources/testDataFiles/SteeringCompanyAPI_TestData/SteeringCompanyAPI_TestData.xlsx\".","status":"passed","stage":"finished","steps":[],"attachments":[{"name":"Test Data - Excel","source":"78c9b09c-aaa1-48c5-ace0-e8ab9bfd68c1-attachment.xlsx","type":"application/vnd.openxmlformats-officedocument.spreadsheetml.sheet"}],"parameters":[{"name":"logText","value":"Loaded Test Data: \"src/test/resources/testDataFiles/SteeringCompanyAPI_TestData/SteeringCompanyAPI_TestData.xlsx\"."},{"name":"attachments","value":"[[Test Data, Excel, java.io.FileInputStream@594b41df]]"}],"start":1674642814700,"stop":1674642814702},{"name":"Assertion Passed: Evaluating the actual response status code against the expected one...","status":"passed","stage":"finished","steps":[],"attachments":[],"parameters":[{"name":"customLog","value":"Assertion Passed: Evaluating the actual response status code against the expected one..."},{"name":"stepLog","value":"Assertion \"ValidateComparativeRelation\" PASSED. Expected \"200\" and Actual \"200\". Comparison Type \"EQUALS\". Validation Type \"POSITIVE\"."},{"name":"attachments","value":"null"}],"start":1674642815211,"stop":1674642815211},{"name":"Perform request \"GET | Target Status Code: 200 | Service URL: https://api-demo.np.transporticonline.com/steeringcompanies/v1/periodProgramTemplates | Content Type: */* | Response Time: 505ms\".","status":"passed","stage":"finished","steps":[],"attachments":[{"name":"API Request - Specifications","source":"617cc6a8-5bd2-4b4e-82e2-c7eca9991f28-attachment"},{"name":"API Response - JSON Body","source":"b830353f-8702-414b-90f3-6a8427e499f2-attachment.json","type":"text/json"}],"parameters":[{"name":"logText","value":"Perform request \"GET | Target Status Code: 200 | Service URL: https://api-demo.np.transporticonline.com/steeringcompanies/v1/periodProgramTemplates | Content Type: */* | Response Time: 505ms\"."},{"name":"attachments","value":"[[API Request, Specifications, Headers:\r\n_______________\r\n\r\nAuthorization=Bearer eyJhbGciOiJSUzI1NiIsInR5cCIgOiAiSldUIiwia2lkIiA6ICJjck9ORDFNdFVPVWhzS2Mtb0ppVFFmb0o1d1l4REF6Y3k0ZjNYZ0dveGdZIn0.eyJleHAiOjE2NzQ2NjQ0MTIsImlhdCI6MTY3NDY0MjgxMiwianRpIjoiMTU5NDJmOWMtNmZmZS00MTUyLWExNzctNzE0NmZkOWZkN2Q5IiwiaXNzIjoiaHR0cHM6Ly9hdXRoLWRlbW8ubnAudHJhbnNwb3J0aWNvbmxpbmUuY29tL2F1dGgvcmVhbG1zL3RpYyIsImF1ZCI6ImFjY291bnQiLCJzdWIiOiI0ZTk3NmQ0NC1iM2ZkLTRjYTktODk1Ny0wYWJiODUwNzNhNzQiLCJ0eXAiOiJCZWFyZXIiLCJhenAiOiJ0aWMtYXBpIiwic2Vzc2lvbl9zdGF0ZSI6IjdkNmY4MTI2LWM2NjQtNDU2Yi04NzIzLTlmMGI5MTU4YjhmMyIsImFjciI6IjEiLCJhbGxvd2VkLW9yaWdpbnMiOlsiaHR0cHM6Ly9hcGktZGV2Lm5wLnRyYW5zcG9ydGljb25saW5lLmNvbSJdLCJyZWFsbV9hY2Nlc3MiOnsicm9sZXMiOlsib2ZmbGluZV9hY2Nlc3MiLCJkZWZhdWx0LXJvbGVzLXRpYyIsInVtYV9hdXRob3JpemF0aW9uIiwidXNlciJdfSwicmVzb3VyY2VfYWNjZXNzIjp7ImFjY291bnQiOnsicm9sZXMiOlsibWFuYWdlLWFjY291bnQiLCJtYW5hZ2UtYWNjb3VudC1saW5rcyIsInZpZXctcHJvZmlsZSJdfX0sInNjb3BlIjoiZW1haWwgcHJvZmlsZSIsInNpZCI6IjdkNmY4MTI2LWM2NjQtNDU2Yi04NzIzLTlmMGI5MTU4YjhmMyIsImVtYWlsX3ZlcmlmaWVkIjpmYWxzZSwicHJlZmVycmVkX3VzZXJuYW1lIjoidG9raGkiLCJ0Y0lkIjoiMzE5OTU3In0.h8rhCRKQRI7_SQT0XwN_UzoSe-_I2Jl6pMm6UEJNT66S3NxouSQXR9_1prD7nlMER-cxuV9u3UVT_tHxyfKfP_bt1I82cOaFmmtvvyW_a8yKE6HYOkUep0q3gagSlNlBbCUVHSn36yeGyqbsNQ6LO4y6eGI8fSVa_8Bmz-8IzZqHo2wgmrO2MkxQsg88EKI5WsYXWCaRt1J8qP8ZD05dgPFtUpmhwEWLpNv5Z9NhsoBDqnzS1iIzCGJtQNw2bDC9HIq0r6aHXenyH55e3-1TaSes7I6zrVDZtN88PzNxb8ns4heS2ZqdNV4L4o9BPOpTWCNUVP_6XTe_Wd5SYJ9zTQ\r\nContent-Type=*/*\r\n\r\nQuery Parameters:\r\n_______________\r\n\r\nsize=1\r\npage=1\r\n], null, [API Response, JSON Body, java.io.ByteArrayInputStream@2c9a4791]]"}],"start":1674642815249,"stop":1674642815255},{"name":"Assertion Passed: \"200\" is equal to \"200\".","status":"passed","stage":"finished","steps":[],"attachments":[],"parameters":[{"name":"customLog","value":"Assertion Passed: \"200\" is equal to \"200\"."},{"name":"stepLog","value":"Assertion \"ValidateComparativeRelation\" PASSED. Expected \"200\" and Actual \"200\". Comparison Type \"EQUALS\". Validation Type \"POSITIVE\"."},{"name":"attachments","value":"null"}],"start":1674642815255,"stop":1674642815255},{"name":"Verification Passed: \"505\" is greater than or equal to \"1.1\".","status":"passed","stage":"finished","steps":[],"attachments":[],"parameters":[{"name":"customLog","value":"Verification Passed: \"505\" is greater than or equal to \"1.1\"."},{"name":"stepLog","value":"Verification \"ValidateComparativeRelation\" PASSED. Expected \"1.1\" and Actual \"505\". Comparison Type \"GREATER_THAN_OR_EQUALS\". Validation Type \"POSITIVE\"."},{"name":"attachments","value":"null"}],"start":1674642815256,"stop":1674642815256},{"name":"Verification Passed: \"505\" is less than or equal to \"10000\".","status":"passed","stage":"finished","steps":[],"attachments":[],"parameters":[{"name":"customLog","value":"Verification Passed: \"505\" is less than or equal to \"10000\"."},{"name":"stepLog","value":"Verification \"ValidateComparativeRelation\" PASSED. Expected \"10000\" and Actual \"505\". Comparison Type \"LESS_THAN_OR_EQUALS\". Validation Type \"POSITIVE\"."},{"name":"attachments","value":"null"}],"start":1674642815256,"stop":1674642815256},{"name":"Assertion Passed: \"{\"page\":1,\"size\":1,\"totalPages\":93,\"totalElements\":93,\"content\":[{\"id\":214,\"seasonType\":\"umrah\",\"saleSystem\":\"GDS\",\"programType\":\"Routes\",\"programMechanism\":\"reservations\",\"routeId\":60,\"season\":1444,\"vehicleTypeId\":4,\"vehicleCategoryId\":2,\"minimumModelYear\":2010,\"maximumModelYear\":2022,\"minimumVehiclePricePer\":1200,\"minimumSeat\":5,\"maximumSeat\":9,\"templatePeriodStartDate\":\"2022-09-05\",\"templatePeriodEndDate\":\"2022-09-12\",\"templatePeriodMaximumQuota\":100,\"isActive\":true}]}\" contains \"content\".","status":"passed","stage":"finished","steps":[],"attachments":[],"parameters":[{"name":"customLog","value":"Assertion Passed: \"{\"page\":1,\"size\":1,\"totalPages\":93,\"totalElements\":93,\"content\":[{\"id\":214,\"seasonType\":\"umrah\",\"saleSystem\":\"GDS\",\"programType\":\"Routes\",\"programMechanism\":\"reservations\",\"routeId\":60,\"season\":1444,\"vehicleTypeId\":4,\"vehicleCategoryId\":2,\"minimumModelYear\":2010,\"maximumModelYear\":2022,\"minimumVehiclePricePer\":1200,\"minimumSeat\":5,\"maximumSeat\":9,\"templatePeriodStartDate\":\"2022-09-05\",\"templatePeriodEndDate\":\"2022-09-12\",\"templatePeriodMaximumQuota\":100,\"isActive\":true}]}\" contains \"content\"."},{"name":"stepLog","value":"Assertion \"ValidateEquals\" PASSED. Expected \"content\" and Actual \"{\"page\":1,\"size\":1,\"totalPages\":93,\"totalElements\":93,\"content\":[{\"id\":214,\"seasonType\":\"umrah\",\"saleSystem\":\"GDS\",\"programType\":\"Routes\",\"programMechanism\":\"reservations\",\"routeId\":60,\"season\":1444,\"vehicleTypeId\":4,\"vehicleCategoryId\":2,\"minimumModelYear\":2010,\"maximumModelYear\":2022,\"minimumVehiclePricePer\":1200,\"minimumSeat\":5,\"maximumSeat\":9,\"templatePeriodStartDate\":\"2022-09-05\",\"templatePeriodEndDate\":\"2022-09-12\",\"templatePeriodMaximumQuota\":100,\"isActive\":true}]}\". Comparison Type \"CONTAINS\". Validation Type \"POSITIVE\"."},{"name":"attachments","value":"null"}],"start":1674642815256,"stop":1674642815257},{"name":"Assertion Passed: Check that content object is not null.","status":"passed","stage":"finished","steps":[],"attachments":[],"parameters":[{"name":"customLog","value":"Assertion Passed: Check that content object is not null."},{"name":"stepLog","value":"Assertion \"ValidateEquals\" PASSED. Expected \"null\" and Actual \"[{\"id\":214,\"seasonType\":\"umrah\",\"saleSystem\":\"GDS\",\"programType\":\"Routes\",\"programMechanism\":\"reservations\",\"routeId\":60,\"season\":1444,\"vehicleTypeId\":4,\"vehicleCategoryId\":2,\"minimumModelYear\":2010,\"maximumModelYear\":2022,\"minimumVehiclePricePer\":1200,\"minimumSeat\":5,\"maximumSeat\":9,\"templatePeriodStartDate\":\"2022-09-05\",\"templatePeriodEndDate\":\"2022-09-12\",\"templatePeriodMaximumQuota\":100,\"isActive\":true}]\". Comparison Type \"EQUALS\". Validation Type \"NEGATIVE\"."},{"name":"attachments","value":"null"}],"start":1674642815259,"stop":1674642815260},{"name":"Assertion Passed: The API response schema matches that in this file \"src/test/resources/testDataFiles/Schemas/PeriodProgramTemplates_schema.json\".","status":"passed","stage":"finished","steps":[],"attachments":[{"name":"Validation Test Data - Expected JSON Value","source":"c71726dd-bba6-4101-82be-cbb9a251053d-attachment.json","type":"text/json"},{"name":"Validation Test Data - Actual JSON Value","source":"b9966c70-6392-44ec-89cb-3b6e965a973c-attachment.json","type":"text/json"}],"parameters":[{"name":"customLog","value":"Assertion Passed: The API response schema matches that in this file \"src/test/resources/testDataFiles/Schemas/PeriodProgramTemplates_schema.json\"."},{"name":"stepLog","value":"Assertion \"ValidateResponseFileSchema\" PASSED. Expected \"Response data should match the JSON File in this path 'C:\\eclipse-workspace\\MyProjects\\TASystemsAPIs\\src\\test\\resources\\testDataFiles\\Schemas\\PeriodProgramTemplates_schema.json'\" and Actual \"TRUE\". Comparison Type \"EQUALS\". Validation Type \"POSITIVE\"."},{"name":"attachments","value":"[[Validation Test Data, Expected JSON Value, java.io.ByteArrayInputStream@3663806a], [Validation Test Data, Actual JSON Value, java.io.ByteArrayInputStream@48bbfff8]]"}],"start":1674642815276,"stop":1674642815281}],"attachments":[{"name":"SHAFT Engine Logs - Current Method log: Get_Valid_all_PeriodProgramTemplate_by_Qry_Rq_TC","source":"d87f632c-5952-4832-98c7-989fe90070e8-attachment.txt","type":"text/plain"}],"parameters":[],"start":1674642814021,"stop":1674642815283}