
################################################################################################################################################
Starting Execution:	"3 out of 6" test cases in the current suite
Test Method:		"SteeringCompanyAPI_TestCases.Test_Policies_Cases.Valid_GET_all_cities_Lookups_Rq_TC"
Test Description:	"TC001 - Perform Get all Policies API with valid user name and password"
################################################################################################################################################
[ReportManager] File Action "DoesFileExist" successfully performed. With the following test data "File Path: "SteeringCompanyAPI_TestData/SteeringCompanyAPI_TestData.xlsx"". @02-01-2023 23:05:08.0321 PM
[ReportManager] Loaded Test Data: "src/test/resources/testDataFiles/SteeringCompanyAPI_TestData/SteeringCompanyAPI_TestData.xlsx". @02-01-2023 23:05:08.0361 PM
[ReportManager] Successfully created attachment "Test Data - Excel" @02-01-2023 23:05:08.0367 PM
[ReportManager] Response status code: "200", status line: "HTTP/1.1 200 OK" @02-01-2023 23:05:19.0055 PM
[ReportManager] Assertion Passed: Evaluating the actual response status code against the expected one... @02-01-2023 23:05:19.0055 PM
[ReportManager] Perform request "POST | Target Status Code: 200 | Service URL: https://auth-demo.np.transporticonline.com/auth/realms/tic/protocol/openid-connect/token | Content Type: application/x-www-form-urlencoded | Response Time: 10676ms". @02-01-2023 23:05:19.0078 PM
[ReportManager] Successfully created attachment "API Request - Specifications" @02-01-2023 23:05:19.0079 PM
[ReportManager] Successfully created attachment "API Request - Body" @02-01-2023 23:05:19.0079 PM
[ReportManager] Successfully created attachment "API Response - JSON Body" @02-01-2023 23:05:19.0088 PM
[ReportManager] Assertion Passed: Check Response Status Code is 200 and it is valid. @02-01-2023 23:05:19.0088 PM
[ReportManager] File Action "DoesFileExist" successfully performed. With the following test data "File Path: "SteeringCompanyAPI_TestData/SteeringCompanyAPI_TestData.xlsx"". @02-01-2023 23:05:19.0107 PM
[ReportManager] Loaded Test Data: "src/test/resources/testDataFiles/SteeringCompanyAPI_TestData/SteeringCompanyAPI_TestData.xlsx". @02-01-2023 23:05:19.0141 PM
[ReportManager] Successfully created attachment "Test Data - Excel" @02-01-2023 23:05:19.0143 PM
[ReportManager] Response status code: "200", status line: "HTTP/1.1 200 " @02-01-2023 23:05:24.0759 PM
[ReportManager] Assertion Passed: Evaluating the actual response status code against the expected one... @02-01-2023 23:05:24.0761 PM
[ReportManager] Perform request "GET | Target Status Code: 200 | Service URL: https://api-demo.np.transporticonline.com/steeringcompanies/v1/lookups/cities | Content Type: */* | Response Time: 5608ms". @02-01-2023 23:05:24.0810 PM
[ReportManager] Successfully created attachment "API Request - Specifications" @02-01-2023 23:05:24.0812 PM
[ReportManager] Successfully created attachment "API Response - JSON Body" @02-01-2023 23:05:24.0815 PM
[ReportManager] Assertion Passed: "200" is equal to "200". @02-01-2023 23:05:24.0816 PM
[ReportManager] Verification Passed: "5608" is greater than or equal to "1.1". @02-01-2023 23:05:24.0817 PM
[ReportManager] Verification Passed: "5608" is less than or equal to "10000". @02-01-2023 23:05:24.0817 PM
[ReportManager] Assertion Passed: "{"page":0,"size":20,"totalPages":36,"totalElements":709,"content":[{"id":36,"nameArabic":"??????????","nameEnglish":"Kuala Lumpur","isActive":true,"lastUpdated":"2022-06-02T01:21:49Z","sectors":null},{"id":849,"nameArabic":"???????","nameEnglish":"Solngen","isActive":true,"lastUpdated":"2022-06-02T01:37:02Z","sectors":null},{"id":1006,"nameArabic":"??????","nameEnglish":"FRUNZE","isActive":true,"lastUpdated":"2022-06-02T00:20:05Z","sectors":null},{"id":985,"nameArabic":"??????","nameEnglish":"KANDAHAR","isActive":true,"lastUpdated":"2022-06-02T00:25:20Z","sectors":null},{"id":736,"nameArabic":"?????","nameEnglish":"Tabrka","isActive":true,"lastUpdated":"2022-06-02T01:16:50Z","sectors":null},{"id":953,"nameArabic":"?????","nameEnglish":"Sohag","isActive":true,"lastUpdated":"2022-06-02T00:25:24Z","sectors":null},{"id":816,"nameArabic":"??????","nameEnglish":"Cochin","isActive":true,"lastUpdated":"2022-06-02T01:06:13Z","sectors":null},{"id":789,"nameArabic":"???? ????","nameEnglish":"Faisalabad","isActive":true,"lastUpdated":"2022-06-02T01:27:12Z","sectors":null},{"id":1013,"nameArabic":"?????","nameEnglish":"KAZAN","isActive":true,"lastUpdated":"2022-06-02T00:37:19Z","sectors":null},{"id":794,"nameArabic":"???????","nameEnglish":"KAYSERI","isActive":true,"lastUpdated":"2022-06-02T01:21:58Z","sectors":null},{"id":764,"nameArabic":"????","nameEnglish":"Tangier","isActive":true,"lastUpdated":"2022-06-02T01:27:13Z","sectors":null},{"id":780,"nameArabic":"??????","nameEnglish":"Shahyraz","isActive":true,"lastUpdated":"2022-06-02T00:37:28Z","sectors":null},{"id":712,"nameArabic":"?????","nameEnglish":"Tashkent","isActive":true,"lastUpdated":"2022-06-02T01:27:13Z","sectors":null},{"id":824,"nameArabic":"??????","nameEnglish":"Samarqand","isActive":true,"lastUpdated":"2022-06-02T00:37:28Z","sectors":null},{"id":993,"nameArabic":"?????","nameEnglish":"KRBI","isActive":true,"lastUpdated":"2022-06-02T01:22:03Z","sectors":null},{"id":820,"nameArabic":"???????","nameEnglish":"CALICUT","isActive":true,"lastUpdated":"2022-06-02T01:27:21Z","sectors":null},{"id":91,"nameArabic":"????","nameEnglish":"KANO","isActive":true,"lastUpdated":"2022-06-02T01:22:03Z","sectors":null},{"id":125,"nameArabic":"????","nameEnglish":"Kabul","isActive":true,"lastUpdated":"2022-06-02T00:42:58Z","sectors":null},{"id":34,"nameArabic":"?????","nameEnglish":"Vienna","isActive":true,"lastUpdated":"2022-06-02T00:42:59Z","sectors":null},{"id":67,"nameArabic":"?????","nameEnglish":"Sanaa","isActive":true,"lastUpdated":"2022-06-02T00:55:27Z","sectors":null}]}" contains "content". @02-01-2023 23:05:24.0818 PM
[ReportManager] Successfully created attachment "Validation Test Data - Expected Value" @02-01-2023 23:05:24.0820 PM
[ReportManager] Successfully created attachment "Validation Test Data - Actual Value" @02-01-2023 23:05:24.0822 PM
[ReportManager] Get response jsonvalue "content". @02-01-2023 23:05:24.0826 PM
[ReportManager] Assertion Passed: Check that content object is not null. @02-01-2023 23:05:24.0828 PM
[ReportManager] Successfully created attachment "Validation Test Data - Expected Value" @02-01-2023 23:05:24.0831 PM
[ReportManager] Successfully created attachment "Validation Test Data - Actual Value" @02-01-2023 23:05:24.0832 PM
[ReportManager] File Action "DoesFileExist" successfully performed. With the following test data "File Path: "Lookups_cities_schema.json"". @02-01-2023 23:05:24.0833 PM
[ReportManager] File Action "DoesFileExist" successfully performed. With the following test data "File Path: "src/test/resources/testDataFiles/Lookups_cities_schema.json"". @02-01-2023 23:05:24.0836 PM
[ReportManager] File Action "GetAbsolutePath" successfully performed. With the following test data "Relative Folder Path: "src/test/resources/testDataFiles/Lookups_cities_schema.json"". @02-01-2023 23:05:24.0837 PM