
################################################################################################################################################
Starting Execution:	"2 out of 14" test cases in the current suite
Test Method:		"SteeringCompanyAPI_TestCases.Test_Lookups_Cases.Valid_GET_all_cities_Lookups_by_Qry_Rq_TC"
Test Description:	"TC002 - Perform Get all cities API by parameters Qry with valid user name and password and return with token"
################################################################################################################################################
[ReportManager] File Action "DoesFileExist" successfully performed. With the following test data "File Path: "SteeringCompanyAPI_TestData/SteeringCompanyAPI_TestData.xlsx"". @05-01-2023 14:41:02.0205 PM
[ReportManager] Loaded Test Data: "src/test/resources/testDataFiles/SteeringCompanyAPI_TestData/SteeringCompanyAPI_TestData.xlsx". @05-01-2023 14:41:02.0259 PM
[ReportManager] Successfully created attachment "Test Data - Excel" @05-01-2023 14:41:02.0260 PM
[ReportManager] Response status code: "200", status line: "HTTP/1.1 200 OK" @05-01-2023 14:41:03.0133 PM
[ReportManager] Assertion Passed: Evaluating the actual response status code against the expected one... @05-01-2023 14:41:03.0134 PM
[ReportManager] Perform request "POST | Target Status Code: 200 | Service URL: https://auth-demo.np.transporticonline.com/auth/realms/tic/protocol/openid-connect/token | Content Type: application/x-www-form-urlencoded | Response Time: 862ms". @05-01-2023 14:41:03.0146 PM
[ReportManager] Successfully created attachment "API Request - Specifications" @05-01-2023 14:41:03.0147 PM
[ReportManager] Successfully created attachment "API Request - Body" @05-01-2023 14:41:03.0148 PM
[ReportManager] Successfully created attachment "API Response - JSON Body" @05-01-2023 14:41:03.0149 PM
[ReportManager] Assertion Passed: Check Response Status Code is 200 and it is valid. @05-01-2023 14:41:03.0150 PM
[ReportManager] File Action "DoesFileExist" successfully performed. With the following test data "File Path: "SteeringCompanyAPI_TestData/SteeringCompanyAPI_TestData.xlsx"". @05-01-2023 14:41:03.0160 PM
[ReportManager] Loaded Test Data: "src/test/resources/testDataFiles/SteeringCompanyAPI_TestData/SteeringCompanyAPI_TestData.xlsx". @05-01-2023 14:41:03.0186 PM
[ReportManager] Successfully created attachment "Test Data - Excel" @05-01-2023 14:41:03.0190 PM
[ReportManager] Response status code: "200", status line: "HTTP/1.1 200 " @05-01-2023 14:41:03.0973 PM
[ReportManager] Assertion Passed: Evaluating the actual response status code against the expected one... @05-01-2023 14:41:03.0974 PM
[ReportManager] Perform request "GET | Target Status Code: 200 | Service URL: https://api-demo.np.transporticonline.com/steeringcompanies/v1/lookups/cities | Content Type: */* | Response Time: 749ms". @05-01-2023 14:41:03.0987 PM
[ReportManager] Successfully created attachment "API Request - Specifications" @05-01-2023 14:41:03.0988 PM
[ReportManager] Successfully created attachment "API Response - JSON Body" @05-01-2023 14:41:03.0989 PM
[ReportManager] Assertion Passed: "200" is equal to "200". @05-01-2023 14:41:03.0989 PM
[ReportManager] Verification Passed: "749" is greater than or equal to "1.1". @05-01-2023 14:41:03.0989 PM
[ReportManager] Verification Passed: "749" is less than or equal to "10000". @05-01-2023 14:41:03.0989 PM
[ReportManager] Assertion Passed: "{"page":0,"size":3,"totalPages":237,"totalElements":709,"content":[{"id":36,"nameArabic":"??????????","nameEnglish":"Kuala Lumpur","isActive":true,"lastUpdated":"2022-06-02T01:21:49Z","sectors":null},{"id":849,"nameArabic":"???????","nameEnglish":"Solngen","isActive":true,"lastUpdated":"2022-06-02T01:37:02Z","sectors":null},{"id":1006,"nameArabic":"??????","nameEnglish":"FRUNZE","isActive":true,"lastUpdated":"2022-06-02T00:20:05Z","sectors":null}]}" contains "content". @05-01-2023 14:41:03.0990 PM
[ReportManager] Get response jsonvalue "content". @05-01-2023 14:41:03.0991 PM
[ReportManager] Assertion Passed: Check that content object is not null. @05-01-2023 14:41:03.0992 PM
[ReportManager] File Action "DoesFileExist" successfully performed. With the following test data "File Path: "Schemas/Lookups_cities_schema.json"". @05-01-2023 14:41:03.0993 PM
[ReportManager] File Action "DoesFileExist" successfully performed. With the following test data "File Path: "src/test/resources/testDataFiles/Schemas/Lookups_cities_schema.json"". @05-01-2023 14:41:03.0993 PM
[ReportManager] File Action "GetAbsolutePath" successfully performed. With the following test data "Relative Folder Path: "src/test/resources/testDataFiles/Schemas/Lookups_cities_schema.json"". @05-01-2023 14:41:03.0994 PM
[ReportManager] File Action "DoesFileExist" successfully performed. With the following test data "File Path: "C:\eclipse-workspace\MyProjects\TASystemsAPIs\src\test\resources\testDataFiles\Schemas\Lookups_cities_schema.json"". @05-01-2023 14:41:04.0003 PM
[ReportManager] File Action "GetAbsolutePath" successfully performed. With the following test data "Relative Folder Path: "C:\eclipse-workspace\MyProjects\TASystemsAPIs\src\test\resources\testDataFiles\Schemas\Lookups_cities_schema.json"". @05-01-2023 14:41:04.0003 PM
[ReportManager] File Action "ReadFile" successfully performed. With the following test data "File Path: "C:\eclipse-workspace\MyProjects\TASystemsAPIs\src\test\resources\testDataFiles\Schemas\Lookups_cities_schema.json"". @05-01-2023 14:41:04.0004 PM
[ReportManager] Assertion Passed: The API response schema matches that in this file "src/test/resources/testDataFiles/Schemas/Lookups_cities_schema.json". @05-01-2023 14:41:04.0005 PM
[ReportManager] Successfully created attachment "Validation Test Data - Expected JSON Value" @05-01-2023 14:41:04.0006 PM
[ReportManager] Successfully created attachment "Validation Test Data - Actual JSON Value" @05-01-2023 14:41:04.0008 PM