{"uuid":"505322d2-f5ea-4cc5-b763-1bce4d8571ad","historyId":"1ee66c37f44545e65a59a3dbc44247b","fullName":"SteeringCompanyAPI_TestCases.Test_Commissions_Cases.Valid_GET_all_Commissions_by_Qry_Rq_TC","labels":[{"name":"package","value":"SteeringCompanyAPI_TestCases.Test_Commissions_Cases"},{"name":"testClass","value":"SteeringCompanyAPI_TestCases.Test_Commissions_Cases"},{"name":"testMethod","value":"Valid_GET_all_Commissions_by_Qry_Rq_TC"},{"name":"parentSuite","value":"Suite"},{"name":"suite","value":"Test"},{"name":"subSuite","value":"SteeringCompanyAPI_TestCases.Test_Commissions_Cases"},{"name":"host","value":"TW-1056"},{"name":"thread","value":"15616@TW-1056.main(1)"},{"name":"framework","value":"testng"},{"name":"language","value":"java"},{"name":"story","value":"Retrieving All Active Commission with Pagination"},{"name":"severity","value":"critical"}],"links":[],"name":"TC002  -Commission- Perform Get all Commissions API with pagination with valid user name and password","status":"passed","statusDetails":{"known":false,"muted":false,"flaky":false},"stage":"finished","steps":[{"name":"Loaded Test Data: \"src/test/resources/testDataFiles/SteeringCompanyAPI_TestData/SteeringCompanyAPI_TestData.xlsx\".","status":"passed","stage":"finished","steps":[],"attachments":[{"name":"Test Data - Excel","source":"c83c7236-a9ca-4233-9c04-7b213b3aa709-attachment.xlsx","type":"application/vnd.openxmlformats-officedocument.spreadsheetml.sheet"}],"parameters":[{"name":"logText","value":"Loaded Test Data: \"src/test/resources/testDataFiles/SteeringCompanyAPI_TestData/SteeringCompanyAPI_TestData.xlsx\"."},{"name":"attachments","value":"[[Test Data, Excel, java.io.FileInputStream@22f04ab3]]"}],"start":1677582978841,"stop":1677582978843},{"name":"Assertion Passed: Evaluating the actual response status code against the expected one...","status":"passed","stage":"finished","steps":[],"attachments":[],"parameters":[{"name":"customLog","value":"Assertion Passed: Evaluating the actual response status code against the expected one..."},{"name":"stepLog","value":"Assertion \"ValidateComparativeRelation\" PASSED. Expected \"200\" and Actual \"200\". Comparison Type \"EQUALS\". Validation Type \"POSITIVE\"."},{"name":"attachments","value":"null"}],"start":1677582979503,"stop":1677582979504},{"name":"Perform request \"POST | Target Status Code: 200 | Service URL: https://auth-demo.np.transporticonline.com/auth/realms/tic/protocol/openid-connect/token | Content Type: application/x-www-form-urlencoded | Response Time: 656ms\".","status":"passed","stage":"finished","steps":[],"attachments":[{"name":"API Request - Specifications","source":"658f3534-043b-49a1-8039-9eb7892d4753-attachment"},{"name":"API Request - Body","source":"efae8e75-6c25-47b4-bb05-7b1bac8f747b-attachment"},{"name":"API Response - JSON Body","source":"df11c1a5-b719-475d-8b7e-19e939953e99-attachment.json","type":"text/json"}],"parameters":[{"name":"logText","value":"Perform request \"POST | Target Status Code: 200 | Service URL: https://auth-demo.np.transporticonline.com/auth/realms/tic/protocol/openid-connect/token | Content Type: application/x-www-form-urlencoded | Response Time: 656ms\"."},{"name":"attachments","value":"[[API Request, Specifications, Headers:\r\n_______________\r\n\r\nContent-Type=application/x-www-form-urlencoded\r\n\r\n], [API Request, Body, java.io.ByteArrayInputStream@21f77c80], null, [API Response, JSON Body, java.io.ByteArrayInputStream@32ea52d]]"}],"start":1677582979529,"stop":1677582979532},{"name":"Assertion Passed: Check Response Status Code is 200 and it is valid.","status":"passed","stage":"finished","steps":[],"attachments":[],"parameters":[{"name":"customLog","value":"Assertion Passed: Check Response Status Code is 200 and it is valid."},{"name":"stepLog","value":"Assertion \"ValidateComparativeRelation\" PASSED. Expected \"200\" and Actual \"200\". Comparison Type \"EQUALS\". Validation Type \"POSITIVE\"."},{"name":"attachments","value":"null"}],"start":1677582979532,"stop":1677582979532},{"name":"Loaded Test Data: \"src/test/resources/testDataFiles/SteeringCompanyAPI_TestData/SteeringCompanyAPI_TestData.xlsx\".","status":"passed","stage":"finished","steps":[],"attachments":[{"name":"Test Data - Excel","source":"b0ddb646-c3d4-4322-99ee-aee716754795-attachment.xlsx","type":"application/vnd.openxmlformats-officedocument.spreadsheetml.sheet"}],"parameters":[{"name":"logText","value":"Loaded Test Data: \"src/test/resources/testDataFiles/SteeringCompanyAPI_TestData/SteeringCompanyAPI_TestData.xlsx\"."},{"name":"attachments","value":"[[Test Data, Excel, java.io.FileInputStream@2860427c]]"}],"start":1677582979604,"stop":1677582979605},{"name":"Assertion Passed: Evaluating the actual response status code against the expected one...","status":"passed","stage":"finished","steps":[],"attachments":[],"parameters":[{"name":"customLog","value":"Assertion Passed: Evaluating the actual response status code against the expected one..."},{"name":"stepLog","value":"Assertion \"ValidateComparativeRelation\" PASSED. Expected \"200\" and Actual \"200\". Comparison Type \"EQUALS\". Validation Type \"POSITIVE\"."},{"name":"attachments","value":"null"}],"start":1677582980127,"stop":1677582980127},{"name":"Perform request \"GET | Target Status Code: 200 | Service URL: https://api-demo.np.transporticonline.com/steeringcompanies/v1/commissions | Content Type: */* | Response Time: 514ms\".","status":"passed","stage":"finished","steps":[],"attachments":[{"name":"API Request - Specifications","source":"7757cdac-26ad-447b-a280-507ff3888d68-attachment"},{"name":"API Response - JSON Body","source":"ee36c998-79ba-4c04-a3d2-cdb77dbee5a6-attachment.json","type":"text/json"}],"parameters":[{"name":"logText","value":"Perform request \"GET | Target Status Code: 200 | Service URL: https://api-demo.np.transporticonline.com/steeringcompanies/v1/commissions | Content Type: */* | Response Time: 514ms\"."},{"name":"attachments","value":"[[API Request, Specifications, Headers:\r\n_______________\r\n\r\nAuthorization=Bearer eyJhbGciOiJSUzI1NiIsInR5cCIgOiAiSldUIiwia2lkIiA6ICJjck9ORDFNdFVPVWhzS2Mtb0ppVFFmb0o1d1l4REF6Y3k0ZjNYZ0dveGdZIn0.eyJleHAiOjE2Nzc2MDQ1NzksImlhdCI6MTY3NzU4Mjk3OSwianRpIjoiYTdmNjUxMjItNmEwOC00N2Y4LTk3YWQtZjc5ODY0OWM2NzU3IiwiaXNzIjoiaHR0cHM6Ly9hdXRoLWRlbW8ubnAudHJhbnNwb3J0aWNvbmxpbmUuY29tL2F1dGgvcmVhbG1zL3RpYyIsImF1ZCI6ImFjY291bnQiLCJzdWIiOiI0ZTk3NmQ0NC1iM2ZkLTRjYTktODk1Ny0wYWJiODUwNzNhNzQiLCJ0eXAiOiJCZWFyZXIiLCJhenAiOiJ0aWMtYXBpIiwic2Vzc2lvbl9zdGF0ZSI6IjZiMWEzNDY0LWYwNzItNGYyMS1iMjgyLTg2MzA0NWJhYzM0NiIsImFjciI6IjEiLCJhbGxvd2VkLW9yaWdpbnMiOlsiaHR0cHM6Ly9hcGktZGV2Lm5wLnRyYW5zcG9ydGljb25saW5lLmNvbSJdLCJyZWFsbV9hY2Nlc3MiOnsicm9sZXMiOlsib2ZmbGluZV9hY2Nlc3MiLCJkZWZhdWx0LXJvbGVzLXRpYyIsInVtYV9hdXRob3JpemF0aW9uIiwidXNlciJdfSwicmVzb3VyY2VfYWNjZXNzIjp7ImFjY291bnQiOnsicm9sZXMiOlsibWFuYWdlLWFjY291bnQiLCJtYW5hZ2UtYWNjb3VudC1saW5rcyIsInZpZXctcHJvZmlsZSJdfX0sInNjb3BlIjoiZW1haWwgcHJvZmlsZSIsInNpZCI6IjZiMWEzNDY0LWYwNzItNGYyMS1iMjgyLTg2MzA0NWJhYzM0NiIsImVtYWlsX3ZlcmlmaWVkIjpmYWxzZSwicHJlZmVycmVkX3VzZXJuYW1lIjoidG9raGkiLCJ0Y0lkIjoiMzE5OTU3In0.XMHyAQg9ngUM3nGWOTMsmWdvxQzuCsHL9Iy5mIlLdkkKu5T1cUHsKdGOhS8b-QSbJVll9rlG0pXbPpJS46PTQrdP5sByBQzO-33HWZmF1nnjydWro_46RGaoqjCs_PURKgNL8Fj0o3hXMMM68enEgeVcgpfqVm6imowwhjrsa2XT1s-N1Jgl8m-FbGx96uH4QnVHOL692I9N0YnO4rQEEjFoCXgg05okIQ6VxdA4O42gAnJpw_NEHxdJmA1l6dlQW8wQQ0RFibjGp7O_ucJY2IGCBO45g6PQGKQjBZBaQhEL-KRYlXAFhOtguRSmwd5gzK4jGu0xYNcesO-c33kRNA\r\nContent-Type=*/*\r\n\r\nQuery Parameters:\r\n_______________\r\n\r\nsize=10\r\npage=test\r\n], null, [API Response, JSON Body, java.io.ByteArrayInputStream@57eb5324]]"}],"start":1677582980145,"stop":1677582980147},{"name":"Assertion Passed: \"200\" is equal to \"200\".","status":"passed","stage":"finished","steps":[],"attachments":[],"parameters":[{"name":"customLog","value":"Assertion Passed: \"200\" is equal to \"200\"."},{"name":"stepLog","value":"Assertion \"ValidateComparativeRelation\" PASSED. Expected \"200\" and Actual \"200\". Comparison Type \"EQUALS\". Validation Type \"POSITIVE\"."},{"name":"attachments","value":"null"}],"start":1677582980147,"stop":1677582980147},{"name":"Verification Passed: \"514\" is greater than or equal to \"1.1\".","status":"passed","stage":"finished","steps":[],"attachments":[],"parameters":[{"name":"customLog","value":"Verification Passed: \"514\" is greater than or equal to \"1.1\"."},{"name":"stepLog","value":"Verification \"ValidateComparativeRelation\" PASSED. Expected \"1.1\" and Actual \"514\". Comparison Type \"GREATER_THAN_OR_EQUALS\". Validation Type \"POSITIVE\"."},{"name":"attachments","value":"null"}],"start":1677582980149,"stop":1677582980149},{"name":"Verification Passed: \"514\" is less than or equal to \"30000\".","status":"passed","stage":"finished","steps":[],"attachments":[],"parameters":[{"name":"customLog","value":"Verification Passed: \"514\" is less than or equal to \"30000\"."},{"name":"stepLog","value":"Verification \"ValidateComparativeRelation\" PASSED. Expected \"30000\" and Actual \"514\". Comparison Type \"LESS_THAN_OR_EQUALS\". Validation Type \"POSITIVE\"."},{"name":"attachments","value":"null"}],"start":1677582980149,"stop":1677582980149},{"name":"Assertion Passed: \"{\"page\":0,\"size\":10,\"totalPages\":2,\"totalElements\":18,\"content\":[{\"otaCode\":\"ZowarOTA\",\"baseCommission\":3.0,\"addCommission\":0.0,\"lastUpdated\":\"2022-12-15T17:26:35.889109\",\"isActive\":true},{\"otaCode\":\"AlrajhiOTA\",\"baseCommission\":3.0,\"addCommission\":0.0,\"lastUpdated\":\"2022-12-15T17:21:34.550112\",\"isActive\":true},{\"otaCode\":\"0226_OTA\",\"baseCommission\":3.0,\"addCommission\":3.5,\"lastUpdated\":\"2022-12-15T17:26:06.5894\",\"isActive\":true},{\"otaCode\":\"agoda\",\"baseCommission\":3.0,\"addCommission\":10.0,\"lastUpdated\":\"2023-02-28T14:16:05.884406\",\"isActive\":true},{\"otaCode\":\"ELAF_OTA\",\"baseCommission\":3.0,\"addCommission\":0.0,\"lastUpdated\":\"2022-12-12T15:49:49.939996\",\"isActive\":true},{\"otaCode\":\"Mawasim\",\"baseCommission\":3.0,\"addCommission\":0.0,\"lastUpdated\":\"2023-02-28T14:16:07.286704\",\"isActive\":true},{\"otaCode\":\"HotelGate\",\"baseCommission\":3.0,\"addCommission\":3.125,\"lastUpdated\":\"2022-12-01T14:29:31.706037\",\"isActive\":false},{\"otaCode\":\"Taqneen\",\"baseCommission\":3.0,\"addCommission\":97.0,\"lastUpdated\":\"2023-02-28T14:16:09.416179\",\"isActive\":true},{\"otaCode\":\"ZamzamOTA\",\"baseCommission\":3.0,\"addCommission\":0.0,\"lastUpdated\":\"2022-12-12T15:49:54.037276\",\"isActive\":false},{\"otaCode\":\"SafirTravelOTA\",\"baseCommission\":3.0,\"addCommission\":0.0,\"lastUpdated\":\"2022-12-12T15:50:08.792469\",\"isActive\":true}]}\" contains \"content\".","status":"passed","stage":"finished","steps":[],"attachments":[{"name":"Validation Test Data - Expected Value","source":"fab2cc35-819d-4fde-9001-1da962eefa37-attachment"},{"name":"Validation Test Data - Actual Value","source":"e592ab17-1191-4bef-bca3-9ab871c3ad3a-attachment"}],"parameters":[{"name":"customLog","value":"Assertion Passed: \"{\"page\":0,\"size\":10,\"totalPages\":2,\"totalElements\":18,\"content\":[{\"otaCode\":\"ZowarOTA\",\"baseCommission\":3.0,\"addCommission\":0.0,\"lastUpdated\":\"2022-12-15T17:26:35.889109\",\"isActive\":true},{\"otaCode\":\"AlrajhiOTA\",\"baseCommission\":3.0,\"addCommission\":0.0,\"lastUpdated\":\"2022-12-15T17:21:34.550112\",\"isActive\":true},{\"otaCode\":\"0226_OTA\",\"baseCommission\":3.0,\"addCommission\":3.5,\"lastUpdated\":\"2022-12-15T17:26:06.5894\",\"isActive\":true},{\"otaCode\":\"agoda\",\"baseCommission\":3.0,\"addCommission\":10.0,\"lastUpdated\":\"2023-02-28T14:16:05.884406\",\"isActive\":true},{\"otaCode\":\"ELAF_OTA\",\"baseCommission\":3.0,\"addCommission\":0.0,\"lastUpdated\":\"2022-12-12T15:49:49.939996\",\"isActive\":true},{\"otaCode\":\"Mawasim\",\"baseCommission\":3.0,\"addCommission\":0.0,\"lastUpdated\":\"2023-02-28T14:16:07.286704\",\"isActive\":true},{\"otaCode\":\"HotelGate\",\"baseCommission\":3.0,\"addCommission\":3.125,\"lastUpdated\":\"2022-12-01T14:29:31.706037\",\"isActive\":false},{\"otaCode\":\"Taqneen\",\"baseCommission\":3.0,\"addCommission\":97.0,\"lastUpdated\":\"2023-02-28T14:16:09.416179\",\"isActive\":true},{\"otaCode\":\"ZamzamOTA\",\"baseCommission\":3.0,\"addCommission\":0.0,\"lastUpdated\":\"2022-12-12T15:49:54.037276\",\"isActive\":false},{\"otaCode\":\"SafirTravelOTA\",\"baseCommission\":3.0,\"addCommission\":0.0,\"lastUpdated\":\"2022-12-12T15:50:08.792469\",\"isActive\":true}]}\" contains \"content\"."},{"name":"stepLog","value":"Assertion \"ValidateEquals\" PASSED. Expected and Actual values are attached. Comparison Type \"CONTAINS\". Validation Type \"POSITIVE\"."},{"name":"attachments","value":"[[Validation Test Data, Expected Value, content], [Validation Test Data, Actual Value, {\"page\":0,\"size\":10,\"totalPages\":2,\"totalElements\":18,\"content\":[{\"otaCode\":\"ZowarOTA\",\"baseCommission\":3.0,\"addCommission\":0.0,\"lastUpdated\":\"2022-12-15T17:26:35.889109\",\"isActive\":true},{\"otaCode\":\"AlrajhiOTA\",\"baseCommission\":3.0,\"addCommission\":0.0,\"lastUpdated\":\"2022-12-15T17:21:34.550112\",\"isActive\":true},{\"otaCode\":\"0226_OTA\",\"baseCommission\":3.0,\"addCommission\":3.5,\"lastUpdated\":\"2022-12-15T17:26:06.5894\",\"isActive\":true},{\"otaCode\":\"agoda\",\"baseCommission\":3.0,\"addCommission\":10.0,\"lastUpdated\":\"2023-02-28T14:16:05.884406\",\"isActive\":true},{\"otaCode\":\"ELAF_OTA\",\"baseCommission\":3.0,\"addCommission\":0.0,\"lastUpdated\":\"2022-12-12T15:49:49.939996\",\"isActive\":true},{\"otaCode\":\"Mawasim\",\"baseCommission\":3.0,\"addCommission\":0.0,\"lastUpdated\":\"2023-02-28T14:16:07.286704\",\"isActive\":true},{\"otaCode\":\"HotelGate\",\"baseCommission\":3.0,\"addCommission\":3.125,\"lastUpdated\":\"2022-12-01T14:29:31.706037\",\"isActive\":false},{\"otaCode\":\"Taqneen\",\"baseCommission\":3.0,\"addCommission\":97.0,\"lastUpdated\":\"2023-02-28T14:16:09.416179\",\"isActive\":true},{\"otaCode\":\"ZamzamOTA\",\"baseCommission\":3.0,\"addCommission\":0.0,\"lastUpdated\":\"2022-12-12T15:49:54.037276\",\"isActive\":false},{\"otaCode\":\"SafirTravelOTA\",\"baseCommission\":3.0,\"addCommission\":0.0,\"lastUpdated\":\"2022-12-12T15:50:08.792469\",\"isActive\":true}]}]]"}],"start":1677582980149,"stop":1677582980151},{"name":"Assertion Passed: Check that content object is not null.","status":"passed","stage":"finished","steps":[],"attachments":[{"name":"Validation Test Data - Expected Value","source":"9faa06ea-a877-4af1-a70e-10e5cc295054-attachment"},{"name":"Validation Test Data - Actual Value","source":"8bf01679-1bbd-4674-9a94-33fcdc62e78e-attachment"}],"parameters":[{"name":"customLog","value":"Assertion Passed: Check that content object is not null."},{"name":"stepLog","value":"Assertion \"ValidateEquals\" PASSED. Expected and Actual values are attached. Comparison Type \"EQUALS\". Validation Type \"NEGATIVE\"."},{"name":"attachments","value":"[[Validation Test Data, Expected Value, null], [Validation Test Data, Actual Value, [{\"otaCode\":\"ZowarOTA\",\"baseCommission\":3.0,\"addCommission\":0.0,\"lastUpdated\":\"2022-12-15T17:26:35.889109\",\"isActive\":true},{\"otaCode\":\"AlrajhiOTA\",\"baseCommission\":3.0,\"addCommission\":0.0,\"lastUpdated\":\"2022-12-15T17:21:34.550112\",\"isActive\":true},{\"otaCode\":\"0226_OTA\",\"baseCommission\":3.0,\"addCommission\":3.5,\"lastUpdated\":\"2022-12-15T17:26:06.5894\",\"isActive\":true},{\"otaCode\":\"agoda\",\"baseCommission\":3.0,\"addCommission\":10.0,\"lastUpdated\":\"2023-02-28T14:16:05.884406\",\"isActive\":true},{\"otaCode\":\"ELAF_OTA\",\"baseCommission\":3.0,\"addCommission\":0.0,\"lastUpdated\":\"2022-12-12T15:49:49.939996\",\"isActive\":true},{\"otaCode\":\"Mawasim\",\"baseCommission\":3.0,\"addCommission\":0.0,\"lastUpdated\":\"2023-02-28T14:16:07.286704\",\"isActive\":true},{\"otaCode\":\"HotelGate\",\"baseCommission\":3.0,\"addCommission\":3.125,\"lastUpdated\":\"2022-12-01T14:29:31.706037\",\"isActive\":false},{\"otaCode\":\"Taqneen\",\"baseCommission\":3.0,\"addCommission\":97.0,\"lastUpdated\":\"2023-02-28T14:16:09.416179\",\"isActive\":true},{\"otaCode\":\"ZamzamOTA\",\"baseCommission\":3.0,\"addCommission\":0.0,\"lastUpdated\":\"2022-12-12T15:49:54.037276\",\"isActive\":false},{\"otaCode\":\"SafirTravelOTA\",\"baseCommission\":3.0,\"addCommission\":0.0,\"lastUpdated\":\"2022-12-12T15:50:08.792469\",\"isActive\":true}]]]"}],"start":1677582980153,"stop":1677582980155},{"name":"Assertion Passed: The API response schema matches that in this file \"src/test/resources/testDataFiles/Schemas/Commission_schema.json\".","status":"passed","stage":"finished","steps":[],"attachments":[{"name":"Validation Test Data - Expected JSON Value","source":"200dcc35-e5bd-43c7-afa8-a13f6f4bb5b0-attachment.json","type":"text/json"},{"name":"Validation Test Data - Actual JSON Value","source":"9a0ea216-2183-4735-b9c2-eb622abf6bef-attachment.json","type":"text/json"}],"parameters":[{"name":"customLog","value":"Assertion Passed: The API response schema matches that in this file \"src/test/resources/testDataFiles/Schemas/Commission_schema.json\"."},{"name":"stepLog","value":"Assertion \"ValidateResponseFileSchema\" PASSED. Expected \"Response data should match the JSON File in this path 'C:\\eclipse-workspace\\MyProjects\\TASystemsAPIs\\src\\test\\resources\\testDataFiles\\Schemas\\Commission_schema.json'\" and Actual \"TRUE\". Comparison Type \"EQUALS\". Validation Type \"POSITIVE\"."},{"name":"attachments","value":"[[Validation Test Data, Expected JSON Value, java.io.ByteArrayInputStream@170a158d], [Validation Test Data, Actual JSON Value, java.io.ByteArrayInputStream@1abf7c9d]]"}],"start":1677582980163,"stop":1677582980165}],"attachments":[{"name":"SHAFT Engine Logs - Current Method log: Valid_GET_all_Commissions_by_Qry_Rq_TC","source":"068c7e97-6a5c-4fad-8583-31142c4c8d70-attachment.txt","type":"text/plain"}],"parameters":[],"start":1677582978801,"stop":1677582980167}