
################################################################################################################################################
Starting Execution:	"6 out of 27" test cases in the current suite
Test Method:		"SteeringCompanyAPI_TestCases.Test_PeriodProgram_Cases.Valid_Get_All_PeriodProgram_Pagination_TC"
Test Description:	"TC002 -PeriodProgram- Perform Get Valid all PeriodProgram withPagenation"
################################################################################################################################################
[ReportManager] File Action "DoesFileExist" successfully performed. With the following test data "File Path: "SteeringCompanyAPI_TestData/SteeringCompanyAPI_TestData.xlsx"". @03-04-2023 13:39:11.0137 PM
[ReportManager] Loaded Test Data: "src/test/resources/testDataFiles/SteeringCompanyAPI_TestData/SteeringCompanyAPI_TestData.xlsx". @03-04-2023 13:39:11.0199 PM
[ReportManager] Successfully created attachment "Test Data - Excel" @03-04-2023 13:39:11.0201 PM
[ReportManager] Response status code: "200", status line: "HTTP/1.1 200 OK" @03-04-2023 13:39:12.0281 PM
[ReportManager] Assertion Passed: Evaluating the actual response status code against the expected one... @03-04-2023 13:39:12.0281 PM
[ReportManager] Perform request "POST | Target Status Code: 200 | Service URL: https://auth-demo.np.transporticonline.com/auth/realms/tic/protocol/openid-connect/token | Content Type: application/x-www-form-urlencoded | Response Time: 1075ms". @03-04-2023 13:39:12.0306 PM
[ReportManager] Successfully created attachment "API Request - Specifications" @03-04-2023 13:39:12.0308 PM
[ReportManager] Successfully created attachment "API Request - Body" @03-04-2023 13:39:12.0309 PM
[ReportManager] Successfully created attachment "API Response - JSON Body" @03-04-2023 13:39:12.0309 PM
[ReportManager] Assertion Passed: Check Response Status Code is 200 and it is valid. @03-04-2023 13:39:12.0310 PM
[ReportManager] File Action "DoesFileExist" successfully performed. With the following test data "File Path: "SteeringCompanyAPI_TestData/SteeringCompanyAPI_TestData.xlsx"". @03-04-2023 13:39:12.0325 PM
[ReportManager] Loaded Test Data: "src/test/resources/testDataFiles/SteeringCompanyAPI_TestData/SteeringCompanyAPI_TestData.xlsx". @03-04-2023 13:39:12.0376 PM
[ReportManager] Successfully created attachment "Test Data - Excel" @03-04-2023 13:39:12.0377 PM
[ReportManager] File Action "DoesFileExist" successfully performed. With the following test data "File Path: "SteeringCompanyAPI_TestData/SteeringCompanyAPI_TestData.xlsx"". @03-04-2023 13:39:12.0377 PM
[ReportManager] Loaded Test Data: "src/test/resources/testDataFiles/SteeringCompanyAPI_TestData/SteeringCompanyAPI_TestData.xlsx". @03-04-2023 13:39:12.0429 PM
[ReportManager] Successfully created attachment "Test Data - Excel" @03-04-2023 13:39:12.0430 PM
[ReportManager] File Action "DoesFileExist" successfully performed. With the following test data "File Path: "SteeringCompanyAPI_TestData/SteeringCompanyAPI_TestData.xlsx"". @03-04-2023 13:39:12.0430 PM
[ReportManager] Loaded Test Data: "src/test/resources/testDataFiles/SteeringCompanyAPI_TestData/SteeringCompanyAPI_TestData.xlsx". @03-04-2023 13:39:12.0560 PM
[ReportManager] Successfully created attachment "Test Data - Excel" @03-04-2023 13:39:12.0562 PM
[ReportManager] Response status code: "200", status line: "HTTP/1.1 200 " @03-04-2023 13:39:13.0552 PM
[ReportManager] Assertion Passed: Evaluating the actual response status code against the expected one... @03-04-2023 13:39:13.0553 PM
[ReportManager] Perform request "GET | Target Status Code: 200 | Service URL: https://api-demo.np.transporticonline.com/steeringcompanies/v1/periodPrograms | Content Type: */* | Response Time: 986ms". @03-04-2023 13:39:13.0580 PM
[ReportManager] Successfully created attachment "API Request - Specifications" @03-04-2023 13:39:13.0582 PM
[ReportManager] Successfully created attachment "API Response - JSON Body" @03-04-2023 13:39:13.0585 PM
[ReportManager] Assertion Passed: "200" is equal to "200". @03-04-2023 13:39:13.0586 PM
[ReportManager] Verification Passed: "986" is greater than or equal to "1.1". @03-04-2023 13:39:13.0586 PM
[ReportManager] Verification Passed: "986" is less than or equal to "30000". @03-04-2023 13:39:13.0587 PM
[ReportManager] Assertion Passed: "{"page":1,"size":1,"totalPages":138,"totalElements":138,"content":[{"id":1003,"templateId":229,"periodMaxQuotaPerPeriod":92,"minimumModelYear":2010,"maximumModelYear":2011,"minimumSeat":7,"maximumSeat":8,"vehiclePricePer":3500.0,"creationPeriodId":113,"isActive":true,"policyInfo":{"cancellationPolicy":{"id":3,"nameArabic":"سياسة الالغاء 2","nameEnglish":"Cancellation 2","descriptionArabic":"سياسة الالغاء 2","descriptionEnglish":"Cancellation 2","isActive":true,"chargeUnit":"days","deadline":3,"chargeType":"percentage","chargeValue":15.00},"paymentPolicy":{"id":3,"nameArabic":"سياسات الدفع","nameEnglish":"Payment policies","descriptionArabic":"يتم دفع قيمة البرنامج كاملة عند تأكيد الحجز ويصدر الرقم المرجعي بعد دفع قيمة الحجز","descriptionEnglish":"The value of the reservation must be paid upon confirmation of the reservation and the reference nu","isActive":true,"refundType":"apply_cancellation_policy","isRefundable":true,"cancellationPolicyId":4},"usagePolicy":{"id":3,"nameArabic":"سياسات الاستخدام","nameEnglish":"Usage policies","descriptionArabic":"يكون استخدام الحافلة لنقل المعتمرين المعنيين بالحجز ويعتبر الحجز لاغي في حالة استخدام الحافلة لنقل معتمرين غير مشمولين بنفس الحجز","descriptionEnglish":"The use of the bus to transport the pilgrims included with the reservation and the reservation is included null in the case of using the bus to transport pilgrims who are not included in the same r","isActive":true},"taxesPolicy":{"id":3,"nameArabic":"الضريبة المطبقة","nameEnglish":"Applicable tax","descriptionArabic":"يتم تطبيق النسبة الضريبية المعتمدة حسب انظمة المملكة العربية السعودية المشمولة بها هذه الخدمة","descriptionEnglish":"The approved tax rate is applied according to the regulations of the Kingdom of Saudi Arabia in whi","isActive":false,"chargeType":"percentage","chargeValue":15.00},"generalPolicy":{"id":3,"nameArabic":"سياسات عامة","nameEnglish":"General policies","descriptionArabic":"تسري جميع الشروط والانظمة المعتمدة من الجهات المعنية في وزارة الحج ووزارةالنقل والنقابة العامة للسيارات بهذا الخصوص","descriptionEnglish":"All conditions and regulations approved by the concerned authorities in the Ministry of Hajj the Ministry of Transport and the General cars Syndicate shall apply in this regard","isActive":true}}}]}" contains "content". @03-04-2023 13:39:13.0588 PM
[ReportManager] Successfully created attachment "Validation Test Data - Expected Value" @03-04-2023 13:39:13.0590 PM
[ReportManager] Successfully created attachment "Validation Test Data - Actual Value" @03-04-2023 13:39:13.0591 PM
[ReportManager] Get response jsonvalue "content". @03-04-2023 13:39:13.0595 PM
[ReportManager] Assertion Passed: Check that content object is not null. @03-04-2023 13:39:13.0595 PM
[ReportManager] Successfully created attachment "Validation Test Data - Expected Value" @03-04-2023 13:39:13.0597 PM
[ReportManager] Successfully created attachment "Validation Test Data - Actual Value" @03-04-2023 13:39:13.0598 PM
[ReportManager] File Action "DoesFileExist" successfully performed. With the following test data "File Path: "Schemas/GetAllPeriodProgram_schema.json"". @03-04-2023 13:39:13.0599 PM
[ReportManager] File Action "DoesFileExist" successfully performed. With the following test data "File Path: "src/test/resources/testDataFiles/Schemas/GetAllPeriodProgram_schema.json"". @03-04-2023 13:39:13.0600 PM
[ReportManager] File Action "GetAbsolutePath" successfully performed. With the following test data "Relative Folder Path: "src/test/resources/testDataFiles/Schemas/GetAllPeriodProgram_schema.json"". @03-04-2023 13:39:13.0600 PM
[ReportManager] File Action "DoesFileExist" successfully performed. With the following test data "File Path: "C:\eclipse-workspace\MyProjects\TASystemsAPIs\src\test\resources\testDataFiles\Schemas\GetAllPeriodProgram_schema.json"". @03-04-2023 13:39:13.0620 PM
[ReportManager] File Action "GetAbsolutePath" successfully performed. With the following test data "Relative Folder Path: "C:\eclipse-workspace\MyProjects\TASystemsAPIs\src\test\resources\testDataFiles\Schemas\GetAllPeriodProgram_schema.json"". @03-04-2023 13:39:13.0621 PM
[ReportManager] File Action "ReadFile" successfully performed. With the following test data "File Path: "C:\eclipse-workspace\MyProjects\TASystemsAPIs\src\test\resources\testDataFiles\Schemas\GetAllPeriodProgram_schema.json"". @03-04-2023 13:39:13.0621 PM
[ReportManager] Assertion Passed: The API response schema matches that in this file "src/test/resources/testDataFiles/Schemas/GetAllPeriodProgram_schema.json". @03-04-2023 13:39:13.0622 PM
[ReportManager] Successfully created attachment "Validation Test Data - Expected JSON Value" @03-04-2023 13:39:13.0624 PM
[ReportManager] Successfully created attachment "Validation Test Data - Actual JSON Value" @03-04-2023 13:39:13.0625 PM