{"uuid":"55fb6e14-966b-4e96-81a1-ab4db36ec7fc","historyId":"2c9bf8dd5b9ce2ddce75a09f984901a9","fullName":"SteeringCompanyAPI_TestCases.Test_Lookups_Cases.Valid_GET_all_cities_Lookups_by_Qry_Rq_TC","labels":[{"name":"package","value":"SteeringCompanyAPI_TestCases.Test_Lookups_Cases"},{"name":"testClass","value":"SteeringCompanyAPI_TestCases.Test_Lookups_Cases"},{"name":"testMethod","value":"Valid_GET_all_cities_Lookups_by_Qry_Rq_TC"},{"name":"parentSuite","value":"Suite"},{"name":"suite","value":"Test"},{"name":"subSuite","value":"SteeringCompanyAPI_TestCases.Test_Lookups_Cases"},{"name":"host","value":"TW-1056"},{"name":"thread","value":"21384@TW-1056.main(1)"},{"name":"framework","value":"testng"},{"name":"language","value":"java"}],"links":[],"name":"TC002 - Peform Get all cities API by parameters Qry with valid user name and password and retun with token","status":"passed","statusDetails":{"known":false,"muted":false,"flaky":false},"stage":"finished","steps":[{"name":"Loaded Test Data: \"src/test/resources/testDataFiles/SteeringCompanyAPI_TestData/SteeringCompanyAPI_TestData.xlsx\".","status":"passed","stage":"finished","steps":[],"attachments":[{"name":"Test Data - Excel","source":"e4a99e06-7b90-4f41-be1c-6933302306d7-attachment.xlsx","type":"application/vnd.openxmlformats-officedocument.spreadsheetml.sheet"}],"parameters":[{"name":"logText","value":"Loaded Test Data: \"src/test/resources/testDataFiles/SteeringCompanyAPI_TestData/SteeringCompanyAPI_TestData.xlsx\"."},{"name":"attachments","value":"[[Test Data, Excel, java.io.FileInputStream@1a00440d]]"}],"start":1666165884190,"stop":1666165884191},{"name":"Assertion Passed: Evaluating the actual response status code against the expected one...","status":"passed","stage":"finished","steps":[],"attachments":[],"parameters":[{"name":"customLog","value":"Assertion Passed: Evaluating the actual response status code against the expected one..."},{"name":"stepLog","value":"Assertion \"ValidateComparativeRelation\" PASSED. Expected \"200\" and Actual \"200\". Comparison Type \"EQUALS\". Validation Type \"POSITIVE\"."},{"name":"attachments","value":"null"}],"start":1666165884888,"stop":1666165884889},{"name":"Perform request \"POST | Target Status Code: 200 | Service URL: https://auth-demo.np.transporticonline.com/auth/realms/tic/protocol/openid-connect/token | Content Type: application/x-www-form-urlencoded | Response Time: 691ms\".","status":"passed","stage":"finished","steps":[],"attachments":[{"name":"API Request - Specifications","source":"4b9fb737-93a2-439d-8093-0f4101056797-attachment"},{"name":"API Request - Body","source":"8358c0a0-92ed-4ee6-871e-4a2cd1e08c4d-attachment"},{"name":"API Response - JSON Body","source":"32b2fdfb-2854-4ebe-8bb6-2297ba8ff215-attachment.json","type":"text/json"}],"parameters":[{"name":"logText","value":"Perform request \"POST | Target Status Code: 200 | Service URL: https://auth-demo.np.transporticonline.com/auth/realms/tic/protocol/openid-connect/token | Content Type: application/x-www-form-urlencoded | Response Time: 691ms\"."},{"name":"attachments","value":"[[API Request, Specifications, Headers:\r\n_______________\r\n\r\nContent-Type=application/x-www-form-urlencoded\r\n\r\n], [API Request, Body, java.io.ByteArrayInputStream@3645b9d5], null, [API Response, JSON Body, java.io.ByteArrayInputStream@b280053]]"}],"start":1666165884929,"stop":1666165884936},{"name":"Assertion Passed: Check Response Status Code is 200 and it is valid.","status":"passed","stage":"finished","steps":[],"attachments":[],"parameters":[{"name":"customLog","value":"Assertion Passed: Check Response Status Code is 200 and it is valid."},{"name":"stepLog","value":"Assertion \"ValidateComparativeRelation\" PASSED. Expected \"200\" and Actual \"200\". Comparison Type \"EQUALS\". Validation Type \"POSITIVE\"."},{"name":"attachments","value":"null"}],"start":1666165884937,"stop":1666165884937},{"name":"Loaded Test Data: \"src/test/resources/testDataFiles/SteeringCompanyAPI_TestData/SteeringCompanyAPI_TestData.xlsx\".","status":"passed","stage":"finished","steps":[],"attachments":[{"name":"Test Data - Excel","source":"988d4f1c-4d74-40eb-9f41-6d69ce33d70e-attachment.xlsx","type":"application/vnd.openxmlformats-officedocument.spreadsheetml.sheet"}],"parameters":[{"name":"logText","value":"Loaded Test Data: \"src/test/resources/testDataFiles/SteeringCompanyAPI_TestData/SteeringCompanyAPI_TestData.xlsx\"."},{"name":"attachments","value":"[[Test Data, Excel, java.io.FileInputStream@4b495ce7]]"}],"start":1666165884997,"stop":1666165884998},{"name":"Assertion Passed: Evaluating the actual response status code against the expected one...","status":"passed","stage":"finished","steps":[],"attachments":[],"parameters":[{"name":"customLog","value":"Assertion Passed: Evaluating the actual response status code against the expected one..."},{"name":"stepLog","value":"Assertion \"ValidateComparativeRelation\" PASSED. Expected \"200\" and Actual \"200\". Comparison Type \"EQUALS\". Validation Type \"POSITIVE\"."},{"name":"attachments","value":"null"}],"start":1666165885622,"stop":1666165885623},{"name":"Perform request \"GET | Target Status Code: 200 | Service URL: https://api-demo.np.transporticonline.com/steeringcompanies/v1/lookups/cities | Content Type: */* | Response Time: 582ms\".","status":"passed","stage":"finished","steps":[],"attachments":[{"name":"API Request - Specifications","source":"77cac0c8-8466-4401-99dd-6fecc35f0e30-attachment"},{"name":"API Response - JSON Body","source":"596b9f7f-a4dd-40ad-8999-9607539ed100-attachment.json","type":"text/json"}],"parameters":[{"name":"logText","value":"Perform request \"GET | Target Status Code: 200 | Service URL: https://api-demo.np.transporticonline.com/steeringcompanies/v1/lookups/cities | Content Type: */* | Response Time: 582ms\"."},{"name":"attachments","value":"[[API Request, Specifications, Headers:\r\n_______________\r\n\r\nAuthorization=Bearer eyJhbGciOiJSUzI1NiIsInR5cCIgOiAiSldUIiwia2lkIiA6ICJjck9ORDFNdFVPVWhzS2Mtb0ppVFFmb0o1d1l4REF6Y3k0ZjNYZ0dveGdZIn0.eyJleHAiOjE2NjYxNjYxODcsImlhdCI6MTY2NjE2NTg4NywianRpIjoiMDRlNTRiOTYtMDRhMi00MmJmLTg0NGYtOWI4MGY3ZGFhMmFkIiwiaXNzIjoiaHR0cHM6Ly9hdXRoLWRlbW8ubnAudHJhbnNwb3J0aWNvbmxpbmUuY29tL2F1dGgvcmVhbG1zL3RpYyIsImF1ZCI6ImFjY291bnQiLCJzdWIiOiI0ZTk3NmQ0NC1iM2ZkLTRjYTktODk1Ny0wYWJiODUwNzNhNzQiLCJ0eXAiOiJCZWFyZXIiLCJhenAiOiJ0aWMtYXBpIiwic2Vzc2lvbl9zdGF0ZSI6IjkyOWYwNDYzLTUzMTEtNGY5Ni04ODBlLWU2NDFmMjVlZWU2NyIsImFjciI6IjEiLCJhbGxvd2VkLW9yaWdpbnMiOlsiaHR0cHM6Ly9hcGktZGV2Lm5wLnRyYW5zcG9ydGljb25saW5lLmNvbSJdLCJyZWFsbV9hY2Nlc3MiOnsicm9sZXMiOlsib2ZmbGluZV9hY2Nlc3MiLCJkZWZhdWx0LXJvbGVzLXRpYyIsInVtYV9hdXRob3JpemF0aW9uIiwidXNlciJdfSwicmVzb3VyY2VfYWNjZXNzIjp7ImFjY291bnQiOnsicm9sZXMiOlsibWFuYWdlLWFjY291bnQiLCJtYW5hZ2UtYWNjb3VudC1saW5rcyIsInZpZXctcHJvZmlsZSJdfX0sInNjb3BlIjoiZW1haWwgcHJvZmlsZSIsInNpZCI6IjkyOWYwNDYzLTUzMTEtNGY5Ni04ODBlLWU2NDFmMjVlZWU2NyIsImVtYWlsX3ZlcmlmaWVkIjpmYWxzZSwicHJlZmVycmVkX3VzZXJuYW1lIjoidG9raGkiLCJ0Y0lkIjoiMzE5OTU3In0.S8ZDBqsqF-ZYZhmuQK12uRjyyABhES_kGGKt-r7F9Dxkbovfo2Ezrtvz5VEYFLbBQ3lbD9WjQEHQmDldGSn01o0IZPEXDWFaO_-bzeLLxjKWfwosKzMvLw88fcnWTK5wtAtWsI8YK0Z-D6T8BJb4dt0FFjJAsLi-9Hh7-mze8V4-6Msp3a7SXshov1Q2LFKbjuN5Xl8T_TZgY0SVBMCSeaU6cOls-lCQW6BRNfb51t5XSieG-RGpta66mWm4eHKHgf2GzMEUI-rU8K3WTMBgqugbk2m3iTC7xmZAFpgzkJs_hi_co6Qx2RVN4ma5O79f7cBVlI1WSshN-Ah2IlReJw\r\nContent-Type=*/*\r\n\r\nQuery Parameters:\r\n_______________\r\n\r\nsize=3\r\npage=0\r\n], null, [API Response, JSON Body, java.io.ByteArrayInputStream@38e4697d]]"}],"start":1666165885645,"stop":1666165885649},{"name":"Assertion Passed: \"200\" is equal to \"200\".","status":"passed","stage":"finished","steps":[],"attachments":[],"parameters":[{"name":"customLog","value":"Assertion Passed: \"200\" is equal to \"200\"."},{"name":"stepLog","value":"Assertion \"ValidateComparativeRelation\" PASSED. Expected \"200\" and Actual \"200\". Comparison Type \"EQUALS\". Validation Type \"POSITIVE\"."},{"name":"attachments","value":"null"}],"start":1666165885649,"stop":1666165885650},{"name":"Verification Passed: \"582\" is greater than or equal to \"1.1\".","status":"passed","stage":"finished","steps":[],"attachments":[],"parameters":[{"name":"customLog","value":"Verification Passed: \"582\" is greater than or equal to \"1.1\"."},{"name":"stepLog","value":"Verification \"ValidateComparativeRelation\" PASSED. Expected \"1.1\" and Actual \"582\". Comparison Type \"GREATER_THAN_OR_EQUALS\". Validation Type \"POSITIVE\"."},{"name":"attachments","value":"null"}],"start":1666165885650,"stop":1666165885650},{"name":"Verification Passed: \"582\" is less than or equal to \"10000\".","status":"passed","stage":"finished","steps":[],"attachments":[],"parameters":[{"name":"customLog","value":"Verification Passed: \"582\" is less than or equal to \"10000\"."},{"name":"stepLog","value":"Verification \"ValidateComparativeRelation\" PASSED. Expected \"10000\" and Actual \"582\". Comparison Type \"LESS_THAN_OR_EQUALS\". Validation Type \"POSITIVE\"."},{"name":"attachments","value":"null"}],"start":1666165885650,"stop":1666165885651},{"name":"Assertion Passed: \"{\"page\":0,\"size\":3,\"totalPages\":235,\"totalElements\":704,\"content\":[{\"id\":1071,\"nameArabic\":\"مطار دنيزلي كارداك\",\"nameEnglish\":\"Denizli Cardak Airport\",\"isActive\":true,\"lastUpdated\":\"2022-06-02T00:13:35Z\",\"sectors\":null},{\"id\":390021162,\"nameArabic\":\"براتو\",\"nameEnglish\":\"PRATO\",\"isActive\":true,\"lastUpdated\":\"2022-06-02T00:13:44Z\",\"sectors\":null},{\"id\":36,\"nameArabic\":\"كوالالمبور\",\"nameEnglish\":\"Kuala Lumpur\",\"isActive\":true,\"lastUpdated\":\"2022-06-02T01:21:49Z\",\"sectors\":null}]}\" contains \"content\".","status":"passed","stage":"finished","steps":[],"attachments":[],"parameters":[{"name":"customLog","value":"Assertion Passed: \"{\"page\":0,\"size\":3,\"totalPages\":235,\"totalElements\":704,\"content\":[{\"id\":1071,\"nameArabic\":\"مطار دنيزلي كارداك\",\"nameEnglish\":\"Denizli Cardak Airport\",\"isActive\":true,\"lastUpdated\":\"2022-06-02T00:13:35Z\",\"sectors\":null},{\"id\":390021162,\"nameArabic\":\"براتو\",\"nameEnglish\":\"PRATO\",\"isActive\":true,\"lastUpdated\":\"2022-06-02T00:13:44Z\",\"sectors\":null},{\"id\":36,\"nameArabic\":\"كوالالمبور\",\"nameEnglish\":\"Kuala Lumpur\",\"isActive\":true,\"lastUpdated\":\"2022-06-02T01:21:49Z\",\"sectors\":null}]}\" contains \"content\"."},{"name":"stepLog","value":"Assertion \"ValidateEquals\" PASSED. Expected \"content\" and Actual \"{\"page\":0,\"size\":3,\"totalPages\":235,\"totalElements\":704,\"content\":[{\"id\":1071,\"nameArabic\":\"مطار دنيزلي كارداك\",\"nameEnglish\":\"Denizli Cardak Airport\",\"isActive\":true,\"lastUpdated\":\"2022-06-02T00:13:35Z\",\"sectors\":null},{\"id\":390021162,\"nameArabic\":\"براتو\",\"nameEnglish\":\"PRATO\",\"isActive\":true,\"lastUpdated\":\"2022-06-02T00:13:44Z\",\"sectors\":null},{\"id\":36,\"nameArabic\":\"كوالالمبور\",\"nameEnglish\":\"Kuala Lumpur\",\"isActive\":true,\"lastUpdated\":\"2022-06-02T01:21:49Z\",\"sectors\":null}]}\". Comparison Type \"CONTAINS\". Validation Type \"POSITIVE\"."},{"name":"attachments","value":"null"}],"start":1666165885653,"stop":1666165885654},{"name":"Assertion Passed: Check that content object is not null.","status":"passed","stage":"finished","steps":[],"attachments":[],"parameters":[{"name":"customLog","value":"Assertion Passed: Check that content object is not null."},{"name":"stepLog","value":"Assertion \"ValidateEquals\" PASSED. Expected \"null\" and Actual \"[{\"id\":1071,\"nameArabic\":\"مطار دنيزلي كارداك\",\"nameEnglish\":\"Denizli Cardak Airport\",\"isActive\":true,\"lastUpdated\":\"2022-06-02T00:13:35Z\",\"sectors\":null},{\"id\":390021162,\"nameArabic\":\"براتو\",\"nameEnglish\":\"PRATO\",\"isActive\":true,\"lastUpdated\":\"2022-06-02T00:13:44Z\",\"sectors\":null},{\"id\":36,\"nameArabic\":\"كوالالمبور\",\"nameEnglish\":\"Kuala Lumpur\",\"isActive\":true,\"lastUpdated\":\"2022-06-02T01:21:49Z\",\"sectors\":null}]\". Comparison Type \"EQUALS\". Validation Type \"NEGATIVE\"."},{"name":"attachments","value":"null"}],"start":1666165885690,"stop":1666165885691},{"name":"Assertion Passed: The API response schema matches that in this file \"src/test/resources/testDataFiles/Lookups_cities_schema.json\".","status":"passed","stage":"finished","steps":[],"attachments":[{"name":"Validation Test Data - Expected JSON Value","source":"2cb6d0e3-a3ed-4063-8ca7-202b4c3fcd94-attachment.json","type":"text/json"},{"name":"Validation Test Data - Actual JSON Value","source":"0e83b259-c6de-484f-b73c-729e8fb2fc14-attachment.json","type":"text/json"}],"parameters":[{"name":"customLog","value":"Assertion Passed: The API response schema matches that in this file \"src/test/resources/testDataFiles/Lookups_cities_schema.json\"."},{"name":"stepLog","value":"Assertion \"ValidateResponseFileSchema\" PASSED. Expected \"Response data should match the JSON File in this path 'C:\\eclipse-workspace\\MyProjects\\TASystemsAPIs\\src\\test\\resources\\testDataFiles\\Lookups_cities_schema.json'\" and Actual \"TRUE\". Comparison Type \"EQUALS\". Validation Type \"POSITIVE\"."},{"name":"attachments","value":"[[Validation Test Data, Expected JSON Value, java.io.ByteArrayInputStream@1c486cec], [Validation Test Data, Actual JSON Value, java.io.ByteArrayInputStream@7fc5199]]"}],"start":1666165885702,"stop":1666165885704}],"attachments":[{"name":"SHAFT Engine Logs - Current Method log: Valid_GET_all_cities_Lookups_by_Qry_Rq_TC","source":"58d7a576-b92e-4f74-9c79-1367128adc35-attachment.txt","type":"text/plain"}],"parameters":[],"start":1666165884159,"stop":1666165885705}