[ReportManager] Setting discrete logging to: "false" @03-10-2022 15:19:39.0044 PM

################################################################################################################################################
Starting Execution:	"12 out of 13" test cases in the current suite
Test Method:		"SteeringCompanyAPI_TestCases.Test_Case.Valid_GET_all_vehicleTypes_Lookups_Rq_TC"
################################################################################################################################################
[ReportManager] Setting discrete logging to: "false" @03-10-2022 15:19:39.0044 PM
[ReportManager] Setting discrete logging to: "true" @03-10-2022 15:19:39.0713 PM
[ReportManager] Response status code: "200", status line: "HTTP/1.1 200 OK" @03-10-2022 15:19:39.0713 PM
[ReportManager] Assertion Passed: Evaluating the actual response status code against the expected one... @03-10-2022 15:19:39.0713 PM
[ReportManager] Setting discrete logging to: "false" @03-10-2022 15:19:39.0713 PM
[ReportManager] Perform request "POST | Target Status Code: 200 | Service URL: https://auth-demo.np.transporticonline.com/auth/realms/tic/protocol/openid-connect/token | Content Type: application/x-www-form-urlencoded | Response Time: 665ms". @03-10-2022 15:19:39.0739 PM
[ReportManager] Successfully created attachment "API Request - Specifications" @03-10-2022 15:19:39.0741 PM
[ReportManager] Successfully created attachment "API Request - Body" @03-10-2022 15:19:39.0742 PM
[ReportManager] Successfully created attachment "API Response - JSON Body" @03-10-2022 15:19:39.0744 PM
[ReportManager] Assertion Passed: "200" is equal to "200". @03-10-2022 15:19:39.0744 PM
[ReportManager] Verification Passed: "665" is greater than or equal to "1.1". @03-10-2022 15:19:39.0744 PM
[ReportManager] Verification Passed: "665" is less than or equal to "10000". @03-10-2022 15:19:39.0745 PM
[ReportManager] Assertion Passed: "{"access_token":"eyJhbGciOiJSUzI1NiIsInR5cCIgOiAiSldUIiwia2lkIiA6ICJjck9ORDFNdFVPVWhzS2Mtb0ppVFFmb0o1d1l4REF6Y3k0ZjNYZ0dveGdZIn0.eyJleHAiOjE2NjQ4MDM0NzgsImlhdCI6MTY2NDgwMzE3OCwianRpIjoiZTZlMWM2ZWEtMDAwZS00ZTU4LThjOWEtMTIzZTM2N2NiNzIzIiwiaXNzIjoiaHR0cHM6Ly9hdXRoLWRlbW8ubnAudHJhbnNwb3J0aWNvbmxpbmUuY29tL2F1dGgvcmVhbG1zL3RpYyIsImF1ZCI6ImFjY291bnQiLCJzdWIiOiI0ZTk3NmQ0NC1iM2ZkLTRjYTktODk1Ny0wYWJiODUwNzNhNzQiLCJ0eXAiOiJCZWFyZXIiLCJhenAiOiJ0aWMtYXBpIiwic2Vzc2lvbl9zdGF0ZSI6IjUzOTQyZTQwLTJhMTItNDkzNC1hNGE0LTRhM2I1OTg3ZmM1ZCIsImFjciI6IjEiLCJhbGxvd2VkLW9yaWdpbnMiOlsiaHR0cHM6Ly9hcGktZGV2Lm5wLnRyYW5zcG9ydGljb25saW5lLmNvbSJdLCJyZWFsbV9hY2Nlc3MiOnsicm9sZXMiOlsib2ZmbGluZV9hY2Nlc3MiLCJkZWZhdWx0LXJvbGVzLXRpYyIsInVtYV9hdXRob3JpemF0aW9uIiwidXNlciJdfSwicmVzb3VyY2VfYWNjZXNzIjp7ImFjY291bnQiOnsicm9sZXMiOlsibWFuYWdlLWFjY291bnQiLCJtYW5hZ2UtYWNjb3VudC1saW5rcyIsInZpZXctcHJvZmlsZSJdfX0sInNjb3BlIjoiZW1haWwgcHJvZmlsZSIsInNpZCI6IjUzOTQyZTQwLTJhMTItNDkzNC1hNGE0LTRhM2I1OTg3ZmM1ZCIsImVtYWlsX3ZlcmlmaWVkIjpmYWxzZSwicHJlZmVycmVkX3VzZXJuYW1lIjoidG9raGkiLCJ0Y0lkIjoiMzE5OTU3In0.CgK1oUqPhIdQIRNHGb_v_n2lMiW00H7ae44kLv6NpYrI4qL9roKrueozMlIKjCDQNI5bb7da7HfBSl4smlad5pt-PvRFYvY0o-6Ojay0y8AsE8NtX5FEevqhOMPXhBaFbad3DBMpoCTPy8Jvw9sgCvL8IxX3NoPEixj2jrHnnWsAU6zvYVTV_9UQOK61p1WjW6iGsz7--xuNldcbTZejCu_mo67DhCvX-veFM2K8gxQonNwv4nCvYPWUSRGGLkI9SNEzfa91DPJYGsHGje_Oyl7zbeGpczkyiecU4Zp0Xr9CevGA9bI7_UKm2GNp7ck2KagG04zyb0K7SLSYFKa_Nw","expires_in":300,"refresh_expires_in":1800,"refresh_token":"eyJhbGciOiJIUzI1NiIsInR5cCIgOiAiSldUIiwia2lkIiA6ICJkMTFjNTY4Yi1iMjAyLTQzYjgtYTBiMy1hYWI4ZWMyYWQzZDEifQ.eyJleHAiOjE2NjQ4MDQ5NzgsImlhdCI6MTY2NDgwMzE3OCwianRpIjoiMWU2ZmU3NzEtM2QzNy00NmEwLTg4OWEtNzA3MmM1ZTJlZDFkIiwiaXNzIjoiaHR0cHM6Ly9hdXRoLWRlbW8ubnAudHJhbnNwb3J0aWNvbmxpbmUuY29tL2F1dGgvcmVhbG1zL3RpYyIsImF1ZCI6Imh0dHBzOi8vYXV0aC1kZW1vLm5wLnRyYW5zcG9ydGljb25saW5lLmNvbS9hdXRoL3JlYWxtcy90aWMiLCJzdWIiOiI0ZTk3NmQ0NC1iM2ZkLTRjYTktODk1Ny0wYWJiODUwNzNhNzQiLCJ0eXAiOiJSZWZyZXNoIiwiYXpwIjoidGljLWFwaSIsInNlc3Npb25fc3RhdGUiOiI1Mzk0MmU0MC0yYTEyLTQ5MzQtYTRhNC00YTNiNTk4N2ZjNWQiLCJzY29wZSI6ImVtYWlsIHByb2ZpbGUiLCJzaWQiOiI1Mzk0MmU0MC0yYTEyLTQ5MzQtYTRhNC00YTNiNTk4N2ZjNWQifQ.oUiGZVXSGB0b1ZfgJPiO4rUu5O5Fab2xhAZCmzmVhtE","token_type":"Bearer","not-before-policy":0,"session_state":"53942e40-2a12-4934-a4a4-4a3b5987fc5d","scope":"email profile"}" contains "access_token". @03-10-2022 15:19:39.0745 PM
[ReportManager] Successfully created attachment "Validation Test Data - Expected Value" @03-10-2022 15:19:39.0747 PM
[ReportManager] Successfully created attachment "Validation Test Data - Actual Value" @03-10-2022 15:19:39.0750 PM
[ReportManager] Get response jsonvalue "access_token". @03-10-2022 15:19:39.0752 PM
[ReportManager] Assertion Passed: Check that Access token is not null. @03-10-2022 15:19:39.0752 PM
[ReportManager] Successfully created attachment "Validation Test Data - Expected Value" @03-10-2022 15:19:39.0754 PM
[ReportManager] Successfully created attachment "Validation Test Data - Actual Value" @03-10-2022 15:19:39.0755 PM
[ReportManager] File Action "DoesFileExist" successfully performed. With the following test data "File Path: "Token_schema.json"". @03-10-2022 15:19:39.0756 PM
[ReportManager] File Action "DoesFileExist" successfully performed. With the following test data "File Path: "src/test/resources/testDataFiles/Token_schema.json"". @03-10-2022 15:19:39.0756 PM
[ReportManager] File Action "GetAbsolutePath" successfully performed. With the following test data "Relative Folder Path: "src/test/resources/testDataFiles/Token_schema.json"". @03-10-2022 15:19:39.0756 PM
[ReportManager] File Action "DoesFileExist" successfully performed. With the following test data "File Path: "C:\eclipse-workspace\MyProjects\TASystemsAPIs\src\test\resources\testDataFiles\Token_schema.json"". @03-10-2022 15:19:39.0762 PM
[ReportManager] File Action "GetAbsolutePath" successfully performed. With the following test data "Relative Folder Path: "C:\eclipse-workspace\MyProjects\TASystemsAPIs\src\test\resources\testDataFiles\Token_schema.json"". @03-10-2022 15:19:39.0762 PM
[ReportManager] File Action "ReadFromFile" successfully performed. With the following test data "File Path: "C:\eclipse-workspace\MyProjects\TASystemsAPIs\src\test\resources\testDataFiles\Token_schema.json"". @03-10-2022 15:19:39.0763 PM
[ReportManager] Assertion Passed: The API response schema matches that in this file "src/test/resources/testDataFiles/Token_schema.json". @03-10-2022 15:19:39.0764 PM
[ReportManager] Successfully created attachment "Validation Test Data - Expected JSON Value" @03-10-2022 15:19:39.0765 PM
[ReportManager] Successfully created attachment "Validation Test Data - Actual JSON Value" @03-10-2022 15:19:39.0767 PM
[ReportManager] Verification Passed: "665" is greater than or equal to "1.1". @03-10-2022 15:19:39.0790 PM
[ReportManager] Verification Passed: "665" is less than or equal to "10000". @03-10-2022 15:19:39.0791 PM
[ReportManager] Setting discrete logging to: "true" @03-10-2022 15:19:40.0783 PM
[ReportManager] Response status code: "200", status line: "HTTP/1.1 200 " @03-10-2022 15:19:40.0783 PM
[ReportManager] Assertion Passed: Evaluating the actual response status code against the expected one... @03-10-2022 15:19:40.0784 PM
[ReportManager] Setting discrete logging to: "false" @03-10-2022 15:19:40.0784 PM
[ReportManager] Perform request "GET | Target Status Code: 200 | Service URL: https://api-demo.np.transporticonline.com/steeringcompanies/v1/lookups/vehicleTypes | Content Type: */* | Response Time: 964ms". @03-10-2022 15:19:40.0957 PM
[ReportManager] Successfully created attachment "API Request - Specifications" @03-10-2022 15:19:40.0958 PM
[ReportManager] Successfully created attachment "API Response - JSON Body" @03-10-2022 15:19:40.0960 PM
[ReportManager] Assertion Passed: "200" is equal to "200". @03-10-2022 15:19:40.0961 PM
[ReportManager] Verification Passed: "964" is greater than or equal to "1.1". @03-10-2022 15:19:40.0961 PM
[ReportManager] Verification Passed: "964" is less than or equal to "10000". @03-10-2022 15:19:40.0961 PM
[ReportManager] Assertion Passed: "{"page":0,"size":2147483647,"totalPages":1,"totalElements":4,"content":[{"id":1,"nameArabic":"????? ?????","nameEnglish":"Sedan Car","isActive":true,"lastUpdated":"2019-12-15T12:21:55Z","maximumCapacity":4,"sectors":null},{"id":4,"nameArabic":"???","nameEnglish":"Van","isActive":true,"lastUpdated":"2020-01-21T07:57:12Z","maximumCapacity":15,"sectors":null},{"id":2,"nameArabic":"????? ???","nameEnglish":"SUV Car","isActive":true,"lastUpdated":"2019-12-15T12:22:01Z","maximumCapacity":7,"sectors":null},{"id":3,"nameArabic":"?????","nameEnglish":"Bus","isActive":true,"lastUpdated":"2020-01-05T18:27:40Z","maximumCapacity":55,"sectors":null}]}" contains "content". @03-10-2022 15:19:40.0961 PM
[ReportManager] Successfully created attachment "Validation Test Data - Expected Value" @03-10-2022 15:19:40.0962 PM
[ReportManager] Successfully created attachment "Validation Test Data - Actual Value" @03-10-2022 15:19:40.0964 PM
[ReportManager] Get response jsonvalue "content". @03-10-2022 15:19:40.0965 PM
[ReportManager] Assertion Passed: Check that content object is not null. @03-10-2022 15:19:40.0965 PM
[ReportManager] Successfully created attachment "Validation Test Data - Expected Value" @03-10-2022 15:19:40.0967 PM
[ReportManager] Successfully created attachment "Validation Test Data - Actual Value" @03-10-2022 15:19:40.0971 PM
[ReportManager] File Action "DoesFileExist" successfully performed. With the following test data "File Path: "Lookups_vehicleTypes_schema.json"". @03-10-2022 15:19:40.0971 PM
[ReportManager] File Action "DoesFileExist" successfully performed. With the following test data "File Path: "src/test/resources/testDataFiles/Lookups_vehicleTypes_schema.json"". @03-10-2022 15:19:40.0972 PM
[ReportManager] File Action "GetAbsolutePath" successfully performed. With the following test data "Relative Folder Path: "src/test/resources/testDataFiles/Lookups_vehicleTypes_schema.json"". @03-10-2022 15:19:40.0972 PM
[ReportManager] File Action "DoesFileExist" successfully performed. With the following test data "File Path: "C:\eclipse-workspace\MyProjects\TASystemsAPIs\src\test\resources\testDataFiles\Lookups_vehicleTypes_schema.json"". @03-10-2022 15:19:40.0977 PM
[ReportManager] File Action "GetAbsolutePath" successfully performed. With the following test data "Relative Folder Path: "C:\eclipse-workspace\MyProjects\TASystemsAPIs\src\test\resources\testDataFiles\Lookups_vehicleTypes_schema.json"". @03-10-2022 15:19:40.0977 PM
[ReportManager] File Action "ReadFromFile" successfully performed. With the following test data "File Path: "C:\eclipse-workspace\MyProjects\TASystemsAPIs\src\test\resources\testDataFiles\Lookups_vehicleTypes_schema.json"". @03-10-2022 15:19:40.0978 PM
[ReportManager] Assertion Passed: The API response schema matches that in this file "src/test/resources/testDataFiles/Lookups_vehicleTypes_schema.json". @03-10-2022 15:19:40.0979 PM
[ReportManager] Successfully created attachment "Validation Test Data - Expected JSON Value" @03-10-2022 15:19:40.0980 PM
[ReportManager] Successfully created attachment "Validation Test Data - Actual JSON Value" @03-10-2022 15:19:40.0981 PM
[ReportManager] Verification Passed: "964" is greater than or equal to "1.1". @03-10-2022 15:19:40.0981 PM
[ReportManager] Verification Passed: "964" is less than or equal to "10000". @03-10-2022 15:19:40.0982 PM
[ReportManager] Setting discrete logging to: "true" @03-10-2022 15:19:42.0694 PM
[ReportManager] Response status code: "200", status line: "HTTP/1.1 200 " @03-10-2022 15:19:42.0694 PM
[ReportManager] Assertion Passed: Evaluating the actual response status code against the expected one... @03-10-2022 15:19:42.0695 PM
[ReportManager] Setting discrete logging to: "false" @03-10-2022 15:19:42.0695 PM
[ReportManager] Perform request "GET | Target Status Code: 200 | Service URL: https://api-demo.np.transporticonline.com/steeringcompanies/v1/lookups/vehicleTypes | Content Type: */* | Response Time: 1710ms". @03-10-2022 15:19:42.0717 PM
[ReportManager] Successfully created attachment "API Request - Specifications" @03-10-2022 15:19:42.0720 PM
[ReportManager] Successfully created attachment "API Response - JSON Body" @03-10-2022 15:19:42.0721 PM
[ReportManager] Assertion Passed: "200" is equal to "200". @03-10-2022 15:19:42.0721 PM
[ReportManager] Verification Passed: "1710" is greater than or equal to "1.1". @03-10-2022 15:19:42.0721 PM
[ReportManager] Verification Passed: "1710" is less than or equal to "10000". @03-10-2022 15:19:42.0722 PM
[ReportManager] Assertion Passed: "{"page":0,"size":3,"totalPages":2,"totalElements":4,"content":[{"id":1,"nameArabic":"????? ?????","nameEnglish":"Sedan Car","isActive":true,"lastUpdated":"2019-12-15T12:21:55Z","maximumCapacity":4,"sectors":null},{"id":4,"nameArabic":"???","nameEnglish":"Van","isActive":true,"lastUpdated":"2020-01-21T07:57:12Z","maximumCapacity":15,"sectors":null},{"id":2,"nameArabic":"????? ???","nameEnglish":"SUV Car","isActive":true,"lastUpdated":"2019-12-15T12:22:01Z","maximumCapacity":7,"sectors":null}]}" contains "content". @03-10-2022 15:19:42.0722 PM
[ReportManager] Get response jsonvalue "content". @03-10-2022 15:19:42.0723 PM
[ReportManager] Assertion Passed: Check that content object is not null. @03-10-2022 15:19:42.0723 PM
[ReportManager] File Action "DoesFileExist" successfully performed. With the following test data "File Path: "Lookups_vehicleTypes_schema.json"". @03-10-2022 15:19:42.0724 PM
[ReportManager] File Action "DoesFileExist" successfully performed. With the following test data "File Path: "src/test/resources/testDataFiles/Lookups_vehicleTypes_schema.json"". @03-10-2022 15:19:42.0724 PM
[ReportManager] File Action "GetAbsolutePath" successfully performed. With the following test data "Relative Folder Path: "src/test/resources/testDataFiles/Lookups_vehicleTypes_schema.json"". @03-10-2022 15:19:42.0724 PM
[ReportManager] File Action "DoesFileExist" successfully performed. With the following test data "File Path: "C:\eclipse-workspace\MyProjects\TASystemsAPIs\src\test\resources\testDataFiles\Lookups_vehicleTypes_schema.json"". @03-10-2022 15:19:42.0727 PM
[ReportManager] File Action "GetAbsolutePath" successfully performed. With the following test data "Relative Folder Path: "C:\eclipse-workspace\MyProjects\TASystemsAPIs\src\test\resources\testDataFiles\Lookups_vehicleTypes_schema.json"". @03-10-2022 15:19:42.0728 PM
[ReportManager] File Action "ReadFromFile" successfully performed. With the following test data "File Path: "C:\eclipse-workspace\MyProjects\TASystemsAPIs\src\test\resources\testDataFiles\Lookups_vehicleTypes_schema.json"". @03-10-2022 15:19:42.0728 PM
[ReportManager] Assertion Passed: The API response schema matches that in this file "src/test/resources/testDataFiles/Lookups_vehicleTypes_schema.json". @03-10-2022 15:19:42.0728 PM
[ReportManager] Successfully created attachment "Validation Test Data - Expected JSON Value" @03-10-2022 15:19:42.0729 PM
[ReportManager] Successfully created attachment "Validation Test Data - Actual JSON Value" @03-10-2022 15:19:42.0730 PM
[ReportManager] Verification Passed: "1710" is greater than or equal to "1.1". @03-10-2022 15:19:42.0730 PM
[ReportManager] Verification Passed: "1710" is less than or equal to "10000". @03-10-2022 15:19:42.0730 PM