
################################################################################################################################################
Starting Execution:	"2 out of 5" test cases in the current suite
Test Method:		"SteeringCompanyAPI_TestCases.Test_Lookups_Cases.Valid_GET_all_cities_Lookups_by_Qry_Rq_TC"
Test Description:	"TC002 - Peform Get all cities API by parameters Qry with valid user name and password and retun with token"
################################################################################################################################################
[ReportManager] File Action "DoesFileExist" successfully performed. With the following test data "File Path: "SteeringCompanyAPI_TestData/SteeringCompanyAPI_TestData.xlsx"". @19-10-2022 09:51:24.0160 AM
[ReportManager] Loaded Test Data: "src/test/resources/testDataFiles/SteeringCompanyAPI_TestData/SteeringCompanyAPI_TestData.xlsx". @19-10-2022 09:51:24.0190 AM
[ReportManager] Successfully created attachment "Test Data - Excel" @19-10-2022 09:51:24.0190 AM
[ReportManager] Response status code: "200", status line: "HTTP/1.1 200 OK" @19-10-2022 09:51:24.0887 AM
[ReportManager] Assertion Passed: Evaluating the actual response status code against the expected one... @19-10-2022 09:51:24.0888 AM
[ReportManager] Perform request "POST | Target Status Code: 200 | Service URL: https://auth-demo.np.transporticonline.com/auth/realms/tic/protocol/openid-connect/token | Content Type: application/x-www-form-urlencoded | Response Time: 691ms". @19-10-2022 09:51:24.0929 AM
[ReportManager] Successfully created attachment "API Request - Specifications" @19-10-2022 09:51:24.0930 AM
[ReportManager] Successfully created attachment "API Request - Body" @19-10-2022 09:51:24.0933 AM
[ReportManager] Successfully created attachment "API Response - JSON Body" @19-10-2022 09:51:24.0936 AM
[ReportManager] Assertion Passed: Check Response Status Code is 200 and it is valid. @19-10-2022 09:51:24.0937 AM
[ReportManager] File Action "DoesFileExist" successfully performed. With the following test data "File Path: "SteeringCompanyAPI_TestData/SteeringCompanyAPI_TestData.xlsx"". @19-10-2022 09:51:24.0966 AM
[ReportManager] Loaded Test Data: "src/test/resources/testDataFiles/SteeringCompanyAPI_TestData/SteeringCompanyAPI_TestData.xlsx". @19-10-2022 09:51:24.0997 AM
[ReportManager] Successfully created attachment "Test Data - Excel" @19-10-2022 09:51:24.0997 AM
[ReportManager] Response status code: "200", status line: "HTTP/1.1 200 " @19-10-2022 09:51:25.0621 AM
[ReportManager] Assertion Passed: Evaluating the actual response status code against the expected one... @19-10-2022 09:51:25.0623 AM
[ReportManager] Perform request "GET | Target Status Code: 200 | Service URL: https://api-demo.np.transporticonline.com/steeringcompanies/v1/lookups/cities | Content Type: */* | Response Time: 582ms". @19-10-2022 09:51:25.0645 AM
[ReportManager] Successfully created attachment "API Request - Specifications" @19-10-2022 09:51:25.0646 AM
[ReportManager] Successfully created attachment "API Response - JSON Body" @19-10-2022 09:51:25.0649 AM
[ReportManager] Assertion Passed: "200" is equal to "200". @19-10-2022 09:51:25.0650 AM
[ReportManager] Verification Passed: "582" is greater than or equal to "1.1". @19-10-2022 09:51:25.0650 AM
[ReportManager] Verification Passed: "582" is less than or equal to "10000". @19-10-2022 09:51:25.0650 AM
[ReportManager] Assertion Passed: "{"page":0,"size":3,"totalPages":235,"totalElements":704,"content":[{"id":1071,"nameArabic":"???? ?????? ??????","nameEnglish":"Denizli Cardak Airport","isActive":true,"lastUpdated":"2022-06-02T00:13:35Z","sectors":null},{"id":390021162,"nameArabic":"?????","nameEnglish":"PRATO","isActive":true,"lastUpdated":"2022-06-02T00:13:44Z","sectors":null},{"id":36,"nameArabic":"??????????","nameEnglish":"Kuala Lumpur","isActive":true,"lastUpdated":"2022-06-02T01:21:49Z","sectors":null}]}" contains "content". @19-10-2022 09:51:25.0653 AM
[ReportManager] Get response jsonvalue "content". @19-10-2022 09:51:25.0683 AM
[ReportManager] Assertion Passed: Check that content object is not null. @19-10-2022 09:51:25.0690 AM
[ReportManager] File Action "DoesFileExist" successfully performed. With the following test data "File Path: "Lookups_cities_schema.json"". @19-10-2022 09:51:25.0693 AM
[ReportManager] File Action "DoesFileExist" successfully performed. With the following test data "File Path: "src/test/resources/testDataFiles/Lookups_cities_schema.json"". @19-10-2022 09:51:25.0693 AM
[ReportManager] File Action "GetAbsolutePath" successfully performed. With the following test data "Relative Folder Path: "src/test/resources/testDataFiles/Lookups_cities_schema.json"". @19-10-2022 09:51:25.0693 AM
[ReportManager] File Action "DoesFileExist" successfully performed. With the following test data "File Path: "C:\eclipse-workspace\MyProjects\TASystemsAPIs\src\test\resources\testDataFiles\Lookups_cities_schema.json"". @19-10-2022 09:51:25.0699 AM
[ReportManager] File Action "GetAbsolutePath" successfully performed. With the following test data "Relative Folder Path: "C:\eclipse-workspace\MyProjects\TASystemsAPIs\src\test\resources\testDataFiles\Lookups_cities_schema.json"". @19-10-2022 09:51:25.0700 AM
[ReportManager] File Action "ReadFromFile" successfully performed. With the following test data "File Path: "C:\eclipse-workspace\MyProjects\TASystemsAPIs\src\test\resources\testDataFiles\Lookups_cities_schema.json"". @19-10-2022 09:51:25.0701 AM
[ReportManager] Assertion Passed: The API response schema matches that in this file "src/test/resources/testDataFiles/Lookups_cities_schema.json". @19-10-2022 09:51:25.0702 AM
[ReportManager] Successfully created attachment "Validation Test Data - Expected JSON Value" @19-10-2022 09:51:25.0703 AM
[ReportManager] Successfully created attachment "Validation Test Data - Actual JSON Value" @19-10-2022 09:51:25.0703 AM