
################################################################################################################################################
Starting Execution:	"70 out of 110" test cases in the current suite
Test Method:		"SteeringCompanyAPI_TestCases.Test_CreationalPeriod_Cases.Get_Valid_all_CreationalPeriod_by_Qry_Rq_TC"
Test Description:	"TC002  -CreationalPeriod-   Perform Get all CreationalPeriod API with pagination with valid user name and password"
################################################################################################################################################
[ReportManager] File Action "DoesFileExist" successfully performed. With the following test data "File Path: "SteeringCompanyAPI_TestData/SteeringCompanyAPI_TestData.xlsx"". @07-02-2023 14:56:50.0229 PM
[ReportManager] Loaded Test Data: "src/test/resources/testDataFiles/SteeringCompanyAPI_TestData/SteeringCompanyAPI_TestData.xlsx". @07-02-2023 14:56:50.0266 PM
[ReportManager] Successfully created attachment "Test Data - Excel" @07-02-2023 14:56:50.0267 PM
[ReportManager] Response status code: "200", status line: "HTTP/1.1 200 OK" @07-02-2023 14:56:50.0890 PM
[ReportManager] Assertion Passed: Evaluating the actual response status code against the expected one... @07-02-2023 14:56:50.0891 PM
[ReportManager] Perform request "POST | Target Status Code: 200 | Service URL: https://auth-demo.np.transporticonline.com/auth/realms/tic/protocol/openid-connect/token | Content Type: application/x-www-form-urlencoded | Response Time: 620ms". @07-02-2023 14:56:50.0918 PM
[ReportManager] Successfully created attachment "API Request - Specifications" @07-02-2023 14:56:50.0919 PM
[ReportManager] Successfully created attachment "API Request - Body" @07-02-2023 14:56:50.0921 PM
[ReportManager] Successfully created attachment "API Response - JSON Body" @07-02-2023 14:56:50.0925 PM
[ReportManager] Assertion Passed: Check Response Status Code is 200 and it is valid. @07-02-2023 14:56:50.0925 PM
[ReportManager] File Action "DoesFileExist" successfully performed. With the following test data "File Path: "SteeringCompanyAPI_TestData/SteeringCompanyAPI_TestData.xlsx"". @07-02-2023 14:56:50.0948 PM
[ReportManager] Loaded Test Data: "src/test/resources/testDataFiles/SteeringCompanyAPI_TestData/SteeringCompanyAPI_TestData.xlsx". @07-02-2023 14:56:50.0983 PM
[ReportManager] Successfully created attachment "Test Data - Excel" @07-02-2023 14:56:50.0984 PM
[ReportManager] Response status code: "200", status line: "HTTP/1.1 200 " @07-02-2023 14:56:51.0529 PM
[ReportManager] Assertion Passed: Evaluating the actual response status code against the expected one... @07-02-2023 14:56:51.0530 PM
[ReportManager] Perform request "GET | Target Status Code: 200 | Service URL: https://api-demo.np.transporticonline.com/steeringcompanies/v1/creationalPeriods | Content Type: */* | Response Time: 542ms". @07-02-2023 14:56:51.0549 PM
[ReportManager] Successfully created attachment "API Request - Specifications" @07-02-2023 14:56:51.0550 PM
[ReportManager] Successfully created attachment "API Response - JSON Body" @07-02-2023 14:56:51.0552 PM
[ReportManager] Assertion Passed: "200" is equal to "200". @07-02-2023 14:56:51.0552 PM
[ReportManager] Verification Passed: "542" is greater than or equal to "1.1". @07-02-2023 14:56:51.0553 PM
[ReportManager] Verification Passed: "542" is less than or equal to "10000". @07-02-2023 14:56:51.0553 PM
[ReportManager] Assertion Passed: "{"page":1,"size":1,"totalPages":2,"totalElements":2,"content":[{"id":193,"startDate":"2022-11-21T01:33:00Z","endDate":"2022-11-22T13:33:00Z","status":"Active","periodMaxQuotaPerPeriod":100.00,"periodProgramTemplates":[314]}]}" contains "content". @07-02-2023 14:56:51.0553 PM
[ReportManager] Get response jsonvalue "content". @07-02-2023 14:56:51.0554 PM
[ReportManager] Assertion Passed: Check that content object is not null. @07-02-2023 14:56:51.0554 PM
[ReportManager] File Action "DoesFileExist" successfully performed. With the following test data "File Path: "Schemas/CreationalPeriods_schema.json"". @07-02-2023 14:56:51.0554 PM
[ReportManager] File Action "DoesFileExist" successfully performed. With the following test data "File Path: "src/test/resources/testDataFiles/Schemas/CreationalPeriods_schema.json"". @07-02-2023 14:56:51.0555 PM
[ReportManager] File Action "GetAbsolutePath" successfully performed. With the following test data "Relative Folder Path: "src/test/resources/testDataFiles/Schemas/CreationalPeriods_schema.json"". @07-02-2023 14:56:51.0555 PM
[ReportManager] File Action "DoesFileExist" successfully performed. With the following test data "File Path: "C:\eclipse-workspace\MyProjects\TASystemsAPIs\src\test\resources\testDataFiles\Schemas\CreationalPeriods_schema.json"". @07-02-2023 14:56:51.0559 PM
[ReportManager] File Action "GetAbsolutePath" successfully performed. With the following test data "Relative Folder Path: "C:\eclipse-workspace\MyProjects\TASystemsAPIs\src\test\resources\testDataFiles\Schemas\CreationalPeriods_schema.json"". @07-02-2023 14:56:51.0559 PM
[ReportManager] File Action "ReadFile" successfully performed. With the following test data "File Path: "C:\eclipse-workspace\MyProjects\TASystemsAPIs\src\test\resources\testDataFiles\Schemas\CreationalPeriods_schema.json"". @07-02-2023 14:56:51.0560 PM
[ReportManager] Assertion Passed: The API response schema matches that in this file "src/test/resources/testDataFiles/Schemas/CreationalPeriods_schema.json". @07-02-2023 14:56:51.0561 PM
[ReportManager] Successfully created attachment "Validation Test Data - Expected JSON Value" @07-02-2023 14:56:51.0563 PM
[ReportManager] Successfully created attachment "Validation Test Data - Actual JSON Value" @07-02-2023 14:56:51.0565 PM