{"uuid":"600103de-8acd-40da-956b-ba414104ed04","historyId":"7653b5b2be0c5341c428857732852d7c","fullName":"SteeringCompanyAPI_TestCases.Test_PeriodProgramTemplate_Cases.Get_Valid_all_PeriodProgramTemplate_by_Qry_Rq_TC","labels":[{"name":"package","value":"SteeringCompanyAPI_TestCases.Test_PeriodProgramTemplate_Cases"},{"name":"testClass","value":"SteeringCompanyAPI_TestCases.Test_PeriodProgramTemplate_Cases"},{"name":"testMethod","value":"Get_Valid_all_PeriodProgramTemplate_by_Qry_Rq_TC"},{"name":"parentSuite","value":"Suite"},{"name":"suite","value":"Test"},{"name":"subSuite","value":"SteeringCompanyAPI_TestCases.Test_PeriodProgramTemplate_Cases"},{"name":"host","value":"TW-1056"},{"name":"thread","value":"12936@TW-1056.main(1)"},{"name":"framework","value":"testng"},{"name":"language","value":"java"},{"name":"story","value":"Retrieving All Active PeriodProgramTemplate with Pagination"},{"name":"severity","value":"critical"}],"links":[],"name":"TC002  -PeriodProgramTemplate-   Perform Get all PeriodProgramTemplate API with pagination with valid user name and password","status":"passed","statusDetails":{"known":false,"muted":false,"flaky":false},"stage":"finished","steps":[{"name":"Loaded Test Data: \"src/test/resources/testDataFiles/SteeringCompanyAPI_TestData/SteeringCompanyAPI_TestData.xlsx\".","status":"passed","stage":"finished","steps":[],"attachments":[{"name":"Test Data - Excel","source":"44cf2c05-d682-4e1b-ac61-3594386d4936-attachment.xlsx","type":"application/vnd.openxmlformats-officedocument.spreadsheetml.sheet"}],"parameters":[{"name":"logText","value":"Loaded Test Data: \"src/test/resources/testDataFiles/SteeringCompanyAPI_TestData/SteeringCompanyAPI_TestData.xlsx\"."},{"name":"attachments","value":"[[Test Data, Excel, java.io.FileInputStream@1612fdb6]]"}],"start":1674642812817,"stop":1674642812819},{"name":"Assertion Passed: Evaluating the actual response status code against the expected one...","status":"passed","stage":"finished","steps":[],"attachments":[],"parameters":[{"name":"customLog","value":"Assertion Passed: Evaluating the actual response status code against the expected one..."},{"name":"stepLog","value":"Assertion \"ValidateComparativeRelation\" PASSED. Expected \"200\" and Actual \"200\". Comparison Type \"EQUALS\". Validation Type \"POSITIVE\"."},{"name":"attachments","value":"null"}],"start":1674642813418,"stop":1674642813418},{"name":"Perform request \"POST | Target Status Code: 200 | Service URL: https://auth-demo.np.transporticonline.com/auth/realms/tic/protocol/openid-connect/token | Content Type: application/x-www-form-urlencoded | Response Time: 593ms\".","status":"passed","stage":"finished","steps":[],"attachments":[{"name":"API Request - Specifications","source":"17eb720b-6854-4510-9a00-7d52e61366e1-attachment"},{"name":"API Request - Body","source":"432c9ea6-34a7-4084-977b-da467fbad3b3-attachment"},{"name":"API Response - JSON Body","source":"349b4d1c-7598-40c8-a512-7279eeeddb87-attachment.json","type":"text/json"}],"parameters":[{"name":"logText","value":"Perform request \"POST | Target Status Code: 200 | Service URL: https://auth-demo.np.transporticonline.com/auth/realms/tic/protocol/openid-connect/token | Content Type: application/x-www-form-urlencoded | Response Time: 593ms\"."},{"name":"attachments","value":"[[API Request, Specifications, Headers:\r\n_______________\r\n\r\nContent-Type=application/x-www-form-urlencoded\r\n\r\n], [API Request, Body, java.io.ByteArrayInputStream@28bda649], null, [API Response, JSON Body, java.io.ByteArrayInputStream@5dbe891a]]"}],"start":1674642813451,"stop":1674642813456},{"name":"Assertion Passed: Check Response Status Code is 200 and it is valid.","status":"passed","stage":"finished","steps":[],"attachments":[],"parameters":[{"name":"customLog","value":"Assertion Passed: Check Response Status Code is 200 and it is valid."},{"name":"stepLog","value":"Assertion \"ValidateComparativeRelation\" PASSED. Expected \"200\" and Actual \"200\". Comparison Type \"EQUALS\". Validation Type \"POSITIVE\"."},{"name":"attachments","value":"null"}],"start":1674642813457,"stop":1674642813457},{"name":"Loaded Test Data: \"src/test/resources/testDataFiles/SteeringCompanyAPI_TestData/SteeringCompanyAPI_TestData.xlsx\".","status":"passed","stage":"finished","steps":[],"attachments":[{"name":"Test Data - Excel","source":"79c3fa3a-9d99-4f3d-a5fd-ba67a9c7331b-attachment.xlsx","type":"application/vnd.openxmlformats-officedocument.spreadsheetml.sheet"}],"parameters":[{"name":"logText","value":"Loaded Test Data: \"src/test/resources/testDataFiles/SteeringCompanyAPI_TestData/SteeringCompanyAPI_TestData.xlsx\"."},{"name":"attachments","value":"[[Test Data, Excel, java.io.FileInputStream@708f0dd6]]"}],"start":1674642813516,"stop":1674642813518},{"name":"Assertion Passed: Evaluating the actual response status code against the expected one...","status":"passed","stage":"finished","steps":[],"attachments":[],"parameters":[{"name":"customLog","value":"Assertion Passed: Evaluating the actual response status code against the expected one..."},{"name":"stepLog","value":"Assertion \"ValidateComparativeRelation\" PASSED. Expected \"200\" and Actual \"200\". Comparison Type \"EQUALS\". Validation Type \"POSITIVE\"."},{"name":"attachments","value":"null"}],"start":1674642813966,"stop":1674642813966},{"name":"Perform request \"GET | Target Status Code: 200 | Service URL: https://api-demo.np.transporticonline.com/steeringcompanies/v1/periodProgramTemplates | Content Type: */* | Response Time: 444ms\".","status":"passed","stage":"finished","steps":[],"attachments":[{"name":"API Request - Specifications","source":"37cf6522-2c30-40c5-a733-b849b9c7f79f-attachment"},{"name":"API Response - JSON Body","source":"25cf7e92-ded4-4542-afff-0c926240bf80-attachment.json","type":"text/json"}],"parameters":[{"name":"logText","value":"Perform request \"GET | Target Status Code: 200 | Service URL: https://api-demo.np.transporticonline.com/steeringcompanies/v1/periodProgramTemplates | Content Type: */* | Response Time: 444ms\"."},{"name":"attachments","value":"[[API Request, Specifications, Headers:\r\n_______________\r\n\r\nAuthorization=Bearer eyJhbGciOiJSUzI1NiIsInR5cCIgOiAiSldUIiwia2lkIiA6ICJjck9ORDFNdFVPVWhzS2Mtb0ppVFFmb0o1d1l4REF6Y3k0ZjNYZ0dveGdZIn0.eyJleHAiOjE2NzQ2NjQ0MTAsImlhdCI6MTY3NDY0MjgxMCwianRpIjoiMWM3ZGMzNzgtMjQ2OC00ODUyLWFiMzItZjFhOTVmMjNjMjEzIiwiaXNzIjoiaHR0cHM6Ly9hdXRoLWRlbW8ubnAudHJhbnNwb3J0aWNvbmxpbmUuY29tL2F1dGgvcmVhbG1zL3RpYyIsImF1ZCI6ImFjY291bnQiLCJzdWIiOiI0ZTk3NmQ0NC1iM2ZkLTRjYTktODk1Ny0wYWJiODUwNzNhNzQiLCJ0eXAiOiJCZWFyZXIiLCJhenAiOiJ0aWMtYXBpIiwic2Vzc2lvbl9zdGF0ZSI6ImQ4OGQ3YjNhLTFhMmItNDMyYS05OGMyLTI2MTM0NjVhYjMxNyIsImFjciI6IjEiLCJhbGxvd2VkLW9yaWdpbnMiOlsiaHR0cHM6Ly9hcGktZGV2Lm5wLnRyYW5zcG9ydGljb25saW5lLmNvbSJdLCJyZWFsbV9hY2Nlc3MiOnsicm9sZXMiOlsib2ZmbGluZV9hY2Nlc3MiLCJkZWZhdWx0LXJvbGVzLXRpYyIsInVtYV9hdXRob3JpemF0aW9uIiwidXNlciJdfSwicmVzb3VyY2VfYWNjZXNzIjp7ImFjY291bnQiOnsicm9sZXMiOlsibWFuYWdlLWFjY291bnQiLCJtYW5hZ2UtYWNjb3VudC1saW5rcyIsInZpZXctcHJvZmlsZSJdfX0sInNjb3BlIjoiZW1haWwgcHJvZmlsZSIsInNpZCI6ImQ4OGQ3YjNhLTFhMmItNDMyYS05OGMyLTI2MTM0NjVhYjMxNyIsImVtYWlsX3ZlcmlmaWVkIjpmYWxzZSwicHJlZmVycmVkX3VzZXJuYW1lIjoidG9raGkiLCJ0Y0lkIjoiMzE5OTU3In0.Z6TCi6d5K3NrdpuyfcoskspnBmggCsxb_fyIwjJpQGQ7SYzKEajzIWP7iFpQdZNJcXtQ0VjXJ2FuRwdy9t_vrqQe69HyhK7p_LE6YI6BXhKrAb0nhzVeY8FNWtD5Hl0saJVAZsADQojcuFb3j0wjY5P_r_D2psSKvtOj3_8JGBrnnDhYiMNjF-YaxC464fj0y8jt0o7sB5FTN9I-9LoV-sJuzJmwLqjJnhbS41NuujTi4iyPn8rxzg9I8tYPx5ooxuIS4vDPRNy5X--6_91vUOOytQSWoRwX7WZrKTLLz0SIlNnRIjoCVDflD7qaxkJVoZjLOfNVhvKNVWoLI1pRgQ\r\nContent-Type=*/*\r\n\r\nQuery Parameters:\r\n_______________\r\n\r\nsize=1\r\npage=0\r\n], null, [API Response, JSON Body, java.io.ByteArrayInputStream@56609c11]]"}],"start":1674642813987,"stop":1674642813991},{"name":"Assertion Passed: \"200\" is equal to \"200\".","status":"passed","stage":"finished","steps":[],"attachments":[],"parameters":[{"name":"customLog","value":"Assertion Passed: \"200\" is equal to \"200\"."},{"name":"stepLog","value":"Assertion \"ValidateComparativeRelation\" PASSED. Expected \"200\" and Actual \"200\". Comparison Type \"EQUALS\". Validation Type \"POSITIVE\"."},{"name":"attachments","value":"null"}],"start":1674642813993,"stop":1674642813993},{"name":"Verification Passed: \"444\" is greater than or equal to \"1.1\".","status":"passed","stage":"finished","steps":[],"attachments":[],"parameters":[{"name":"customLog","value":"Verification Passed: \"444\" is greater than or equal to \"1.1\"."},{"name":"stepLog","value":"Verification \"ValidateComparativeRelation\" PASSED. Expected \"1.1\" and Actual \"444\". Comparison Type \"GREATER_THAN_OR_EQUALS\". Validation Type \"POSITIVE\"."},{"name":"attachments","value":"null"}],"start":1674642813993,"stop":1674642813993},{"name":"Verification Passed: \"444\" is less than or equal to \"10000\".","status":"passed","stage":"finished","steps":[],"attachments":[],"parameters":[{"name":"customLog","value":"Verification Passed: \"444\" is less than or equal to \"10000\"."},{"name":"stepLog","value":"Verification \"ValidateComparativeRelation\" PASSED. Expected \"10000\" and Actual \"444\". Comparison Type \"LESS_THAN_OR_EQUALS\". Validation Type \"POSITIVE\"."},{"name":"attachments","value":"null"}],"start":1674642813993,"stop":1674642813993},{"name":"Assertion Passed: \"{\"page\":0,\"size\":1,\"totalPages\":93,\"totalElements\":93,\"content\":[{\"id\":213,\"seasonType\":\"umrah\",\"saleSystem\":\"GDS\",\"programType\":\"Routes\",\"programMechanism\":\"reservations\",\"routeId\":60,\"season\":1444,\"vehicleTypeId\":4,\"vehicleCategoryId\":1,\"minimumModelYear\":2010,\"maximumModelYear\":2022,\"minimumVehiclePricePer\":1200,\"minimumSeat\":5,\"maximumSeat\":9,\"templatePeriodStartDate\":\"2022-09-05\",\"templatePeriodEndDate\":\"2022-09-12\",\"templatePeriodMaximumQuota\":100,\"isActive\":true}]}\" contains \"content\".","status":"passed","stage":"finished","steps":[],"attachments":[],"parameters":[{"name":"customLog","value":"Assertion Passed: \"{\"page\":0,\"size\":1,\"totalPages\":93,\"totalElements\":93,\"content\":[{\"id\":213,\"seasonType\":\"umrah\",\"saleSystem\":\"GDS\",\"programType\":\"Routes\",\"programMechanism\":\"reservations\",\"routeId\":60,\"season\":1444,\"vehicleTypeId\":4,\"vehicleCategoryId\":1,\"minimumModelYear\":2010,\"maximumModelYear\":2022,\"minimumVehiclePricePer\":1200,\"minimumSeat\":5,\"maximumSeat\":9,\"templatePeriodStartDate\":\"2022-09-05\",\"templatePeriodEndDate\":\"2022-09-12\",\"templatePeriodMaximumQuota\":100,\"isActive\":true}]}\" contains \"content\"."},{"name":"stepLog","value":"Assertion \"ValidateEquals\" PASSED. Expected \"content\" and Actual \"{\"page\":0,\"size\":1,\"totalPages\":93,\"totalElements\":93,\"content\":[{\"id\":213,\"seasonType\":\"umrah\",\"saleSystem\":\"GDS\",\"programType\":\"Routes\",\"programMechanism\":\"reservations\",\"routeId\":60,\"season\":1444,\"vehicleTypeId\":4,\"vehicleCategoryId\":1,\"minimumModelYear\":2010,\"maximumModelYear\":2022,\"minimumVehiclePricePer\":1200,\"minimumSeat\":5,\"maximumSeat\":9,\"templatePeriodStartDate\":\"2022-09-05\",\"templatePeriodEndDate\":\"2022-09-12\",\"templatePeriodMaximumQuota\":100,\"isActive\":true}]}\". Comparison Type \"CONTAINS\". Validation Type \"POSITIVE\"."},{"name":"attachments","value":"null"}],"start":1674642813993,"stop":1674642813993},{"name":"Assertion Passed: Check that content object is not null.","status":"passed","stage":"finished","steps":[],"attachments":[],"parameters":[{"name":"customLog","value":"Assertion Passed: Check that content object is not null."},{"name":"stepLog","value":"Assertion \"ValidateEquals\" PASSED. Expected \"null\" and Actual \"[{\"id\":213,\"seasonType\":\"umrah\",\"saleSystem\":\"GDS\",\"programType\":\"Routes\",\"programMechanism\":\"reservations\",\"routeId\":60,\"season\":1444,\"vehicleTypeId\":4,\"vehicleCategoryId\":1,\"minimumModelYear\":2010,\"maximumModelYear\":2022,\"minimumVehiclePricePer\":1200,\"minimumSeat\":5,\"maximumSeat\":9,\"templatePeriodStartDate\":\"2022-09-05\",\"templatePeriodEndDate\":\"2022-09-12\",\"templatePeriodMaximumQuota\":100,\"isActive\":true}]\". Comparison Type \"EQUALS\". Validation Type \"NEGATIVE\"."},{"name":"attachments","value":"null"}],"start":1674642813997,"stop":1674642813997},{"name":"Assertion Passed: The API response schema matches that in this file \"src/test/resources/testDataFiles/Schemas/PeriodProgramTemplates_schema.json\".","status":"passed","stage":"finished","steps":[],"attachments":[{"name":"Validation Test Data - Expected JSON Value","source":"7a74f14a-8213-4f51-8c2a-75b1b050810f-attachment.json","type":"text/json"},{"name":"Validation Test Data - Actual JSON Value","source":"e767d67d-203d-4dd9-88e0-b10dfdccef3d-attachment.json","type":"text/json"}],"parameters":[{"name":"customLog","value":"Assertion Passed: The API response schema matches that in this file \"src/test/resources/testDataFiles/Schemas/PeriodProgramTemplates_schema.json\"."},{"name":"stepLog","value":"Assertion \"ValidateResponseFileSchema\" PASSED. Expected \"Response data should match the JSON File in this path 'C:\\eclipse-workspace\\MyProjects\\TASystemsAPIs\\src\\test\\resources\\testDataFiles\\Schemas\\PeriodProgramTemplates_schema.json'\" and Actual \"TRUE\". Comparison Type \"EQUALS\". Validation Type \"POSITIVE\"."},{"name":"attachments","value":"[[Validation Test Data, Expected JSON Value, java.io.ByteArrayInputStream@e52dd47], [Validation Test Data, Actual JSON Value, java.io.ByteArrayInputStream@5c804888]]"}],"start":1674642814010,"stop":1674642814015}],"attachments":[{"name":"SHAFT Engine Logs - Current Method log: Get_Valid_all_PeriodProgramTemplate_by_Qry_Rq_TC","source":"df2e7528-96c8-4789-85c2-f157e83100fe-attachment.txt","type":"text/plain"}],"parameters":[],"start":1674642812757,"stop":1674642814016}