
################################################################################################################################################
Starting Execution:	"33 out of 110" test cases in the current suite
Test Method:		"SteeringCompanyAPI_TestCases.Test_Commissions_Cases.Valid_GET_all_Commissions_by_Qry_Rq_TC"
Test Description:	"TC002  -Commission- Perform Get all Commissions API with pagination with valid user name and password"
################################################################################################################################################
[ReportManager] File Action "DoesFileExist" successfully performed. With the following test data "File Path: "SteeringCompanyAPI_TestData/SteeringCompanyAPI_TestData.xlsx"". @07-02-2023 14:55:45.0293 PM
[ReportManager] Loaded Test Data: "src/test/resources/testDataFiles/SteeringCompanyAPI_TestData/SteeringCompanyAPI_TestData.xlsx". @07-02-2023 14:55:45.0345 PM
[ReportManager] Successfully created attachment "Test Data - Excel" @07-02-2023 14:55:45.0346 PM
[ReportManager] Response status code: "200", status line: "HTTP/1.1 200 OK" @07-02-2023 14:55:46.0706 PM
[ReportManager] Assertion Passed: Evaluating the actual response status code against the expected one... @07-02-2023 14:55:46.0706 PM
[ReportManager] Perform request "POST | Target Status Code: 200 | Service URL: https://auth-demo.np.transporticonline.com/auth/realms/tic/protocol/openid-connect/token | Content Type: application/x-www-form-urlencoded | Response Time: 1355ms". @07-02-2023 14:55:46.0729 PM
[ReportManager] Successfully created attachment "API Request - Specifications" @07-02-2023 14:55:46.0730 PM
[ReportManager] Successfully created attachment "API Request - Body" @07-02-2023 14:55:46.0732 PM
[ReportManager] Successfully created attachment "API Response - JSON Body" @07-02-2023 14:55:46.0737 PM
[ReportManager] Assertion Passed: Check Response Status Code is 200 and it is valid. @07-02-2023 14:55:46.0739 PM
[ReportManager] File Action "DoesFileExist" successfully performed. With the following test data "File Path: "SteeringCompanyAPI_TestData/SteeringCompanyAPI_TestData.xlsx"". @07-02-2023 14:55:46.0759 PM
[ReportManager] Loaded Test Data: "src/test/resources/testDataFiles/SteeringCompanyAPI_TestData/SteeringCompanyAPI_TestData.xlsx". @07-02-2023 14:55:46.0807 PM
[ReportManager] Successfully created attachment "Test Data - Excel" @07-02-2023 14:55:46.0807 PM
[ReportManager] File Action "DoesFileExist" successfully performed. With the following test data "File Path: "SteeringCompanyAPI_TestData/SteeringCompanyAPI_TestData.xlsx"". @07-02-2023 14:55:46.0809 PM
[ReportManager] Loaded Test Data: "src/test/resources/testDataFiles/SteeringCompanyAPI_TestData/SteeringCompanyAPI_TestData.xlsx". @07-02-2023 14:55:46.0847 PM
[ReportManager] Successfully created attachment "Test Data - Excel" @07-02-2023 14:55:46.0849 PM
[ReportManager] File Action "DoesFileExist" successfully performed. With the following test data "File Path: "SteeringCompanyAPI_TestData/SteeringCompanyAPI_TestData.xlsx"". @07-02-2023 14:55:46.0849 PM
[ReportManager] Loaded Test Data: "src/test/resources/testDataFiles/SteeringCompanyAPI_TestData/SteeringCompanyAPI_TestData.xlsx". @07-02-2023 14:55:46.0899 PM
[ReportManager] Successfully created attachment "Test Data - Excel" @07-02-2023 14:55:46.0901 PM
[ReportManager] Response status code: "200", status line: "HTTP/1.1 200 " @07-02-2023 14:55:47.0395 PM
[ReportManager] Assertion Passed: Evaluating the actual response status code against the expected one... @07-02-2023 14:55:47.0395 PM
[ReportManager] Perform request "GET | Target Status Code: 200 | Service URL: https://api-demo.np.transporticonline.com/steeringcompanies/v1/commissions | Content Type: */* | Response Time: 487ms". @07-02-2023 14:55:47.0413 PM
[ReportManager] Successfully created attachment "API Request - Specifications" @07-02-2023 14:55:47.0415 PM
[ReportManager] Successfully created attachment "API Response - JSON Body" @07-02-2023 14:55:47.0418 PM
[ReportManager] Assertion Passed: "200" is equal to "200". @07-02-2023 14:55:47.0420 PM
[ReportManager] Verification Passed: "487" is greater than or equal to "1.1". @07-02-2023 14:55:47.0421 PM
[ReportManager] Verification Passed: "487" is less than or equal to "30000". @07-02-2023 14:55:47.0422 PM
[ReportManager] Assertion Passed: "{"page":1,"size":1,"totalPages":18,"totalElements":18,"content":[{"otaCode":"AlrajhiOTA","baseCommission":3.0,"addCommission":0.0,"lastUpdated":"2022-12-15T17:21:34.550112","isActive":true}]}" contains "content". @07-02-2023 14:55:47.0422 PM
[ReportManager] Get response jsonvalue "content". @07-02-2023 14:55:47.0424 PM
[ReportManager] Assertion Passed: Check that content object is not null. @07-02-2023 14:55:47.0424 PM
[ReportManager] File Action "DoesFileExist" successfully performed. With the following test data "File Path: "Schemas/Commission_schema.json"". @07-02-2023 14:55:47.0425 PM
[ReportManager] File Action "DoesFileExist" successfully performed. With the following test data "File Path: "src/test/resources/testDataFiles/Schemas/Commission_schema.json"". @07-02-2023 14:55:47.0425 PM
[ReportManager] File Action "GetAbsolutePath" successfully performed. With the following test data "Relative Folder Path: "src/test/resources/testDataFiles/Schemas/Commission_schema.json"". @07-02-2023 14:55:47.0425 PM
[ReportManager] File Action "DoesFileExist" successfully performed. With the following test data "File Path: "C:\eclipse-workspace\MyProjects\TASystemsAPIs\src\test\resources\testDataFiles\Schemas\Commission_schema.json"". @07-02-2023 14:55:47.0429 PM
[ReportManager] File Action "GetAbsolutePath" successfully performed. With the following test data "Relative Folder Path: "C:\eclipse-workspace\MyProjects\TASystemsAPIs\src\test\resources\testDataFiles\Schemas\Commission_schema.json"". @07-02-2023 14:55:47.0431 PM
[ReportManager] File Action "ReadFile" successfully performed. With the following test data "File Path: "C:\eclipse-workspace\MyProjects\TASystemsAPIs\src\test\resources\testDataFiles\Schemas\Commission_schema.json"". @07-02-2023 14:55:47.0431 PM
[ReportManager] Assertion Passed: The API response schema matches that in this file "src/test/resources/testDataFiles/Schemas/Commission_schema.json". @07-02-2023 14:55:47.0432 PM
[ReportManager] Successfully created attachment "Validation Test Data - Expected JSON Value" @07-02-2023 14:55:47.0434 PM
[ReportManager] Successfully created attachment "Validation Test Data - Actual JSON Value" @07-02-2023 14:55:47.0437 PM