
################################################################################################################################################
Starting Execution:	"16 out of 88" test cases in the current suite
Test Method:		"SteeringCompanyAPI_TestCases.Test_CreationalPeriod_Cases.Get_Valid_all_CreationalPeriod_by_Qry_Rq_TC"
Test Description:	"TC002  -CreationalPeriod-   Perform Get all CreationalPeriod API with pagination with valid user name and password"
################################################################################################################################################
[ReportManager] File Action "DoesFileExist" successfully performed. With the following test data "File Path: "SteeringCompanyAPI_TestData/SteeringCompanyAPI_TestData.xlsx"". @25-01-2023 12:33:00.0185 PM
[ReportManager] Loaded Test Data: "src/test/resources/testDataFiles/SteeringCompanyAPI_TestData/SteeringCompanyAPI_TestData.xlsx". @25-01-2023 12:33:00.0248 PM
[ReportManager] Successfully created attachment "Test Data - Excel" @25-01-2023 12:33:00.0250 PM
[ReportManager] Response status code: "200", status line: "HTTP/1.1 200 OK" @25-01-2023 12:33:00.0812 PM
[ReportManager] Assertion Passed: Evaluating the actual response status code against the expected one... @25-01-2023 12:33:00.0813 PM
[ReportManager] Perform request "POST | Target Status Code: 200 | Service URL: https://auth-demo.np.transporticonline.com/auth/realms/tic/protocol/openid-connect/token | Content Type: application/x-www-form-urlencoded | Response Time: 558ms". @25-01-2023 12:33:00.0840 PM
[ReportManager] Successfully created attachment "API Request - Specifications" @25-01-2023 12:33:00.0842 PM
[ReportManager] Successfully created attachment "API Request - Body" @25-01-2023 12:33:00.0843 PM
[ReportManager] Successfully created attachment "API Response - JSON Body" @25-01-2023 12:33:00.0845 PM
[ReportManager] Assertion Passed: Check Response Status Code is 200 and it is valid. @25-01-2023 12:33:00.0846 PM
[ReportManager] File Action "DoesFileExist" successfully performed. With the following test data "File Path: "SteeringCompanyAPI_TestData/SteeringCompanyAPI_TestData.xlsx"". @25-01-2023 12:33:00.0871 PM
[ReportManager] Loaded Test Data: "src/test/resources/testDataFiles/SteeringCompanyAPI_TestData/SteeringCompanyAPI_TestData.xlsx". @25-01-2023 12:33:00.0913 PM
[ReportManager] Successfully created attachment "Test Data - Excel" @25-01-2023 12:33:00.0916 PM
[ReportManager] Response status code: "200", status line: "HTTP/1.1 200 " @25-01-2023 12:33:01.0415 PM
[ReportManager] Assertion Passed: Evaluating the actual response status code against the expected one... @25-01-2023 12:33:01.0418 PM
[ReportManager] Perform request "GET | Target Status Code: 200 | Service URL: https://api-demo.np.transporticonline.com/steeringcompanies/v1/creationalPeriods | Content Type: */* | Response Time: 494ms". @25-01-2023 12:33:01.0460 PM
[ReportManager] Successfully created attachment "API Request - Specifications" @25-01-2023 12:33:01.0462 PM
[ReportManager] Successfully created attachment "API Response - JSON Body" @25-01-2023 12:33:01.0463 PM
[ReportManager] Assertion Passed: "200" is equal to "200". @25-01-2023 12:33:01.0464 PM
[ReportManager] Verification Passed: "494" is greater than or equal to "1.1". @25-01-2023 12:33:01.0464 PM
[ReportManager] Verification Passed: "494" is less than or equal to "10000". @25-01-2023 12:33:01.0464 PM
[ReportManager] Assertion Passed: "{"page":1,"size":1,"totalPages":4,"totalElements":4,"content":[{"id":188,"startDate":"2022-10-24T00:00:00Z","endDate":"2022-11-14T16:00:00Z","status":"Active","periodMaxQuotaPerPeriod":300.00,"periodProgramTemplates":[313,314,315]}]}" contains "content". @25-01-2023 12:33:01.0466 PM
[ReportManager] Get response jsonvalue "content". @25-01-2023 12:33:01.0471 PM
[ReportManager] Assertion Passed: Check that content object is not null. @25-01-2023 12:33:01.0473 PM
[ReportManager] File Action "DoesFileExist" successfully performed. With the following test data "File Path: "Schemas/CreationalPeriods_schema.json"". @25-01-2023 12:33:01.0474 PM
[ReportManager] File Action "DoesFileExist" successfully performed. With the following test data "File Path: "src/test/resources/testDataFiles/Schemas/CreationalPeriods_schema.json"". @25-01-2023 12:33:01.0475 PM
[ReportManager] File Action "GetAbsolutePath" successfully performed. With the following test data "Relative Folder Path: "src/test/resources/testDataFiles/Schemas/CreationalPeriods_schema.json"". @25-01-2023 12:33:01.0475 PM
[ReportManager] File Action "DoesFileExist" successfully performed. With the following test data "File Path: "C:\eclipse-workspace\MyProjects\TASystemsAPIs\src\test\resources\testDataFiles\Schemas\CreationalPeriods_schema.json"". @25-01-2023 12:33:01.0492 PM
[ReportManager] File Action "GetAbsolutePath" successfully performed. With the following test data "Relative Folder Path: "C:\eclipse-workspace\MyProjects\TASystemsAPIs\src\test\resources\testDataFiles\Schemas\CreationalPeriods_schema.json"". @25-01-2023 12:33:01.0493 PM
[ReportManager] File Action "ReadFile" successfully performed. With the following test data "File Path: "C:\eclipse-workspace\MyProjects\TASystemsAPIs\src\test\resources\testDataFiles\Schemas\CreationalPeriods_schema.json"". @25-01-2023 12:33:01.0494 PM
[ReportManager] Assertion Passed: The API response schema matches that in this file "src/test/resources/testDataFiles/Schemas/CreationalPeriods_schema.json". @25-01-2023 12:33:01.0499 PM
[ReportManager] Successfully created attachment "Validation Test Data - Expected JSON Value" @25-01-2023 12:33:01.0501 PM
[ReportManager] Successfully created attachment "Validation Test Data - Actual JSON Value" @25-01-2023 12:33:01.0506 PM