[ReportManager] Setting discrete logging to: "false" @28-09-2022 19:00:16.0038 PM

################################################################################################################################################
Starting Execution:	"9 out of 10" test cases in the current suite
Test Method:		"SteeringCompanyAPI_TestCases.Test_Case.Valid_GET_all_vehicleTypes_Lookups_Rq_TC"
################################################################################################################################################
[ReportManager] Setting discrete logging to: "false" @28-09-2022 19:00:16.0038 PM
[ReportManager] Setting discrete logging to: "true" @28-09-2022 19:00:16.0494 PM
[ReportManager] Response status code: "200", status line: "HTTP/1.1 200 OK" @28-09-2022 19:00:16.0494 PM
[ReportManager] Assertion Passed: Evaluating the actual response status code against the expected one... @28-09-2022 19:00:16.0495 PM
[ReportManager] Setting discrete logging to: "false" @28-09-2022 19:00:16.0495 PM
[ReportManager] Perform request "POST | Target Status Code: 200 | Service URL: https://auth-demo.np.transporticonline.com/auth/realms/tic/protocol/openid-connect/token | Content Type: application/x-www-form-urlencoded | Response Time: 454ms". @28-09-2022 19:00:16.0506 PM
[ReportManager] Successfully created attachment "API Request - Specifications" @28-09-2022 19:00:16.0506 PM
[ReportManager] Successfully created attachment "API Request - Body" @28-09-2022 19:00:16.0507 PM
[ReportManager] Successfully created attachment "API Response - JSON Body" @28-09-2022 19:00:16.0508 PM
[ReportManager] Assertion Passed: "200" is equal to "200". @28-09-2022 19:00:16.0508 PM
[ReportManager] Verification Passed: "454" is greater than or equal to "1.1". @28-09-2022 19:00:16.0508 PM
[ReportManager] Verification Passed: "454" is less than or equal to "10000". @28-09-2022 19:00:16.0508 PM
[ReportManager] Assertion Passed: "{"access_token":"eyJhbGciOiJSUzI1NiIsInR5cCIgOiAiSldUIiwia2lkIiA6ICJjck9ORDFNdFVPVWhzS2Mtb0ppVFFmb0o1d1l4REF6Y3k0ZjNYZ0dveGdZIn0.eyJleHAiOjE2NjQzODQ3MTYsImlhdCI6MTY2NDM4NDQxNiwianRpIjoiYzY5OTc4MWQtNmEyMi00OTg5LTg2MWYtMDYzOGIyMmEyMjg5IiwiaXNzIjoiaHR0cHM6Ly9hdXRoLWRlbW8ubnAudHJhbnNwb3J0aWNvbmxpbmUuY29tL2F1dGgvcmVhbG1zL3RpYyIsImF1ZCI6ImFjY291bnQiLCJzdWIiOiI0ZTk3NmQ0NC1iM2ZkLTRjYTktODk1Ny0wYWJiODUwNzNhNzQiLCJ0eXAiOiJCZWFyZXIiLCJhenAiOiJ0aWMtYXBpIiwic2Vzc2lvbl9zdGF0ZSI6IjM1ZGMzZmE0LWJjODItNGY3Yi04NTk4LWVlNGQ4NDc0YjE1NyIsImFjciI6IjEiLCJhbGxvd2VkLW9yaWdpbnMiOlsiaHR0cHM6Ly9hcGktZGV2Lm5wLnRyYW5zcG9ydGljb25saW5lLmNvbSJdLCJyZWFsbV9hY2Nlc3MiOnsicm9sZXMiOlsib2ZmbGluZV9hY2Nlc3MiLCJkZWZhdWx0LXJvbGVzLXRpYyIsInVtYV9hdXRob3JpemF0aW9uIiwidXNlciJdfSwicmVzb3VyY2VfYWNjZXNzIjp7ImFjY291bnQiOnsicm9sZXMiOlsibWFuYWdlLWFjY291bnQiLCJtYW5hZ2UtYWNjb3VudC1saW5rcyIsInZpZXctcHJvZmlsZSJdfX0sInNjb3BlIjoiZW1haWwgcHJvZmlsZSIsInNpZCI6IjM1ZGMzZmE0LWJjODItNGY3Yi04NTk4LWVlNGQ4NDc0YjE1NyIsImVtYWlsX3ZlcmlmaWVkIjpmYWxzZSwicHJlZmVycmVkX3VzZXJuYW1lIjoidG9raGkiLCJ0Y0lkIjoiMzE5OTU3In0.gVx78hxg8838jvTz9679pCsbZs4ekGRjQO_bJmrh21gUv1wVe-6dApRmy7wiZTcxrofR-sZnM5gOXeTeS3w0LuOdBfvJcUeh9f5x6OKFcYSIbTvZwAU8dlYgYoRCtaxdPLrDRtvFB-k3haOKtn3vYaWsVy1nwfhDRApHkRgsNsal4y5Hrs8iKB_Qsr1AUeaVoJwOHgR8PlsT_EpdlmFHa46wFrcjkUAWAv256ZtV-ruMmxLQy3aAkGYGCiCbptlaO-N0NwRv68PCKZ4HOC_k1D15gBl-SBTz4WHXr_9pjRIOJNjsw0XAzeeBr0bvPNZduCsUa0x-KqjaIhikVTvFgg","expires_in":300,"refresh_expires_in":1800,"refresh_token":"eyJhbGciOiJIUzI1NiIsInR5cCIgOiAiSldUIiwia2lkIiA6ICJkMTFjNTY4Yi1iMjAyLTQzYjgtYTBiMy1hYWI4ZWMyYWQzZDEifQ.eyJleHAiOjE2NjQzODYyMTYsImlhdCI6MTY2NDM4NDQxNiwianRpIjoiMjk5YmY0ODQtNjFlNy00MGViLTk4ZWEtYzhmYTA5N2RlMDAzIiwiaXNzIjoiaHR0cHM6Ly9hdXRoLWRlbW8ubnAudHJhbnNwb3J0aWNvbmxpbmUuY29tL2F1dGgvcmVhbG1zL3RpYyIsImF1ZCI6Imh0dHBzOi8vYXV0aC1kZW1vLm5wLnRyYW5zcG9ydGljb25saW5lLmNvbS9hdXRoL3JlYWxtcy90aWMiLCJzdWIiOiI0ZTk3NmQ0NC1iM2ZkLTRjYTktODk1Ny0wYWJiODUwNzNhNzQiLCJ0eXAiOiJSZWZyZXNoIiwiYXpwIjoidGljLWFwaSIsInNlc3Npb25fc3RhdGUiOiIzNWRjM2ZhNC1iYzgyLTRmN2ItODU5OC1lZTRkODQ3NGIxNTciLCJzY29wZSI6ImVtYWlsIHByb2ZpbGUiLCJzaWQiOiIzNWRjM2ZhNC1iYzgyLTRmN2ItODU5OC1lZTRkODQ3NGIxNTcifQ.MzgQOokxHQjIfiaVbEhvsSfZ2yV2wXR6cetGEfHdM1U","token_type":"Bearer","not-before-policy":0,"session_state":"35dc3fa4-bc82-4f7b-8598-ee4d8474b157","scope":"email profile"}" contains "access_token". @28-09-2022 19:00:16.0508 PM
[ReportManager] Successfully created attachment "Validation Test Data - Expected Value" @28-09-2022 19:00:16.0509 PM
[ReportManager] Successfully created attachment "Validation Test Data - Actual Value" @28-09-2022 19:00:16.0509 PM
[ReportManager] Get response jsonvalue "access_token". @28-09-2022 19:00:16.0510 PM
[ReportManager] Assertion Passed: Check that Access token is not null. @28-09-2022 19:00:16.0510 PM
[ReportManager] Successfully created attachment "Validation Test Data - Expected Value" @28-09-2022 19:00:16.0510 PM
[ReportManager] Successfully created attachment "Validation Test Data - Actual Value" @28-09-2022 19:00:16.0511 PM
[ReportManager] File Action "DoesFileExist" successfully performed. With the following test data "File Path: "Token_schema.json"". @28-09-2022 19:00:16.0511 PM
[ReportManager] File Action "DoesFileExist" successfully performed. With the following test data "File Path: "src/test/resources/testDataFiles/Token_schema.json"". @28-09-2022 19:00:16.0512 PM
[ReportManager] File Action "GetAbsolutePath" successfully performed. With the following test data "Relative Folder Path: "src/test/resources/testDataFiles/Token_schema.json"". @28-09-2022 19:00:16.0512 PM
[ReportManager] File Action "DoesFileExist" successfully performed. With the following test data "File Path: "C:\eclipse-workspace\MyProjects\TASystemsAPIs\src\test\resources\testDataFiles\Token_schema.json"". @28-09-2022 19:00:16.0514 PM
[ReportManager] File Action "GetAbsolutePath" successfully performed. With the following test data "Relative Folder Path: "C:\eclipse-workspace\MyProjects\TASystemsAPIs\src\test\resources\testDataFiles\Token_schema.json"". @28-09-2022 19:00:16.0514 PM
[ReportManager] File Action "ReadFromFile" successfully performed. With the following test data "File Path: "C:\eclipse-workspace\MyProjects\TASystemsAPIs\src\test\resources\testDataFiles\Token_schema.json"". @28-09-2022 19:00:16.0515 PM
[ReportManager] Assertion Passed: The API response schema matches that in this file "src/test/resources/testDataFiles/Token_schema.json". @28-09-2022 19:00:16.0515 PM
[ReportManager] Successfully created attachment "Validation Test Data - Expected JSON Value" @28-09-2022 19:00:16.0518 PM
[ReportManager] Successfully created attachment "Validation Test Data - Actual JSON Value" @28-09-2022 19:00:16.0518 PM
[ReportManager] Verification Passed: "454" is greater than or equal to "1.1". @28-09-2022 19:00:16.0526 PM
[ReportManager] Verification Passed: "454" is less than or equal to "10000". @28-09-2022 19:00:16.0526 PM
[ReportManager] Setting discrete logging to: "true" @28-09-2022 19:00:16.0889 PM
[ReportManager] Response status code: "200", status line: "HTTP/1.1 200 " @28-09-2022 19:00:16.0890 PM
[ReportManager] Assertion Passed: Evaluating the actual response status code against the expected one... @28-09-2022 19:00:16.0890 PM
[ReportManager] Setting discrete logging to: "false" @28-09-2022 19:00:16.0890 PM
[ReportManager] Perform request "GET | Target Status Code: 200 | Service URL: https://api-demo.np.transporticonline.com/steeringcompanies/v1/lookups/vehicleTypes | Content Type: */* | Response Time: 353ms". @28-09-2022 19:00:16.0901 PM
[ReportManager] Successfully created attachment "API Request - Specifications" @28-09-2022 19:00:16.0901 PM
[ReportManager] Successfully created attachment "API Response - JSON Body" @28-09-2022 19:00:16.0902 PM
[ReportManager] Assertion Passed: "200" is equal to "200". @28-09-2022 19:00:16.0902 PM
[ReportManager] Verification Passed: "353" is greater than or equal to "1.1". @28-09-2022 19:00:16.0902 PM
[ReportManager] Verification Passed: "353" is less than or equal to "10000". @28-09-2022 19:00:16.0902 PM
[ReportManager] Assertion Passed: "{"page":0,"size":2147483647,"totalPages":1,"totalElements":4,"content":[{"id":1,"nameArabic":"????? ?????","nameEnglish":"Sedan Car","isActive":true,"lastUpdated":"2019-12-15T12:21:55Z","maximumCapacity":4,"sectors":null},{"id":4,"nameArabic":"???","nameEnglish":"Van","isActive":true,"lastUpdated":"2020-01-21T07:57:12Z","maximumCapacity":15,"sectors":null},{"id":2,"nameArabic":"????? ???","nameEnglish":"SUV Car","isActive":true,"lastUpdated":"2019-12-15T12:22:01Z","maximumCapacity":7,"sectors":null},{"id":3,"nameArabic":"?????","nameEnglish":"Bus","isActive":true,"lastUpdated":"2020-01-05T18:27:40Z","maximumCapacity":55,"sectors":null}]}" contains "content". @28-09-2022 19:00:16.0903 PM
[ReportManager] Successfully created attachment "Validation Test Data - Expected Value" @28-09-2022 19:00:16.0903 PM
[ReportManager] Successfully created attachment "Validation Test Data - Actual Value" @28-09-2022 19:00:16.0903 PM
[ReportManager] Get response jsonvalue "content". @28-09-2022 19:00:16.0903 PM
[ReportManager] Assertion Passed: Check that content object is not null. @28-09-2022 19:00:16.0903 PM
[ReportManager] Successfully created attachment "Validation Test Data - Expected Value" @28-09-2022 19:00:16.0903 PM
[ReportManager] Successfully created attachment "Validation Test Data - Actual Value" @28-09-2022 19:00:16.0905 PM
[ReportManager] File Action "DoesFileExist" successfully performed. With the following test data "File Path: "Lookups_vehicleTypes_schema.json"". @28-09-2022 19:00:16.0905 PM
[ReportManager] File Action "DoesFileExist" successfully performed. With the following test data "File Path: "src/test/resources/testDataFiles/Lookups_vehicleTypes_schema.json"". @28-09-2022 19:00:16.0905 PM
[ReportManager] File Action "GetAbsolutePath" successfully performed. With the following test data "Relative Folder Path: "src/test/resources/testDataFiles/Lookups_vehicleTypes_schema.json"". @28-09-2022 19:00:16.0905 PM
[ReportManager] File Action "DoesFileExist" successfully performed. With the following test data "File Path: "C:\eclipse-workspace\MyProjects\TASystemsAPIs\src\test\resources\testDataFiles\Lookups_vehicleTypes_schema.json"". @28-09-2022 19:00:16.0908 PM
[ReportManager] File Action "GetAbsolutePath" successfully performed. With the following test data "Relative Folder Path: "C:\eclipse-workspace\MyProjects\TASystemsAPIs\src\test\resources\testDataFiles\Lookups_vehicleTypes_schema.json"". @28-09-2022 19:00:16.0908 PM
[ReportManager] File Action "ReadFromFile" successfully performed. With the following test data "File Path: "C:\eclipse-workspace\MyProjects\TASystemsAPIs\src\test\resources\testDataFiles\Lookups_vehicleTypes_schema.json"". @28-09-2022 19:00:16.0908 PM
[ReportManager] Assertion Passed: The API response schema matches that in this file "src/test/resources/testDataFiles/Lookups_vehicleTypes_schema.json". @28-09-2022 19:00:16.0909 PM
[ReportManager] Successfully created attachment "Validation Test Data - Expected JSON Value" @28-09-2022 19:00:16.0910 PM
[ReportManager] Successfully created attachment "Validation Test Data - Actual JSON Value" @28-09-2022 19:00:16.0911 PM
[ReportManager] Verification Passed: "353" is greater than or equal to "1.1". @28-09-2022 19:00:16.0911 PM
[ReportManager] Verification Passed: "353" is less than or equal to "10000". @28-09-2022 19:00:16.0912 PM
[ReportManager] Setting discrete logging to: "true" @28-09-2022 19:00:17.0261 PM
[ReportManager] Response status code: "200", status line: "HTTP/1.1 200 " @28-09-2022 19:00:17.0261 PM
[ReportManager] Assertion Passed: Evaluating the actual response status code against the expected one... @28-09-2022 19:00:17.0262 PM
[ReportManager] Setting discrete logging to: "false" @28-09-2022 19:00:17.0262 PM
[ReportManager] Perform request "GET | Target Status Code: 200 | Service URL: https://api-demo.np.transporticonline.com/steeringcompanies/v1/lookups/vehicleTypes | Content Type: */* | Response Time: 348ms". @28-09-2022 19:00:17.0272 PM
[ReportManager] Successfully created attachment "API Request - Specifications" @28-09-2022 19:00:17.0273 PM
[ReportManager] Successfully created attachment "API Response - JSON Body" @28-09-2022 19:00:17.0274 PM
[ReportManager] Assertion Passed: "200" is equal to "200". @28-09-2022 19:00:17.0274 PM
[ReportManager] Verification Passed: "348" is greater than or equal to "1.1". @28-09-2022 19:00:17.0274 PM
[ReportManager] Verification Passed: "348" is less than or equal to "10000". @28-09-2022 19:00:17.0274 PM
[ReportManager] Assertion Passed: "{"page":0,"size":3,"totalPages":2,"totalElements":4,"content":[{"id":1,"nameArabic":"????? ?????","nameEnglish":"Sedan Car","isActive":true,"lastUpdated":"2019-12-15T12:21:55Z","maximumCapacity":4,"sectors":null},{"id":4,"nameArabic":"???","nameEnglish":"Van","isActive":true,"lastUpdated":"2020-01-21T07:57:12Z","maximumCapacity":15,"sectors":null},{"id":2,"nameArabic":"????? ???","nameEnglish":"SUV Car","isActive":true,"lastUpdated":"2019-12-15T12:22:01Z","maximumCapacity":7,"sectors":null}]}" contains "content". @28-09-2022 19:00:17.0274 PM
[ReportManager] Get response jsonvalue "content". @28-09-2022 19:00:17.0275 PM
[ReportManager] Assertion Passed: Check that content object is not null. @28-09-2022 19:00:17.0275 PM
[ReportManager] File Action "DoesFileExist" successfully performed. With the following test data "File Path: "Lookups_vehicleTypes_schema.json"". @28-09-2022 19:00:17.0275 PM
[ReportManager] File Action "DoesFileExist" successfully performed. With the following test data "File Path: "src/test/resources/testDataFiles/Lookups_vehicleTypes_schema.json"". @28-09-2022 19:00:17.0275 PM
[ReportManager] File Action "GetAbsolutePath" successfully performed. With the following test data "Relative Folder Path: "src/test/resources/testDataFiles/Lookups_vehicleTypes_schema.json"". @28-09-2022 19:00:17.0275 PM
[ReportManager] File Action "DoesFileExist" successfully performed. With the following test data "File Path: "C:\eclipse-workspace\MyProjects\TASystemsAPIs\src\test\resources\testDataFiles\Lookups_vehicleTypes_schema.json"". @28-09-2022 19:00:17.0279 PM
[ReportManager] File Action "GetAbsolutePath" successfully performed. With the following test data "Relative Folder Path: "C:\eclipse-workspace\MyProjects\TASystemsAPIs\src\test\resources\testDataFiles\Lookups_vehicleTypes_schema.json"". @28-09-2022 19:00:17.0279 PM
[ReportManager] File Action "ReadFromFile" successfully performed. With the following test data "File Path: "C:\eclipse-workspace\MyProjects\TASystemsAPIs\src\test\resources\testDataFiles\Lookups_vehicleTypes_schema.json"". @28-09-2022 19:00:17.0279 PM
[ReportManager] Assertion Passed: The API response schema matches that in this file "src/test/resources/testDataFiles/Lookups_vehicleTypes_schema.json". @28-09-2022 19:00:17.0280 PM
[ReportManager] Successfully created attachment "Validation Test Data - Expected JSON Value" @28-09-2022 19:00:17.0281 PM
[ReportManager] Successfully created attachment "Validation Test Data - Actual JSON Value" @28-09-2022 19:00:17.0281 PM
[ReportManager] Verification Passed: "348" is greater than or equal to "1.1". @28-09-2022 19:00:17.0281 PM
[ReportManager] Verification Passed: "348" is less than or equal to "10000". @28-09-2022 19:00:17.0281 PM