[ReportManager] Setting discrete logging to: "false" @28-09-2022 14:52:59.0023 PM

################################################################################################################################################
Starting Execution:	"8 out of 9" test cases in the current suite
Test Method:		"SteeringCompanyAPI_TestCases.Test_Case.Valid_GET_all_vehicleTypes_Lookups_Rq_TC"
################################################################################################################################################
[ReportManager] Setting discrete logging to: "false" @28-09-2022 14:52:59.0023 PM
[ReportManager] Setting discrete logging to: "true" @28-09-2022 14:52:59.0509 PM
[ReportManager] Response status code: "200", status line: "HTTP/1.1 200 OK" @28-09-2022 14:52:59.0509 PM
[ReportManager] Assertion Passed: Evaluating the actual response status code against the expected one... @28-09-2022 14:52:59.0510 PM
[ReportManager] Setting discrete logging to: "false" @28-09-2022 14:52:59.0510 PM
[ReportManager] Perform request "POST | Target Status Code: 200 | Service URL: https://auth-demo.np.transporticonline.com/auth/realms/tic/protocol/openid-connect/token | Content Type: application/x-www-form-urlencoded | Response Time: 484ms". @28-09-2022 14:52:59.0519 PM
[ReportManager] Successfully created attachment "API Request - Specifications" @28-09-2022 14:52:59.0519 PM
[ReportManager] Successfully created attachment "API Request - Body" @28-09-2022 14:52:59.0520 PM
[ReportManager] Successfully created attachment "API Response - JSON Body" @28-09-2022 14:52:59.0520 PM
[ReportManager] Assertion Passed: "200" is equal to "200". @28-09-2022 14:52:59.0521 PM
[ReportManager] Verification Passed: "484" is greater than or equal to "1.1". @28-09-2022 14:52:59.0521 PM
[ReportManager] Verification Passed: "484" is less than or equal to "10000". @28-09-2022 14:52:59.0521 PM
[ReportManager] Assertion Passed: "{"access_token":"eyJhbGciOiJSUzI1NiIsInR5cCIgOiAiSldUIiwia2lkIiA6ICJjck9ORDFNdFVPVWhzS2Mtb0ppVFFmb0o1d1l4REF6Y3k0ZjNYZ0dveGdZIn0.eyJleHAiOjE2NjQzNjk4NzksImlhdCI6MTY2NDM2OTU3OSwianRpIjoiYWYzODlhZTktMmQ1Ni00MDVlLWE5MDctMmE5NWNjYjI2Nzk4IiwiaXNzIjoiaHR0cHM6Ly9hdXRoLWRlbW8ubnAudHJhbnNwb3J0aWNvbmxpbmUuY29tL2F1dGgvcmVhbG1zL3RpYyIsImF1ZCI6ImFjY291bnQiLCJzdWIiOiI0ZTk3NmQ0NC1iM2ZkLTRjYTktODk1Ny0wYWJiODUwNzNhNzQiLCJ0eXAiOiJCZWFyZXIiLCJhenAiOiJ0aWMtYXBpIiwic2Vzc2lvbl9zdGF0ZSI6IjM2N2UyNjQ3LTZmZDAtNDYyMS1hNTJhLThiOWMzMzYzMzQzZSIsImFjciI6IjEiLCJhbGxvd2VkLW9yaWdpbnMiOlsiaHR0cHM6Ly9hcGktZGV2Lm5wLnRyYW5zcG9ydGljb25saW5lLmNvbSJdLCJyZWFsbV9hY2Nlc3MiOnsicm9sZXMiOlsib2ZmbGluZV9hY2Nlc3MiLCJkZWZhdWx0LXJvbGVzLXRpYyIsInVtYV9hdXRob3JpemF0aW9uIiwidXNlciJdfSwicmVzb3VyY2VfYWNjZXNzIjp7ImFjY291bnQiOnsicm9sZXMiOlsibWFuYWdlLWFjY291bnQiLCJtYW5hZ2UtYWNjb3VudC1saW5rcyIsInZpZXctcHJvZmlsZSJdfX0sInNjb3BlIjoiZW1haWwgcHJvZmlsZSIsInNpZCI6IjM2N2UyNjQ3LTZmZDAtNDYyMS1hNTJhLThiOWMzMzYzMzQzZSIsImVtYWlsX3ZlcmlmaWVkIjpmYWxzZSwicHJlZmVycmVkX3VzZXJuYW1lIjoidG9raGkiLCJ0Y0lkIjoiMzE5OTU3In0.AMJKIamfa1jpfHXqCtSnc5bxWM_5yrlkSXNedSY8xDkhECTBIDC7wRZJOSe2UpIUCTQCsNldTlDhRj4lcrO3diw5cjx_nnDZH3yz7VkL4Q-VTFmhWxvrtzQHurtpajSU8RIpjvFue-iVZctFzJJKnBRliQ4yg6FFGtbhgdWZvGU4dYwUbea1ZHklYM64S3-zHx0R7ZgUJ9Ei0uYQCcVQjK63HEoofY0vg2FrVGTjIR-XUYYB3ZIPGewFoaLD6UUjD2MZnbIUNKYgAW3dLxDM9Cyyg3BZu3pkCvp0a8gIP0cj1-G4ONofs4-Jt7uMkmFGA8-6n2OCY71ni7UjWl6iLw","expires_in":300,"refresh_expires_in":1800,"refresh_token":"eyJhbGciOiJIUzI1NiIsInR5cCIgOiAiSldUIiwia2lkIiA6ICJkMTFjNTY4Yi1iMjAyLTQzYjgtYTBiMy1hYWI4ZWMyYWQzZDEifQ.eyJleHAiOjE2NjQzNzEzNzksImlhdCI6MTY2NDM2OTU3OSwianRpIjoiZDdhN2YzZmQtZDBmOC00NDNhLTkzNDAtZDViZGM4NGEyZjk4IiwiaXNzIjoiaHR0cHM6Ly9hdXRoLWRlbW8ubnAudHJhbnNwb3J0aWNvbmxpbmUuY29tL2F1dGgvcmVhbG1zL3RpYyIsImF1ZCI6Imh0dHBzOi8vYXV0aC1kZW1vLm5wLnRyYW5zcG9ydGljb25saW5lLmNvbS9hdXRoL3JlYWxtcy90aWMiLCJzdWIiOiI0ZTk3NmQ0NC1iM2ZkLTRjYTktODk1Ny0wYWJiODUwNzNhNzQiLCJ0eXAiOiJSZWZyZXNoIiwiYXpwIjoidGljLWFwaSIsInNlc3Npb25fc3RhdGUiOiIzNjdlMjY0Ny02ZmQwLTQ2MjEtYTUyYS04YjljMzM2MzM0M2UiLCJzY29wZSI6ImVtYWlsIHByb2ZpbGUiLCJzaWQiOiIzNjdlMjY0Ny02ZmQwLTQ2MjEtYTUyYS04YjljMzM2MzM0M2UifQ.UrEZn5ApV4OTi6uAjme0NAm8-yWcY7znLfdRGQNjufE","token_type":"Bearer","not-before-policy":0,"session_state":"367e2647-6fd0-4621-a52a-8b9c3363343e","scope":"email profile"}" contains "access_token". @28-09-2022 14:52:59.0521 PM
[ReportManager] Successfully created attachment "Validation Test Data - Expected Value" @28-09-2022 14:52:59.0521 PM
[ReportManager] Successfully created attachment "Validation Test Data - Actual Value" @28-09-2022 14:52:59.0522 PM
[ReportManager] Get response jsonvalue "access_token". @28-09-2022 14:52:59.0522 PM
[ReportManager] Assertion Passed: Check that Access token is not null. @28-09-2022 14:52:59.0523 PM
[ReportManager] Successfully created attachment "Validation Test Data - Expected Value" @28-09-2022 14:52:59.0523 PM
[ReportManager] Successfully created attachment "Validation Test Data - Actual Value" @28-09-2022 14:52:59.0530 PM
[ReportManager] File Action "DoesFileExist" successfully performed. With the following test data "File Path: "Token_schema.json"". @28-09-2022 14:52:59.0530 PM
[ReportManager] File Action "DoesFileExist" successfully performed. With the following test data "File Path: "src/test/resources/testDataFiles/Token_schema.json"". @28-09-2022 14:52:59.0530 PM
[ReportManager] File Action "GetAbsolutePath" successfully performed. With the following test data "Relative Folder Path: "src/test/resources/testDataFiles/Token_schema.json"". @28-09-2022 14:52:59.0530 PM
[ReportManager] File Action "DoesFileExist" successfully performed. With the following test data "File Path: "C:\eclipse-workspace\MyProjects\TASystemsAPIs\src\test\resources\testDataFiles\Token_schema.json"". @28-09-2022 14:52:59.0532 PM
[ReportManager] File Action "GetAbsolutePath" successfully performed. With the following test data "Relative Folder Path: "C:\eclipse-workspace\MyProjects\TASystemsAPIs\src\test\resources\testDataFiles\Token_schema.json"". @28-09-2022 14:52:59.0532 PM
[ReportManager] File Action "ReadFromFile" successfully performed. With the following test data "File Path: "C:\eclipse-workspace\MyProjects\TASystemsAPIs\src\test\resources\testDataFiles\Token_schema.json"". @28-09-2022 14:52:59.0533 PM
[ReportManager] Assertion Passed: The API response schema matches that in this file "src/test/resources/testDataFiles/Token_schema.json". @28-09-2022 14:52:59.0533 PM
[ReportManager] Successfully created attachment "Validation Test Data - Expected JSON Value" @28-09-2022 14:52:59.0534 PM
[ReportManager] Successfully created attachment "Validation Test Data - Actual JSON Value" @28-09-2022 14:52:59.0534 PM
[ReportManager] Verification Passed: "484" is greater than or equal to "1.1". @28-09-2022 14:52:59.0542 PM
[ReportManager] Verification Passed: "484" is less than or equal to "10000". @28-09-2022 14:52:59.0542 PM
[ReportManager] Setting discrete logging to: "true" @28-09-2022 14:52:59.0940 PM
[ReportManager] Response status code: "200", status line: "HTTP/1.1 200 " @28-09-2022 14:52:59.0940 PM
[ReportManager] Assertion Passed: Evaluating the actual response status code against the expected one... @28-09-2022 14:52:59.0941 PM
[ReportManager] Setting discrete logging to: "false" @28-09-2022 14:52:59.0941 PM
[ReportManager] Perform request "GET | Target Status Code: 200 | Service URL: https://api-demo.np.transporticonline.com/steeringcompanies/v1/lookups/vehicleTypes | Content Type: */* | Response Time: 385ms". @28-09-2022 14:52:59.0954 PM
[ReportManager] Successfully created attachment "API Request - Specifications" @28-09-2022 14:52:59.0955 PM
[ReportManager] Successfully created attachment "API Response - JSON Body" @28-09-2022 14:52:59.0955 PM
[ReportManager] Assertion Passed: "200" is equal to "200". @28-09-2022 14:52:59.0955 PM
[ReportManager] Verification Passed: "385" is greater than or equal to "1.1". @28-09-2022 14:52:59.0955 PM
[ReportManager] Verification Passed: "385" is less than or equal to "10000". @28-09-2022 14:52:59.0955 PM
[ReportManager] Assertion Passed: "{"page":0,"size":2147483647,"totalPages":1,"totalElements":4,"content":[{"id":1,"nameArabic":"????? ?????","nameEnglish":"Sedan Car","isActive":true,"lastUpdated":"2019-12-15T12:21:55Z","maximumCapacity":4,"sectors":null},{"id":4,"nameArabic":"???","nameEnglish":"Van","isActive":true,"lastUpdated":"2020-01-21T07:57:12Z","maximumCapacity":15,"sectors":null},{"id":2,"nameArabic":"????? ???","nameEnglish":"SUV Car","isActive":true,"lastUpdated":"2019-12-15T12:22:01Z","maximumCapacity":7,"sectors":null},{"id":3,"nameArabic":"?????","nameEnglish":"Bus","isActive":true,"lastUpdated":"2020-01-05T18:27:40Z","maximumCapacity":55,"sectors":null}]}" contains "content". @28-09-2022 14:52:59.0956 PM
[ReportManager] Successfully created attachment "Validation Test Data - Expected Value" @28-09-2022 14:52:59.0956 PM
[ReportManager] Successfully created attachment "Validation Test Data - Actual Value" @28-09-2022 14:52:59.0956 PM
[ReportManager] Get response jsonvalue "content". @28-09-2022 14:52:59.0957 PM
[ReportManager] Assertion Passed: Check that content object is not null. @28-09-2022 14:52:59.0957 PM
[ReportManager] Successfully created attachment "Validation Test Data - Expected Value" @28-09-2022 14:52:59.0957 PM
[ReportManager] Successfully created attachment "Validation Test Data - Actual Value" @28-09-2022 14:52:59.0957 PM
[ReportManager] File Action "DoesFileExist" successfully performed. With the following test data "File Path: "Lookups_vehicleTypes_schema.json"". @28-09-2022 14:52:59.0958 PM
[ReportManager] File Action "DoesFileExist" successfully performed. With the following test data "File Path: "src/test/resources/testDataFiles/Lookups_vehicleTypes_schema.json"". @28-09-2022 14:52:59.0958 PM
[ReportManager] File Action "GetAbsolutePath" successfully performed. With the following test data "Relative Folder Path: "src/test/resources/testDataFiles/Lookups_vehicleTypes_schema.json"". @28-09-2022 14:52:59.0958 PM
[ReportManager] File Action "DoesFileExist" successfully performed. With the following test data "File Path: "C:\eclipse-workspace\MyProjects\TASystemsAPIs\src\test\resources\testDataFiles\Lookups_vehicleTypes_schema.json"". @28-09-2022 14:52:59.0961 PM
[ReportManager] File Action "GetAbsolutePath" successfully performed. With the following test data "Relative Folder Path: "C:\eclipse-workspace\MyProjects\TASystemsAPIs\src\test\resources\testDataFiles\Lookups_vehicleTypes_schema.json"". @28-09-2022 14:52:59.0961 PM
[ReportManager] File Action "ReadFromFile" successfully performed. With the following test data "File Path: "C:\eclipse-workspace\MyProjects\TASystemsAPIs\src\test\resources\testDataFiles\Lookups_vehicleTypes_schema.json"". @28-09-2022 14:52:59.0961 PM
[ReportManager] Assertion Passed: The API response schema matches that in this file "src/test/resources/testDataFiles/Lookups_vehicleTypes_schema.json". @28-09-2022 14:52:59.0962 PM
[ReportManager] Successfully created attachment "Validation Test Data - Expected JSON Value" @28-09-2022 14:52:59.0962 PM
[ReportManager] Successfully created attachment "Validation Test Data - Actual JSON Value" @28-09-2022 14:52:59.0963 PM
[ReportManager] Verification Passed: "385" is greater than or equal to "1.1". @28-09-2022 14:52:59.0963 PM
[ReportManager] Verification Passed: "385" is less than or equal to "10000". @28-09-2022 14:52:59.0963 PM
[ReportManager] Setting discrete logging to: "true" @28-09-2022 14:53:00.0298 PM
[ReportManager] Response status code: "200", status line: "HTTP/1.1 200 " @28-09-2022 14:53:00.0298 PM
[ReportManager] Assertion Passed: Evaluating the actual response status code against the expected one... @28-09-2022 14:53:00.0298 PM
[ReportManager] Setting discrete logging to: "false" @28-09-2022 14:53:00.0298 PM
[ReportManager] Perform request "GET | Target Status Code: 200 | Service URL: https://api-demo.np.transporticonline.com/steeringcompanies/v1/lookups/vehicleTypes | Content Type: */* | Response Time: 331ms". @28-09-2022 14:53:00.0307 PM
[ReportManager] Successfully created attachment "API Request - Specifications" @28-09-2022 14:53:00.0308 PM
[ReportManager] Successfully created attachment "API Response - JSON Body" @28-09-2022 14:53:00.0309 PM
[ReportManager] Assertion Passed: "200" is equal to "200". @28-09-2022 14:53:00.0309 PM
[ReportManager] Verification Passed: "331" is greater than or equal to "1.1". @28-09-2022 14:53:00.0309 PM
[ReportManager] Verification Passed: "331" is less than or equal to "10000". @28-09-2022 14:53:00.0309 PM
[ReportManager] Assertion Passed: "{"page":0,"size":3,"totalPages":2,"totalElements":4,"content":[{"id":1,"nameArabic":"????? ?????","nameEnglish":"Sedan Car","isActive":true,"lastUpdated":"2019-12-15T12:21:55Z","maximumCapacity":4,"sectors":null},{"id":4,"nameArabic":"???","nameEnglish":"Van","isActive":true,"lastUpdated":"2020-01-21T07:57:12Z","maximumCapacity":15,"sectors":null},{"id":2,"nameArabic":"????? ???","nameEnglish":"SUV Car","isActive":true,"lastUpdated":"2019-12-15T12:22:01Z","maximumCapacity":7,"sectors":null}]}" contains "content". @28-09-2022 14:53:00.0309 PM
[ReportManager] Get response jsonvalue "content". @28-09-2022 14:53:00.0310 PM
[ReportManager] Assertion Passed: Check that content object is not null. @28-09-2022 14:53:00.0311 PM
[ReportManager] File Action "DoesFileExist" successfully performed. With the following test data "File Path: "Lookups_vehicleTypes_schema.json"". @28-09-2022 14:53:00.0311 PM
[ReportManager] File Action "DoesFileExist" successfully performed. With the following test data "File Path: "src/test/resources/testDataFiles/Lookups_vehicleTypes_schema.json"". @28-09-2022 14:53:00.0311 PM
[ReportManager] File Action "GetAbsolutePath" successfully performed. With the following test data "Relative Folder Path: "src/test/resources/testDataFiles/Lookups_vehicleTypes_schema.json"". @28-09-2022 14:53:00.0311 PM
[ReportManager] File Action "DoesFileExist" successfully performed. With the following test data "File Path: "C:\eclipse-workspace\MyProjects\TASystemsAPIs\src\test\resources\testDataFiles\Lookups_vehicleTypes_schema.json"". @28-09-2022 14:53:00.0314 PM
[ReportManager] File Action "GetAbsolutePath" successfully performed. With the following test data "Relative Folder Path: "C:\eclipse-workspace\MyProjects\TASystemsAPIs\src\test\resources\testDataFiles\Lookups_vehicleTypes_schema.json"". @28-09-2022 14:53:00.0316 PM
[ReportManager] File Action "ReadFromFile" successfully performed. With the following test data "File Path: "C:\eclipse-workspace\MyProjects\TASystemsAPIs\src\test\resources\testDataFiles\Lookups_vehicleTypes_schema.json"". @28-09-2022 14:53:00.0317 PM
[ReportManager] Assertion Passed: The API response schema matches that in this file "src/test/resources/testDataFiles/Lookups_vehicleTypes_schema.json". @28-09-2022 14:53:00.0318 PM
[ReportManager] Successfully created attachment "Validation Test Data - Expected JSON Value" @28-09-2022 14:53:00.0318 PM
[ReportManager] Successfully created attachment "Validation Test Data - Actual JSON Value" @28-09-2022 14:53:00.0320 PM
[ReportManager] Verification Passed: "331" is greater than or equal to "1.1". @28-09-2022 14:53:00.0320 PM
[ReportManager] Verification Passed: "331" is less than or equal to "10000". @28-09-2022 14:53:00.0320 PM