
################################################################################################################################################
Starting Execution:	"69 out of 110" test cases in the current suite
Test Method:		"SteeringCompanyAPI_TestCases.Test_CreationalPeriod_Cases.Get_Valid_all_CreationalPeriod_by_Qry_Rq_TC"
Test Description:	"TC002  -CreationalPeriod-   Perform Get all CreationalPeriod API with pagination with valid user name and password"
################################################################################################################################################
[ReportManager] File Action "DoesFileExist" successfully performed. With the following test data "File Path: "SteeringCompanyAPI_TestData/SteeringCompanyAPI_TestData.xlsx"". @07-02-2023 14:56:48.0916 PM
[ReportManager] Loaded Test Data: "src/test/resources/testDataFiles/SteeringCompanyAPI_TestData/SteeringCompanyAPI_TestData.xlsx". @07-02-2023 14:56:48.0950 PM
[ReportManager] Successfully created attachment "Test Data - Excel" @07-02-2023 14:56:48.0951 PM
[ReportManager] Response status code: "200", status line: "HTTP/1.1 200 OK" @07-02-2023 14:56:49.0571 PM
[ReportManager] Assertion Passed: Evaluating the actual response status code against the expected one... @07-02-2023 14:56:49.0572 PM
[ReportManager] Perform request "POST | Target Status Code: 200 | Service URL: https://auth-demo.np.transporticonline.com/auth/realms/tic/protocol/openid-connect/token | Content Type: application/x-www-form-urlencoded | Response Time: 618ms". @07-02-2023 14:56:49.0593 PM
[ReportManager] Successfully created attachment "API Request - Specifications" @07-02-2023 14:56:49.0594 PM
[ReportManager] Successfully created attachment "API Request - Body" @07-02-2023 14:56:49.0596 PM
[ReportManager] Successfully created attachment "API Response - JSON Body" @07-02-2023 14:56:49.0597 PM
[ReportManager] Assertion Passed: Check Response Status Code is 200 and it is valid. @07-02-2023 14:56:49.0597 PM
[ReportManager] File Action "DoesFileExist" successfully performed. With the following test data "File Path: "SteeringCompanyAPI_TestData/SteeringCompanyAPI_TestData.xlsx"". @07-02-2023 14:56:49.0610 PM
[ReportManager] Loaded Test Data: "src/test/resources/testDataFiles/SteeringCompanyAPI_TestData/SteeringCompanyAPI_TestData.xlsx". @07-02-2023 14:56:49.0639 PM
[ReportManager] Successfully created attachment "Test Data - Excel" @07-02-2023 14:56:49.0640 PM
[ReportManager] Response status code: "200", status line: "HTTP/1.1 200 " @07-02-2023 14:56:50.0186 PM
[ReportManager] Assertion Passed: Evaluating the actual response status code against the expected one... @07-02-2023 14:56:50.0187 PM
[ReportManager] Perform request "GET | Target Status Code: 200 | Service URL: https://api-demo.np.transporticonline.com/steeringcompanies/v1/creationalPeriods | Content Type: */* | Response Time: 543ms". @07-02-2023 14:56:50.0203 PM
[ReportManager] Successfully created attachment "API Request - Specifications" @07-02-2023 14:56:50.0204 PM
[ReportManager] Successfully created attachment "API Response - JSON Body" @07-02-2023 14:56:50.0206 PM
[ReportManager] Assertion Passed: "200" is equal to "200". @07-02-2023 14:56:50.0206 PM
[ReportManager] Verification Passed: "543" is greater than or equal to "1.1". @07-02-2023 14:56:50.0207 PM
[ReportManager] Verification Passed: "543" is less than or equal to "10000". @07-02-2023 14:56:50.0207 PM
[ReportManager] Assertion Passed: "{"page":0,"size":1,"totalPages":2,"totalElements":2,"content":[{"id":188,"startDate":"2022-10-24T00:00:00Z","endDate":"2022-11-14T16:00:00Z","status":"Active","periodMaxQuotaPerPeriod":300.00,"periodProgramTemplates":[313,314,315]}]}" contains "content". @07-02-2023 14:56:50.0207 PM
[ReportManager] Get response jsonvalue "content". @07-02-2023 14:56:50.0208 PM
[ReportManager] Assertion Passed: Check that content object is not null. @07-02-2023 14:56:50.0208 PM
[ReportManager] File Action "DoesFileExist" successfully performed. With the following test data "File Path: "Schemas/CreationalPeriods_schema.json"". @07-02-2023 14:56:50.0209 PM
[ReportManager] File Action "DoesFileExist" successfully performed. With the following test data "File Path: "src/test/resources/testDataFiles/Schemas/CreationalPeriods_schema.json"". @07-02-2023 14:56:50.0209 PM
[ReportManager] File Action "GetAbsolutePath" successfully performed. With the following test data "Relative Folder Path: "src/test/resources/testDataFiles/Schemas/CreationalPeriods_schema.json"". @07-02-2023 14:56:50.0210 PM
[ReportManager] File Action "DoesFileExist" successfully performed. With the following test data "File Path: "C:\eclipse-workspace\MyProjects\TASystemsAPIs\src\test\resources\testDataFiles\Schemas\CreationalPeriods_schema.json"". @07-02-2023 14:56:50.0216 PM
[ReportManager] File Action "GetAbsolutePath" successfully performed. With the following test data "Relative Folder Path: "C:\eclipse-workspace\MyProjects\TASystemsAPIs\src\test\resources\testDataFiles\Schemas\CreationalPeriods_schema.json"". @07-02-2023 14:56:50.0217 PM
[ReportManager] File Action "ReadFile" successfully performed. With the following test data "File Path: "C:\eclipse-workspace\MyProjects\TASystemsAPIs\src\test\resources\testDataFiles\Schemas\CreationalPeriods_schema.json"". @07-02-2023 14:56:50.0217 PM
[ReportManager] Assertion Passed: The API response schema matches that in this file "src/test/resources/testDataFiles/Schemas/CreationalPeriods_schema.json". @07-02-2023 14:56:50.0218 PM
[ReportManager] Successfully created attachment "Validation Test Data - Expected JSON Value" @07-02-2023 14:56:50.0220 PM
[ReportManager] Successfully created attachment "Validation Test Data - Actual JSON Value" @07-02-2023 14:56:50.0222 PM