[ReportManager] Setting discrete logging to: "false" @02-10-2022 20:52:37.0107 PM

################################################################################################################################################
Starting Execution:	"7 out of 13" test cases in the current suite
Test Method:		"SteeringCompanyAPI_TestCases.Test_Case.Valid_GET_all_ports_Lookups_Rq_TC"
################################################################################################################################################
[ReportManager] Setting discrete logging to: "false" @02-10-2022 20:52:37.0107 PM
[ReportManager] Setting discrete logging to: "true" @02-10-2022 20:52:37.0550 PM
[ReportManager] Response status code: "200", status line: "HTTP/1.1 200 OK" @02-10-2022 20:52:37.0550 PM
[ReportManager] Assertion Passed: Evaluating the actual response status code against the expected one... @02-10-2022 20:52:37.0550 PM
[ReportManager] Setting discrete logging to: "false" @02-10-2022 20:52:37.0550 PM
[ReportManager] Perform request "POST | Target Status Code: 200 | Service URL: https://auth-demo.np.transporticonline.com/auth/realms/tic/protocol/openid-connect/token | Content Type: application/x-www-form-urlencoded | Response Time: 440ms". @02-10-2022 20:52:37.0562 PM
[ReportManager] Successfully created attachment "API Request - Specifications" @02-10-2022 20:52:37.0563 PM
[ReportManager] Successfully created attachment "API Request - Body" @02-10-2022 20:52:37.0564 PM
[ReportManager] Successfully created attachment "API Response - JSON Body" @02-10-2022 20:52:37.0565 PM
[ReportManager] Assertion Passed: "200" is equal to "200". @02-10-2022 20:52:37.0565 PM
[ReportManager] Verification Passed: "440" is greater than or equal to "1.1". @02-10-2022 20:52:37.0565 PM
[ReportManager] Verification Passed: "440" is less than or equal to "10000". @02-10-2022 20:52:37.0565 PM
[ReportManager] Assertion Passed: "{"access_token":"eyJhbGciOiJSUzI1NiIsInR5cCIgOiAiSldUIiwia2lkIiA6ICJjck9ORDFNdFVPVWhzS2Mtb0ppVFFmb0o1d1l4REF6Y3k0ZjNYZ0dveGdZIn0.eyJleHAiOjE2NjQ3MzcwNTcsImlhdCI6MTY2NDczNjc1NywianRpIjoiNWU3ZjY5MDEtOTc1My00YzgzLThmNjMtZjdmNjJkOTI5NGM0IiwiaXNzIjoiaHR0cHM6Ly9hdXRoLWRlbW8ubnAudHJhbnNwb3J0aWNvbmxpbmUuY29tL2F1dGgvcmVhbG1zL3RpYyIsImF1ZCI6ImFjY291bnQiLCJzdWIiOiI0ZTk3NmQ0NC1iM2ZkLTRjYTktODk1Ny0wYWJiODUwNzNhNzQiLCJ0eXAiOiJCZWFyZXIiLCJhenAiOiJ0aWMtYXBpIiwic2Vzc2lvbl9zdGF0ZSI6IjlhZmZhMTUxLWQyOTctNDIxNC04NTdkLTYyOTcxMmJmMzU3MyIsImFjciI6IjEiLCJhbGxvd2VkLW9yaWdpbnMiOlsiaHR0cHM6Ly9hcGktZGV2Lm5wLnRyYW5zcG9ydGljb25saW5lLmNvbSJdLCJyZWFsbV9hY2Nlc3MiOnsicm9sZXMiOlsib2ZmbGluZV9hY2Nlc3MiLCJkZWZhdWx0LXJvbGVzLXRpYyIsInVtYV9hdXRob3JpemF0aW9uIiwidXNlciJdfSwicmVzb3VyY2VfYWNjZXNzIjp7ImFjY291bnQiOnsicm9sZXMiOlsibWFuYWdlLWFjY291bnQiLCJtYW5hZ2UtYWNjb3VudC1saW5rcyIsInZpZXctcHJvZmlsZSJdfX0sInNjb3BlIjoiZW1haWwgcHJvZmlsZSIsInNpZCI6IjlhZmZhMTUxLWQyOTctNDIxNC04NTdkLTYyOTcxMmJmMzU3MyIsImVtYWlsX3ZlcmlmaWVkIjpmYWxzZSwicHJlZmVycmVkX3VzZXJuYW1lIjoidG9raGkiLCJ0Y0lkIjoiMzE5OTU3In0.HZiebatqfdkhH9Jf7gLiuyyT5fpmZuSfMkgxErCYcIBvEjFMcK0y_kyDly48Lz_lf4RbWku47VccFXYbHhQczM_qNHdodYxulemp6WDVos9k1SnxSiQyxu-fysst37zS_kn36VoG4taEDR5HERK213GhHEFOtC0jXSC6HW1XKd25SL44IUeTq8p19q92RP8IAy9X-S8xkM6awoe3rwmYLuio5RxpDNx5U3--ibP6hzzokRiyTxA9elhIehWsxjgoSCotmLKLBm96Kp6qTc-F9VkDK1H8IQrA00bQqE6LT2PiWiSNwJ0Y0f19oJvgq4bjhX8LE-lBmvsy1wEyg8zI5w","expires_in":300,"refresh_expires_in":1800,"refresh_token":"eyJhbGciOiJIUzI1NiIsInR5cCIgOiAiSldUIiwia2lkIiA6ICJkMTFjNTY4Yi1iMjAyLTQzYjgtYTBiMy1hYWI4ZWMyYWQzZDEifQ.eyJleHAiOjE2NjQ3Mzg1NTcsImlhdCI6MTY2NDczNjc1NywianRpIjoiOTdhMzY4NTktMmVmYS00MTFhLTk0YjAtOTQ5NzhhNDQ1YTFhIiwiaXNzIjoiaHR0cHM6Ly9hdXRoLWRlbW8ubnAudHJhbnNwb3J0aWNvbmxpbmUuY29tL2F1dGgvcmVhbG1zL3RpYyIsImF1ZCI6Imh0dHBzOi8vYXV0aC1kZW1vLm5wLnRyYW5zcG9ydGljb25saW5lLmNvbS9hdXRoL3JlYWxtcy90aWMiLCJzdWIiOiI0ZTk3NmQ0NC1iM2ZkLTRjYTktODk1Ny0wYWJiODUwNzNhNzQiLCJ0eXAiOiJSZWZyZXNoIiwiYXpwIjoidGljLWFwaSIsInNlc3Npb25fc3RhdGUiOiI5YWZmYTE1MS1kMjk3LTQyMTQtODU3ZC02Mjk3MTJiZjM1NzMiLCJzY29wZSI6ImVtYWlsIHByb2ZpbGUiLCJzaWQiOiI5YWZmYTE1MS1kMjk3LTQyMTQtODU3ZC02Mjk3MTJiZjM1NzMifQ.INNE2aXzzc9sdkjhAZKXj6qqvSabNCAzjv2uUOK5zhw","token_type":"Bearer","not-before-policy":0,"session_state":"9affa151-d297-4214-857d-629712bf3573","scope":"email profile"}" contains "access_token". @02-10-2022 20:52:37.0566 PM
[ReportManager] Successfully created attachment "Validation Test Data - Expected Value" @02-10-2022 20:52:37.0567 PM
[ReportManager] Successfully created attachment "Validation Test Data - Actual Value" @02-10-2022 20:52:37.0567 PM
[ReportManager] Get response jsonvalue "access_token". @02-10-2022 20:52:37.0568 PM
[ReportManager] Assertion Passed: Check that Access token is not null. @02-10-2022 20:52:37.0568 PM
[ReportManager] Successfully created attachment "Validation Test Data - Expected Value" @02-10-2022 20:52:37.0569 PM
[ReportManager] Successfully created attachment "Validation Test Data - Actual Value" @02-10-2022 20:52:37.0569 PM
[ReportManager] File Action "DoesFileExist" successfully performed. With the following test data "File Path: "Token_schema.json"". @02-10-2022 20:52:37.0569 PM
[ReportManager] File Action "DoesFileExist" successfully performed. With the following test data "File Path: "src/test/resources/testDataFiles/Token_schema.json"". @02-10-2022 20:52:37.0569 PM
[ReportManager] File Action "GetAbsolutePath" successfully performed. With the following test data "Relative Folder Path: "src/test/resources/testDataFiles/Token_schema.json"". @02-10-2022 20:52:37.0570 PM
[ReportManager] File Action "DoesFileExist" successfully performed. With the following test data "File Path: "C:\eclipse-workspace\MyProjects\TASystemsAPIs\src\test\resources\testDataFiles\Token_schema.json"". @02-10-2022 20:52:37.0572 PM
[ReportManager] File Action "GetAbsolutePath" successfully performed. With the following test data "Relative Folder Path: "C:\eclipse-workspace\MyProjects\TASystemsAPIs\src\test\resources\testDataFiles\Token_schema.json"". @02-10-2022 20:52:37.0572 PM
[ReportManager] File Action "ReadFromFile" successfully performed. With the following test data "File Path: "C:\eclipse-workspace\MyProjects\TASystemsAPIs\src\test\resources\testDataFiles\Token_schema.json"". @02-10-2022 20:52:37.0572 PM
[ReportManager] Assertion Passed: The API response schema matches that in this file "src/test/resources/testDataFiles/Token_schema.json". @02-10-2022 20:52:37.0573 PM
[ReportManager] Successfully created attachment "Validation Test Data - Expected JSON Value" @02-10-2022 20:52:37.0574 PM
[ReportManager] Successfully created attachment "Validation Test Data - Actual JSON Value" @02-10-2022 20:52:37.0575 PM
[ReportManager] Verification Passed: "440" is greater than or equal to "1.1". @02-10-2022 20:52:37.0585 PM
[ReportManager] Verification Passed: "440" is less than or equal to "10000". @02-10-2022 20:52:37.0586 PM
[ReportManager] Setting discrete logging to: "true" @02-10-2022 20:52:37.0952 PM
[ReportManager] Response status code: "200", status line: "HTTP/1.1 200 " @02-10-2022 20:52:37.0952 PM
[ReportManager] Assertion Passed: Evaluating the actual response status code against the expected one... @02-10-2022 20:52:37.0952 PM
[ReportManager] Setting discrete logging to: "false" @02-10-2022 20:52:37.0952 PM
[ReportManager] Perform request "GET | Target Status Code: 200 | Service URL: https://api-demo.np.transporticonline.com/steeringcompanies/v1/lookups/ports | Content Type: */* | Response Time: 353ms". @02-10-2022 20:52:37.0980 PM
[ReportManager] Successfully created attachment "API Request - Specifications" @02-10-2022 20:52:37.0980 PM
[ReportManager] Successfully created attachment "API Response - JSON Body" @02-10-2022 20:52:37.0989 PM
[ReportManager] Assertion Passed: "200" is equal to "200". @02-10-2022 20:52:37.0991 PM
[ReportManager] Verification Passed: "353" is greater than or equal to "1.1". @02-10-2022 20:52:37.0991 PM
[ReportManager] Verification Passed: "353" is less than or equal to "10000". @02-10-2022 20:52:37.0991 PM
[ReportManager] Assertion Passed: "{"page":0,"size":2147483647,"totalPages":1,"totalElements":29,"content":[{"id":59,"nameArabic":"???? ??? ","nameEnglish":"Alab Port","cityId":656,"isActive":true,"lastUpdated":"2020-10-22T18:41:32Z","sectors":null},{"id":53,"nameArabic":"????? ???? ???????","nameEnglish":"Yanbu Commercial Port","cityId":646,"isActive":true,"lastUpdated":"2020-10-22T18:41:32Z","sectors":null},{"id":49,"nameArabic":"???? ????? ????","nameEnglish":"Jadedat Arar Port","cityId":612,"isActive":true,"lastUpdated":"2020-10-22T18:41:32Z","sectors":null},{"id":65,"nameArabic":"???? ???????","nameEnglish":"Alwadeah Port","cityId":664,"isActive":true,"lastUpdated":"2020-10-22T18:41:32Z","sectors":null},{"id":41,"nameArabic":"???? ????? ???? ??????","nameEnglish":"King Khalid International Airport","cityId":601,"isActive":true,"lastUpdated":"2020-10-22T18:41:32Z","sectors":null},{"id":71,"nameArabic":"???? ????? 5 - ???? ????? ???","nameEnglish":"???? ????? 5 - ???? ????? ???","cityId":602,"isActive":true,"lastUpdated":"2020-10-22T18:41:32Z","sectors":null},{"id":48,"nameArabic":"???? ???? ????","nameEnglish":"Halat Amar Port","cityId":606,"isActive":true,"lastUpdated":"2020-10-22T18:41:32Z","sectors":null},{"id":54,"nameArabic":"???? ???????","nameEnglish":"Alkhadra Port","cityId":664,"isActive":true,"lastUpdated":"2020-10-22T18:41:32Z","sectors":null},{"id":58,"nameArabic":"???? ????? ???","nameEnglish":"King Fahad Airport","cityId":607,"isActive":true,"lastUpdated":"2020-10-22T18:41:32Z","sectors":null},{"id":66,"nameArabic":"???? ?????-1???? ????? ????? ","nameEnglish":"???? ?????-1???? ????? ????? ","cityId":602,"isActive":true,"lastUpdated":"2020-10-22T18:41:32Z","sectors":null},{"id":72,"nameArabic":"???? ????? ?????? - ?? ??????","nameEnglish":"Empty quarter Port","isActive":true,"lastUpdated":"2022-06-29T08:08:58Z","sectors":null},{"id":50,"nameArabic":"???? ????? ??? ?????? ??????","nameEnglish":"KING ABDUL AZIZ INTERNATIONAL AIRPORT","cityId":602,"isActive":true,"lastUpdated":"2020-10-22T18:41:32Z","sectors":null},{"id":45,"nameArabic":"???? ????","nameEnglish":"Salwa Port","cityId":672,"isActive":true,"lastUpdated":"2020-10-22T18:41:32Z","sectors":null},{"id":63,"nameArabic":"???? ??????","nameEnglish":"Altaif Airport","cityId":604,"isActive":true,"lastUpdated":"2020-10-22T18:41:32Z","sectors":null},{"id":4,"nameArabic":"?????","nameEnglish":"albalad","isActive":true,"lastUpdated":null,"sectors":null},{"id":55,"nameArabic":"???? ??????","nameEnglish":"Altowal Port","cityId":607,"isActive":true,"lastUpdated":"2020-10-22T18:41:32Z","sectors":null},{"id":5,"nameArabic":"???? ????? 2-???? ??????","nameEnglish":"???? ????? 2-???? ??????","cityId":602,"isActive":true,"lastUpdated":"2020-10-22T18:41:32Z","sectors":null},{"id":70,"nameArabic":"???? ????? 4-???? ????","nameEnglish":"???? ????? 4-???? ????","cityId":602,"isActive":true,"lastUpdated":"2020-10-22T18:41:32Z","sectors":null},{"id":69,"nameArabic":"???? ????? 3-???????","nameEnglish":"???? ????? 3-???????","cityId":602,"isActive":true,"lastUpdated":"2020-10-22T18:41:32Z","sectors":null},{"id":68,"nameArabic":"???? ????? 6 - ???? ???","nameEnglish":"???? ????? 6 - ???? ???","cityId":602,"isActive":true,"lastUpdated":"2020-10-22T18:41:32Z","sectors":null},{"id":43,"nameArabic":"???? ??????","nameEnglish":"Alkhafji Port","cityId":631,"isActive":true,"lastUpdated":"2020-10-22T18:41:32Z","sectors":null},{"id":67,"nameArabic":"??????????????????? ?????","nameEnglish":"Prince AbdulMohsen Bin Abdulaziz Airport","isActive":true,"lastUpdated":null,"sectors":null},{"id":47,"nameArabic":"???? ???????","nameEnglish":"Albatha Port","cityId":672,"isActive":true,"lastUpdated":"2020-10-22T18:41:32Z","sectors":null},{"id":52,"nameArabic":"????? ??? ????????","nameEnglish":"JEDDAH ISLAMIC PORT","cityId":602,"isActive":true,"lastUpdated":"2020-10-22T18:41:32Z","sectors":null},{"id":56,"nameArabic":"???? ???????","nameEnglish":"Alhadithah Port","cityId":641,"isActive":true,"lastUpdated":"2020-10-22T18:41:32Z","sectors":null},{"id":46,"nameArabic":"??? ????? ???","nameEnglish":"King Fahad Bridge","cityId":608,"isActive":true,"lastUpdated":"2020-10-22T18:41:32Z","sectors":null},{"id":51,"nameArabic":"???? ?????? ????","nameEnglish":"PRINCE MOHAMMAD INTERNATIONAL AIRPORT","cityId":605,"isActive":true,"lastUpdated":"2020-10-22T18:41:32Z","sectors":null},{"id":44,"nameArabic":"???? ??????","nameEnglish":"Alraqai Port","cityId":630,"isActive":true,"lastUpdated":"2020-10-22T18:41:32Z","sectors":null},{"id":64,"nameArabic":"???? ????","nameEnglish":"Abha Airport","cityId":613,"isActive":true,"lastUpdated":"2020-10-22T18:41:32Z","sectors":null}]}" contains "content". @02-10-2022 20:52:37.0991 PM
[ReportManager] Successfully created attachment "Validation Test Data - Expected Value" @02-10-2022 20:52:37.0996 PM
[ReportManager] Successfully created attachment "Validation Test Data - Actual Value" @02-10-2022 20:52:37.0999 PM
[ReportManager] Get response jsonvalue "content". @02-10-2022 20:52:38.0002 PM
[ReportManager] Assertion Passed: Check that content object is not null. @02-10-2022 20:52:38.0002 PM
[ReportManager] Successfully created attachment "Validation Test Data - Expected Value" @02-10-2022 20:52:38.0002 PM
[ReportManager] Successfully created attachment "Validation Test Data - Actual Value" @02-10-2022 20:52:38.0002 PM
[ReportManager] File Action "DoesFileExist" successfully performed. With the following test data "File Path: "Lookups_ports_schema.json"". @02-10-2022 20:52:38.0002 PM
[ReportManager] File Action "DoesFileExist" successfully performed. With the following test data "File Path: "src/test/resources/testDataFiles/Lookups_ports_schema.json"". @02-10-2022 20:52:38.0002 PM
[ReportManager] File Action "GetAbsolutePath" successfully performed. With the following test data "Relative Folder Path: "src/test/resources/testDataFiles/Lookups_ports_schema.json"". @02-10-2022 20:52:38.0002 PM
[ReportManager] File Action "DoesFileExist" successfully performed. With the following test data "File Path: "C:\eclipse-workspace\MyProjects\TASystemsAPIs\src\test\resources\testDataFiles\Lookups_ports_schema.json"". @02-10-2022 20:52:38.0020 PM
[ReportManager] File Action "GetAbsolutePath" successfully performed. With the following test data "Relative Folder Path: "C:\eclipse-workspace\MyProjects\TASystemsAPIs\src\test\resources\testDataFiles\Lookups_ports_schema.json"". @02-10-2022 20:52:38.0020 PM
[ReportManager] File Action "ReadFromFile" successfully performed. With the following test data "File Path: "C:\eclipse-workspace\MyProjects\TASystemsAPIs\src\test\resources\testDataFiles\Lookups_ports_schema.json"". @02-10-2022 20:52:38.0022 PM
[ReportManager] Assertion Passed: The API response schema matches that in this file "src/test/resources/testDataFiles/Lookups_ports_schema.json". @02-10-2022 20:52:38.0024 PM
[ReportManager] Successfully created attachment "Validation Test Data - Expected JSON Value" @02-10-2022 20:52:38.0024 PM
[ReportManager] Successfully created attachment "Validation Test Data - Actual JSON Value" @02-10-2022 20:52:38.0028 PM
[ReportManager] Verification Passed: "353" is greater than or equal to "1.1". @02-10-2022 20:52:38.0030 PM
[ReportManager] Verification Passed: "353" is less than or equal to "10000". @02-10-2022 20:52:38.0031 PM
[ReportManager] Setting discrete logging to: "true" @02-10-2022 20:52:38.0380 PM
[ReportManager] Response status code: "200", status line: "HTTP/1.1 200 " @02-10-2022 20:52:38.0380 PM
[ReportManager] Assertion Passed: Evaluating the actual response status code against the expected one... @02-10-2022 20:52:38.0380 PM
[ReportManager] Setting discrete logging to: "false" @02-10-2022 20:52:38.0384 PM
[ReportManager] Perform request "GET | Target Status Code: 200 | Service URL: https://api-demo.np.transporticonline.com/steeringcompanies/v1/lookups/ports | Content Type: */* | Response Time: 344ms". @02-10-2022 20:52:38.0401 PM
[ReportManager] Successfully created attachment "API Request - Specifications" @02-10-2022 20:52:38.0401 PM
[ReportManager] Successfully created attachment "API Response - JSON Body" @02-10-2022 20:52:38.0413 PM
[ReportManager] Assertion Passed: "200" is equal to "200". @02-10-2022 20:52:38.0414 PM
[ReportManager] Verification Passed: "344" is greater than or equal to "1.1". @02-10-2022 20:52:38.0414 PM
[ReportManager] Verification Passed: "344" is less than or equal to "10000". @02-10-2022 20:52:38.0414 PM
[ReportManager] Assertion Passed: "{"page":0,"size":3,"totalPages":10,"totalElements":29,"content":[{"id":59,"nameArabic":"???? ??? ","nameEnglish":"Alab Port","cityId":656,"isActive":true,"lastUpdated":"2020-10-22T18:41:32Z","sectors":null},{"id":53,"nameArabic":"????? ???? ???????","nameEnglish":"Yanbu Commercial Port","cityId":646,"isActive":true,"lastUpdated":"2020-10-22T18:41:32Z","sectors":null},{"id":49,"nameArabic":"???? ????? ????","nameEnglish":"Jadedat Arar Port","cityId":612,"isActive":true,"lastUpdated":"2020-10-22T18:41:32Z","sectors":null}]}" contains "content". @02-10-2022 20:52:38.0415 PM
[ReportManager] Successfully created attachment "Validation Test Data - Expected Value" @02-10-2022 20:52:38.0417 PM
[ReportManager] Successfully created attachment "Validation Test Data - Actual Value" @02-10-2022 20:52:38.0419 PM
[ReportManager] Get response jsonvalue "content". @02-10-2022 20:52:38.0420 PM
[ReportManager] Assertion Passed: Check that content object is not null. @02-10-2022 20:52:38.0420 PM
[ReportManager] File Action "DoesFileExist" successfully performed. With the following test data "File Path: "Lookups_ports_schema.json"". @02-10-2022 20:52:38.0420 PM
[ReportManager] File Action "DoesFileExist" successfully performed. With the following test data "File Path: "src/test/resources/testDataFiles/Lookups_ports_schema.json"". @02-10-2022 20:52:38.0420 PM
[ReportManager] File Action "GetAbsolutePath" successfully performed. With the following test data "Relative Folder Path: "src/test/resources/testDataFiles/Lookups_ports_schema.json"". @02-10-2022 20:52:38.0420 PM
[ReportManager] File Action "DoesFileExist" successfully performed. With the following test data "File Path: "C:\eclipse-workspace\MyProjects\TASystemsAPIs\src\test\resources\testDataFiles\Lookups_ports_schema.json"". @02-10-2022 20:52:38.0426 PM
[ReportManager] File Action "GetAbsolutePath" successfully performed. With the following test data "Relative Folder Path: "C:\eclipse-workspace\MyProjects\TASystemsAPIs\src\test\resources\testDataFiles\Lookups_ports_schema.json"". @02-10-2022 20:52:38.0432 PM
[ReportManager] File Action "ReadFromFile" successfully performed. With the following test data "File Path: "C:\eclipse-workspace\MyProjects\TASystemsAPIs\src\test\resources\testDataFiles\Lookups_ports_schema.json"". @02-10-2022 20:52:38.0432 PM
[ReportManager] Assertion Passed: The API response schema matches that in this file "src/test/resources/testDataFiles/Lookups_ports_schema.json". @02-10-2022 20:52:38.0432 PM
[ReportManager] Successfully created attachment "Validation Test Data - Expected JSON Value" @02-10-2022 20:52:38.0434 PM
[ReportManager] Successfully created attachment "Validation Test Data - Actual JSON Value" @02-10-2022 20:52:38.0469 PM
[ReportManager] Verification Passed: "344" is greater than or equal to "1.1". @02-10-2022 20:52:38.0469 PM
[ReportManager] Verification Passed: "344" is less than or equal to "10000". @02-10-2022 20:52:38.0469 PM