
################################################################################################################################################
Starting Execution:	"2 out of 54" test cases in the current suite
Test Method:		"SteeringCompanyAPI_TestCases.Test_Lookups_Cases.Valid_GET_all_cities_Lookups_by_Qry_Rq_TC"
Test Description:	"TC002 - Perform Get all cities API by parameters Qry with valid user name and password and return with token"
################################################################################################################################################
[ReportManager] File Action "DoesFileExist" successfully performed. With the following test data "File Path: "SteeringCompanyAPI_TestData/SteeringCompanyAPI_TestData.xlsx"". @09-01-2023 22:33:04.0164 PM
[ReportManager] Loaded Test Data: "src/test/resources/testDataFiles/SteeringCompanyAPI_TestData/SteeringCompanyAPI_TestData.xlsx". @09-01-2023 22:33:04.0198 PM
[ReportManager] Successfully created attachment "Test Data - Excel" @09-01-2023 22:33:04.0200 PM
[ReportManager] Response status code: "200", status line: "HTTP/1.1 200 OK" @09-01-2023 22:33:05.0086 PM
[ReportManager] Assertion Passed: Evaluating the actual response status code against the expected one... @09-01-2023 22:33:05.0087 PM
[ReportManager] Perform request "POST | Target Status Code: 200 | Service URL: https://auth-demo.np.transporticonline.com/auth/realms/tic/protocol/openid-connect/token | Content Type: application/x-www-form-urlencoded | Response Time: 878ms". @09-01-2023 22:33:05.0130 PM
[ReportManager] Successfully created attachment "API Request - Specifications" @09-01-2023 22:33:05.0132 PM
[ReportManager] Successfully created attachment "API Request - Body" @09-01-2023 22:33:05.0133 PM
[ReportManager] Successfully created attachment "API Response - JSON Body" @09-01-2023 22:33:05.0134 PM
[ReportManager] Assertion Passed: Check Response Status Code is 200 and it is valid. @09-01-2023 22:33:05.0135 PM
[ReportManager] File Action "DoesFileExist" successfully performed. With the following test data "File Path: "SteeringCompanyAPI_TestData/SteeringCompanyAPI_TestData.xlsx"". @09-01-2023 22:33:05.0196 PM
[ReportManager] Loaded Test Data: "src/test/resources/testDataFiles/SteeringCompanyAPI_TestData/SteeringCompanyAPI_TestData.xlsx". @09-01-2023 22:33:05.0246 PM
[ReportManager] Successfully created attachment "Test Data - Excel" @09-01-2023 22:33:05.0249 PM
[ReportManager] Response status code: "200", status line: "HTTP/1.1 200 " @09-01-2023 22:33:06.0190 PM
[ReportManager] Assertion Passed: Evaluating the actual response status code against the expected one... @09-01-2023 22:33:06.0191 PM
[ReportManager] Perform request "GET | Target Status Code: 200 | Service URL: https://api-demo.np.transporticonline.com/steeringcompanies/v1/lookups/cities | Content Type: */* | Response Time: 849ms". @09-01-2023 22:33:06.0205 PM
[ReportManager] Successfully created attachment "API Request - Specifications" @09-01-2023 22:33:06.0208 PM
[ReportManager] Successfully created attachment "API Response - JSON Body" @09-01-2023 22:33:06.0209 PM
[ReportManager] Assertion Passed: "200" is equal to "200". @09-01-2023 22:33:06.0211 PM
[ReportManager] Verification Passed: "849" is greater than or equal to "1.1". @09-01-2023 22:33:06.0212 PM
[ReportManager] Verification Passed: "849" is less than or equal to "10000". @09-01-2023 22:33:06.0213 PM
[ReportManager] Assertion Passed: "{"page":0,"size":3,"totalPages":237,"totalElements":709,"content":[{"id":36,"nameArabic":"??????????","nameEnglish":"Kuala Lumpur","isActive":true,"lastUpdated":"2022-06-02T01:21:49Z","sectors":null},{"id":849,"nameArabic":"???????","nameEnglish":"Solngen","isActive":true,"lastUpdated":"2022-06-02T01:37:02Z","sectors":null},{"id":1006,"nameArabic":"??????","nameEnglish":"FRUNZE","isActive":true,"lastUpdated":"2022-06-02T00:20:05Z","sectors":null}]}" contains "content". @09-01-2023 22:33:06.0216 PM
[ReportManager] Get response jsonvalue "content". @09-01-2023 22:33:06.0217 PM
[ReportManager] Assertion Passed: Check that content object is not null. @09-01-2023 22:33:06.0221 PM
[ReportManager] File Action "DoesFileExist" successfully performed. With the following test data "File Path: "Schemas/Lookups_cities_schema.json"". @09-01-2023 22:33:06.0222 PM
[ReportManager] File Action "DoesFileExist" successfully performed. With the following test data "File Path: "src/test/resources/testDataFiles/Schemas/Lookups_cities_schema.json"". @09-01-2023 22:33:06.0223 PM
[ReportManager] File Action "GetAbsolutePath" successfully performed. With the following test data "Relative Folder Path: "src/test/resources/testDataFiles/Schemas/Lookups_cities_schema.json"". @09-01-2023 22:33:06.0227 PM
[ReportManager] File Action "DoesFileExist" successfully performed. With the following test data "File Path: "C:\eclipse-workspace\MyProjects\TASystemsAPIs\src\test\resources\testDataFiles\Schemas\Lookups_cities_schema.json"". @09-01-2023 22:33:06.0253 PM
[ReportManager] File Action "GetAbsolutePath" successfully performed. With the following test data "Relative Folder Path: "C:\eclipse-workspace\MyProjects\TASystemsAPIs\src\test\resources\testDataFiles\Schemas\Lookups_cities_schema.json"". @09-01-2023 22:33:06.0253 PM
[ReportManager] File Action "ReadFile" successfully performed. With the following test data "File Path: "C:\eclipse-workspace\MyProjects\TASystemsAPIs\src\test\resources\testDataFiles\Schemas\Lookups_cities_schema.json"". @09-01-2023 22:33:06.0254 PM
[ReportManager] Assertion Passed: The API response schema matches that in this file "src/test/resources/testDataFiles/Schemas/Lookups_cities_schema.json". @09-01-2023 22:33:06.0256 PM
[ReportManager] Successfully created attachment "Validation Test Data - Expected JSON Value" @09-01-2023 22:33:06.0258 PM
[ReportManager] Successfully created attachment "Validation Test Data - Actual JSON Value" @09-01-2023 22:33:06.0261 PM