
################################################################################################################################################
Starting Execution:	"98 out of 110" test cases in the current suite
Test Method:		"SteeringCompanyAPI_TestCases.Test_PeriodProgramTemplate_Cases.Get_Valid_all_PeriodProgramTemplate_by_Qry_Rq_TC"
Test Description:	"TC002  -PeriodProgramTemplate-   Perform Get all PeriodProgramTemplate API with pagination with valid user name and password"
################################################################################################################################################
[ReportManager] File Action "DoesFileExist" successfully performed. With the following test data "File Path: "SteeringCompanyAPI_TestData/SteeringCompanyAPI_TestData.xlsx"". @07-02-2023 14:57:38.0604 PM
[ReportManager] Loaded Test Data: "src/test/resources/testDataFiles/SteeringCompanyAPI_TestData/SteeringCompanyAPI_TestData.xlsx". @07-02-2023 14:57:38.0643 PM
[ReportManager] Successfully created attachment "Test Data - Excel" @07-02-2023 14:57:38.0647 PM
[ReportManager] Response status code: "200", status line: "HTTP/1.1 200 OK" @07-02-2023 14:57:39.0288 PM
[ReportManager] Assertion Passed: Evaluating the actual response status code against the expected one... @07-02-2023 14:57:39.0288 PM
[ReportManager] Perform request "POST | Target Status Code: 200 | Service URL: https://auth-demo.np.transporticonline.com/auth/realms/tic/protocol/openid-connect/token | Content Type: application/x-www-form-urlencoded | Response Time: 635ms". @07-02-2023 14:57:39.0307 PM
[ReportManager] Successfully created attachment "API Request - Specifications" @07-02-2023 14:57:39.0307 PM
[ReportManager] Successfully created attachment "API Request - Body" @07-02-2023 14:57:39.0308 PM
[ReportManager] Successfully created attachment "API Response - JSON Body" @07-02-2023 14:57:39.0309 PM
[ReportManager] Assertion Passed: Check Response Status Code is 200 and it is valid. @07-02-2023 14:57:39.0310 PM
[ReportManager] File Action "DoesFileExist" successfully performed. With the following test data "File Path: "SteeringCompanyAPI_TestData/SteeringCompanyAPI_TestData.xlsx"". @07-02-2023 14:57:39.0329 PM
[ReportManager] Loaded Test Data: "src/test/resources/testDataFiles/SteeringCompanyAPI_TestData/SteeringCompanyAPI_TestData.xlsx". @07-02-2023 14:57:39.0370 PM
[ReportManager] Successfully created attachment "Test Data - Excel" @07-02-2023 14:57:39.0372 PM
[ReportManager] Response status code: "200", status line: "HTTP/1.1 200 " @07-02-2023 14:57:39.0897 PM
[ReportManager] Assertion Passed: Evaluating the actual response status code against the expected one... @07-02-2023 14:57:39.0897 PM
[ReportManager] Perform request "GET | Target Status Code: 200 | Service URL: https://api-demo.np.transporticonline.com/steeringcompanies/v1/periodProgramTemplates | Content Type: */* | Response Time: 523ms". @07-02-2023 14:57:39.0919 PM
[ReportManager] Successfully created attachment "API Request - Specifications" @07-02-2023 14:57:39.0919 PM
[ReportManager] Successfully created attachment "API Response - JSON Body" @07-02-2023 14:57:39.0921 PM
[ReportManager] Assertion Passed: "200" is equal to "200". @07-02-2023 14:57:39.0923 PM
[ReportManager] Verification Passed: "523" is greater than or equal to "1.1". @07-02-2023 14:57:39.0923 PM
[ReportManager] Verification Passed: "523" is less than or equal to "10000". @07-02-2023 14:57:39.0923 PM
[ReportManager] Assertion Passed: "{"page":0,"size":10,"totalPages":10,"totalElements":93,"content":[{"id":213,"seasonType":"umrah","saleSystem":"GDS","programType":"Routes","programMechanism":"reservations","routeId":60,"season":1444,"vehicleTypeId":4,"vehicleCategoryId":1,"minimumModelYear":2010,"maximumModelYear":2022,"minimumVehiclePricePer":1200,"minimumSeat":5,"maximumSeat":9,"templatePeriodStartDate":"2022-09-05","templatePeriodEndDate":"2022-09-12","templatePeriodMaximumQuota":100,"isActive":true},{"id":214,"seasonType":"umrah","saleSystem":"GDS","programType":"Routes","programMechanism":"reservations","routeId":60,"season":1444,"vehicleTypeId":4,"vehicleCategoryId":2,"minimumModelYear":2010,"maximumModelYear":2022,"minimumVehiclePricePer":1200,"minimumSeat":5,"maximumSeat":9,"templatePeriodStartDate":"2022-09-05","templatePeriodEndDate":"2022-09-12","templatePeriodMaximumQuota":100,"isActive":true},{"id":215,"seasonType":"umrah","saleSystem":"GDS","programType":"Routes","programMechanism":"reservations","routeId":60,"season":1444,"vehicleTypeId":4,"vehicleCategoryId":3,"minimumModelYear":2010,"maximumModelYear":2022,"minimumVehiclePricePer":1200,"minimumSeat":5,"maximumSeat":9,"templatePeriodStartDate":"2022-09-05","templatePeriodEndDate":"2022-09-12","templatePeriodMaximumQuota":100,"isActive":true},{"id":265,"seasonType":"umrah","saleSystem":"GDS","programType":"Routes","programMechanism":"reservations","routeId":60,"season":1444,"vehicleTypeId":2,"vehicleCategoryId":1,"minimumModelYear":2010,"maximumModelYear":2022,"minimumVehiclePricePer":10,"minimumSeat":3,"maximumSeat":7,"templatePeriodStartDate":"2023-03-27","templatePeriodEndDate":"2023-04-02","templatePeriodMaximumQuota":50,"isActive":true},{"id":223,"seasonType":"umrah","saleSystem":"GDS","programType":"Routes","programMechanism":"reservations","routeId":60,"season":1444,"vehicleTypeId":2,"vehicleCategoryId":1,"minimumModelYear":2010,"maximumModelYear":2022,"minimumVehiclePricePer":12,"minimumSeat":2,"maximumSeat":7,"templatePeriodStartDate":"2022-09-01","templatePeriodEndDate":"2022-09-11","templatePeriodMaximumQuota":101,"isActive":true},{"id":224,"seasonType":"umrah","saleSystem":"GDS","programType":"Routes","programMechanism":"reservations","routeId":60,"season":1444,"vehicleTypeId":4,"vehicleCategoryId":1,"minimumModelYear":2010,"maximumModelYear":2022,"minimumVehiclePricePer":3500,"minimumSeat":5,"maximumSeat":8,"templatePeriodStartDate":"2021-01-02","templatePeriodEndDate":"2021-01-31","templatePeriodMaximumQuota":200,"isActive":true},{"id":225,"seasonType":"umrah","saleSystem":"GDS","programType":"Routes","programMechanism":"reservations","routeId":60,"season":1444,"vehicleTypeId":4,"vehicleCategoryId":2,"minimumModelYear":2010,"maximumModelYear":2022,"minimumVehiclePricePer":3500,"minimumSeat":5,"maximumSeat":8,"templatePeriodStartDate":"2021-01-02","templatePeriodEndDate":"2021-01-31","templatePeriodMaximumQuota":200,"isActive":true},{"id":226,"seasonType":"umrah","saleSystem":"GDS","programType":"Routes","programMechanism":"reservations","routeId":60,"season":1444,"vehicleTypeId":4,"vehicleCategoryId":3,"minimumModelYear":2010,"maximumModelYear":2022,"minimumVehiclePricePer":3500,"minimumSeat":5,"maximumSeat":8,"templatePeriodStartDate":"2021-01-02","templatePeriodEndDate":"2021-01-31","templatePeriodMaximumQuota":200,"isActive":true},{"id":227,"seasonType":"umrah","saleSystem":"GDS","programType":"Routes","programMechanism":"reservations","routeId":58,"season":1444,"vehicleTypeId":4,"vehicleCategoryId":1,"minimumModelYear":2010,"maximumModelYear":2022,"minimumVehiclePricePer":3500,"minimumSeat":6,"maximumSeat":8,"templatePeriodStartDate":"2021-01-02","templatePeriodEndDate":"2021-01-31","templatePeriodMaximumQuota":200,"isActive":true},{"id":228,"seasonType":"umrah","saleSystem":"GDS","programType":"Routes","programMechanism":"reservations","routeId":58,"season":1444,"vehicleTypeId":4,"vehicleCategoryId":2,"minimumModelYear":2010,"maximumModelYear":2022,"minimumVehiclePricePer":3500,"minimumSeat":6,"maximumSeat":8,"templatePeriodStartDate":"2021-01-02","templatePeriodEndDate":"2021-01-31","templatePeriodMaximumQuota":200,"isActive":true}]}" contains "content". @07-02-2023 14:57:39.0923 PM
[ReportManager] Successfully created attachment "Validation Test Data - Expected Value" @07-02-2023 14:57:39.0924 PM
[ReportManager] Successfully created attachment "Validation Test Data - Actual Value" @07-02-2023 14:57:39.0925 PM
[ReportManager] Get response jsonvalue "content". @07-02-2023 14:57:39.0927 PM
[ReportManager] Assertion Passed: Check that content object is not null. @07-02-2023 14:57:39.0927 PM
[ReportManager] Successfully created attachment "Validation Test Data - Expected Value" @07-02-2023 14:57:39.0930 PM
[ReportManager] Successfully created attachment "Validation Test Data - Actual Value" @07-02-2023 14:57:39.0932 PM
[ReportManager] File Action "DoesFileExist" successfully performed. With the following test data "File Path: "Schemas/PeriodProgramTemplates_schema.json"". @07-02-2023 14:57:39.0933 PM
[ReportManager] File Action "DoesFileExist" successfully performed. With the following test data "File Path: "src/test/resources/testDataFiles/Schemas/PeriodProgramTemplates_schema.json"". @07-02-2023 14:57:39.0933 PM
[ReportManager] File Action "GetAbsolutePath" successfully performed. With the following test data "Relative Folder Path: "src/test/resources/testDataFiles/Schemas/PeriodProgramTemplates_schema.json"". @07-02-2023 14:57:39.0934 PM
[ReportManager] File Action "DoesFileExist" successfully performed. With the following test data "File Path: "C:\eclipse-workspace\MyProjects\TASystemsAPIs\src\test\resources\testDataFiles\Schemas\PeriodProgramTemplates_schema.json"". @07-02-2023 14:57:39.0943 PM
[ReportManager] File Action "GetAbsolutePath" successfully performed. With the following test data "Relative Folder Path: "C:\eclipse-workspace\MyProjects\TASystemsAPIs\src\test\resources\testDataFiles\Schemas\PeriodProgramTemplates_schema.json"". @07-02-2023 14:57:39.0943 PM
[ReportManager] File Action "ReadFile" successfully performed. With the following test data "File Path: "C:\eclipse-workspace\MyProjects\TASystemsAPIs\src\test\resources\testDataFiles\Schemas\PeriodProgramTemplates_schema.json"". @07-02-2023 14:57:39.0943 PM
[ReportManager] Assertion Passed: The API response schema matches that in this file "src/test/resources/testDataFiles/Schemas/PeriodProgramTemplates_schema.json". @07-02-2023 14:57:39.0944 PM
[ReportManager] Successfully created attachment "Validation Test Data - Expected JSON Value" @07-02-2023 14:57:39.0952 PM
[ReportManager] Successfully created attachment "Validation Test Data - Actual JSON Value" @07-02-2023 14:57:39.0953 PM