
################################################################################################################################################
Starting Execution:	"1 out of 5" test cases in the current suite
Test Method:		"SteeringCompanyAPI_TestCases.Test_Lookups_Cases.Valid_GET_all_cities_Lookups_Rq_TC"
Test Description:	"TC001 - Perform Get all cities API with valid user name and password"
################################################################################################################################################
[ReportManager] File Action "DoesFileExist" successfully performed. With the following test data "File Path: "SteeringCompanyAPI_TestData/SteeringCompanyAPI_TestData.xlsx"". @24-10-2022 10:21:20.0757 AM
[ReportManager] Loaded Test Data: "src/test/resources/testDataFiles/SteeringCompanyAPI_TestData/SteeringCompanyAPI_TestData.xlsx". @24-10-2022 10:21:20.0810 AM
[ReportManager] Successfully created attachment "Test Data - Excel" @24-10-2022 10:21:20.0818 AM
[ReportManager] Response status code: "200", status line: "HTTP/1.1 200 OK" @24-10-2022 10:21:24.0040 AM
[ReportManager] Assertion Passed: Evaluating the actual response status code against the expected one... @24-10-2022 10:21:24.0048 AM
[ReportManager] Perform request "POST | Target Status Code: 200 | Service URL: https://auth-demo.np.transporticonline.com/auth/realms/tic/protocol/openid-connect/token | Content Type: application/x-www-form-urlencoded | Response Time: 1564ms". @24-10-2022 10:21:25.0250 AM
[ReportManager] Successfully created attachment "API Request - Specifications" @24-10-2022 10:21:25.0251 AM
[ReportManager] Successfully created attachment "API Request - Body" @24-10-2022 10:21:25.0253 AM
[ReportManager] Successfully created attachment "API Response - JSON Body" @24-10-2022 10:21:25.0559 AM
[ReportManager] Assertion Passed: Check Response Status Code is 200 and it is valid. @24-10-2022 10:21:25.0561 AM
[ReportManager] File Action "DoesFileExist" successfully performed. With the following test data "File Path: "SteeringCompanyAPI_TestData/SteeringCompanyAPI_TestData.xlsx"". @24-10-2022 10:21:25.0585 AM
[ReportManager] Loaded Test Data: "src/test/resources/testDataFiles/SteeringCompanyAPI_TestData/SteeringCompanyAPI_TestData.xlsx". @24-10-2022 10:21:25.0620 AM
[ReportManager] Successfully created attachment "Test Data - Excel" @24-10-2022 10:21:25.0623 AM
[ReportManager] Response status code: "200", status line: "HTTP/1.1 200 " @24-10-2022 10:21:26.0292 AM
[ReportManager] Assertion Passed: Evaluating the actual response status code against the expected one... @24-10-2022 10:21:26.0292 AM
[ReportManager] Perform request "GET | Target Status Code: 200 | Service URL: https://api-demo.np.transporticonline.com/steeringcompanies/v1/lookups/cities | Content Type: */* | Response Time: 653ms". @24-10-2022 10:21:26.0322 AM
[ReportManager] Successfully created attachment "API Request - Specifications" @24-10-2022 10:21:26.0323 AM
[ReportManager] Successfully created attachment "API Response - JSON Body" @24-10-2022 10:21:26.0324 AM
[ReportManager] Assertion Passed: "200" is equal to "200". @24-10-2022 10:21:26.0325 AM
[ReportManager] Verification Passed: "653" is greater than or equal to "1.1". @24-10-2022 10:21:26.0326 AM
[ReportManager] Verification Passed: "653" is less than or equal to "10000". @24-10-2022 10:21:26.0327 AM
[ReportManager] Assertion Passed: "{"page":0,"size":20,"totalPages":36,"totalElements":704,"content":[{"id":1071,"nameArabic":"???? ?????? ??????","nameEnglish":"Denizli Cardak Airport","isActive":true,"lastUpdated":"2022-06-02T00:13:35Z","sectors":null},{"id":36,"nameArabic":"??????????","nameEnglish":"Kuala Lumpur","isActive":true,"lastUpdated":"2022-06-02T01:21:49Z","sectors":null},{"id":849,"nameArabic":"???????","nameEnglish":"Solngen","isActive":true,"lastUpdated":"2022-06-02T01:37:02Z","sectors":null},{"id":753,"nameArabic":"????","nameEnglish":"Ciba","isActive":true,"lastUpdated":"2022-06-02T00:43:05Z","sectors":null},{"id":1006,"nameArabic":"??????","nameEnglish":"FRUNZE","isActive":true,"lastUpdated":"2022-06-02T00:20:05Z","sectors":null},{"id":985,"nameArabic":"??????","nameEnglish":"KANDAHAR","isActive":true,"lastUpdated":"2022-06-02T00:25:20Z","sectors":null},{"id":736,"nameArabic":"?????","nameEnglish":"Tabrka","isActive":true,"lastUpdated":"2022-06-02T01:16:50Z","sectors":null},{"id":953,"nameArabic":"?????","nameEnglish":"Sohag","isActive":true,"lastUpdated":"2022-06-02T00:25:24Z","sectors":null},{"id":816,"nameArabic":"??????","nameEnglish":"Cochin","isActive":true,"lastUpdated":"2022-06-02T01:06:13Z","sectors":null},{"id":789,"nameArabic":"???? ????","nameEnglish":"Faisalabad","isActive":true,"lastUpdated":"2022-06-02T01:27:12Z","sectors":null},{"id":1013,"nameArabic":"?????","nameEnglish":"KAZAN","isActive":true,"lastUpdated":"2022-06-02T00:37:19Z","sectors":null},{"id":794,"nameArabic":"???????","nameEnglish":"KAYSERI","isActive":true,"lastUpdated":"2022-06-02T01:21:58Z","sectors":null},{"id":764,"nameArabic":"????","nameEnglish":"Tangier","isActive":true,"lastUpdated":"2022-06-02T01:27:13Z","sectors":null},{"id":780,"nameArabic":"??????","nameEnglish":"Shahyraz","isActive":true,"lastUpdated":"2022-06-02T00:37:28Z","sectors":null},{"id":712,"nameArabic":"?????","nameEnglish":"Tashkent","isActive":true,"lastUpdated":"2022-06-02T01:27:13Z","sectors":null},{"id":824,"nameArabic":"??????","nameEnglish":"Samarqand","isActive":true,"lastUpdated":"2022-06-02T00:37:28Z","sectors":null},{"id":993,"nameArabic":"?????","nameEnglish":"KRBI","isActive":true,"lastUpdated":"2022-06-02T01:22:03Z","sectors":null},{"id":820,"nameArabic":"???????","nameEnglish":"CALICUT","isActive":true,"lastUpdated":"2022-06-02T01:27:21Z","sectors":null},{"id":91,"nameArabic":"????","nameEnglish":"KANO","isActive":true,"lastUpdated":"2022-06-02T01:22:03Z","sectors":null},{"id":125,"nameArabic":"????","nameEnglish":"Kabul","isActive":true,"lastUpdated":"2022-06-02T00:42:58Z","sectors":null}]}" contains "content". @24-10-2022 10:21:26.0332 AM
[ReportManager] Successfully created attachment "Validation Test Data - Expected Value" @24-10-2022 10:21:26.0372 AM
[ReportManager] Successfully created attachment "Validation Test Data - Actual Value" @24-10-2022 10:21:26.0374 AM
[ReportManager] Get response jsonvalue "content". @24-10-2022 10:21:26.0518 AM
[ReportManager] Assertion Passed: Check that content object is not null. @24-10-2022 10:21:26.0519 AM
[ReportManager] Successfully created attachment "Validation Test Data - Expected Value" @24-10-2022 10:21:26.0520 AM
[ReportManager] Successfully created attachment "Validation Test Data - Actual Value" @24-10-2022 10:21:26.0521 AM
[ReportManager] File Action "DoesFileExist" successfully performed. With the following test data "File Path: "Lookups_cities_schema.json"". @24-10-2022 10:21:26.0522 AM
[ReportManager] File Action "DoesFileExist" successfully performed. With the following test data "File Path: "src/test/resources/testDataFiles/Lookups_cities_schema.json"". @24-10-2022 10:21:26.0522 AM
[ReportManager] File Action "GetAbsolutePath" successfully performed. With the following test data "Relative Folder Path: "src/test/resources/testDataFiles/Lookups_cities_schema.json"". @24-10-2022 10:21:26.0523 AM
[ReportManager] File Action "DoesFileExist" successfully performed. With the following test data "File Path: "C:\eclipse-workspace\MyProjects\TASystemsAPIs\src\test\resources\testDataFiles\Lookups_cities_schema.json"". @24-10-2022 10:21:27.0378 AM
[ReportManager] File Action "GetAbsolutePath" successfully performed. With the following test data "Relative Folder Path: "C:\eclipse-workspace\MyProjects\TASystemsAPIs\src\test\resources\testDataFiles\Lookups_cities_schema.json"". @24-10-2022 10:21:27.0379 AM
[ReportManager] File Action "ReadFromFile" successfully performed. With the following test data "File Path: "C:\eclipse-workspace\MyProjects\TASystemsAPIs\src\test\resources\testDataFiles\Lookups_cities_schema.json"". @24-10-2022 10:21:27.0380 AM
[ReportManager] Assertion Passed: The API response schema matches that in this file "src/test/resources/testDataFiles/Lookups_cities_schema.json". @24-10-2022 10:21:27.0386 AM
[ReportManager] Successfully created attachment "Validation Test Data - Expected JSON Value" @24-10-2022 10:21:27.0388 AM
[ReportManager] Successfully created attachment "Validation Test Data - Actual JSON Value" @24-10-2022 10:21:27.0389 AM