
################################################################################################################################################
Starting Execution:	"45 out of 88" test cases in the current suite
Test Method:		"SteeringCompanyAPI_TestCases.Test_PeriodProgramTemplate_Cases.Get_Valid_all_PeriodProgramTemplate_by_Qry_Rq_TC"
Test Description:	"TC002  -PeriodProgramTemplate-   Perform Get all PeriodProgramTemplate API with pagination with valid user name and password"
################################################################################################################################################
[ReportManager] File Action "DoesFileExist" successfully performed. With the following test data "File Path: "SteeringCompanyAPI_TestData/SteeringCompanyAPI_TestData.xlsx"". @25-01-2023 12:33:41.0144 PM
[ReportManager] Loaded Test Data: "src/test/resources/testDataFiles/SteeringCompanyAPI_TestData/SteeringCompanyAPI_TestData.xlsx". @25-01-2023 12:33:41.0206 PM
[ReportManager] Successfully created attachment "Test Data - Excel" @25-01-2023 12:33:41.0210 PM
[ReportManager] Response status code: "200", status line: "HTTP/1.1 200 OK" @25-01-2023 12:33:41.0765 PM
[ReportManager] Assertion Passed: Evaluating the actual response status code against the expected one... @25-01-2023 12:33:41.0766 PM
[ReportManager] Perform request "POST | Target Status Code: 200 | Service URL: https://auth-demo.np.transporticonline.com/auth/realms/tic/protocol/openid-connect/token | Content Type: application/x-www-form-urlencoded | Response Time: 552ms". @25-01-2023 12:33:41.0797 PM
[ReportManager] Successfully created attachment "API Request - Specifications" @25-01-2023 12:33:41.0799 PM
[ReportManager] Successfully created attachment "API Request - Body" @25-01-2023 12:33:41.0800 PM
[ReportManager] Successfully created attachment "API Response - JSON Body" @25-01-2023 12:33:41.0802 PM
[ReportManager] Assertion Passed: Check Response Status Code is 200 and it is valid. @25-01-2023 12:33:41.0803 PM
[ReportManager] File Action "DoesFileExist" successfully performed. With the following test data "File Path: "SteeringCompanyAPI_TestData/SteeringCompanyAPI_TestData.xlsx"". @25-01-2023 12:33:41.0839 PM
[ReportManager] Loaded Test Data: "src/test/resources/testDataFiles/SteeringCompanyAPI_TestData/SteeringCompanyAPI_TestData.xlsx". @25-01-2023 12:33:41.0903 PM
[ReportManager] Successfully created attachment "Test Data - Excel" @25-01-2023 12:33:41.0904 PM
[ReportManager] Response status code: "200", status line: "HTTP/1.1 200 " @25-01-2023 12:33:42.0402 PM
[ReportManager] Assertion Passed: Evaluating the actual response status code against the expected one... @25-01-2023 12:33:42.0404 PM
[ReportManager] Perform request "GET | Target Status Code: 200 | Service URL: https://api-demo.np.transporticonline.com/steeringcompanies/v1/periodProgramTemplates | Content Type: */* | Response Time: 490ms". @25-01-2023 12:33:42.0445 PM
[ReportManager] Successfully created attachment "API Request - Specifications" @25-01-2023 12:33:42.0447 PM
[ReportManager] Successfully created attachment "API Response - JSON Body" @25-01-2023 12:33:42.0448 PM
[ReportManager] Assertion Passed: "200" is equal to "200". @25-01-2023 12:33:42.0448 PM
[ReportManager] Verification Passed: "490" is greater than or equal to "1.1". @25-01-2023 12:33:42.0448 PM
[ReportManager] Verification Passed: "490" is less than or equal to "10000". @25-01-2023 12:33:42.0448 PM
[ReportManager] Assertion Passed: "{"page":0,"size":10,"totalPages":10,"totalElements":93,"content":[{"id":213,"seasonType":"umrah","saleSystem":"GDS","programType":"Routes","programMechanism":"reservations","routeId":60,"season":1444,"vehicleTypeId":4,"vehicleCategoryId":1,"minimumModelYear":2010,"maximumModelYear":2022,"minimumVehiclePricePer":1200,"minimumSeat":5,"maximumSeat":9,"templatePeriodStartDate":"2022-09-05","templatePeriodEndDate":"2022-09-12","templatePeriodMaximumQuota":100,"isActive":true},{"id":214,"seasonType":"umrah","saleSystem":"GDS","programType":"Routes","programMechanism":"reservations","routeId":60,"season":1444,"vehicleTypeId":4,"vehicleCategoryId":2,"minimumModelYear":2010,"maximumModelYear":2022,"minimumVehiclePricePer":1200,"minimumSeat":5,"maximumSeat":9,"templatePeriodStartDate":"2022-09-05","templatePeriodEndDate":"2022-09-12","templatePeriodMaximumQuota":100,"isActive":true},{"id":215,"seasonType":"umrah","saleSystem":"GDS","programType":"Routes","programMechanism":"reservations","routeId":60,"season":1444,"vehicleTypeId":4,"vehicleCategoryId":3,"minimumModelYear":2010,"maximumModelYear":2022,"minimumVehiclePricePer":1200,"minimumSeat":5,"maximumSeat":9,"templatePeriodStartDate":"2022-09-05","templatePeriodEndDate":"2022-09-12","templatePeriodMaximumQuota":100,"isActive":true},{"id":265,"seasonType":"umrah","saleSystem":"GDS","programType":"Routes","programMechanism":"reservations","routeId":60,"season":1444,"vehicleTypeId":2,"vehicleCategoryId":1,"minimumModelYear":2010,"maximumModelYear":2022,"minimumVehiclePricePer":10,"minimumSeat":3,"maximumSeat":7,"templatePeriodStartDate":"2023-03-27","templatePeriodEndDate":"2023-04-02","templatePeriodMaximumQuota":50,"isActive":true},{"id":223,"seasonType":"umrah","saleSystem":"GDS","programType":"Routes","programMechanism":"reservations","routeId":60,"season":1444,"vehicleTypeId":2,"vehicleCategoryId":1,"minimumModelYear":2010,"maximumModelYear":2022,"minimumVehiclePricePer":12,"minimumSeat":2,"maximumSeat":7,"templatePeriodStartDate":"2022-09-01","templatePeriodEndDate":"2022-09-11","templatePeriodMaximumQuota":101,"isActive":true},{"id":224,"seasonType":"umrah","saleSystem":"GDS","programType":"Routes","programMechanism":"reservations","routeId":60,"season":1444,"vehicleTypeId":4,"vehicleCategoryId":1,"minimumModelYear":2010,"maximumModelYear":2022,"minimumVehiclePricePer":3500,"minimumSeat":5,"maximumSeat":8,"templatePeriodStartDate":"2021-01-02","templatePeriodEndDate":"2021-01-31","templatePeriodMaximumQuota":200,"isActive":true},{"id":225,"seasonType":"umrah","saleSystem":"GDS","programType":"Routes","programMechanism":"reservations","routeId":60,"season":1444,"vehicleTypeId":4,"vehicleCategoryId":2,"minimumModelYear":2010,"maximumModelYear":2022,"minimumVehiclePricePer":3500,"minimumSeat":5,"maximumSeat":8,"templatePeriodStartDate":"2021-01-02","templatePeriodEndDate":"2021-01-31","templatePeriodMaximumQuota":200,"isActive":true},{"id":226,"seasonType":"umrah","saleSystem":"GDS","programType":"Routes","programMechanism":"reservations","routeId":60,"season":1444,"vehicleTypeId":4,"vehicleCategoryId":3,"minimumModelYear":2010,"maximumModelYear":2022,"minimumVehiclePricePer":3500,"minimumSeat":5,"maximumSeat":8,"templatePeriodStartDate":"2021-01-02","templatePeriodEndDate":"2021-01-31","templatePeriodMaximumQuota":200,"isActive":true},{"id":227,"seasonType":"umrah","saleSystem":"GDS","programType":"Routes","programMechanism":"reservations","routeId":58,"season":1444,"vehicleTypeId":4,"vehicleCategoryId":1,"minimumModelYear":2010,"maximumModelYear":2022,"minimumVehiclePricePer":3500,"minimumSeat":6,"maximumSeat":8,"templatePeriodStartDate":"2021-01-02","templatePeriodEndDate":"2021-01-31","templatePeriodMaximumQuota":200,"isActive":true},{"id":228,"seasonType":"umrah","saleSystem":"GDS","programType":"Routes","programMechanism":"reservations","routeId":58,"season":1444,"vehicleTypeId":4,"vehicleCategoryId":2,"minimumModelYear":2010,"maximumModelYear":2022,"minimumVehiclePricePer":3500,"minimumSeat":6,"maximumSeat":8,"templatePeriodStartDate":"2021-01-02","templatePeriodEndDate":"2021-01-31","templatePeriodMaximumQuota":200,"isActive":true}]}" contains "content". @25-01-2023 12:33:42.0450 PM
[ReportManager] Successfully created attachment "Validation Test Data - Expected Value" @25-01-2023 12:33:42.0450 PM
[ReportManager] Successfully created attachment "Validation Test Data - Actual Value" @25-01-2023 12:33:42.0450 PM
[ReportManager] Get response jsonvalue "content". @25-01-2023 12:33:42.0453 PM
[ReportManager] Assertion Passed: Check that content object is not null. @25-01-2023 12:33:42.0453 PM
[ReportManager] Successfully created attachment "Validation Test Data - Expected Value" @25-01-2023 12:33:42.0459 PM
[ReportManager] Successfully created attachment "Validation Test Data - Actual Value" @25-01-2023 12:33:42.0461 PM
[ReportManager] File Action "DoesFileExist" successfully performed. With the following test data "File Path: "Schemas/PeriodProgramTemplates_schema.json"". @25-01-2023 12:33:42.0461 PM
[ReportManager] File Action "DoesFileExist" successfully performed. With the following test data "File Path: "src/test/resources/testDataFiles/Schemas/PeriodProgramTemplates_schema.json"". @25-01-2023 12:33:42.0461 PM
[ReportManager] File Action "GetAbsolutePath" successfully performed. With the following test data "Relative Folder Path: "src/test/resources/testDataFiles/Schemas/PeriodProgramTemplates_schema.json"". @25-01-2023 12:33:42.0461 PM
[ReportManager] File Action "DoesFileExist" successfully performed. With the following test data "File Path: "C:\eclipse-workspace\MyProjects\TASystemsAPIs\src\test\resources\testDataFiles\Schemas\PeriodProgramTemplates_schema.json"". @25-01-2023 12:33:42.0475 PM
[ReportManager] File Action "GetAbsolutePath" successfully performed. With the following test data "Relative Folder Path: "C:\eclipse-workspace\MyProjects\TASystemsAPIs\src\test\resources\testDataFiles\Schemas\PeriodProgramTemplates_schema.json"". @25-01-2023 12:33:42.0477 PM
[ReportManager] File Action "ReadFile" successfully performed. With the following test data "File Path: "C:\eclipse-workspace\MyProjects\TASystemsAPIs\src\test\resources\testDataFiles\Schemas\PeriodProgramTemplates_schema.json"". @25-01-2023 12:33:42.0478 PM
[ReportManager] Assertion Passed: The API response schema matches that in this file "src/test/resources/testDataFiles/Schemas/PeriodProgramTemplates_schema.json". @25-01-2023 12:33:42.0480 PM
[ReportManager] Successfully created attachment "Validation Test Data - Expected JSON Value" @25-01-2023 12:33:42.0482 PM
[ReportManager] Successfully created attachment "Validation Test Data - Actual JSON Value" @25-01-2023 12:33:42.0483 PM