{"uuid":"6c60b765-07aa-4d8d-a5a6-791a2fee158e","historyId":"2c9bf8dd5b9ce2ddce75a09f984901a9","fullName":"SteeringCompanyAPI_TestCases.Test_Lookups_Cases.Valid_GET_all_cities_Lookups_by_Qry_Rq_TC","labels":[{"name":"package","value":"SteeringCompanyAPI_TestCases.Test_Lookups_Cases"},{"name":"testClass","value":"SteeringCompanyAPI_TestCases.Test_Lookups_Cases"},{"name":"testMethod","value":"Valid_GET_all_cities_Lookups_by_Qry_Rq_TC"},{"name":"parentSuite","value":"Suite"},{"name":"suite","value":"Test"},{"name":"subSuite","value":"SteeringCompanyAPI_TestCases.Test_Lookups_Cases"},{"name":"host","value":"TW-1056"},{"name":"thread","value":"632@TW-1056.main(1)"},{"name":"framework","value":"testng"},{"name":"language","value":"java"}],"links":[],"name":"TC002 - Perform Get all cities API by parameters Qry with valid user name and password and return with token","status":"passed","statusDetails":{"known":false,"muted":false,"flaky":false},"stage":"finished","steps":[{"name":"Loaded Test Data: \"src/test/resources/testDataFiles/SteeringCompanyAPI_TestData/SteeringCompanyAPI_TestData.xlsx\".","status":"passed","stage":"finished","steps":[],"attachments":[{"name":"Test Data - Excel","source":"06c0e5bb-fb2e-4649-95ec-c3f3ff522c77-attachment.xlsx","type":"application/vnd.openxmlformats-officedocument.spreadsheetml.sheet"}],"parameters":[{"name":"logText","value":"Loaded Test Data: \"src/test/resources/testDataFiles/SteeringCompanyAPI_TestData/SteeringCompanyAPI_TestData.xlsx\"."},{"name":"attachments","value":"[[Test Data, Excel, java.io.FileInputStream@19dda8e]]"}],"start":1673517359377,"stop":1673517359379},{"name":"Assertion Passed: Evaluating the actual response status code against the expected one...","status":"passed","stage":"finished","steps":[],"attachments":[],"parameters":[{"name":"customLog","value":"Assertion Passed: Evaluating the actual response status code against the expected one..."},{"name":"stepLog","value":"Assertion \"ValidateComparativeRelation\" PASSED. Expected \"200\" and Actual \"200\". Comparison Type \"EQUALS\". Validation Type \"POSITIVE\"."},{"name":"attachments","value":"null"}],"start":1673517359996,"stop":1673517359996},{"name":"Perform request \"POST | Target Status Code: 200 | Service URL: https://auth-demo.np.transporticonline.com/auth/realms/tic/protocol/openid-connect/token | Content Type: application/x-www-form-urlencoded | Response Time: 603ms\".","status":"passed","stage":"finished","steps":[],"attachments":[{"name":"API Request - Specifications","source":"08ed0500-5ed3-4994-9edb-b5735d1adddf-attachment"},{"name":"API Request - Body","source":"f61781ef-d9ea-4181-bf75-a23bf869112f-attachment"},{"name":"API Response - JSON Body","source":"ff9d873d-44e1-4f61-b705-657fc5b19bca-attachment.json","type":"text/json"}],"parameters":[{"name":"logText","value":"Perform request \"POST | Target Status Code: 200 | Service URL: https://auth-demo.np.transporticonline.com/auth/realms/tic/protocol/openid-connect/token | Content Type: application/x-www-form-urlencoded | Response Time: 603ms\"."},{"name":"attachments","value":"[[API Request, Specifications, Headers:\r\n_______________\r\n\r\nContent-Type=application/x-www-form-urlencoded\r\n\r\n], [API Request, Body, java.io.ByteArrayInputStream@3b82fb7], null, [API Response, JSON Body, java.io.ByteArrayInputStream@24fec3b3]]"}],"start":1673517360018,"stop":1673517360025},{"name":"Assertion Passed: Check Response Status Code is 200 and it is valid.","status":"passed","stage":"finished","steps":[],"attachments":[],"parameters":[{"name":"customLog","value":"Assertion Passed: Check Response Status Code is 200 and it is valid."},{"name":"stepLog","value":"Assertion \"ValidateComparativeRelation\" PASSED. Expected \"200\" and Actual \"200\". Comparison Type \"EQUALS\". Validation Type \"POSITIVE\"."},{"name":"attachments","value":"null"}],"start":1673517360025,"stop":1673517360026},{"name":"Loaded Test Data: \"src/test/resources/testDataFiles/SteeringCompanyAPI_TestData/SteeringCompanyAPI_TestData.xlsx\".","status":"passed","stage":"finished","steps":[],"attachments":[{"name":"Test Data - Excel","source":"1be1557c-de27-4057-81c7-aabeb2094587-attachment.xlsx","type":"application/vnd.openxmlformats-officedocument.spreadsheetml.sheet"}],"parameters":[{"name":"logText","value":"Loaded Test Data: \"src/test/resources/testDataFiles/SteeringCompanyAPI_TestData/SteeringCompanyAPI_TestData.xlsx\"."},{"name":"attachments","value":"[[Test Data, Excel, java.io.FileInputStream@259ec563]]"}],"start":1673517360097,"stop":1673517360100},{"name":"Assertion Passed: Evaluating the actual response status code against the expected one...","status":"passed","stage":"finished","steps":[],"attachments":[],"parameters":[{"name":"customLog","value":"Assertion Passed: Evaluating the actual response status code against the expected one..."},{"name":"stepLog","value":"Assertion \"ValidateComparativeRelation\" PASSED. Expected \"200\" and Actual \"200\". Comparison Type \"EQUALS\". Validation Type \"POSITIVE\"."},{"name":"attachments","value":"null"}],"start":1673517360619,"stop":1673517360620},{"name":"Perform request \"GET | Target Status Code: 200 | Service URL: https://api-demo.np.transporticonline.com/steeringcompanies/v1/lookups/cities | Content Type: */* | Response Time: 477ms\".","status":"passed","stage":"finished","steps":[],"attachments":[{"name":"API Request - Specifications","source":"9d543ec2-5ba5-44e2-b4ec-a890327091c6-attachment"},{"name":"API Response - JSON Body","source":"49e8604d-b582-4cd5-b4d4-a459cb2dd7ab-attachment.json","type":"text/json"}],"parameters":[{"name":"logText","value":"Perform request \"GET | Target Status Code: 200 | Service URL: https://api-demo.np.transporticonline.com/steeringcompanies/v1/lookups/cities | Content Type: */* | Response Time: 477ms\"."},{"name":"attachments","value":"[[API Request, Specifications, Headers:\r\n_______________\r\n\r\nAuthorization=Bearer eyJhbGciOiJSUzI1NiIsInR5cCIgOiAiSldUIiwia2lkIiA6ICJjck9ORDFNdFVPVWhzS2Mtb0ppVFFmb0o1d1l4REF6Y3k0ZjNYZ0dveGdZIn0.eyJleHAiOjE2NzM1Mzg5NTQsImlhdCI6MTY3MzUxNzM1NCwianRpIjoiODBjMmQ4NmItYzhiOC00ODlhLWJlZjYtZTk0ZjNmNjM0OGQyIiwiaXNzIjoiaHR0cHM6Ly9hdXRoLWRlbW8ubnAudHJhbnNwb3J0aWNvbmxpbmUuY29tL2F1dGgvcmVhbG1zL3RpYyIsImF1ZCI6ImFjY291bnQiLCJzdWIiOiI0ZTk3NmQ0NC1iM2ZkLTRjYTktODk1Ny0wYWJiODUwNzNhNzQiLCJ0eXAiOiJCZWFyZXIiLCJhenAiOiJ0aWMtYXBpIiwic2Vzc2lvbl9zdGF0ZSI6Ijk4NGQ2OWVhLTQwYTItNGJmZi04NWE0LTJkMmI2ZTNiYzJmYiIsImFjciI6IjEiLCJhbGxvd2VkLW9yaWdpbnMiOlsiaHR0cHM6Ly9hcGktZGV2Lm5wLnRyYW5zcG9ydGljb25saW5lLmNvbSJdLCJyZWFsbV9hY2Nlc3MiOnsicm9sZXMiOlsib2ZmbGluZV9hY2Nlc3MiLCJkZWZhdWx0LXJvbGVzLXRpYyIsInVtYV9hdXRob3JpemF0aW9uIiwidXNlciJdfSwicmVzb3VyY2VfYWNjZXNzIjp7ImFjY291bnQiOnsicm9sZXMiOlsibWFuYWdlLWFjY291bnQiLCJtYW5hZ2UtYWNjb3VudC1saW5rcyIsInZpZXctcHJvZmlsZSJdfX0sInNjb3BlIjoiZW1haWwgcHJvZmlsZSIsInNpZCI6Ijk4NGQ2OWVhLTQwYTItNGJmZi04NWE0LTJkMmI2ZTNiYzJmYiIsImVtYWlsX3ZlcmlmaWVkIjpmYWxzZSwicHJlZmVycmVkX3VzZXJuYW1lIjoidG9raGkiLCJ0Y0lkIjoiMzE5OTU3In0.UTUPoFDfjrHfkr3EqRg3_5ArmEyc8TcZbLuRASUVHpZlOkjRPPZSZxcMcdhJr20RHP7TUiogBdJM-fn8aRODQGNsBuBhjtjTDJ2Oz91_71tZhzOePhS2MJY0LUW4mjtXDU5WMY4BKpQjhlvPVb4z26rclWOQScT2cNsiCHMCpQwk6QAQd9cannxAt2hY4vTi7IMIJ8z9mZNg-kTgiwT25VlE_04g3Vtj0vFuxVajialmAwLwez12P0Prsk8TmD5xTVSO06dXAZ9QO0c_OPDkuO2aljqatxdHQ233VjLWiqock6CudghM6k18ZuoJ1jIga67X53PPMk3Yakl2_eFJUA\r\nContent-Type=*/*\r\n\r\nQuery Parameters:\r\n_______________\r\n\r\nsize=3\r\npage=0\r\n], null, [API Response, JSON Body, java.io.ByteArrayInputStream@5a2cb8e5]]"}],"start":1673517360637,"stop":1673517360639},{"name":"Assertion Passed: \"200\" is equal to \"200\".","status":"passed","stage":"finished","steps":[],"attachments":[],"parameters":[{"name":"customLog","value":"Assertion Passed: \"200\" is equal to \"200\"."},{"name":"stepLog","value":"Assertion \"ValidateComparativeRelation\" PASSED. Expected \"200\" and Actual \"200\". Comparison Type \"EQUALS\". Validation Type \"POSITIVE\"."},{"name":"attachments","value":"null"}],"start":1673517360639,"stop":1673517360639},{"name":"Verification Passed: \"477\" is greater than or equal to \"1.1\".","status":"passed","stage":"finished","steps":[],"attachments":[],"parameters":[{"name":"customLog","value":"Verification Passed: \"477\" is greater than or equal to \"1.1\"."},{"name":"stepLog","value":"Verification \"ValidateComparativeRelation\" PASSED. Expected \"1.1\" and Actual \"477\". Comparison Type \"GREATER_THAN_OR_EQUALS\". Validation Type \"POSITIVE\"."},{"name":"attachments","value":"null"}],"start":1673517360640,"stop":1673517360640},{"name":"Verification Passed: \"477\" is less than or equal to \"10000\".","status":"passed","stage":"finished","steps":[],"attachments":[],"parameters":[{"name":"customLog","value":"Verification Passed: \"477\" is less than or equal to \"10000\"."},{"name":"stepLog","value":"Verification \"ValidateComparativeRelation\" PASSED. Expected \"10000\" and Actual \"477\". Comparison Type \"LESS_THAN_OR_EQUALS\". Validation Type \"POSITIVE\"."},{"name":"attachments","value":"null"}],"start":1673517360640,"stop":1673517360640},{"name":"Assertion Passed: \"{\"page\":0,\"size\":3,\"totalPages\":237,\"totalElements\":709,\"content\":[{\"id\":36,\"nameArabic\":\"كوالالمبور\",\"nameEnglish\":\"Kuala Lumpur\",\"isActive\":true,\"lastUpdated\":\"2022-06-02T01:21:49Z\",\"sectors\":null},{\"id\":849,\"nameArabic\":\"سولنجين\",\"nameEnglish\":\"Solngen\",\"isActive\":true,\"lastUpdated\":\"2022-06-02T01:37:02Z\",\"sectors\":null},{\"id\":1006,\"nameArabic\":\"بشكشكي\",\"nameEnglish\":\"FRUNZE\",\"isActive\":true,\"lastUpdated\":\"2022-06-02T00:20:05Z\",\"sectors\":null}]}\" contains \"content\".","status":"passed","stage":"finished","steps":[],"attachments":[],"parameters":[{"name":"customLog","value":"Assertion Passed: \"{\"page\":0,\"size\":3,\"totalPages\":237,\"totalElements\":709,\"content\":[{\"id\":36,\"nameArabic\":\"كوالالمبور\",\"nameEnglish\":\"Kuala Lumpur\",\"isActive\":true,\"lastUpdated\":\"2022-06-02T01:21:49Z\",\"sectors\":null},{\"id\":849,\"nameArabic\":\"سولنجين\",\"nameEnglish\":\"Solngen\",\"isActive\":true,\"lastUpdated\":\"2022-06-02T01:37:02Z\",\"sectors\":null},{\"id\":1006,\"nameArabic\":\"بشكشكي\",\"nameEnglish\":\"FRUNZE\",\"isActive\":true,\"lastUpdated\":\"2022-06-02T00:20:05Z\",\"sectors\":null}]}\" contains \"content\"."},{"name":"stepLog","value":"Assertion \"ValidateEquals\" PASSED. Expected \"content\" and Actual \"{\"page\":0,\"size\":3,\"totalPages\":237,\"totalElements\":709,\"content\":[{\"id\":36,\"nameArabic\":\"كوالالمبور\",\"nameEnglish\":\"Kuala Lumpur\",\"isActive\":true,\"lastUpdated\":\"2022-06-02T01:21:49Z\",\"sectors\":null},{\"id\":849,\"nameArabic\":\"سولنجين\",\"nameEnglish\":\"Solngen\",\"isActive\":true,\"lastUpdated\":\"2022-06-02T01:37:02Z\",\"sectors\":null},{\"id\":1006,\"nameArabic\":\"بشكشكي\",\"nameEnglish\":\"FRUNZE\",\"isActive\":true,\"lastUpdated\":\"2022-06-02T00:20:05Z\",\"sectors\":null}]}\". Comparison Type \"CONTAINS\". Validation Type \"POSITIVE\"."},{"name":"attachments","value":"null"}],"start":1673517360640,"stop":1673517360640},{"name":"Assertion Passed: Check that content object is not null.","status":"passed","stage":"finished","steps":[],"attachments":[],"parameters":[{"name":"customLog","value":"Assertion Passed: Check that content object is not null."},{"name":"stepLog","value":"Assertion \"ValidateEquals\" PASSED. Expected \"null\" and Actual \"[{\"id\":36,\"nameArabic\":\"كوالالمبور\",\"nameEnglish\":\"Kuala Lumpur\",\"isActive\":true,\"lastUpdated\":\"2022-06-02T01:21:49Z\",\"sectors\":null},{\"id\":849,\"nameArabic\":\"سولنجين\",\"nameEnglish\":\"Solngen\",\"isActive\":true,\"lastUpdated\":\"2022-06-02T01:37:02Z\",\"sectors\":null},{\"id\":1006,\"nameArabic\":\"بشكشكي\",\"nameEnglish\":\"FRUNZE\",\"isActive\":true,\"lastUpdated\":\"2022-06-02T00:20:05Z\",\"sectors\":null}]\". Comparison Type \"EQUALS\". Validation Type \"NEGATIVE\"."},{"name":"attachments","value":"null"}],"start":1673517360642,"stop":1673517360642},{"name":"Assertion Passed: The API response schema matches that in this file \"src/test/resources/testDataFiles/Schemas/Lookups_cities_schema.json\".","status":"passed","stage":"finished","steps":[],"attachments":[{"name":"Validation Test Data - Expected JSON Value","source":"7871a609-a04b-4db1-bddd-0640bad91339-attachment.json","type":"text/json"},{"name":"Validation Test Data - Actual JSON Value","source":"95c62302-46ec-4729-bdf0-8dda84198820-attachment.json","type":"text/json"}],"parameters":[{"name":"customLog","value":"Assertion Passed: The API response schema matches that in this file \"src/test/resources/testDataFiles/Schemas/Lookups_cities_schema.json\"."},{"name":"stepLog","value":"Assertion \"ValidateResponseFileSchema\" PASSED. Expected \"Response data should match the JSON File in this path 'C:\\eclipse-workspace\\MyProjects\\TASystemsAPIs\\src\\test\\resources\\testDataFiles\\Schemas\\Lookups_cities_schema.json'\" and Actual \"TRUE\". Comparison Type \"EQUALS\". Validation Type \"POSITIVE\"."},{"name":"attachments","value":"[[Validation Test Data, Expected JSON Value, java.io.ByteArrayInputStream@83ffa7b], [Validation Test Data, Actual JSON Value, java.io.ByteArrayInputStream@37eb8009]]"}],"start":1673517360656,"stop":1673517360659}],"attachments":[{"name":"SHAFT Engine Logs - Current Method log: Valid_GET_all_cities_Lookups_by_Qry_Rq_TC","source":"119ec8d8-4597-4a2b-9a5a-c9afbeffcd19-attachment.txt","type":"text/plain"}],"parameters":[],"start":1673517359329,"stop":1673517360662}