{"uuid":"6cb13f70-5ff3-4626-aead-e372bf1ecca4","historyId":"7653b5b2be0c5341c428857732852d7c","fullName":"SteeringCompanyAPI_TestCases.Test_PeriodProgramTemplate_Cases.Get_Valid_all_PeriodProgramTemplate_by_Qry_Rq_TC","labels":[{"name":"package","value":"SteeringCompanyAPI_TestCases.Test_PeriodProgramTemplate_Cases"},{"name":"testClass","value":"SteeringCompanyAPI_TestCases.Test_PeriodProgramTemplate_Cases"},{"name":"testMethod","value":"Get_Valid_all_PeriodProgramTemplate_by_Qry_Rq_TC"},{"name":"parentSuite","value":"Suite"},{"name":"suite","value":"Test"},{"name":"subSuite","value":"SteeringCompanyAPI_TestCases.Test_PeriodProgramTemplate_Cases"},{"name":"host","value":"TW-1056"},{"name":"thread","value":"15616@TW-1056.main(1)"},{"name":"framework","value":"testng"},{"name":"language","value":"java"},{"name":"story","value":"Retrieving All Active PeriodProgramTemplate with Pagination"},{"name":"severity","value":"critical"}],"links":[],"name":"TC002  -PeriodProgramTemplate-   Perform Get all PeriodProgramTemplate API with pagination with valid user name and password","status":"passed","statusDetails":{"known":false,"muted":false,"flaky":false},"stage":"finished","steps":[{"name":"Loaded Test Data: \"src/test/resources/testDataFiles/SteeringCompanyAPI_TestData/SteeringCompanyAPI_TestData.xlsx\".","status":"passed","stage":"finished","steps":[],"attachments":[{"name":"Test Data - Excel","source":"1c23a143-0e51-425b-8c7c-f0b0035af781-attachment.xlsx","type":"application/vnd.openxmlformats-officedocument.spreadsheetml.sheet"}],"parameters":[{"name":"logText","value":"Loaded Test Data: \"src/test/resources/testDataFiles/SteeringCompanyAPI_TestData/SteeringCompanyAPI_TestData.xlsx\"."},{"name":"attachments","value":"[[Test Data, Excel, java.io.FileInputStream@6fd2acf6]]"}],"start":1677583068013,"stop":1677583068014},{"name":"Assertion Passed: Evaluating the actual response status code against the expected one...","status":"passed","stage":"finished","steps":[],"attachments":[],"parameters":[{"name":"customLog","value":"Assertion Passed: Evaluating the actual response status code against the expected one..."},{"name":"stepLog","value":"Assertion \"ValidateComparativeRelation\" PASSED. Expected \"200\" and Actual \"200\". Comparison Type \"EQUALS\". Validation Type \"POSITIVE\"."},{"name":"attachments","value":"null"}],"start":1677583069191,"stop":1677583069191},{"name":"Perform request \"POST | Target Status Code: 200 | Service URL: https://auth-demo.np.transporticonline.com/auth/realms/tic/protocol/openid-connect/token | Content Type: application/x-www-form-urlencoded | Response Time: 1176ms\".","status":"passed","stage":"finished","steps":[],"attachments":[{"name":"API Request - Specifications","source":"4fafd3aa-2bbc-41a6-9f8a-b657426af2c0-attachment"},{"name":"API Request - Body","source":"a4763ee7-519a-4ee8-b2f2-4d4779bdf78d-attachment"},{"name":"API Response - JSON Body","source":"e34839dd-1b10-4823-9e0d-05eee441c1ca-attachment.json","type":"text/json"}],"parameters":[{"name":"logText","value":"Perform request \"POST | Target Status Code: 200 | Service URL: https://auth-demo.np.transporticonline.com/auth/realms/tic/protocol/openid-connect/token | Content Type: application/x-www-form-urlencoded | Response Time: 1176ms\"."},{"name":"attachments","value":"[[API Request, Specifications, Headers:\r\n_______________\r\n\r\nContent-Type=application/x-www-form-urlencoded\r\n\r\n], [API Request, Body, java.io.ByteArrayInputStream@6af24d36], null, [API Response, JSON Body, java.io.ByteArrayInputStream@1e0ae372]]"}],"start":1677583069200,"stop":1677583069203},{"name":"Assertion Passed: Check Response Status Code is 200 and it is valid.","status":"passed","stage":"finished","steps":[],"attachments":[],"parameters":[{"name":"customLog","value":"Assertion Passed: Check Response Status Code is 200 and it is valid."},{"name":"stepLog","value":"Assertion \"ValidateComparativeRelation\" PASSED. Expected \"200\" and Actual \"200\". Comparison Type \"EQUALS\". Validation Type \"POSITIVE\"."},{"name":"attachments","value":"null"}],"start":1677583069203,"stop":1677583069203},{"name":"Loaded Test Data: \"src/test/resources/testDataFiles/SteeringCompanyAPI_TestData/SteeringCompanyAPI_TestData.xlsx\".","status":"passed","stage":"finished","steps":[],"attachments":[{"name":"Test Data - Excel","source":"3f10086b-4866-4df6-a74d-8b32cff0822d-attachment.xlsx","type":"application/vnd.openxmlformats-officedocument.spreadsheetml.sheet"}],"parameters":[{"name":"logText","value":"Loaded Test Data: \"src/test/resources/testDataFiles/SteeringCompanyAPI_TestData/SteeringCompanyAPI_TestData.xlsx\"."},{"name":"attachments","value":"[[Test Data, Excel, java.io.FileInputStream@17e5759c]]"}],"start":1677583069233,"stop":1677583069234},{"name":"Assertion Passed: Evaluating the actual response status code against the expected one...","status":"passed","stage":"finished","steps":[],"attachments":[],"parameters":[{"name":"customLog","value":"Assertion Passed: Evaluating the actual response status code against the expected one..."},{"name":"stepLog","value":"Assertion \"ValidateComparativeRelation\" PASSED. Expected \"200\" and Actual \"200\". Comparison Type \"EQUALS\". Validation Type \"POSITIVE\"."},{"name":"attachments","value":"null"}],"start":1677583069770,"stop":1677583069770},{"name":"Perform request \"GET | Target Status Code: 200 | Service URL: https://api-demo.np.transporticonline.com/steeringcompanies/v1/periodProgramTemplates | Content Type: */* | Response Time: 534ms\".","status":"passed","stage":"finished","steps":[],"attachments":[{"name":"API Request - Specifications","source":"79827440-cb11-400b-90c4-385e77152509-attachment"},{"name":"API Response - JSON Body","source":"9c20d4b5-3a70-40d3-96c9-7eb082e02276-attachment.json","type":"text/json"}],"parameters":[{"name":"logText","value":"Perform request \"GET | Target Status Code: 200 | Service URL: https://api-demo.np.transporticonline.com/steeringcompanies/v1/periodProgramTemplates | Content Type: */* | Response Time: 534ms\"."},{"name":"attachments","value":"[[API Request, Specifications, Headers:\r\n_______________\r\n\r\nAuthorization=Bearer eyJhbGciOiJSUzI1NiIsInR5cCIgOiAiSldUIiwia2lkIiA6ICJjck9ORDFNdFVPVWhzS2Mtb0ppVFFmb0o1d1l4REF6Y3k0ZjNYZ0dveGdZIn0.eyJleHAiOjE2Nzc2MDQ2NjgsImlhdCI6MTY3NzU4MzA2OCwianRpIjoiZWEzY2Q4YzUtYjMzMy00MmU3LWFkNDctZmYzM2YwYjllNTBiIiwiaXNzIjoiaHR0cHM6Ly9hdXRoLWRlbW8ubnAudHJhbnNwb3J0aWNvbmxpbmUuY29tL2F1dGgvcmVhbG1zL3RpYyIsImF1ZCI6ImFjY291bnQiLCJzdWIiOiI0ZTk3NmQ0NC1iM2ZkLTRjYTktODk1Ny0wYWJiODUwNzNhNzQiLCJ0eXAiOiJCZWFyZXIiLCJhenAiOiJ0aWMtYXBpIiwic2Vzc2lvbl9zdGF0ZSI6ImQ2OGFhMGU0LTlhZWUtNDRiNi1iYjAxLTBkOGUxNzI3NWY2NCIsImFjciI6IjEiLCJhbGxvd2VkLW9yaWdpbnMiOlsiaHR0cHM6Ly9hcGktZGV2Lm5wLnRyYW5zcG9ydGljb25saW5lLmNvbSJdLCJyZWFsbV9hY2Nlc3MiOnsicm9sZXMiOlsib2ZmbGluZV9hY2Nlc3MiLCJkZWZhdWx0LXJvbGVzLXRpYyIsInVtYV9hdXRob3JpemF0aW9uIiwidXNlciJdfSwicmVzb3VyY2VfYWNjZXNzIjp7ImFjY291bnQiOnsicm9sZXMiOlsibWFuYWdlLWFjY291bnQiLCJtYW5hZ2UtYWNjb3VudC1saW5rcyIsInZpZXctcHJvZmlsZSJdfX0sInNjb3BlIjoiZW1haWwgcHJvZmlsZSIsInNpZCI6ImQ2OGFhMGU0LTlhZWUtNDRiNi1iYjAxLTBkOGUxNzI3NWY2NCIsImVtYWlsX3ZlcmlmaWVkIjpmYWxzZSwicHJlZmVycmVkX3VzZXJuYW1lIjoidG9raGkiLCJ0Y0lkIjoiMzE5OTU3In0.LrVf1_Uuk2SjOCMHdKNMCGGz1ZhfKz6fFtWS9N_5g6Skpahyy-CMj9eUTwZy7lkdt7Je89AXDe64sVPQpWWymINEXNINgaTEGD00-lJeOB-9X-4vIbb7S-2IrudVubLVD5t6jkfoiP13_Tya-gDR0M2w9nr720tQb3lx2MzZnYkG3ytGyc3kuqdUqSPu-F7aJ_Iebaq0SZF_VwIAnSUxKjKftCYt-86RH3EyHEH4_zyNF29YZO0WcBi6vhK0W9Ni-btCUshicRx5HqrYFdqvy9hDqDjO8810mEiKdkHbkq8yMk9jHSj5nwVzrkTpyGWHWegl8oTmklvB6gmbRm-WIg\r\nContent-Type=*/*\r\n\r\nQuery Parameters:\r\n_______________\r\n\r\nsize=1\r\npage=0\r\n], null, [API Response, JSON Body, java.io.ByteArrayInputStream@86093db]]"}],"start":1677583069780,"stop":1677583069781},{"name":"Assertion Passed: \"200\" is equal to \"200\".","status":"passed","stage":"finished","steps":[],"attachments":[],"parameters":[{"name":"customLog","value":"Assertion Passed: \"200\" is equal to \"200\"."},{"name":"stepLog","value":"Assertion \"ValidateComparativeRelation\" PASSED. Expected \"200\" and Actual \"200\". Comparison Type \"EQUALS\". Validation Type \"POSITIVE\"."},{"name":"attachments","value":"null"}],"start":1677583069781,"stop":1677583069781},{"name":"Verification Passed: \"534\" is greater than or equal to \"1.1\".","status":"passed","stage":"finished","steps":[],"attachments":[],"parameters":[{"name":"customLog","value":"Verification Passed: \"534\" is greater than or equal to \"1.1\"."},{"name":"stepLog","value":"Verification \"ValidateComparativeRelation\" PASSED. Expected \"1.1\" and Actual \"534\". Comparison Type \"GREATER_THAN_OR_EQUALS\". Validation Type \"POSITIVE\"."},{"name":"attachments","value":"null"}],"start":1677583069782,"stop":1677583069782},{"name":"Verification Passed: \"534\" is less than or equal to \"10000\".","status":"passed","stage":"finished","steps":[],"attachments":[],"parameters":[{"name":"customLog","value":"Verification Passed: \"534\" is less than or equal to \"10000\"."},{"name":"stepLog","value":"Verification \"ValidateComparativeRelation\" PASSED. Expected \"10000\" and Actual \"534\". Comparison Type \"LESS_THAN_OR_EQUALS\". Validation Type \"POSITIVE\"."},{"name":"attachments","value":"null"}],"start":1677583069782,"stop":1677583069782},{"name":"Assertion Passed: \"{\"page\":0,\"size\":1,\"totalPages\":102,\"totalElements\":102,\"content\":[{\"id\":213,\"seasonType\":\"umrah\",\"saleSystem\":\"GDS\",\"programType\":\"Routes\",\"programMechanism\":\"reservations\",\"routeId\":60,\"season\":1444,\"vehicleTypeId\":4,\"vehicleCategoryId\":1,\"minimumModelYear\":2010,\"maximumModelYear\":2022,\"minimumVehiclePricePer\":1200,\"minimumSeat\":5,\"maximumSeat\":9,\"templatePeriodStartDate\":\"2022-09-05T00:00:00Z\",\"templatePeriodEndDate\":\"2022-09-12T00:00:00Z\",\"templatePeriodMaximumQuota\":100,\"isActive\":true}]}\" contains \"content\".","status":"passed","stage":"finished","steps":[],"attachments":[],"parameters":[{"name":"customLog","value":"Assertion Passed: \"{\"page\":0,\"size\":1,\"totalPages\":102,\"totalElements\":102,\"content\":[{\"id\":213,\"seasonType\":\"umrah\",\"saleSystem\":\"GDS\",\"programType\":\"Routes\",\"programMechanism\":\"reservations\",\"routeId\":60,\"season\":1444,\"vehicleTypeId\":4,\"vehicleCategoryId\":1,\"minimumModelYear\":2010,\"maximumModelYear\":2022,\"minimumVehiclePricePer\":1200,\"minimumSeat\":5,\"maximumSeat\":9,\"templatePeriodStartDate\":\"2022-09-05T00:00:00Z\",\"templatePeriodEndDate\":\"2022-09-12T00:00:00Z\",\"templatePeriodMaximumQuota\":100,\"isActive\":true}]}\" contains \"content\"."},{"name":"stepLog","value":"Assertion \"ValidateEquals\" PASSED. Expected \"content\" and Actual \"{\"page\":0,\"size\":1,\"totalPages\":102,\"totalElements\":102,\"content\":[{\"id\":213,\"seasonType\":\"umrah\",\"saleSystem\":\"GDS\",\"programType\":\"Routes\",\"programMechanism\":\"reservations\",\"routeId\":60,\"season\":1444,\"vehicleTypeId\":4,\"vehicleCategoryId\":1,\"minimumModelYear\":2010,\"maximumModelYear\":2022,\"minimumVehiclePricePer\":1200,\"minimumSeat\":5,\"maximumSeat\":9,\"templatePeriodStartDate\":\"2022-09-05T00:00:00Z\",\"templatePeriodEndDate\":\"2022-09-12T00:00:00Z\",\"templatePeriodMaximumQuota\":100,\"isActive\":true}]}\". Comparison Type \"CONTAINS\". Validation Type \"POSITIVE\"."},{"name":"attachments","value":"null"}],"start":1677583069782,"stop":1677583069782},{"name":"Assertion Passed: Check that content object is not null.","status":"passed","stage":"finished","steps":[],"attachments":[],"parameters":[{"name":"customLog","value":"Assertion Passed: Check that content object is not null."},{"name":"stepLog","value":"Assertion \"ValidateEquals\" PASSED. Expected \"null\" and Actual \"[{\"id\":213,\"seasonType\":\"umrah\",\"saleSystem\":\"GDS\",\"programType\":\"Routes\",\"programMechanism\":\"reservations\",\"routeId\":60,\"season\":1444,\"vehicleTypeId\":4,\"vehicleCategoryId\":1,\"minimumModelYear\":2010,\"maximumModelYear\":2022,\"minimumVehiclePricePer\":1200,\"minimumSeat\":5,\"maximumSeat\":9,\"templatePeriodStartDate\":\"2022-09-05T00:00:00Z\",\"templatePeriodEndDate\":\"2022-09-12T00:00:00Z\",\"templatePeriodMaximumQuota\":100,\"isActive\":true}]\". Comparison Type \"EQUALS\". Validation Type \"NEGATIVE\"."},{"name":"attachments","value":"null"}],"start":1677583069782,"stop":1677583069782},{"name":"Assertion Passed: The API response schema matches that in this file \"src/test/resources/testDataFiles/Schemas/PeriodProgramTemplates_schema.json\".","status":"passed","stage":"finished","steps":[],"attachments":[{"name":"Validation Test Data - Expected JSON Value","source":"78ac91f7-1cd4-4a4a-bfe6-6b7b70997002-attachment.json","type":"text/json"},{"name":"Validation Test Data - Actual JSON Value","source":"43d625ae-7f6c-4912-9153-e93249ef4c22-attachment.json","type":"text/json"}],"parameters":[{"name":"customLog","value":"Assertion Passed: The API response schema matches that in this file \"src/test/resources/testDataFiles/Schemas/PeriodProgramTemplates_schema.json\"."},{"name":"stepLog","value":"Assertion \"ValidateResponseFileSchema\" PASSED. Expected \"Response data should match the JSON File in this path 'C:\\eclipse-workspace\\MyProjects\\TASystemsAPIs\\src\\test\\resources\\testDataFiles\\Schemas\\PeriodProgramTemplates_schema.json'\" and Actual \"TRUE\". Comparison Type \"EQUALS\". Validation Type \"POSITIVE\"."},{"name":"attachments","value":"[[Validation Test Data, Expected JSON Value, java.io.ByteArrayInputStream@75823c39], [Validation Test Data, Actual JSON Value, java.io.ByteArrayInputStream@4138a070]]"}],"start":1677583069785,"stop":1677583069787}],"attachments":[{"name":"SHAFT Engine Logs - Current Method log: Get_Valid_all_PeriodProgramTemplate_by_Qry_Rq_TC","source":"39d24861-121c-4c76-bf3d-a91e4ef0247a-attachment.txt","type":"text/plain"}],"parameters":[],"start":1677583067992,"stop":1677583069787}