{"uuid":"6fc37470-a465-49cf-868b-a60ac522a452","historyId":"1ee66c37f44545e65a59a3dbc44247b","fullName":"SteeringCompanyAPI_TestCases.Test_Commissions_Cases.Valid_GET_all_Commissions_by_Qry_Rq_TC","labels":[{"name":"package","value":"SteeringCompanyAPI_TestCases.Test_Commissions_Cases"},{"name":"testClass","value":"SteeringCompanyAPI_TestCases.Test_Commissions_Cases"},{"name":"testMethod","value":"Valid_GET_all_Commissions_by_Qry_Rq_TC"},{"name":"parentSuite","value":"Suite"},{"name":"suite","value":"Test"},{"name":"subSuite","value":"SteeringCompanyAPI_TestCases.Test_Commissions_Cases"},{"name":"host","value":"TW-1056"},{"name":"thread","value":"12248@TW-1056.main(1)"},{"name":"framework","value":"testng"},{"name":"language","value":"java"},{"name":"story","value":"Retrieving All Active Commission with Pagination"},{"name":"severity","value":"critical"}],"links":[],"name":"TC002  -Commission- Perform Get all Commissions API with pagination with valid user name and password","status":"passed","statusDetails":{"known":false,"muted":false,"flaky":false},"stage":"finished","steps":[{"name":"Loaded Test Data: \"src/test/resources/testDataFiles/SteeringCompanyAPI_TestData/SteeringCompanyAPI_TestData.xlsx\".","status":"passed","stage":"finished","steps":[],"attachments":[{"name":"Test Data - Excel","source":"30d95723-2851-48e6-a112-ea3d547723ed-attachment.xlsx","type":"application/vnd.openxmlformats-officedocument.spreadsheetml.sheet"}],"parameters":[{"name":"logText","value":"Loaded Test Data: \"src/test/resources/testDataFiles/SteeringCompanyAPI_TestData/SteeringCompanyAPI_TestData.xlsx\"."},{"name":"attachments","value":"[[Test Data, Excel, java.io.FileInputStream@6a6beec0]]"}],"start":1675774543394,"stop":1675774543397},{"name":"Assertion Passed: Evaluating the actual response status code against the expected one...","status":"passed","stage":"finished","steps":[],"attachments":[],"parameters":[{"name":"customLog","value":"Assertion Passed: Evaluating the actual response status code against the expected one..."},{"name":"stepLog","value":"Assertion \"ValidateComparativeRelation\" PASSED. Expected \"200\" and Actual \"200\". Comparison Type \"EQUALS\". Validation Type \"POSITIVE\"."},{"name":"attachments","value":"null"}],"start":1675774544064,"stop":1675774544064},{"name":"Perform request \"POST | Target Status Code: 200 | Service URL: https://auth-demo.np.transporticonline.com/auth/realms/tic/protocol/openid-connect/token | Content Type: application/x-www-form-urlencoded | Response Time: 660ms\".","status":"passed","stage":"finished","steps":[],"attachments":[{"name":"API Request - Specifications","source":"e6efc5a6-2119-43ed-9db3-89771d463d74-attachment"},{"name":"API Request - Body","source":"c39239e5-dea3-4d9a-814a-575cd8510e51-attachment"},{"name":"API Response - JSON Body","source":"321ab966-5eb9-4d4a-966f-93c3b80bcdb7-attachment.json","type":"text/json"}],"parameters":[{"name":"logText","value":"Perform request \"POST | Target Status Code: 200 | Service URL: https://auth-demo.np.transporticonline.com/auth/realms/tic/protocol/openid-connect/token | Content Type: application/x-www-form-urlencoded | Response Time: 660ms\"."},{"name":"attachments","value":"[[API Request, Specifications, Headers:\r\n_______________\r\n\r\nContent-Type=application/x-www-form-urlencoded\r\n\r\n], [API Request, Body, java.io.ByteArrayInputStream@4461c22], null, [API Response, JSON Body, java.io.ByteArrayInputStream@5f83000c]]"}],"start":1675774544082,"stop":1675774544087},{"name":"Assertion Passed: Check Response Status Code is 200 and it is valid.","status":"passed","stage":"finished","steps":[],"attachments":[],"parameters":[{"name":"customLog","value":"Assertion Passed: Check Response Status Code is 200 and it is valid."},{"name":"stepLog","value":"Assertion \"ValidateComparativeRelation\" PASSED. Expected \"200\" and Actual \"200\". Comparison Type \"EQUALS\". Validation Type \"POSITIVE\"."},{"name":"attachments","value":"null"}],"start":1675774544088,"stop":1675774544089},{"name":"Loaded Test Data: \"src/test/resources/testDataFiles/SteeringCompanyAPI_TestData/SteeringCompanyAPI_TestData.xlsx\".","status":"passed","stage":"finished","steps":[],"attachments":[{"name":"Test Data - Excel","source":"fecc4377-90ed-4ca1-b166-6ae30281cb31-attachment.xlsx","type":"application/vnd.openxmlformats-officedocument.spreadsheetml.sheet"}],"parameters":[{"name":"logText","value":"Loaded Test Data: \"src/test/resources/testDataFiles/SteeringCompanyAPI_TestData/SteeringCompanyAPI_TestData.xlsx\"."},{"name":"attachments","value":"[[Test Data, Excel, java.io.FileInputStream@7027c359]]"}],"start":1675774544173,"stop":1675774544176},{"name":"Loaded Test Data: \"src/test/resources/testDataFiles/SteeringCompanyAPI_TestData/SteeringCompanyAPI_TestData.xlsx\".","status":"passed","stage":"finished","steps":[],"attachments":[{"name":"Test Data - Excel","source":"b605b727-88f7-43b0-8451-ecfe810cf8c0-attachment.xlsx","type":"application/vnd.openxmlformats-officedocument.spreadsheetml.sheet"}],"parameters":[{"name":"logText","value":"Loaded Test Data: \"src/test/resources/testDataFiles/SteeringCompanyAPI_TestData/SteeringCompanyAPI_TestData.xlsx\"."},{"name":"attachments","value":"[[Test Data, Excel, java.io.FileInputStream@10abffca]]"}],"start":1675774544230,"stop":1675774544231},{"name":"Loaded Test Data: \"src/test/resources/testDataFiles/SteeringCompanyAPI_TestData/SteeringCompanyAPI_TestData.xlsx\".","status":"passed","stage":"finished","steps":[],"attachments":[{"name":"Test Data - Excel","source":"2ad6edbe-6100-4aeb-b0bc-5dabec96da45-attachment.xlsx","type":"application/vnd.openxmlformats-officedocument.spreadsheetml.sheet"}],"parameters":[{"name":"logText","value":"Loaded Test Data: \"src/test/resources/testDataFiles/SteeringCompanyAPI_TestData/SteeringCompanyAPI_TestData.xlsx\"."},{"name":"attachments","value":"[[Test Data, Excel, java.io.FileInputStream@68f8bf6a]]"}],"start":1675774544313,"stop":1675774544315},{"name":"Assertion Passed: Evaluating the actual response status code against the expected one...","status":"passed","stage":"finished","steps":[],"attachments":[],"parameters":[{"name":"customLog","value":"Assertion Passed: Evaluating the actual response status code against the expected one..."},{"name":"stepLog","value":"Assertion \"ValidateComparativeRelation\" PASSED. Expected \"200\" and Actual \"200\". Comparison Type \"EQUALS\". Validation Type \"POSITIVE\"."},{"name":"attachments","value":"null"}],"start":1675774545237,"stop":1675774545238},{"name":"Perform request \"GET | Target Status Code: 200 | Service URL: https://api-demo.np.transporticonline.com/steeringcompanies/v1/commissions | Content Type: */* | Response Time: 916ms\".","status":"passed","stage":"finished","steps":[],"attachments":[{"name":"API Request - Specifications","source":"aac6de21-4412-4679-888b-e2c99766b472-attachment"},{"name":"API Response - JSON Body","source":"133f4b2b-cf7d-47c7-aa56-f1a0fe8caac8-attachment.json","type":"text/json"}],"parameters":[{"name":"logText","value":"Perform request \"GET | Target Status Code: 200 | Service URL: https://api-demo.np.transporticonline.com/steeringcompanies/v1/commissions | Content Type: */* | Response Time: 916ms\"."},{"name":"attachments","value":"[[API Request, Specifications, Headers:\r\n_______________\r\n\r\nAuthorization=Bearer eyJhbGciOiJSUzI1NiIsInR5cCIgOiAiSldUIiwia2lkIiA6ICJjck9ORDFNdFVPVWhzS2Mtb0ppVFFmb0o1d1l4REF6Y3k0ZjNYZ0dveGdZIn0.eyJleHAiOjE2NzU3OTYxNDEsImlhdCI6MTY3NTc3NDU0MSwianRpIjoiYjljYTU0MWUtNzU2Zi00MWFmLTlmMmItZWM4OWVmZDJjNzBjIiwiaXNzIjoiaHR0cHM6Ly9hdXRoLWRlbW8ubnAudHJhbnNwb3J0aWNvbmxpbmUuY29tL2F1dGgvcmVhbG1zL3RpYyIsImF1ZCI6ImFjY291bnQiLCJzdWIiOiI0ZTk3NmQ0NC1iM2ZkLTRjYTktODk1Ny0wYWJiODUwNzNhNzQiLCJ0eXAiOiJCZWFyZXIiLCJhenAiOiJ0aWMtYXBpIiwic2Vzc2lvbl9zdGF0ZSI6ImM3YzY1OGY5LWNlZDgtNDkzMC04MDQ3LTNmNzY4ZjM1MTFiZiIsImFjciI6IjEiLCJhbGxvd2VkLW9yaWdpbnMiOlsiaHR0cHM6Ly9hcGktZGV2Lm5wLnRyYW5zcG9ydGljb25saW5lLmNvbSJdLCJyZWFsbV9hY2Nlc3MiOnsicm9sZXMiOlsib2ZmbGluZV9hY2Nlc3MiLCJkZWZhdWx0LXJvbGVzLXRpYyIsInVtYV9hdXRob3JpemF0aW9uIiwidXNlciJdfSwicmVzb3VyY2VfYWNjZXNzIjp7ImFjY291bnQiOnsicm9sZXMiOlsibWFuYWdlLWFjY291bnQiLCJtYW5hZ2UtYWNjb3VudC1saW5rcyIsInZpZXctcHJvZmlsZSJdfX0sInNjb3BlIjoiZW1haWwgcHJvZmlsZSIsInNpZCI6ImM3YzY1OGY5LWNlZDgtNDkzMC04MDQ3LTNmNzY4ZjM1MTFiZiIsImVtYWlsX3ZlcmlmaWVkIjpmYWxzZSwicHJlZmVycmVkX3VzZXJuYW1lIjoidG9raGkiLCJ0Y0lkIjoiMzE5OTU3In0.YsIItbE1l4FF4C-5dAKts3uHmfOBVJtX8ruLb7FUf5h5AHg3lKSVYvCUgaNr8sJf0GNJTRhKr6BIBqW1V2WDAmoSUZl8v5HOu-mS9Mqu_7314aX9H8aSHKP6opn-GC39RfMguX2jd0CWG33uOEpnLRWpEyl7sT7NfE1nN10oxER8HhnZaWpcGYyYIRxXT6tWYphMrRKGguAQoTNUHIy8taokTpBfgon_irOBvleO7d-IZu7dvNLDHlB8B6Xs06Wwm0i-gejq1ZwhMCV9YHL81PBPIKVlRv7PK5-KGD4sRKCqQvGirqat9Dd-GrQb2n_8Cn0jn1MoigOAVNQ4QFvefA\r\nContent-Type=*/*\r\n\r\nQuery Parameters:\r\n_______________\r\n\r\nsize=1\r\npage=0\r\n], null, [API Response, JSON Body, java.io.ByteArrayInputStream@43c6f461]]"}],"start":1675774545263,"stop":1675774545266},{"name":"Assertion Passed: \"200\" is equal to \"200\".","status":"passed","stage":"finished","steps":[],"attachments":[],"parameters":[{"name":"customLog","value":"Assertion Passed: \"200\" is equal to \"200\"."},{"name":"stepLog","value":"Assertion \"ValidateComparativeRelation\" PASSED. Expected \"200\" and Actual \"200\". Comparison Type \"EQUALS\". Validation Type \"POSITIVE\"."},{"name":"attachments","value":"null"}],"start":1675774545266,"stop":1675774545266},{"name":"Verification Passed: \"916\" is greater than or equal to \"1.1\".","status":"passed","stage":"finished","steps":[],"attachments":[],"parameters":[{"name":"customLog","value":"Verification Passed: \"916\" is greater than or equal to \"1.1\"."},{"name":"stepLog","value":"Verification \"ValidateComparativeRelation\" PASSED. Expected \"1.1\" and Actual \"916\". Comparison Type \"GREATER_THAN_OR_EQUALS\". Validation Type \"POSITIVE\"."},{"name":"attachments","value":"null"}],"start":1675774545266,"stop":1675774545267},{"name":"Verification Passed: \"916\" is less than or equal to \"30000\".","status":"passed","stage":"finished","steps":[],"attachments":[],"parameters":[{"name":"customLog","value":"Verification Passed: \"916\" is less than or equal to \"30000\"."},{"name":"stepLog","value":"Verification \"ValidateComparativeRelation\" PASSED. Expected \"30000\" and Actual \"916\". Comparison Type \"LESS_THAN_OR_EQUALS\". Validation Type \"POSITIVE\"."},{"name":"attachments","value":"null"}],"start":1675774545267,"stop":1675774545267},{"name":"Assertion Passed: \"{\"page\":0,\"size\":1,\"totalPages\":18,\"totalElements\":18,\"content\":[{\"otaCode\":\"ZowarOTA\",\"baseCommission\":3.0,\"addCommission\":0.0,\"lastUpdated\":\"2022-12-15T17:26:35.889109\",\"isActive\":true}]}\" contains \"content\".","status":"passed","stage":"finished","steps":[],"attachments":[],"parameters":[{"name":"customLog","value":"Assertion Passed: \"{\"page\":0,\"size\":1,\"totalPages\":18,\"totalElements\":18,\"content\":[{\"otaCode\":\"ZowarOTA\",\"baseCommission\":3.0,\"addCommission\":0.0,\"lastUpdated\":\"2022-12-15T17:26:35.889109\",\"isActive\":true}]}\" contains \"content\"."},{"name":"stepLog","value":"Assertion \"ValidateEquals\" PASSED. Expected \"content\" and Actual \"{\"page\":0,\"size\":1,\"totalPages\":18,\"totalElements\":18,\"content\":[{\"otaCode\":\"ZowarOTA\",\"baseCommission\":3.0,\"addCommission\":0.0,\"lastUpdated\":\"2022-12-15T17:26:35.889109\",\"isActive\":true}]}\". Comparison Type \"CONTAINS\". Validation Type \"POSITIVE\"."},{"name":"attachments","value":"null"}],"start":1675774545267,"stop":1675774545267},{"name":"Assertion Passed: Check that content object is not null.","status":"passed","stage":"finished","steps":[],"attachments":[],"parameters":[{"name":"customLog","value":"Assertion Passed: Check that content object is not null."},{"name":"stepLog","value":"Assertion \"ValidateEquals\" PASSED. Expected \"null\" and Actual \"[{\"otaCode\":\"ZowarOTA\",\"baseCommission\":3.0,\"addCommission\":0.0,\"lastUpdated\":\"2022-12-15T17:26:35.889109\",\"isActive\":true}]\". Comparison Type \"EQUALS\". Validation Type \"NEGATIVE\"."},{"name":"attachments","value":"null"}],"start":1675774545269,"stop":1675774545269},{"name":"Assertion Passed: The API response schema matches that in this file \"src/test/resources/testDataFiles/Schemas/Commission_schema.json\".","status":"passed","stage":"finished","steps":[],"attachments":[{"name":"Validation Test Data - Expected JSON Value","source":"00eca252-4214-4905-8ccd-41ee75fb33a5-attachment.json","type":"text/json"},{"name":"Validation Test Data - Actual JSON Value","source":"fda97c2f-c235-4862-b02c-06bcfe7ca621-attachment.json","type":"text/json"}],"parameters":[{"name":"customLog","value":"Assertion Passed: The API response schema matches that in this file \"src/test/resources/testDataFiles/Schemas/Commission_schema.json\"."},{"name":"stepLog","value":"Assertion \"ValidateResponseFileSchema\" PASSED. Expected \"Response data should match the JSON File in this path 'C:\\eclipse-workspace\\MyProjects\\TASystemsAPIs\\src\\test\\resources\\testDataFiles\\Schemas\\Commission_schema.json'\" and Actual \"TRUE\". Comparison Type \"EQUALS\". Validation Type \"POSITIVE\"."},{"name":"attachments","value":"[[Validation Test Data, Expected JSON Value, java.io.ByteArrayInputStream@42d071d4], [Validation Test Data, Actual JSON Value, java.io.ByteArrayInputStream@1049770a]]"}],"start":1675774545279,"stop":1675774545281}],"attachments":[{"name":"SHAFT Engine Logs - Current Method log: Valid_GET_all_Commissions_by_Qry_Rq_TC","source":"a6d80033-f52f-4800-8fe5-c6a141860b8f-attachment.txt","type":"text/plain"}],"parameters":[],"start":1675774543350,"stop":1675774545282}