
################################################################################################################################################
Starting Execution:	"1 out of 5" test cases in the current suite
Test Method:		"SteeringCompanyAPI_TestCases.Test_Lookups_Cases.Valid_GET_all_cities_Lookups_Rq_TC"
Test Description:	"TC001 - Perform Get all cities API with valid user name and password"
################################################################################################################################################
[ReportManager] File Action "DoesFileExist" successfully performed. With the following test data "File Path: "SteeringCompanyAPI_TestData/SteeringCompanyAPI_TestData.xlsx"". @18-12-2022 18:22:30.0693 PM
[ReportManager] Loaded Test Data: "src/test/resources/testDataFiles/SteeringCompanyAPI_TestData/SteeringCompanyAPI_TestData.xlsx". @18-12-2022 18:22:30.0736 PM
[ReportManager] Successfully created attachment "Test Data - Excel" @18-12-2022 18:22:30.0743 PM
[ReportManager] Response status code: "200", status line: "HTTP/1.1 200 OK" @18-12-2022 18:22:36.0150 PM
[ReportManager] Assertion Passed: Evaluating the actual response status code against the expected one... @18-12-2022 18:22:36.0170 PM
[ReportManager] Perform request "POST | Target Status Code: 200 | Service URL: https://auth-demo.np.transporticonline.com/auth/realms/tic/protocol/openid-connect/token | Content Type: application/x-www-form-urlencoded | Response Time: 2723ms". @18-12-2022 18:22:37.0978 PM
[ReportManager] Successfully created attachment "API Request - Specifications" @18-12-2022 18:22:37.0980 PM
[ReportManager] Successfully created attachment "API Request - Body" @18-12-2022 18:22:37.0982 PM
[ReportManager] Successfully created attachment "API Response - JSON Body" @18-12-2022 18:22:38.0336 PM
[ReportManager] Assertion Passed: Check Response Status Code is 200 and it is valid. @18-12-2022 18:22:38.0339 PM
[ReportManager] File Action "DoesFileExist" successfully performed. With the following test data "File Path: "SteeringCompanyAPI_TestData/SteeringCompanyAPI_TestData.xlsx"". @18-12-2022 18:22:38.0386 PM
[ReportManager] Loaded Test Data: "src/test/resources/testDataFiles/SteeringCompanyAPI_TestData/SteeringCompanyAPI_TestData.xlsx". @18-12-2022 18:22:38.0438 PM
[ReportManager] Successfully created attachment "Test Data - Excel" @18-12-2022 18:22:38.0440 PM
[ReportManager] Response status code: "200", status line: "HTTP/1.1 200 " @18-12-2022 18:22:39.0197 PM
[ReportManager] Assertion Passed: Evaluating the actual response status code against the expected one... @18-12-2022 18:22:39.0198 PM
[ReportManager] Perform request "GET | Target Status Code: 200 | Service URL: https://api-demo.np.transporticonline.com/steeringcompanies/v1/lookups/cities | Content Type: */* | Response Time: 741ms". @18-12-2022 18:22:39.0231 PM
[ReportManager] Successfully created attachment "API Request - Specifications" @18-12-2022 18:22:39.0233 PM
[ReportManager] Successfully created attachment "API Response - JSON Body" @18-12-2022 18:22:39.0234 PM
[ReportManager] Assertion Passed: "200" is equal to "200". @18-12-2022 18:22:39.0237 PM
[ReportManager] Verification Passed: "741" is greater than or equal to "1.1". @18-12-2022 18:22:39.0238 PM
[ReportManager] Verification Passed: "741" is less than or equal to "10000". @18-12-2022 18:22:39.0239 PM
[ReportManager] Assertion Passed: "{"page":0,"size":20,"totalPages":36,"totalElements":709,"content":[{"id":1071,"nameArabic":"???? ?????? ??????","nameEnglish":"Denizli Cardak Airport","isActive":true,"lastUpdated":"2022-06-02T00:13:35Z","sectors":null},{"id":36,"nameArabic":"??????????","nameEnglish":"Kuala Lumpur","isActive":true,"lastUpdated":"2022-06-02T01:21:49Z","sectors":null},{"id":849,"nameArabic":"???????","nameEnglish":"Solngen","isActive":true,"lastUpdated":"2022-06-02T01:37:02Z","sectors":null},{"id":1006,"nameArabic":"??????","nameEnglish":"FRUNZE","isActive":true,"lastUpdated":"2022-06-02T00:20:05Z","sectors":null},{"id":985,"nameArabic":"??????","nameEnglish":"KANDAHAR","isActive":true,"lastUpdated":"2022-06-02T00:25:20Z","sectors":null},{"id":736,"nameArabic":"?????","nameEnglish":"Tabrka","isActive":true,"lastUpdated":"2022-06-02T01:16:50Z","sectors":null},{"id":953,"nameArabic":"?????","nameEnglish":"Sohag","isActive":true,"lastUpdated":"2022-06-02T00:25:24Z","sectors":null},{"id":816,"nameArabic":"??????","nameEnglish":"Cochin","isActive":true,"lastUpdated":"2022-06-02T01:06:13Z","sectors":null},{"id":789,"nameArabic":"???? ????","nameEnglish":"Faisalabad","isActive":true,"lastUpdated":"2022-06-02T01:27:12Z","sectors":null},{"id":1013,"nameArabic":"?????","nameEnglish":"KAZAN","isActive":true,"lastUpdated":"2022-06-02T00:37:19Z","sectors":null},{"id":794,"nameArabic":"???????","nameEnglish":"KAYSERI","isActive":true,"lastUpdated":"2022-06-02T01:21:58Z","sectors":null},{"id":764,"nameArabic":"????","nameEnglish":"Tangier","isActive":true,"lastUpdated":"2022-06-02T01:27:13Z","sectors":null},{"id":780,"nameArabic":"??????","nameEnglish":"Shahyraz","isActive":true,"lastUpdated":"2022-06-02T00:37:28Z","sectors":null},{"id":712,"nameArabic":"?????","nameEnglish":"Tashkent","isActive":true,"lastUpdated":"2022-06-02T01:27:13Z","sectors":null},{"id":824,"nameArabic":"??????","nameEnglish":"Samarqand","isActive":true,"lastUpdated":"2022-06-02T00:37:28Z","sectors":null},{"id":993,"nameArabic":"?????","nameEnglish":"KRBI","isActive":true,"lastUpdated":"2022-06-02T01:22:03Z","sectors":null},{"id":820,"nameArabic":"???????","nameEnglish":"CALICUT","isActive":true,"lastUpdated":"2022-06-02T01:27:21Z","sectors":null},{"id":91,"nameArabic":"????","nameEnglish":"KANO","isActive":true,"lastUpdated":"2022-06-02T01:22:03Z","sectors":null},{"id":125,"nameArabic":"????","nameEnglish":"Kabul","isActive":true,"lastUpdated":"2022-06-02T00:42:58Z","sectors":null},{"id":34,"nameArabic":"?????","nameEnglish":"Vienna","isActive":true,"lastUpdated":"2022-06-02T00:42:59Z","sectors":null}]}" contains "content". @18-12-2022 18:22:39.0245 PM
[ReportManager] Successfully created attachment "Validation Test Data - Expected Value" @18-12-2022 18:22:39.0247 PM
[ReportManager] Successfully created attachment "Validation Test Data - Actual Value" @18-12-2022 18:22:39.0249 PM
[ReportManager] Get response jsonvalue "content". @18-12-2022 18:22:39.0400 PM
[ReportManager] Assertion Passed: Check that content object is not null. @18-12-2022 18:22:39.0401 PM
[ReportManager] Successfully created attachment "Validation Test Data - Expected Value" @18-12-2022 18:22:39.0402 PM
[ReportManager] Successfully created attachment "Validation Test Data - Actual Value" @18-12-2022 18:22:39.0404 PM
[ReportManager] File Action "DoesFileExist" successfully performed. With the following test data "File Path: "Lookups_cities_schema.json"". @18-12-2022 18:22:39.0405 PM
[ReportManager] File Action "DoesFileExist" successfully performed. With the following test data "File Path: "src/test/resources/testDataFiles/Lookups_cities_schema.json"". @18-12-2022 18:22:39.0405 PM
[ReportManager] File Action "GetAbsolutePath" successfully performed. With the following test data "Relative Folder Path: "src/test/resources/testDataFiles/Lookups_cities_schema.json"". @18-12-2022 18:22:39.0406 PM
[ReportManager] File Action "DoesFileExist" successfully performed. With the following test data "File Path: "C:\eclipse-workspace\MyProjects\TASystemsAPIs\src\test\resources\testDataFiles\Lookups_cities_schema.json"". @18-12-2022 18:22:40.0291 PM
[ReportManager] File Action "GetAbsolutePath" successfully performed. With the following test data "Relative Folder Path: "C:\eclipse-workspace\MyProjects\TASystemsAPIs\src\test\resources\testDataFiles\Lookups_cities_schema.json"". @18-12-2022 18:22:40.0292 PM
[ReportManager] File Action "ReadFile" successfully performed. With the following test data "File Path: "C:\eclipse-workspace\MyProjects\TASystemsAPIs\src\test\resources\testDataFiles\Lookups_cities_schema.json"". @18-12-2022 18:22:40.0292 PM
[ReportManager] Assertion Passed: The API response schema matches that in this file "src/test/resources/testDataFiles/Lookups_cities_schema.json". @18-12-2022 18:22:40.0297 PM
[ReportManager] Successfully created attachment "Validation Test Data - Expected JSON Value" @18-12-2022 18:22:40.0334 PM
[ReportManager] Successfully created attachment "Validation Test Data - Actual JSON Value" @18-12-2022 18:22:40.0337 PM