
################################################################################################################################################
Starting Execution:	"1 out of 64" test cases in the current suite
Test Method:		"SteeringCompanyAPI_TestCases.Test_Lookups_Cases.Valid_GET_all_cities_Lookups_Rq_TC"
Test Description:	"TC001 - Perform Get all cities API with valid user name and password"
################################################################################################################################################
[ReportManager] File Action "DoesFileExist" successfully performed. With the following test data "File Path: "SteeringCompanyAPI_TestData/SteeringCompanyAPI_TestData.xlsx"". @19-01-2023 11:44:08.0912 AM
[ReportManager] Loaded Test Data: "src/test/resources/testDataFiles/SteeringCompanyAPI_TestData/SteeringCompanyAPI_TestData.xlsx". @19-01-2023 11:44:09.0122 AM
[ReportManager] Successfully created attachment "Test Data - Excel" @19-01-2023 11:44:09.0154 AM
[ReportManager] Response status code: "200", status line: "HTTP/1.1 200 OK" @19-01-2023 11:44:12.0771 AM
[ReportManager] Assertion Passed: Evaluating the actual response status code against the expected one... @19-01-2023 11:44:12.0783 AM
[ReportManager] Perform request "POST | Target Status Code: 200 | Service URL: https://auth-demo.np.transporticonline.com/auth/realms/tic/protocol/openid-connect/token | Content Type: application/x-www-form-urlencoded | Response Time: 1482ms". @19-01-2023 11:44:13.0933 AM
[ReportManager] Successfully created attachment "API Request - Specifications" @19-01-2023 11:44:13.0935 AM
[ReportManager] Successfully created attachment "API Request - Body" @19-01-2023 11:44:13.0936 AM
[ReportManager] Successfully created attachment "API Response - JSON Body" @19-01-2023 11:44:14.0222 AM
[ReportManager] Assertion Passed: Check Response Status Code is 200 and it is valid. @19-01-2023 11:44:14.0224 AM
[ReportManager] File Action "DoesFileExist" successfully performed. With the following test data "File Path: "SteeringCompanyAPI_TestData/SteeringCompanyAPI_TestData.xlsx"". @19-01-2023 11:44:14.0252 AM
[ReportManager] Loaded Test Data: "src/test/resources/testDataFiles/SteeringCompanyAPI_TestData/SteeringCompanyAPI_TestData.xlsx". @19-01-2023 11:44:14.0342 AM
[ReportManager] Successfully created attachment "Test Data - Excel" @19-01-2023 11:44:14.0344 AM
[ReportManager] Response status code: "200", status line: "HTTP/1.1 200 " @19-01-2023 11:44:14.0962 AM
[ReportManager] Assertion Passed: Evaluating the actual response status code against the expected one... @19-01-2023 11:44:14.0964 AM
[ReportManager] Perform request "GET | Target Status Code: 200 | Service URL: https://api-demo.np.transporticonline.com/steeringcompanies/v1/lookups/cities | Content Type: */* | Response Time: 603ms". @19-01-2023 11:44:14.0998 AM
[ReportManager] Successfully created attachment "API Request - Specifications" @19-01-2023 11:44:14.0999 AM
[ReportManager] Successfully created attachment "API Response - JSON Body" @19-01-2023 11:44:15.0001 AM
[ReportManager] Assertion Passed: "200" is equal to "200". @19-01-2023 11:44:15.0003 AM
[ReportManager] Verification Passed: "603" is greater than or equal to "1.1". @19-01-2023 11:44:15.0004 AM
[ReportManager] Verification Passed: "603" is less than or equal to "10000". @19-01-2023 11:44:15.0004 AM
[ReportManager] Assertion Passed: "{"page":0,"size":20,"totalPages":36,"totalElements":709,"content":[{"id":36,"nameArabic":"??????????","nameEnglish":"Kuala Lumpur","isActive":true,"lastUpdated":"2022-06-02T01:21:49Z","sectors":null},{"id":849,"nameArabic":"???????","nameEnglish":"Solngen","isActive":true,"lastUpdated":"2022-06-02T01:37:02Z","sectors":null},{"id":1006,"nameArabic":"??????","nameEnglish":"FRUNZE","isActive":true,"lastUpdated":"2022-06-02T00:20:05Z","sectors":null},{"id":985,"nameArabic":"??????","nameEnglish":"KANDAHAR","isActive":true,"lastUpdated":"2022-06-02T00:25:20Z","sectors":null},{"id":736,"nameArabic":"?????","nameEnglish":"Tabrka","isActive":true,"lastUpdated":"2022-06-02T01:16:50Z","sectors":null},{"id":953,"nameArabic":"?????","nameEnglish":"Sohag","isActive":true,"lastUpdated":"2022-06-02T00:25:24Z","sectors":null},{"id":816,"nameArabic":"??????","nameEnglish":"Cochin","isActive":true,"lastUpdated":"2022-06-02T01:06:13Z","sectors":null},{"id":789,"nameArabic":"???? ????","nameEnglish":"Faisalabad","isActive":true,"lastUpdated":"2022-06-02T01:27:12Z","sectors":null},{"id":1013,"nameArabic":"?????","nameEnglish":"KAZAN","isActive":true,"lastUpdated":"2022-06-02T00:37:19Z","sectors":null},{"id":794,"nameArabic":"???????","nameEnglish":"KAYSERI","isActive":true,"lastUpdated":"2022-06-02T01:21:58Z","sectors":null},{"id":764,"nameArabic":"????","nameEnglish":"Tangier","isActive":true,"lastUpdated":"2022-06-02T01:27:13Z","sectors":null},{"id":780,"nameArabic":"??????","nameEnglish":"Shahyraz","isActive":true,"lastUpdated":"2022-06-02T00:37:28Z","sectors":null},{"id":712,"nameArabic":"?????","nameEnglish":"Tashkent","isActive":true,"lastUpdated":"2022-06-02T01:27:13Z","sectors":null},{"id":824,"nameArabic":"??????","nameEnglish":"Samarqand","isActive":true,"lastUpdated":"2022-06-02T00:37:28Z","sectors":null},{"id":993,"nameArabic":"?????","nameEnglish":"KRBI","isActive":true,"lastUpdated":"2022-06-02T01:22:03Z","sectors":null},{"id":820,"nameArabic":"???????","nameEnglish":"CALICUT","isActive":true,"lastUpdated":"2022-06-02T01:27:21Z","sectors":null},{"id":91,"nameArabic":"????","nameEnglish":"KANO","isActive":true,"lastUpdated":"2022-06-02T01:22:03Z","sectors":null},{"id":125,"nameArabic":"????","nameEnglish":"Kabul","isActive":true,"lastUpdated":"2022-06-02T00:42:58Z","sectors":null},{"id":34,"nameArabic":"?????","nameEnglish":"Vienna","isActive":true,"lastUpdated":"2022-06-02T00:42:59Z","sectors":null},{"id":67,"nameArabic":"?????","nameEnglish":"Sanaa","isActive":true,"lastUpdated":"2022-06-02T00:55:27Z","sectors":null}]}" contains "content". @19-01-2023 11:44:15.0009 AM
[ReportManager] Successfully created attachment "Validation Test Data - Expected Value" @19-01-2023 11:44:15.0011 AM
[ReportManager] Successfully created attachment "Validation Test Data - Actual Value" @19-01-2023 11:44:15.0014 AM
[ReportManager] Get response jsonvalue "content". @19-01-2023 11:44:15.0138 AM
[ReportManager] Assertion Passed: Check that content object is not null. @19-01-2023 11:44:15.0139 AM
[ReportManager] Successfully created attachment "Validation Test Data - Expected Value" @19-01-2023 11:44:15.0140 AM
[ReportManager] Successfully created attachment "Validation Test Data - Actual Value" @19-01-2023 11:44:15.0142 AM
[ReportManager] File Action "DoesFileExist" successfully performed. With the following test data "File Path: "Schemas/Lookups_cities_schema.json"". @19-01-2023 11:44:15.0144 AM
[ReportManager] File Action "DoesFileExist" successfully performed. With the following test data "File Path: "src/test/resources/testDataFiles/Schemas/Lookups_cities_schema.json"". @19-01-2023 11:44:15.0145 AM
[ReportManager] File Action "GetAbsolutePath" successfully performed. With the following test data "Relative Folder Path: "src/test/resources/testDataFiles/Schemas/Lookups_cities_schema.json"". @19-01-2023 11:44:15.0147 AM
[ReportManager] File Action "DoesFileExist" successfully performed. With the following test data "File Path: "C:\eclipse-workspace\MyProjects\TASystemsAPIs\src\test\resources\testDataFiles\Schemas\Lookups_cities_schema.json"". @19-01-2023 11:44:16.0351 AM
[ReportManager] File Action "GetAbsolutePath" successfully performed. With the following test data "Relative Folder Path: "C:\eclipse-workspace\MyProjects\TASystemsAPIs\src\test\resources\testDataFiles\Schemas\Lookups_cities_schema.json"". @19-01-2023 11:44:16.0352 AM
[ReportManager] File Action "ReadFile" successfully performed. With the following test data "File Path: "C:\eclipse-workspace\MyProjects\TASystemsAPIs\src\test\resources\testDataFiles\Schemas\Lookups_cities_schema.json"". @19-01-2023 11:44:16.0353 AM
[ReportManager] Assertion Passed: The API response schema matches that in this file "src/test/resources/testDataFiles/Schemas/Lookups_cities_schema.json". @19-01-2023 11:44:16.0357 AM
[ReportManager] Successfully created attachment "Validation Test Data - Expected JSON Value" @19-01-2023 11:44:16.0359 AM
[ReportManager] Successfully created attachment "Validation Test Data - Actual JSON Value" @19-01-2023 11:44:16.0365 AM