{"uuid":"7e2698fb-4afe-480e-bfb5-f4d146c9880e","historyId":"3da8675260de4f0e72331833df441679","fullName":"SteeringCompanyAPI_TestCases.Test_Lookups_Cases.Valid_GET_all_cities_Lookups_Rq_TC","labels":[{"name":"package","value":"SteeringCompanyAPI_TestCases.Test_Lookups_Cases"},{"name":"testClass","value":"SteeringCompanyAPI_TestCases.Test_Lookups_Cases"},{"name":"testMethod","value":"Valid_GET_all_cities_Lookups_Rq_TC"},{"name":"parentSuite","value":"Suite"},{"name":"suite","value":"Test"},{"name":"subSuite","value":"SteeringCompanyAPI_TestCases.Test_Lookups_Cases"},{"name":"host","value":"TW-1056"},{"name":"thread","value":"9516@TW-1056.main(1)"},{"name":"framework","value":"testng"},{"name":"language","value":"java"}],"links":[],"name":"TC001 - Perform Get all cities API with valid user name and password","status":"passed","statusDetails":{"known":false,"muted":false,"flaky":false},"stage":"finished","steps":[{"name":"Loaded Test Data: \"src/test/resources/testDataFiles/SteeringCompanyAPI_TestData/SteeringCompanyAPI_TestData.xlsx\".","status":"passed","stage":"finished","steps":[],"attachments":[{"name":"Test Data - Excel","source":"007ddd53-28f1-491a-997b-20dffcc281ac-attachment.xlsx","type":"application/vnd.openxmlformats-officedocument.spreadsheetml.sheet"}],"parameters":[{"name":"logText","value":"Loaded Test Data: \"src/test/resources/testDataFiles/SteeringCompanyAPI_TestData/SteeringCompanyAPI_TestData.xlsx\"."},{"name":"attachments","value":"[[Test Data, Excel, java.io.FileInputStream@18ad085a]]"}],"start":1674121449122,"stop":1674121449154},{"name":"Assertion Passed: Evaluating the actual response status code against the expected one...","status":"passed","stage":"finished","steps":[],"attachments":[],"parameters":[{"name":"customLog","value":"Assertion Passed: Evaluating the actual response status code against the expected one..."},{"name":"stepLog","value":"Assertion \"ValidateComparativeRelation\" PASSED. Expected \"200\" and Actual \"200\". Comparison Type \"EQUALS\". Validation Type \"POSITIVE\"."},{"name":"attachments","value":"null"}],"start":1674121452783,"stop":1674121452783},{"name":"Perform request \"POST | Target Status Code: 200 | Service URL: https://auth-demo.np.transporticonline.com/auth/realms/tic/protocol/openid-connect/token | Content Type: application/x-www-form-urlencoded | Response Time: 1482ms\".","status":"passed","stage":"finished","steps":[],"attachments":[{"name":"API Request - Specifications","source":"cf320d05-5203-4c58-b5db-995387216b75-attachment"},{"name":"API Request - Body","source":"e685c260-5732-4eee-9aa6-2480252c4891-attachment"},{"name":"API Response - JSON Body","source":"3d9e3fb4-c9a6-4226-a932-e63895613715-attachment.json","type":"text/json"}],"parameters":[{"name":"logText","value":"Perform request \"POST | Target Status Code: 200 | Service URL: https://auth-demo.np.transporticonline.com/auth/realms/tic/protocol/openid-connect/token | Content Type: application/x-www-form-urlencoded | Response Time: 1482ms\"."},{"name":"attachments","value":"[[API Request, Specifications, Headers:\r\n_______________\r\n\r\nContent-Type=application/x-www-form-urlencoded\r\n\r\n], [API Request, Body, java.io.ByteArrayInputStream@3369a71f], null, [API Response, JSON Body, java.io.ByteArrayInputStream@7adde112]]"}],"start":1674121453933,"stop":1674121454222},{"name":"Assertion Passed: Check Response Status Code is 200 and it is valid.","status":"passed","stage":"finished","steps":[],"attachments":[],"parameters":[{"name":"customLog","value":"Assertion Passed: Check Response Status Code is 200 and it is valid."},{"name":"stepLog","value":"Assertion \"ValidateComparativeRelation\" PASSED. Expected \"200\" and Actual \"200\". Comparison Type \"EQUALS\". Validation Type \"POSITIVE\"."},{"name":"attachments","value":"null"}],"start":1674121454224,"stop":1674121454225},{"name":"Loaded Test Data: \"src/test/resources/testDataFiles/SteeringCompanyAPI_TestData/SteeringCompanyAPI_TestData.xlsx\".","status":"passed","stage":"finished","steps":[],"attachments":[{"name":"Test Data - Excel","source":"8d160b81-575d-4860-b989-8db627775e3e-attachment.xlsx","type":"application/vnd.openxmlformats-officedocument.spreadsheetml.sheet"}],"parameters":[{"name":"logText","value":"Loaded Test Data: \"src/test/resources/testDataFiles/SteeringCompanyAPI_TestData/SteeringCompanyAPI_TestData.xlsx\"."},{"name":"attachments","value":"[[Test Data, Excel, java.io.FileInputStream@60cb3ca9]]"}],"start":1674121454342,"stop":1674121454344},{"name":"Assertion Passed: Evaluating the actual response status code against the expected one...","status":"passed","stage":"finished","steps":[],"attachments":[],"parameters":[{"name":"customLog","value":"Assertion Passed: Evaluating the actual response status code against the expected one..."},{"name":"stepLog","value":"Assertion \"ValidateComparativeRelation\" PASSED. Expected \"200\" and Actual \"200\". Comparison Type \"EQUALS\". Validation Type \"POSITIVE\"."},{"name":"attachments","value":"null"}],"start":1674121454964,"stop":1674121454964},{"name":"Perform request \"GET | Target Status Code: 200 | Service URL: https://api-demo.np.transporticonline.com/steeringcompanies/v1/lookups/cities | Content Type: */* | Response Time: 603ms\".","status":"passed","stage":"finished","steps":[],"attachments":[{"name":"API Request - Specifications","source":"f42e1c54-c632-41d5-9ae5-84b8522b74e2-attachment"},{"name":"API Response - JSON Body","source":"42372c97-0ebb-423e-82b2-edf77b739a12-attachment.json","type":"text/json"}],"parameters":[{"name":"logText","value":"Perform request \"GET | Target Status Code: 200 | Service URL: https://api-demo.np.transporticonline.com/steeringcompanies/v1/lookups/cities | Content Type: */* | Response Time: 603ms\"."},{"name":"attachments","value":"[[API Request, Specifications, Headers:\r\n_______________\r\n\r\nAuthorization=Bearer eyJhbGciOiJSUzI1NiIsInR5cCIgOiAiSldUIiwia2lkIiA6ICJjck9ORDFNdFVPVWhzS2Mtb0ppVFFmb0o1d1l4REF6Y3k0ZjNYZ0dveGdZIn0.eyJleHAiOjE2NzQxNDMwNTAsImlhdCI6MTY3NDEyMTQ1MCwianRpIjoiZWEzNjJmMTEtMmI4Yy00NTJmLWIxNzEtZWJjMWY4MjgyMGRjIiwiaXNzIjoiaHR0cHM6Ly9hdXRoLWRlbW8ubnAudHJhbnNwb3J0aWNvbmxpbmUuY29tL2F1dGgvcmVhbG1zL3RpYyIsImF1ZCI6ImFjY291bnQiLCJzdWIiOiI0ZTk3NmQ0NC1iM2ZkLTRjYTktODk1Ny0wYWJiODUwNzNhNzQiLCJ0eXAiOiJCZWFyZXIiLCJhenAiOiJ0aWMtYXBpIiwic2Vzc2lvbl9zdGF0ZSI6IjNkZGYzMzgwLTg2ODAtNDkxNC1hNjc1LTlmMTExNDY0M2U3YSIsImFjciI6IjEiLCJhbGxvd2VkLW9yaWdpbnMiOlsiaHR0cHM6Ly9hcGktZGV2Lm5wLnRyYW5zcG9ydGljb25saW5lLmNvbSJdLCJyZWFsbV9hY2Nlc3MiOnsicm9sZXMiOlsib2ZmbGluZV9hY2Nlc3MiLCJkZWZhdWx0LXJvbGVzLXRpYyIsInVtYV9hdXRob3JpemF0aW9uIiwidXNlciJdfSwicmVzb3VyY2VfYWNjZXNzIjp7ImFjY291bnQiOnsicm9sZXMiOlsibWFuYWdlLWFjY291bnQiLCJtYW5hZ2UtYWNjb3VudC1saW5rcyIsInZpZXctcHJvZmlsZSJdfX0sInNjb3BlIjoiZW1haWwgcHJvZmlsZSIsInNpZCI6IjNkZGYzMzgwLTg2ODAtNDkxNC1hNjc1LTlmMTExNDY0M2U3YSIsImVtYWlsX3ZlcmlmaWVkIjpmYWxzZSwicHJlZmVycmVkX3VzZXJuYW1lIjoidG9raGkiLCJ0Y0lkIjoiMzE5OTU3In0.f8DuLd5Zl-cLi3BQPvyFqqXkwH66IQuhhNkdwOR7mlCUencAuBlHqoc3weDTc-QQuSXX66-4ko0_qQXclEEEvcR-aftbWfnwnKKPcTDsAIr63Tu-RF9MhjhqEiMrTREOCsSW1slRetNZj8LJCdMJDXizL6WLCgC1--iGThhLQNdZFNETiRorX0tVKUINvKv7O61T1QOxho_YsoAMnXjkesDBsPy7ZAuFlXmuI9d7gDaxZSMRZEKODoXQH9sm0_W4hW7_-3qneA7CX2iDe__MXVpcyk1V1N9xCXxBwDRFuSp4TYtXB3FHAGba3t3YVUVLkjiFMthTElDK91RNxCBlNg\r\nContent-Type=*/*\r\n\r\n], null, [API Response, JSON Body, java.io.ByteArrayInputStream@2b1cf779]]"}],"start":1674121454998,"stop":1674121455001},{"name":"Assertion Passed: \"200\" is equal to \"200\".","status":"passed","stage":"finished","steps":[],"attachments":[],"parameters":[{"name":"customLog","value":"Assertion Passed: \"200\" is equal to \"200\"."},{"name":"stepLog","value":"Assertion \"ValidateComparativeRelation\" PASSED. Expected \"200\" and Actual \"200\". Comparison Type \"EQUALS\". Validation Type \"POSITIVE\"."},{"name":"attachments","value":"null"}],"start":1674121455002,"stop":1674121455003},{"name":"Verification Passed: \"603\" is greater than or equal to \"1.1\".","status":"passed","stage":"finished","steps":[],"attachments":[],"parameters":[{"name":"customLog","value":"Verification Passed: \"603\" is greater than or equal to \"1.1\"."},{"name":"stepLog","value":"Verification \"ValidateComparativeRelation\" PASSED. Expected \"1.1\" and Actual \"603\". Comparison Type \"GREATER_THAN_OR_EQUALS\". Validation Type \"POSITIVE\"."},{"name":"attachments","value":"null"}],"start":1674121455004,"stop":1674121455004},{"name":"Verification Passed: \"603\" is less than or equal to \"10000\".","status":"passed","stage":"finished","steps":[],"attachments":[],"parameters":[{"name":"customLog","value":"Verification Passed: \"603\" is less than or equal to \"10000\"."},{"name":"stepLog","value":"Verification \"ValidateComparativeRelation\" PASSED. Expected \"10000\" and Actual \"603\". Comparison Type \"LESS_THAN_OR_EQUALS\". Validation Type \"POSITIVE\"."},{"name":"attachments","value":"null"}],"start":1674121455004,"stop":1674121455004},{"name":"Assertion Passed: \"{\"page\":0,\"size\":20,\"totalPages\":36,\"totalElements\":709,\"content\":[{\"id\":36,\"nameArabic\":\"كوالالمبور\",\"nameEnglish\":\"Kuala Lumpur\",\"isActive\":true,\"lastUpdated\":\"2022-06-02T01:21:49Z\",\"sectors\":null},{\"id\":849,\"nameArabic\":\"سولنجين\",\"nameEnglish\":\"Solngen\",\"isActive\":true,\"lastUpdated\":\"2022-06-02T01:37:02Z\",\"sectors\":null},{\"id\":1006,\"nameArabic\":\"بشكشكي\",\"nameEnglish\":\"FRUNZE\",\"isActive\":true,\"lastUpdated\":\"2022-06-02T00:20:05Z\",\"sectors\":null},{\"id\":985,\"nameArabic\":\"قندهار\",\"nameEnglish\":\"KANDAHAR\",\"isActive\":true,\"lastUpdated\":\"2022-06-02T00:25:20Z\",\"sectors\":null},{\"id\":736,\"nameArabic\":\"طبركا\",\"nameEnglish\":\"Tabrka\",\"isActive\":true,\"lastUpdated\":\"2022-06-02T01:16:50Z\",\"sectors\":null},{\"id\":953,\"nameArabic\":\"سوهاج\",\"nameEnglish\":\"Sohag\",\"isActive\":true,\"lastUpdated\":\"2022-06-02T00:25:24Z\",\"sectors\":null},{\"id\":816,\"nameArabic\":\"كوتشين\",\"nameEnglish\":\"Cochin\",\"isActive\":true,\"lastUpdated\":\"2022-06-02T01:06:13Z\",\"sectors\":null},{\"id\":789,\"nameArabic\":\"فيصل اباد\",\"nameEnglish\":\"Faisalabad\",\"isActive\":true,\"lastUpdated\":\"2022-06-02T01:27:12Z\",\"sectors\":null},{\"id\":1013,\"nameArabic\":\"كازان\",\"nameEnglish\":\"KAZAN\",\"isActive\":true,\"lastUpdated\":\"2022-06-02T00:37:19Z\",\"sectors\":null},{\"id\":794,\"nameArabic\":\"كايسيري\",\"nameEnglish\":\"KAYSERI\",\"isActive\":true,\"lastUpdated\":\"2022-06-02T01:21:58Z\",\"sectors\":null},{\"id\":764,\"nameArabic\":\"طنجه\",\"nameEnglish\":\"Tangier\",\"isActive\":true,\"lastUpdated\":\"2022-06-02T01:27:13Z\",\"sectors\":null},{\"id\":780,\"nameArabic\":\"شهيراز\",\"nameEnglish\":\"Shahyraz\",\"isActive\":true,\"lastUpdated\":\"2022-06-02T00:37:28Z\",\"sectors\":null},{\"id\":712,\"nameArabic\":\"طشقند\",\"nameEnglish\":\"Tashkent\",\"isActive\":true,\"lastUpdated\":\"2022-06-02T01:27:13Z\",\"sectors\":null},{\"id\":824,\"nameArabic\":\"سمكرند\",\"nameEnglish\":\"Samarqand\",\"isActive\":true,\"lastUpdated\":\"2022-06-02T00:37:28Z\",\"sectors\":null},{\"id\":993,\"nameArabic\":\"كرابي\",\"nameEnglish\":\"KRBI\",\"isActive\":true,\"lastUpdated\":\"2022-06-02T01:22:03Z\",\"sectors\":null},{\"id\":820,\"nameArabic\":\"كاليكوت\",\"nameEnglish\":\"CALICUT\",\"isActive\":true,\"lastUpdated\":\"2022-06-02T01:27:21Z\",\"sectors\":null},{\"id\":91,\"nameArabic\":\"كانو\",\"nameEnglish\":\"KANO\",\"isActive\":true,\"lastUpdated\":\"2022-06-02T01:22:03Z\",\"sectors\":null},{\"id\":125,\"nameArabic\":\"كابل\",\"nameEnglish\":\"Kabul\",\"isActive\":true,\"lastUpdated\":\"2022-06-02T00:42:58Z\",\"sectors\":null},{\"id\":34,\"nameArabic\":\"فيينا\",\"nameEnglish\":\"Vienna\",\"isActive\":true,\"lastUpdated\":\"2022-06-02T00:42:59Z\",\"sectors\":null},{\"id\":67,\"nameArabic\":\"صنعاء\",\"nameEnglish\":\"Sanaa\",\"isActive\":true,\"lastUpdated\":\"2022-06-02T00:55:27Z\",\"sectors\":null}]}\" contains \"content\".","status":"passed","stage":"finished","steps":[],"attachments":[{"name":"Validation Test Data - Expected Value","source":"8fea7c12-a2c8-49be-8524-55a9f90c343c-attachment"},{"name":"Validation Test Data - Actual Value","source":"07ae19ba-c675-4cba-bc87-726fa9df2dc5-attachment"}],"parameters":[{"name":"customLog","value":"Assertion Passed: \"{\"page\":0,\"size\":20,\"totalPages\":36,\"totalElements\":709,\"content\":[{\"id\":36,\"nameArabic\":\"كوالالمبور\",\"nameEnglish\":\"Kuala Lumpur\",\"isActive\":true,\"lastUpdated\":\"2022-06-02T01:21:49Z\",\"sectors\":null},{\"id\":849,\"nameArabic\":\"سولنجين\",\"nameEnglish\":\"Solngen\",\"isActive\":true,\"lastUpdated\":\"2022-06-02T01:37:02Z\",\"sectors\":null},{\"id\":1006,\"nameArabic\":\"بشكشكي\",\"nameEnglish\":\"FRUNZE\",\"isActive\":true,\"lastUpdated\":\"2022-06-02T00:20:05Z\",\"sectors\":null},{\"id\":985,\"nameArabic\":\"قندهار\",\"nameEnglish\":\"KANDAHAR\",\"isActive\":true,\"lastUpdated\":\"2022-06-02T00:25:20Z\",\"sectors\":null},{\"id\":736,\"nameArabic\":\"طبركا\",\"nameEnglish\":\"Tabrka\",\"isActive\":true,\"lastUpdated\":\"2022-06-02T01:16:50Z\",\"sectors\":null},{\"id\":953,\"nameArabic\":\"سوهاج\",\"nameEnglish\":\"Sohag\",\"isActive\":true,\"lastUpdated\":\"2022-06-02T00:25:24Z\",\"sectors\":null},{\"id\":816,\"nameArabic\":\"كوتشين\",\"nameEnglish\":\"Cochin\",\"isActive\":true,\"lastUpdated\":\"2022-06-02T01:06:13Z\",\"sectors\":null},{\"id\":789,\"nameArabic\":\"فيصل اباد\",\"nameEnglish\":\"Faisalabad\",\"isActive\":true,\"lastUpdated\":\"2022-06-02T01:27:12Z\",\"sectors\":null},{\"id\":1013,\"nameArabic\":\"كازان\",\"nameEnglish\":\"KAZAN\",\"isActive\":true,\"lastUpdated\":\"2022-06-02T00:37:19Z\",\"sectors\":null},{\"id\":794,\"nameArabic\":\"كايسيري\",\"nameEnglish\":\"KAYSERI\",\"isActive\":true,\"lastUpdated\":\"2022-06-02T01:21:58Z\",\"sectors\":null},{\"id\":764,\"nameArabic\":\"طنجه\",\"nameEnglish\":\"Tangier\",\"isActive\":true,\"lastUpdated\":\"2022-06-02T01:27:13Z\",\"sectors\":null},{\"id\":780,\"nameArabic\":\"شهيراز\",\"nameEnglish\":\"Shahyraz\",\"isActive\":true,\"lastUpdated\":\"2022-06-02T00:37:28Z\",\"sectors\":null},{\"id\":712,\"nameArabic\":\"طشقند\",\"nameEnglish\":\"Tashkent\",\"isActive\":true,\"lastUpdated\":\"2022-06-02T01:27:13Z\",\"sectors\":null},{\"id\":824,\"nameArabic\":\"سمكرند\",\"nameEnglish\":\"Samarqand\",\"isActive\":true,\"lastUpdated\":\"2022-06-02T00:37:28Z\",\"sectors\":null},{\"id\":993,\"nameArabic\":\"كرابي\",\"nameEnglish\":\"KRBI\",\"isActive\":true,\"lastUpdated\":\"2022-06-02T01:22:03Z\",\"sectors\":null},{\"id\":820,\"nameArabic\":\"كاليكوت\",\"nameEnglish\":\"CALICUT\",\"isActive\":true,\"lastUpdated\":\"2022-06-02T01:27:21Z\",\"sectors\":null},{\"id\":91,\"nameArabic\":\"كانو\",\"nameEnglish\":\"KANO\",\"isActive\":true,\"lastUpdated\":\"2022-06-02T01:22:03Z\",\"sectors\":null},{\"id\":125,\"nameArabic\":\"كابل\",\"nameEnglish\":\"Kabul\",\"isActive\":true,\"lastUpdated\":\"2022-06-02T00:42:58Z\",\"sectors\":null},{\"id\":34,\"nameArabic\":\"فيينا\",\"nameEnglish\":\"Vienna\",\"isActive\":true,\"lastUpdated\":\"2022-06-02T00:42:59Z\",\"sectors\":null},{\"id\":67,\"nameArabic\":\"صنعاء\",\"nameEnglish\":\"Sanaa\",\"isActive\":true,\"lastUpdated\":\"2022-06-02T00:55:27Z\",\"sectors\":null}]}\" contains \"content\"."},{"name":"stepLog","value":"Assertion \"ValidateEquals\" PASSED. Expected and Actual values are attached. Comparison Type \"CONTAINS\". Validation Type \"POSITIVE\"."},{"name":"attachments","value":"[[Validation Test Data, Expected Value, content], [Validation Test Data, Actual Value, {\"page\":0,\"size\":20,\"totalPages\":36,\"totalElements\":709,\"content\":[{\"id\":36,\"nameArabic\":\"كوالالمبور\",\"nameEnglish\":\"Kuala Lumpur\",\"isActive\":true,\"lastUpdated\":\"2022-06-02T01:21:49Z\",\"sectors\":null},{\"id\":849,\"nameArabic\":\"سولنجين\",\"nameEnglish\":\"Solngen\",\"isActive\":true,\"lastUpdated\":\"2022-06-02T01:37:02Z\",\"sectors\":null},{\"id\":1006,\"nameArabic\":\"بشكشكي\",\"nameEnglish\":\"FRUNZE\",\"isActive\":true,\"lastUpdated\":\"2022-06-02T00:20:05Z\",\"sectors\":null},{\"id\":985,\"nameArabic\":\"قندهار\",\"nameEnglish\":\"KANDAHAR\",\"isActive\":true,\"lastUpdated\":\"2022-06-02T00:25:20Z\",\"sectors\":null},{\"id\":736,\"nameArabic\":\"طبركا\",\"nameEnglish\":\"Tabrka\",\"isActive\":true,\"lastUpdated\":\"2022-06-02T01:16:50Z\",\"sectors\":null},{\"id\":953,\"nameArabic\":\"سوهاج\",\"nameEnglish\":\"Sohag\",\"isActive\":true,\"lastUpdated\":\"2022-06-02T00:25:24Z\",\"sectors\":null},{\"id\":816,\"nameArabic\":\"كوتشين\",\"nameEnglish\":\"Cochin\",\"isActive\":true,\"lastUpdated\":\"2022-06-02T01:06:13Z\",\"sectors\":null},{\"id\":789,\"nameArabic\":\"فيصل اباد\",\"nameEnglish\":\"Faisalabad\",\"isActive\":true,\"lastUpdated\":\"2022-06-02T01:27:12Z\",\"sectors\":null},{\"id\":1013,\"nameArabic\":\"كازان\",\"nameEnglish\":\"KAZAN\",\"isActive\":true,\"lastUpdated\":\"2022-06-02T00:37:19Z\",\"sectors\":null},{\"id\":794,\"nameArabic\":\"كايسيري\",\"nameEnglish\":\"KAYSERI\",\"isActive\":true,\"lastUpdated\":\"2022-06-02T01:21:58Z\",\"sectors\":null},{\"id\":764,\"nameArabic\":\"طنجه\",\"nameEnglish\":\"Tangier\",\"isActive\":true,\"lastUpdated\":\"2022-06-02T01:27:13Z\",\"sectors\":null},{\"id\":780,\"nameArabic\":\"شهيراز\",\"nameEnglish\":\"Shahyraz\",\"isActive\":true,\"lastUpdated\":\"2022-06-02T00:37:28Z\",\"sectors\":null},{\"id\":712,\"nameArabic\":\"طشقند\",\"nameEnglish\":\"Tashkent\",\"isActive\":true,\"lastUpdated\":\"2022-06-02T01:27:13Z\",\"sectors\":null},{\"id\":824,\"nameArabic\":\"سمكرند\",\"nameEnglish\":\"Samarqand\",\"isActive\":true,\"lastUpdated\":\"2022-06-02T00:37:28Z\",\"sectors\":null},{\"id\":993,\"nameArabic\":\"كرابي\",\"nameEnglish\":\"KRBI\",\"isActive\":true,\"lastUpdated\":\"2022-06-02T01:22:03Z\",\"sectors\":null},{\"id\":820,\"nameArabic\":\"كاليكوت\",\"nameEnglish\":\"CALICUT\",\"isActive\":true,\"lastUpdated\":\"2022-06-02T01:27:21Z\",\"sectors\":null},{\"id\":91,\"nameArabic\":\"كانو\",\"nameEnglish\":\"KANO\",\"isActive\":true,\"lastUpdated\":\"2022-06-02T01:22:03Z\",\"sectors\":null},{\"id\":125,\"nameArabic\":\"كابل\",\"nameEnglish\":\"Kabul\",\"isActive\":true,\"lastUpdated\":\"2022-06-02T00:42:58Z\",\"sectors\":null},{\"id\":34,\"nameArabic\":\"فيينا\",\"nameEnglish\":\"Vienna\",\"isActive\":true,\"lastUpdated\":\"2022-06-02T00:42:59Z\",\"sectors\":null},{\"id\":67,\"nameArabic\":\"صنعاء\",\"nameEnglish\":\"Sanaa\",\"isActive\":true,\"lastUpdated\":\"2022-06-02T00:55:27Z\",\"sectors\":null}]}]]"}],"start":1674121455009,"stop":1674121455015},{"name":"Assertion Passed: Check that content object is not null.","status":"passed","stage":"finished","steps":[],"attachments":[{"name":"Validation Test Data - Expected Value","source":"c8468c51-46b1-4448-ae8a-833d05fd5a17-attachment"},{"name":"Validation Test Data - Actual Value","source":"3002f1c0-b58d-46df-9fc0-f583879f3199-attachment"}],"parameters":[{"name":"customLog","value":"Assertion Passed: Check that content object is not null."},{"name":"stepLog","value":"Assertion \"ValidateEquals\" PASSED. Expected and Actual values are attached. Comparison Type \"EQUALS\". Validation Type \"NEGATIVE\"."},{"name":"attachments","value":"[[Validation Test Data, Expected Value, null], [Validation Test Data, Actual Value, [{\"id\":36,\"nameArabic\":\"كوالالمبور\",\"nameEnglish\":\"Kuala Lumpur\",\"isActive\":true,\"lastUpdated\":\"2022-06-02T01:21:49Z\",\"sectors\":null},{\"id\":849,\"nameArabic\":\"سولنجين\",\"nameEnglish\":\"Solngen\",\"isActive\":true,\"lastUpdated\":\"2022-06-02T01:37:02Z\",\"sectors\":null},{\"id\":1006,\"nameArabic\":\"بشكشكي\",\"nameEnglish\":\"FRUNZE\",\"isActive\":true,\"lastUpdated\":\"2022-06-02T00:20:05Z\",\"sectors\":null},{\"id\":985,\"nameArabic\":\"قندهار\",\"nameEnglish\":\"KANDAHAR\",\"isActive\":true,\"lastUpdated\":\"2022-06-02T00:25:20Z\",\"sectors\":null},{\"id\":736,\"nameArabic\":\"طبركا\",\"nameEnglish\":\"Tabrka\",\"isActive\":true,\"lastUpdated\":\"2022-06-02T01:16:50Z\",\"sectors\":null},{\"id\":953,\"nameArabic\":\"سوهاج\",\"nameEnglish\":\"Sohag\",\"isActive\":true,\"lastUpdated\":\"2022-06-02T00:25:24Z\",\"sectors\":null},{\"id\":816,\"nameArabic\":\"كوتشين\",\"nameEnglish\":\"Cochin\",\"isActive\":true,\"lastUpdated\":\"2022-06-02T01:06:13Z\",\"sectors\":null},{\"id\":789,\"nameArabic\":\"فيصل اباد\",\"nameEnglish\":\"Faisalabad\",\"isActive\":true,\"lastUpdated\":\"2022-06-02T01:27:12Z\",\"sectors\":null},{\"id\":1013,\"nameArabic\":\"كازان\",\"nameEnglish\":\"KAZAN\",\"isActive\":true,\"lastUpdated\":\"2022-06-02T00:37:19Z\",\"sectors\":null},{\"id\":794,\"nameArabic\":\"كايسيري\",\"nameEnglish\":\"KAYSERI\",\"isActive\":true,\"lastUpdated\":\"2022-06-02T01:21:58Z\",\"sectors\":null},{\"id\":764,\"nameArabic\":\"طنجه\",\"nameEnglish\":\"Tangier\",\"isActive\":true,\"lastUpdated\":\"2022-06-02T01:27:13Z\",\"sectors\":null},{\"id\":780,\"nameArabic\":\"شهيراز\",\"nameEnglish\":\"Shahyraz\",\"isActive\":true,\"lastUpdated\":\"2022-06-02T00:37:28Z\",\"sectors\":null},{\"id\":712,\"nameArabic\":\"طشقند\",\"nameEnglish\":\"Tashkent\",\"isActive\":true,\"lastUpdated\":\"2022-06-02T01:27:13Z\",\"sectors\":null},{\"id\":824,\"nameArabic\":\"سمكرند\",\"nameEnglish\":\"Samarqand\",\"isActive\":true,\"lastUpdated\":\"2022-06-02T00:37:28Z\",\"sectors\":null},{\"id\":993,\"nameArabic\":\"كرابي\",\"nameEnglish\":\"KRBI\",\"isActive\":true,\"lastUpdated\":\"2022-06-02T01:22:03Z\",\"sectors\":null},{\"id\":820,\"nameArabic\":\"كاليكوت\",\"nameEnglish\":\"CALICUT\",\"isActive\":true,\"lastUpdated\":\"2022-06-02T01:27:21Z\",\"sectors\":null},{\"id\":91,\"nameArabic\":\"كانو\",\"nameEnglish\":\"KANO\",\"isActive\":true,\"lastUpdated\":\"2022-06-02T01:22:03Z\",\"sectors\":null},{\"id\":125,\"nameArabic\":\"كابل\",\"nameEnglish\":\"Kabul\",\"isActive\":true,\"lastUpdated\":\"2022-06-02T00:42:58Z\",\"sectors\":null},{\"id\":34,\"nameArabic\":\"فيينا\",\"nameEnglish\":\"Vienna\",\"isActive\":true,\"lastUpdated\":\"2022-06-02T00:42:59Z\",\"sectors\":null},{\"id\":67,\"nameArabic\":\"صنعاء\",\"nameEnglish\":\"Sanaa\",\"isActive\":true,\"lastUpdated\":\"2022-06-02T00:55:27Z\",\"sectors\":null}]]]"}],"start":1674121455139,"stop":1674121455142},{"name":"Assertion Passed: The API response schema matches that in this file \"src/test/resources/testDataFiles/Schemas/Lookups_cities_schema.json\".","status":"passed","stage":"finished","steps":[],"attachments":[{"name":"Validation Test Data - Expected JSON Value","source":"c066919d-3890-4d1b-a26f-4024b42ce54c-attachment.json","type":"text/json"},{"name":"Validation Test Data - Actual JSON Value","source":"aeb0a226-9550-459a-b5a7-0809e96c14bf-attachment.json","type":"text/json"}],"parameters":[{"name":"customLog","value":"Assertion Passed: The API response schema matches that in this file \"src/test/resources/testDataFiles/Schemas/Lookups_cities_schema.json\"."},{"name":"stepLog","value":"Assertion \"ValidateResponseFileSchema\" PASSED. Expected \"Response data should match the JSON File in this path 'C:\\eclipse-workspace\\MyProjects\\TASystemsAPIs\\src\\test\\resources\\testDataFiles\\Schemas\\Lookups_cities_schema.json'\" and Actual \"TRUE\". Comparison Type \"EQUALS\". Validation Type \"POSITIVE\"."},{"name":"attachments","value":"[[Validation Test Data, Expected JSON Value, java.io.ByteArrayInputStream@14d6f58f], [Validation Test Data, Actual JSON Value, java.io.ByteArrayInputStream@5506ff53]]"}],"start":1674121456357,"stop":1674121456366}],"attachments":[{"name":"SHAFT Engine Logs - Current Method log: Valid_GET_all_cities_Lookups_Rq_TC","source":"70e47a36-d55d-40d3-bb0b-9536ee5ee94a-attachment.txt","type":"text/plain"}],"parameters":[],"start":1674121448873,"stop":1674121456373}