{"uuid":"80941e4b-348b-48f2-9335-166d653087c1","historyId":"3da8675260de4f0e72331833df441679","fullName":"SteeringCompanyAPI_TestCases.Test_Lookups_Cases.Valid_GET_all_cities_Lookups_Rq_TC","labels":[{"name":"package","value":"SteeringCompanyAPI_TestCases.Test_Lookups_Cases"},{"name":"testClass","value":"SteeringCompanyAPI_TestCases.Test_Lookups_Cases"},{"name":"testMethod","value":"Valid_GET_all_cities_Lookups_Rq_TC"},{"name":"parentSuite","value":"Suite"},{"name":"suite","value":"Test"},{"name":"subSuite","value":"SteeringCompanyAPI_TestCases.Test_Lookups_Cases"},{"name":"host","value":"TW-1056"},{"name":"thread","value":"10512@TW-1056.main(1)"},{"name":"framework","value":"testng"},{"name":"language","value":"java"}],"links":[],"name":"TC001 - Perform Get all cities API with valid user name and password","status":"passed","statusDetails":{"known":false,"muted":false,"flaky":false},"stage":"finished","steps":[{"name":"Loaded Test Data: \"src/test/resources/testDataFiles/SteeringCompanyAPI_TestData/SteeringCompanyAPI_TestData.xlsx\".","status":"passed","stage":"finished","steps":[],"attachments":[{"name":"Test Data - Excel","source":"9fcef63c-717d-4c63-85f5-00ed327c7640-attachment.xlsx","type":"application/vnd.openxmlformats-officedocument.spreadsheetml.sheet"}],"parameters":[{"name":"logText","value":"Loaded Test Data: \"src/test/resources/testDataFiles/SteeringCompanyAPI_TestData/SteeringCompanyAPI_TestData.xlsx\"."},{"name":"attachments","value":"[[Test Data, Excel, java.io.FileInputStream@4fea23d6]]"}],"start":1666599680809,"stop":1666599680819},{"name":"Assertion Passed: Evaluating the actual response status code against the expected one...","status":"passed","stage":"finished","steps":[],"attachments":[],"parameters":[{"name":"customLog","value":"Assertion Passed: Evaluating the actual response status code against the expected one..."},{"name":"stepLog","value":"Assertion \"ValidateComparativeRelation\" PASSED. Expected \"200\" and Actual \"200\". Comparison Type \"EQUALS\". Validation Type \"POSITIVE\"."},{"name":"attachments","value":"null"}],"start":1666599684048,"stop":1666599684048},{"name":"Perform request \"POST | Target Status Code: 200 | Service URL: https://auth-demo.np.transporticonline.com/auth/realms/tic/protocol/openid-connect/token | Content Type: application/x-www-form-urlencoded | Response Time: 1564ms\".","status":"passed","stage":"finished","steps":[],"attachments":[{"name":"API Request - Specifications","source":"b34f61a9-05bb-4394-b940-e254508282e4-attachment"},{"name":"API Request - Body","source":"85d77857-2152-484c-bd19-05bf801883e9-attachment"},{"name":"API Response - JSON Body","source":"57b1b2e0-d173-4b65-9b51-fa1c9ab381eb-attachment.json","type":"text/json"}],"parameters":[{"name":"logText","value":"Perform request \"POST | Target Status Code: 200 | Service URL: https://auth-demo.np.transporticonline.com/auth/realms/tic/protocol/openid-connect/token | Content Type: application/x-www-form-urlencoded | Response Time: 1564ms\"."},{"name":"attachments","value":"[[API Request, Specifications, Headers:\r\n_______________\r\n\r\nContent-Type=application/x-www-form-urlencoded\r\n\r\n], [API Request, Body, java.io.ByteArrayInputStream@362e1181], null, [API Response, JSON Body, java.io.ByteArrayInputStream@3746135b]]"}],"start":1666599685250,"stop":1666599685559},{"name":"Assertion Passed: Check Response Status Code is 200 and it is valid.","status":"passed","stage":"finished","steps":[],"attachments":[],"parameters":[{"name":"customLog","value":"Assertion Passed: Check Response Status Code is 200 and it is valid."},{"name":"stepLog","value":"Assertion \"ValidateComparativeRelation\" PASSED. Expected \"200\" and Actual \"200\". Comparison Type \"EQUALS\". Validation Type \"POSITIVE\"."},{"name":"attachments","value":"null"}],"start":1666599685561,"stop":1666599685561},{"name":"Loaded Test Data: \"src/test/resources/testDataFiles/SteeringCompanyAPI_TestData/SteeringCompanyAPI_TestData.xlsx\".","status":"passed","stage":"finished","steps":[],"attachments":[{"name":"Test Data - Excel","source":"579fcef8-be83-426a-9485-8e28b4c0749e-attachment.xlsx","type":"application/vnd.openxmlformats-officedocument.spreadsheetml.sheet"}],"parameters":[{"name":"logText","value":"Loaded Test Data: \"src/test/resources/testDataFiles/SteeringCompanyAPI_TestData/SteeringCompanyAPI_TestData.xlsx\"."},{"name":"attachments","value":"[[Test Data, Excel, java.io.FileInputStream@5e30ea7c]]"}],"start":1666599685619,"stop":1666599685623},{"name":"Assertion Passed: Evaluating the actual response status code against the expected one...","status":"passed","stage":"finished","steps":[],"attachments":[],"parameters":[{"name":"customLog","value":"Assertion Passed: Evaluating the actual response status code against the expected one..."},{"name":"stepLog","value":"Assertion \"ValidateComparativeRelation\" PASSED. Expected \"200\" and Actual \"200\". Comparison Type \"EQUALS\". Validation Type \"POSITIVE\"."},{"name":"attachments","value":"null"}],"start":1666599686292,"stop":1666599686292},{"name":"Perform request \"GET | Target Status Code: 200 | Service URL: https://api-demo.np.transporticonline.com/steeringcompanies/v1/lookups/cities | Content Type: */* | Response Time: 653ms\".","status":"passed","stage":"finished","steps":[],"attachments":[{"name":"API Request - Specifications","source":"f7cbb1c0-9914-45b8-8e70-ac5ff44e15d7-attachment"},{"name":"API Response - JSON Body","source":"5b625d69-90c0-4c52-9d5e-1608b094784f-attachment.json","type":"text/json"}],"parameters":[{"name":"logText","value":"Perform request \"GET | Target Status Code: 200 | Service URL: https://api-demo.np.transporticonline.com/steeringcompanies/v1/lookups/cities | Content Type: */* | Response Time: 653ms\"."},{"name":"attachments","value":"[[API Request, Specifications, Headers:\r\n_______________\r\n\r\nAuthorization=Bearer eyJhbGciOiJSUzI1NiIsInR5cCIgOiAiSldUIiwia2lkIiA6ICJjck9ORDFNdFVPVWhzS2Mtb0ppVFFmb0o1d1l4REF6Y3k0ZjNYZ0dveGdZIn0.eyJleHAiOjE2NjY1OTk5ODIsImlhdCI6MTY2NjU5OTY4MiwianRpIjoiMGNjNzBlNmEtMzQ4MS00MTE1LTkzYTMtY2NiNjRjNGU2YzY4IiwiaXNzIjoiaHR0cHM6Ly9hdXRoLWRlbW8ubnAudHJhbnNwb3J0aWNvbmxpbmUuY29tL2F1dGgvcmVhbG1zL3RpYyIsImF1ZCI6ImFjY291bnQiLCJzdWIiOiI0ZTk3NmQ0NC1iM2ZkLTRjYTktODk1Ny0wYWJiODUwNzNhNzQiLCJ0eXAiOiJCZWFyZXIiLCJhenAiOiJ0aWMtYXBpIiwic2Vzc2lvbl9zdGF0ZSI6ImMzMGIxNGI4LWU0YTgtNDIyYS1hYWNjLTQwNGZiYjVlM2M0NSIsImFjciI6IjEiLCJhbGxvd2VkLW9yaWdpbnMiOlsiaHR0cHM6Ly9hcGktZGV2Lm5wLnRyYW5zcG9ydGljb25saW5lLmNvbSJdLCJyZWFsbV9hY2Nlc3MiOnsicm9sZXMiOlsib2ZmbGluZV9hY2Nlc3MiLCJkZWZhdWx0LXJvbGVzLXRpYyIsInVtYV9hdXRob3JpemF0aW9uIiwidXNlciJdfSwicmVzb3VyY2VfYWNjZXNzIjp7ImFjY291bnQiOnsicm9sZXMiOlsibWFuYWdlLWFjY291bnQiLCJtYW5hZ2UtYWNjb3VudC1saW5rcyIsInZpZXctcHJvZmlsZSJdfX0sInNjb3BlIjoiZW1haWwgcHJvZmlsZSIsInNpZCI6ImMzMGIxNGI4LWU0YTgtNDIyYS1hYWNjLTQwNGZiYjVlM2M0NSIsImVtYWlsX3ZlcmlmaWVkIjpmYWxzZSwicHJlZmVycmVkX3VzZXJuYW1lIjoidG9raGkiLCJ0Y0lkIjoiMzE5OTU3In0.UqfwTI4kYbQ3T-6wCYxuau12dsmumMS5IHWtgAzGr-GkUkHmOHTrftu8HnIbAV9pwl0qj368kQlOb7-2zU_YFlObhVU3JWi0cgQ3lVvcvZ6cRpnx3hE3Io346eGS1X2yNDQAe-jNZN1gmpJp8kQOJZSZSuCGw3Ca7wwxZybS0s2L8Dk35_TiJkp8GGLXqiBAbpaRnVZ2CkMuGbQySuLhnkXuuAuOcJv0sQjZZDqt_uX5sa9WuHoacceoHpOZU5AzT31aqm9-1TeyWaS4W1XK8_fde1q2DEO7a5Cg-UFFS_HD0IczlmLEZJ3L2DElhdXsAhBUJFyIJ0SSkAWvYuoprw\r\nContent-Type=*/*\r\n\r\n], null, [API Response, JSON Body, java.io.ByteArrayInputStream@7231547f]]"}],"start":1666599686322,"stop":1666599686325},{"name":"Assertion Passed: \"200\" is equal to \"200\".","status":"passed","stage":"finished","steps":[],"attachments":[],"parameters":[{"name":"customLog","value":"Assertion Passed: \"200\" is equal to \"200\"."},{"name":"stepLog","value":"Assertion \"ValidateComparativeRelation\" PASSED. Expected \"200\" and Actual \"200\". Comparison Type \"EQUALS\". Validation Type \"POSITIVE\"."},{"name":"attachments","value":"null"}],"start":1666599686325,"stop":1666599686325},{"name":"Verification Passed: \"653\" is greater than or equal to \"1.1\".","status":"passed","stage":"finished","steps":[],"attachments":[],"parameters":[{"name":"customLog","value":"Verification Passed: \"653\" is greater than or equal to \"1.1\"."},{"name":"stepLog","value":"Verification \"ValidateComparativeRelation\" PASSED. Expected \"1.1\" and Actual \"653\". Comparison Type \"GREATER_THAN_OR_EQUALS\". Validation Type \"POSITIVE\"."},{"name":"attachments","value":"null"}],"start":1666599686326,"stop":1666599686326},{"name":"Verification Passed: \"653\" is less than or equal to \"10000\".","status":"passed","stage":"finished","steps":[],"attachments":[],"parameters":[{"name":"customLog","value":"Verification Passed: \"653\" is less than or equal to \"10000\"."},{"name":"stepLog","value":"Verification \"ValidateComparativeRelation\" PASSED. Expected \"10000\" and Actual \"653\". Comparison Type \"LESS_THAN_OR_EQUALS\". Validation Type \"POSITIVE\"."},{"name":"attachments","value":"null"}],"start":1666599686327,"stop":1666599686327},{"name":"Assertion Passed: \"{\"page\":0,\"size\":20,\"totalPages\":36,\"totalElements\":704,\"content\":[{\"id\":1071,\"nameArabic\":\"مطار دنيزلي كارداك\",\"nameEnglish\":\"Denizli Cardak Airport\",\"isActive\":true,\"lastUpdated\":\"2022-06-02T00:13:35Z\",\"sectors\":null},{\"id\":36,\"nameArabic\":\"كوالالمبور\",\"nameEnglish\":\"Kuala Lumpur\",\"isActive\":true,\"lastUpdated\":\"2022-06-02T01:21:49Z\",\"sectors\":null},{\"id\":849,\"nameArabic\":\"سولنجين\",\"nameEnglish\":\"Solngen\",\"isActive\":true,\"lastUpdated\":\"2022-06-02T01:37:02Z\",\"sectors\":null},{\"id\":753,\"nameArabic\":\"سيبا\",\"nameEnglish\":\"Ciba\",\"isActive\":true,\"lastUpdated\":\"2022-06-02T00:43:05Z\",\"sectors\":null},{\"id\":1006,\"nameArabic\":\"بشكشكي\",\"nameEnglish\":\"FRUNZE\",\"isActive\":true,\"lastUpdated\":\"2022-06-02T00:20:05Z\",\"sectors\":null},{\"id\":985,\"nameArabic\":\"قندهار\",\"nameEnglish\":\"KANDAHAR\",\"isActive\":true,\"lastUpdated\":\"2022-06-02T00:25:20Z\",\"sectors\":null},{\"id\":736,\"nameArabic\":\"طبركا\",\"nameEnglish\":\"Tabrka\",\"isActive\":true,\"lastUpdated\":\"2022-06-02T01:16:50Z\",\"sectors\":null},{\"id\":953,\"nameArabic\":\"سوهاج\",\"nameEnglish\":\"Sohag\",\"isActive\":true,\"lastUpdated\":\"2022-06-02T00:25:24Z\",\"sectors\":null},{\"id\":816,\"nameArabic\":\"كوتشين\",\"nameEnglish\":\"Cochin\",\"isActive\":true,\"lastUpdated\":\"2022-06-02T01:06:13Z\",\"sectors\":null},{\"id\":789,\"nameArabic\":\"فيصل اباد\",\"nameEnglish\":\"Faisalabad\",\"isActive\":true,\"lastUpdated\":\"2022-06-02T01:27:12Z\",\"sectors\":null},{\"id\":1013,\"nameArabic\":\"كازان\",\"nameEnglish\":\"KAZAN\",\"isActive\":true,\"lastUpdated\":\"2022-06-02T00:37:19Z\",\"sectors\":null},{\"id\":794,\"nameArabic\":\"كايسيري\",\"nameEnglish\":\"KAYSERI\",\"isActive\":true,\"lastUpdated\":\"2022-06-02T01:21:58Z\",\"sectors\":null},{\"id\":764,\"nameArabic\":\"طنجه\",\"nameEnglish\":\"Tangier\",\"isActive\":true,\"lastUpdated\":\"2022-06-02T01:27:13Z\",\"sectors\":null},{\"id\":780,\"nameArabic\":\"شهيراز\",\"nameEnglish\":\"Shahyraz\",\"isActive\":true,\"lastUpdated\":\"2022-06-02T00:37:28Z\",\"sectors\":null},{\"id\":712,\"nameArabic\":\"طشقند\",\"nameEnglish\":\"Tashkent\",\"isActive\":true,\"lastUpdated\":\"2022-06-02T01:27:13Z\",\"sectors\":null},{\"id\":824,\"nameArabic\":\"سمكرند\",\"nameEnglish\":\"Samarqand\",\"isActive\":true,\"lastUpdated\":\"2022-06-02T00:37:28Z\",\"sectors\":null},{\"id\":993,\"nameArabic\":\"كرابي\",\"nameEnglish\":\"KRBI\",\"isActive\":true,\"lastUpdated\":\"2022-06-02T01:22:03Z\",\"sectors\":null},{\"id\":820,\"nameArabic\":\"كاليكوت\",\"nameEnglish\":\"CALICUT\",\"isActive\":true,\"lastUpdated\":\"2022-06-02T01:27:21Z\",\"sectors\":null},{\"id\":91,\"nameArabic\":\"كانو\",\"nameEnglish\":\"KANO\",\"isActive\":true,\"lastUpdated\":\"2022-06-02T01:22:03Z\",\"sectors\":null},{\"id\":125,\"nameArabic\":\"كابل\",\"nameEnglish\":\"Kabul\",\"isActive\":true,\"lastUpdated\":\"2022-06-02T00:42:58Z\",\"sectors\":null}]}\" contains \"content\".","status":"passed","stage":"finished","steps":[],"attachments":[{"name":"Validation Test Data - Expected Value","source":"80a7b29e-4016-444b-9b33-acf34346c82d-attachment"},{"name":"Validation Test Data - Actual Value","source":"deffd4fa-f396-4732-9d1c-33e4180326bc-attachment"}],"parameters":[{"name":"customLog","value":"Assertion Passed: \"{\"page\":0,\"size\":20,\"totalPages\":36,\"totalElements\":704,\"content\":[{\"id\":1071,\"nameArabic\":\"مطار دنيزلي كارداك\",\"nameEnglish\":\"Denizli Cardak Airport\",\"isActive\":true,\"lastUpdated\":\"2022-06-02T00:13:35Z\",\"sectors\":null},{\"id\":36,\"nameArabic\":\"كوالالمبور\",\"nameEnglish\":\"Kuala Lumpur\",\"isActive\":true,\"lastUpdated\":\"2022-06-02T01:21:49Z\",\"sectors\":null},{\"id\":849,\"nameArabic\":\"سولنجين\",\"nameEnglish\":\"Solngen\",\"isActive\":true,\"lastUpdated\":\"2022-06-02T01:37:02Z\",\"sectors\":null},{\"id\":753,\"nameArabic\":\"سيبا\",\"nameEnglish\":\"Ciba\",\"isActive\":true,\"lastUpdated\":\"2022-06-02T00:43:05Z\",\"sectors\":null},{\"id\":1006,\"nameArabic\":\"بشكشكي\",\"nameEnglish\":\"FRUNZE\",\"isActive\":true,\"lastUpdated\":\"2022-06-02T00:20:05Z\",\"sectors\":null},{\"id\":985,\"nameArabic\":\"قندهار\",\"nameEnglish\":\"KANDAHAR\",\"isActive\":true,\"lastUpdated\":\"2022-06-02T00:25:20Z\",\"sectors\":null},{\"id\":736,\"nameArabic\":\"طبركا\",\"nameEnglish\":\"Tabrka\",\"isActive\":true,\"lastUpdated\":\"2022-06-02T01:16:50Z\",\"sectors\":null},{\"id\":953,\"nameArabic\":\"سوهاج\",\"nameEnglish\":\"Sohag\",\"isActive\":true,\"lastUpdated\":\"2022-06-02T00:25:24Z\",\"sectors\":null},{\"id\":816,\"nameArabic\":\"كوتشين\",\"nameEnglish\":\"Cochin\",\"isActive\":true,\"lastUpdated\":\"2022-06-02T01:06:13Z\",\"sectors\":null},{\"id\":789,\"nameArabic\":\"فيصل اباد\",\"nameEnglish\":\"Faisalabad\",\"isActive\":true,\"lastUpdated\":\"2022-06-02T01:27:12Z\",\"sectors\":null},{\"id\":1013,\"nameArabic\":\"كازان\",\"nameEnglish\":\"KAZAN\",\"isActive\":true,\"lastUpdated\":\"2022-06-02T00:37:19Z\",\"sectors\":null},{\"id\":794,\"nameArabic\":\"كايسيري\",\"nameEnglish\":\"KAYSERI\",\"isActive\":true,\"lastUpdated\":\"2022-06-02T01:21:58Z\",\"sectors\":null},{\"id\":764,\"nameArabic\":\"طنجه\",\"nameEnglish\":\"Tangier\",\"isActive\":true,\"lastUpdated\":\"2022-06-02T01:27:13Z\",\"sectors\":null},{\"id\":780,\"nameArabic\":\"شهيراز\",\"nameEnglish\":\"Shahyraz\",\"isActive\":true,\"lastUpdated\":\"2022-06-02T00:37:28Z\",\"sectors\":null},{\"id\":712,\"nameArabic\":\"طشقند\",\"nameEnglish\":\"Tashkent\",\"isActive\":true,\"lastUpdated\":\"2022-06-02T01:27:13Z\",\"sectors\":null},{\"id\":824,\"nameArabic\":\"سمكرند\",\"nameEnglish\":\"Samarqand\",\"isActive\":true,\"lastUpdated\":\"2022-06-02T00:37:28Z\",\"sectors\":null},{\"id\":993,\"nameArabic\":\"كرابي\",\"nameEnglish\":\"KRBI\",\"isActive\":true,\"lastUpdated\":\"2022-06-02T01:22:03Z\",\"sectors\":null},{\"id\":820,\"nameArabic\":\"كاليكوت\",\"nameEnglish\":\"CALICUT\",\"isActive\":true,\"lastUpdated\":\"2022-06-02T01:27:21Z\",\"sectors\":null},{\"id\":91,\"nameArabic\":\"كانو\",\"nameEnglish\":\"KANO\",\"isActive\":true,\"lastUpdated\":\"2022-06-02T01:22:03Z\",\"sectors\":null},{\"id\":125,\"nameArabic\":\"كابل\",\"nameEnglish\":\"Kabul\",\"isActive\":true,\"lastUpdated\":\"2022-06-02T00:42:58Z\",\"sectors\":null}]}\" contains \"content\"."},{"name":"stepLog","value":"Assertion \"ValidateEquals\" PASSED. Expected and Actual values are attached. Comparison Type \"CONTAINS\". Validation Type \"POSITIVE\"."},{"name":"attachments","value":"[[Validation Test Data, Expected Value, content], [Validation Test Data, Actual Value, {\"page\":0,\"size\":20,\"totalPages\":36,\"totalElements\":704,\"content\":[{\"id\":1071,\"nameArabic\":\"مطار دنيزلي كارداك\",\"nameEnglish\":\"Denizli Cardak Airport\",\"isActive\":true,\"lastUpdated\":\"2022-06-02T00:13:35Z\",\"sectors\":null},{\"id\":36,\"nameArabic\":\"كوالالمبور\",\"nameEnglish\":\"Kuala Lumpur\",\"isActive\":true,\"lastUpdated\":\"2022-06-02T01:21:49Z\",\"sectors\":null},{\"id\":849,\"nameArabic\":\"سولنجين\",\"nameEnglish\":\"Solngen\",\"isActive\":true,\"lastUpdated\":\"2022-06-02T01:37:02Z\",\"sectors\":null},{\"id\":753,\"nameArabic\":\"سيبا\",\"nameEnglish\":\"Ciba\",\"isActive\":true,\"lastUpdated\":\"2022-06-02T00:43:05Z\",\"sectors\":null},{\"id\":1006,\"nameArabic\":\"بشكشكي\",\"nameEnglish\":\"FRUNZE\",\"isActive\":true,\"lastUpdated\":\"2022-06-02T00:20:05Z\",\"sectors\":null},{\"id\":985,\"nameArabic\":\"قندهار\",\"nameEnglish\":\"KANDAHAR\",\"isActive\":true,\"lastUpdated\":\"2022-06-02T00:25:20Z\",\"sectors\":null},{\"id\":736,\"nameArabic\":\"طبركا\",\"nameEnglish\":\"Tabrka\",\"isActive\":true,\"lastUpdated\":\"2022-06-02T01:16:50Z\",\"sectors\":null},{\"id\":953,\"nameArabic\":\"سوهاج\",\"nameEnglish\":\"Sohag\",\"isActive\":true,\"lastUpdated\":\"2022-06-02T00:25:24Z\",\"sectors\":null},{\"id\":816,\"nameArabic\":\"كوتشين\",\"nameEnglish\":\"Cochin\",\"isActive\":true,\"lastUpdated\":\"2022-06-02T01:06:13Z\",\"sectors\":null},{\"id\":789,\"nameArabic\":\"فيصل اباد\",\"nameEnglish\":\"Faisalabad\",\"isActive\":true,\"lastUpdated\":\"2022-06-02T01:27:12Z\",\"sectors\":null},{\"id\":1013,\"nameArabic\":\"كازان\",\"nameEnglish\":\"KAZAN\",\"isActive\":true,\"lastUpdated\":\"2022-06-02T00:37:19Z\",\"sectors\":null},{\"id\":794,\"nameArabic\":\"كايسيري\",\"nameEnglish\":\"KAYSERI\",\"isActive\":true,\"lastUpdated\":\"2022-06-02T01:21:58Z\",\"sectors\":null},{\"id\":764,\"nameArabic\":\"طنجه\",\"nameEnglish\":\"Tangier\",\"isActive\":true,\"lastUpdated\":\"2022-06-02T01:27:13Z\",\"sectors\":null},{\"id\":780,\"nameArabic\":\"شهيراز\",\"nameEnglish\":\"Shahyraz\",\"isActive\":true,\"lastUpdated\":\"2022-06-02T00:37:28Z\",\"sectors\":null},{\"id\":712,\"nameArabic\":\"طشقند\",\"nameEnglish\":\"Tashkent\",\"isActive\":true,\"lastUpdated\":\"2022-06-02T01:27:13Z\",\"sectors\":null},{\"id\":824,\"nameArabic\":\"سمكرند\",\"nameEnglish\":\"Samarqand\",\"isActive\":true,\"lastUpdated\":\"2022-06-02T00:37:28Z\",\"sectors\":null},{\"id\":993,\"nameArabic\":\"كرابي\",\"nameEnglish\":\"KRBI\",\"isActive\":true,\"lastUpdated\":\"2022-06-02T01:22:03Z\",\"sectors\":null},{\"id\":820,\"nameArabic\":\"كاليكوت\",\"nameEnglish\":\"CALICUT\",\"isActive\":true,\"lastUpdated\":\"2022-06-02T01:27:21Z\",\"sectors\":null},{\"id\":91,\"nameArabic\":\"كانو\",\"nameEnglish\":\"KANO\",\"isActive\":true,\"lastUpdated\":\"2022-06-02T01:22:03Z\",\"sectors\":null},{\"id\":125,\"nameArabic\":\"كابل\",\"nameEnglish\":\"Kabul\",\"isActive\":true,\"lastUpdated\":\"2022-06-02T00:42:58Z\",\"sectors\":null}]}]]"}],"start":1666599686332,"stop":1666599686375},{"name":"Assertion Passed: Check that content object is not null.","status":"passed","stage":"finished","steps":[],"attachments":[{"name":"Validation Test Data - Expected Value","source":"a86824e3-eb81-45e6-8038-df49af37e0c0-attachment"},{"name":"Validation Test Data - Actual Value","source":"bafbc8e4-05d0-4adf-9f67-ec6fc98adb99-attachment"}],"parameters":[{"name":"customLog","value":"Assertion Passed: Check that content object is not null."},{"name":"stepLog","value":"Assertion \"ValidateEquals\" PASSED. Expected and Actual values are attached. Comparison Type \"EQUALS\". Validation Type \"NEGATIVE\"."},{"name":"attachments","value":"[[Validation Test Data, Expected Value, null], [Validation Test Data, Actual Value, [{\"id\":1071,\"nameArabic\":\"مطار دنيزلي كارداك\",\"nameEnglish\":\"Denizli Cardak Airport\",\"isActive\":true,\"lastUpdated\":\"2022-06-02T00:13:35Z\",\"sectors\":null},{\"id\":36,\"nameArabic\":\"كوالالمبور\",\"nameEnglish\":\"Kuala Lumpur\",\"isActive\":true,\"lastUpdated\":\"2022-06-02T01:21:49Z\",\"sectors\":null},{\"id\":849,\"nameArabic\":\"سولنجين\",\"nameEnglish\":\"Solngen\",\"isActive\":true,\"lastUpdated\":\"2022-06-02T01:37:02Z\",\"sectors\":null},{\"id\":753,\"nameArabic\":\"سيبا\",\"nameEnglish\":\"Ciba\",\"isActive\":true,\"lastUpdated\":\"2022-06-02T00:43:05Z\",\"sectors\":null},{\"id\":1006,\"nameArabic\":\"بشكشكي\",\"nameEnglish\":\"FRUNZE\",\"isActive\":true,\"lastUpdated\":\"2022-06-02T00:20:05Z\",\"sectors\":null},{\"id\":985,\"nameArabic\":\"قندهار\",\"nameEnglish\":\"KANDAHAR\",\"isActive\":true,\"lastUpdated\":\"2022-06-02T00:25:20Z\",\"sectors\":null},{\"id\":736,\"nameArabic\":\"طبركا\",\"nameEnglish\":\"Tabrka\",\"isActive\":true,\"lastUpdated\":\"2022-06-02T01:16:50Z\",\"sectors\":null},{\"id\":953,\"nameArabic\":\"سوهاج\",\"nameEnglish\":\"Sohag\",\"isActive\":true,\"lastUpdated\":\"2022-06-02T00:25:24Z\",\"sectors\":null},{\"id\":816,\"nameArabic\":\"كوتشين\",\"nameEnglish\":\"Cochin\",\"isActive\":true,\"lastUpdated\":\"2022-06-02T01:06:13Z\",\"sectors\":null},{\"id\":789,\"nameArabic\":\"فيصل اباد\",\"nameEnglish\":\"Faisalabad\",\"isActive\":true,\"lastUpdated\":\"2022-06-02T01:27:12Z\",\"sectors\":null},{\"id\":1013,\"nameArabic\":\"كازان\",\"nameEnglish\":\"KAZAN\",\"isActive\":true,\"lastUpdated\":\"2022-06-02T00:37:19Z\",\"sectors\":null},{\"id\":794,\"nameArabic\":\"كايسيري\",\"nameEnglish\":\"KAYSERI\",\"isActive\":true,\"lastUpdated\":\"2022-06-02T01:21:58Z\",\"sectors\":null},{\"id\":764,\"nameArabic\":\"طنجه\",\"nameEnglish\":\"Tangier\",\"isActive\":true,\"lastUpdated\":\"2022-06-02T01:27:13Z\",\"sectors\":null},{\"id\":780,\"nameArabic\":\"شهيراز\",\"nameEnglish\":\"Shahyraz\",\"isActive\":true,\"lastUpdated\":\"2022-06-02T00:37:28Z\",\"sectors\":null},{\"id\":712,\"nameArabic\":\"طشقند\",\"nameEnglish\":\"Tashkent\",\"isActive\":true,\"lastUpdated\":\"2022-06-02T01:27:13Z\",\"sectors\":null},{\"id\":824,\"nameArabic\":\"سمكرند\",\"nameEnglish\":\"Samarqand\",\"isActive\":true,\"lastUpdated\":\"2022-06-02T00:37:28Z\",\"sectors\":null},{\"id\":993,\"nameArabic\":\"كرابي\",\"nameEnglish\":\"KRBI\",\"isActive\":true,\"lastUpdated\":\"2022-06-02T01:22:03Z\",\"sectors\":null},{\"id\":820,\"nameArabic\":\"كاليكوت\",\"nameEnglish\":\"CALICUT\",\"isActive\":true,\"lastUpdated\":\"2022-06-02T01:27:21Z\",\"sectors\":null},{\"id\":91,\"nameArabic\":\"كانو\",\"nameEnglish\":\"KANO\",\"isActive\":true,\"lastUpdated\":\"2022-06-02T01:22:03Z\",\"sectors\":null},{\"id\":125,\"nameArabic\":\"كابل\",\"nameEnglish\":\"Kabul\",\"isActive\":true,\"lastUpdated\":\"2022-06-02T00:42:58Z\",\"sectors\":null}]]]"}],"start":1666599686519,"stop":1666599686522},{"name":"Assertion Passed: The API response schema matches that in this file \"src/test/resources/testDataFiles/Lookups_cities_schema.json\".","status":"passed","stage":"finished","steps":[],"attachments":[{"name":"Validation Test Data - Expected JSON Value","source":"afabc27a-f972-46cb-9e23-ac86f82f96c2-attachment.json","type":"text/json"},{"name":"Validation Test Data - Actual JSON Value","source":"73f2ac3b-ec98-45ef-a8b0-8961108008e3-attachment.json","type":"text/json"}],"parameters":[{"name":"customLog","value":"Assertion Passed: The API response schema matches that in this file \"src/test/resources/testDataFiles/Lookups_cities_schema.json\"."},{"name":"stepLog","value":"Assertion \"ValidateResponseFileSchema\" PASSED. Expected \"Response data should match the JSON File in this path 'C:\\eclipse-workspace\\MyProjects\\TASystemsAPIs\\src\\test\\resources\\testDataFiles\\Lookups_cities_schema.json'\" and Actual \"TRUE\". Comparison Type \"EQUALS\". Validation Type \"POSITIVE\"."},{"name":"attachments","value":"[[Validation Test Data, Expected JSON Value, java.io.ByteArrayInputStream@5d489be4], [Validation Test Data, Actual JSON Value, java.io.ByteArrayInputStream@30a7dcd4]]"}],"start":1666599687385,"stop":1666599687389}],"attachments":[{"name":"SHAFT Engine Logs - Current Method log: Valid_GET_all_cities_Lookups_Rq_TC","source":"6bc00e17-5206-4e8c-9090-0a07211799b9-attachment.txt","type":"text/plain"}],"parameters":[],"start":1666599680739,"stop":1666599687397}