
################################################################################################################################################
Starting Execution:	"2 out of 62" test cases in the current suite
Test Method:		"SteeringCompanyAPI_TestCases.Test_Lookups_Cases.Valid_GET_all_cities_Lookups_by_Qry_Rq_TC"
Test Description:	"TC002 - Perform Get all cities API by parameters Qry with valid user name and password and return with token"
################################################################################################################################################
[ReportManager] File Action "DoesFileExist" successfully performed. With the following test data "File Path: "SteeringCompanyAPI_TestData/SteeringCompanyAPI_TestData.xlsx"". @15-01-2023 19:28:31.0750 PM
[ReportManager] Loaded Test Data: "src/test/resources/testDataFiles/SteeringCompanyAPI_TestData/SteeringCompanyAPI_TestData.xlsx". @15-01-2023 19:28:31.0801 PM
[ReportManager] Successfully created attachment "Test Data - Excel" @15-01-2023 19:28:31.0802 PM
[ReportManager] Response status code: "200", status line: "HTTP/1.1 200 OK" @15-01-2023 19:28:32.0514 PM
[ReportManager] Assertion Passed: Evaluating the actual response status code against the expected one... @15-01-2023 19:28:32.0516 PM
[ReportManager] Perform request "POST | Target Status Code: 200 | Service URL: https://auth-demo.np.transporticonline.com/auth/realms/tic/protocol/openid-connect/token | Content Type: application/x-www-form-urlencoded | Response Time: 705ms". @15-01-2023 19:28:32.0529 PM
[ReportManager] Successfully created attachment "API Request - Specifications" @15-01-2023 19:28:32.0530 PM
[ReportManager] Successfully created attachment "API Request - Body" @15-01-2023 19:28:32.0530 PM
[ReportManager] Successfully created attachment "API Response - JSON Body" @15-01-2023 19:28:32.0531 PM
[ReportManager] Assertion Passed: Check Response Status Code is 200 and it is valid. @15-01-2023 19:28:32.0532 PM
[ReportManager] File Action "DoesFileExist" successfully performed. With the following test data "File Path: "SteeringCompanyAPI_TestData/SteeringCompanyAPI_TestData.xlsx"". @15-01-2023 19:28:32.0542 PM
[ReportManager] Loaded Test Data: "src/test/resources/testDataFiles/SteeringCompanyAPI_TestData/SteeringCompanyAPI_TestData.xlsx". @15-01-2023 19:28:32.0576 PM
[ReportManager] Successfully created attachment "Test Data - Excel" @15-01-2023 19:28:32.0577 PM
[ReportManager] Response status code: "200", status line: "HTTP/1.1 200 " @15-01-2023 19:28:33.0190 PM
[ReportManager] Assertion Passed: Evaluating the actual response status code against the expected one... @15-01-2023 19:28:33.0191 PM
[ReportManager] Perform request "GET | Target Status Code: 200 | Service URL: https://api-demo.np.transporticonline.com/steeringcompanies/v1/lookups/cities | Content Type: */* | Response Time: 585ms". @15-01-2023 19:28:33.0203 PM
[ReportManager] Successfully created attachment "API Request - Specifications" @15-01-2023 19:28:33.0204 PM
[ReportManager] Successfully created attachment "API Response - JSON Body" @15-01-2023 19:28:33.0205 PM
[ReportManager] Assertion Passed: "200" is equal to "200". @15-01-2023 19:28:33.0206 PM
[ReportManager] Verification Passed: "585" is greater than or equal to "1.1". @15-01-2023 19:28:33.0206 PM
[ReportManager] Verification Passed: "585" is less than or equal to "10000". @15-01-2023 19:28:33.0206 PM
[ReportManager] Assertion Passed: "{"page":0,"size":3,"totalPages":237,"totalElements":709,"content":[{"id":36,"nameArabic":"??????????","nameEnglish":"Kuala Lumpur","isActive":true,"lastUpdated":"2022-06-02T01:21:49Z","sectors":null},{"id":849,"nameArabic":"???????","nameEnglish":"Solngen","isActive":true,"lastUpdated":"2022-06-02T01:37:02Z","sectors":null},{"id":1006,"nameArabic":"??????","nameEnglish":"FRUNZE","isActive":true,"lastUpdated":"2022-06-02T00:20:05Z","sectors":null}]}" contains "content". @15-01-2023 19:28:33.0207 PM
[ReportManager] Get response jsonvalue "content". @15-01-2023 19:28:33.0208 PM
[ReportManager] Assertion Passed: Check that content object is not null. @15-01-2023 19:28:33.0208 PM
[ReportManager] File Action "DoesFileExist" successfully performed. With the following test data "File Path: "Schemas/Lookups_cities_schema.json"". @15-01-2023 19:28:33.0209 PM
[ReportManager] File Action "DoesFileExist" successfully performed. With the following test data "File Path: "src/test/resources/testDataFiles/Schemas/Lookups_cities_schema.json"". @15-01-2023 19:28:33.0209 PM
[ReportManager] File Action "GetAbsolutePath" successfully performed. With the following test data "Relative Folder Path: "src/test/resources/testDataFiles/Schemas/Lookups_cities_schema.json"". @15-01-2023 19:28:33.0211 PM
[ReportManager] File Action "DoesFileExist" successfully performed. With the following test data "File Path: "C:\eclipse-workspace\MyProjects\TASystemsAPIs\src\test\resources\testDataFiles\Schemas\Lookups_cities_schema.json"". @15-01-2023 19:28:33.0219 PM
[ReportManager] File Action "GetAbsolutePath" successfully performed. With the following test data "Relative Folder Path: "C:\eclipse-workspace\MyProjects\TASystemsAPIs\src\test\resources\testDataFiles\Schemas\Lookups_cities_schema.json"". @15-01-2023 19:28:33.0220 PM
[ReportManager] File Action "ReadFile" successfully performed. With the following test data "File Path: "C:\eclipse-workspace\MyProjects\TASystemsAPIs\src\test\resources\testDataFiles\Schemas\Lookups_cities_schema.json"". @15-01-2023 19:28:33.0220 PM
[ReportManager] Assertion Passed: The API response schema matches that in this file "src/test/resources/testDataFiles/Schemas/Lookups_cities_schema.json". @15-01-2023 19:28:33.0221 PM
[ReportManager] Successfully created attachment "Validation Test Data - Expected JSON Value" @15-01-2023 19:28:33.0223 PM
[ReportManager] Successfully created attachment "Validation Test Data - Actual JSON Value" @15-01-2023 19:28:33.0224 PM