
################################################################################################################################################
Starting Execution:	"2 out of 5" test cases in the current suite
Test Method:		"SteeringCompanyAPI_TestCases.Test_Lookups_Cases.Valid_GET_all_cities_Lookups_by_Qry_Rq_TC"
Test Description:	"TC002 - Peform Get all cities API by parameters Qry with valid user name and password and retun with token"
################################################################################################################################################
[ReportManager] File Action "DoesFileExist" successfully performed. With the following test data "File Path: "SteeringCompanyAPI_TestData/SteeringCompanyAPI_TestData.xlsx"". @18-10-2022 15:10:51.0037 PM
[ReportManager] Loaded Test Data: "src/test/resources/testDataFiles/SteeringCompanyAPI_TestData/SteeringCompanyAPI_TestData.xlsx". @18-10-2022 15:10:51.0099 PM
[ReportManager] Successfully created attachment "Test Data - Excel" @18-10-2022 15:10:51.0102 PM
[ReportManager] Response status code: "200", status line: "HTTP/1.1 200 OK" @18-10-2022 15:10:51.0967 PM
[ReportManager] Assertion Passed: Evaluating the actual response status code against the expected one... @18-10-2022 15:10:51.0968 PM
[ReportManager] Perform request "POST | Target Status Code: 200 | Service URL: https://auth-demo.np.transporticonline.com/auth/realms/tic/protocol/openid-connect/token | Content Type: application/x-www-form-urlencoded | Response Time: 855ms". @18-10-2022 15:10:52.0003 PM
[ReportManager] Successfully created attachment "API Request - Specifications" @18-10-2022 15:10:52.0006 PM
[ReportManager] Successfully created attachment "API Request - Body" @18-10-2022 15:10:52.0007 PM
[ReportManager] Successfully created attachment "API Response - JSON Body" @18-10-2022 15:10:52.0011 PM
[ReportManager] Assertion Passed: Check Response Status Code is 200 and it is valid. @18-10-2022 15:10:52.0012 PM
[ReportManager] File Action "DoesFileExist" successfully performed. With the following test data "File Path: "SteeringCompanyAPI_TestData/SteeringCompanyAPI_TestData.xlsx"". @18-10-2022 15:10:52.0040 PM
[ReportManager] Loaded Test Data: "src/test/resources/testDataFiles/SteeringCompanyAPI_TestData/SteeringCompanyAPI_TestData.xlsx". @18-10-2022 15:10:52.0090 PM
[ReportManager] Successfully created attachment "Test Data - Excel" @18-10-2022 15:10:52.0092 PM
[ReportManager] Response status code: "200", status line: "HTTP/1.1 200 " @18-10-2022 15:10:52.0742 PM
[ReportManager] Assertion Passed: Evaluating the actual response status code against the expected one... @18-10-2022 15:10:52.0744 PM
[ReportManager] Perform request "GET | Target Status Code: 200 | Service URL: https://api-demo.np.transporticonline.com/steeringcompanies/v1/lookups/cities | Content Type: */* | Response Time: 595ms". @18-10-2022 15:10:52.0779 PM
[ReportManager] Successfully created attachment "API Request - Specifications" @18-10-2022 15:10:52.0781 PM
[ReportManager] Successfully created attachment "API Response - JSON Body" @18-10-2022 15:10:52.0785 PM
[ReportManager] Assertion Passed: "200" is equal to "200". @18-10-2022 15:10:52.0787 PM
[ReportManager] Verification Passed: "595" is greater than or equal to "1.1". @18-10-2022 15:10:52.0788 PM
[ReportManager] Verification Passed: "595" is less than or equal to "10000". @18-10-2022 15:10:52.0789 PM
[ReportManager] Assertion Passed: "{"page":0,"size":3,"totalPages":235,"totalElements":704,"content":[{"id":1071,"nameArabic":"???? ?????? ??????","nameEnglish":"Denizli Cardak Airport","isActive":true,"lastUpdated":"2022-06-02T00:13:35Z","sectors":null},{"id":390021162,"nameArabic":"?????","nameEnglish":"PRATO","isActive":true,"lastUpdated":"2022-06-02T00:13:44Z","sectors":null},{"id":36,"nameArabic":"??????????","nameEnglish":"Kuala Lumpur","isActive":true,"lastUpdated":"2022-06-02T01:21:49Z","sectors":null}]}" contains "content". @18-10-2022 15:10:52.0790 PM
[ReportManager] Get response jsonvalue "content". @18-10-2022 15:10:52.0792 PM
[ReportManager] Assertion Passed: Check that content object is not null. @18-10-2022 15:10:52.0794 PM
[ReportManager] File Action "DoesFileExist" successfully performed. With the following test data "File Path: "Lookups_cities_schema.json"". @18-10-2022 15:10:52.0795 PM
[ReportManager] File Action "DoesFileExist" successfully performed. With the following test data "File Path: "src/test/resources/testDataFiles/Lookups_cities_schema.json"". @18-10-2022 15:10:52.0796 PM
[ReportManager] File Action "GetAbsolutePath" successfully performed. With the following test data "Relative Folder Path: "src/test/resources/testDataFiles/Lookups_cities_schema.json"". @18-10-2022 15:10:52.0796 PM
[ReportManager] File Action "DoesFileExist" successfully performed. With the following test data "File Path: "C:\eclipse-workspace\MyProjects\TASystemsAPIs\src\test\resources\testDataFiles\Lookups_cities_schema.json"". @18-10-2022 15:10:52.0816 PM
[ReportManager] File Action "GetAbsolutePath" successfully performed. With the following test data "Relative Folder Path: "C:\eclipse-workspace\MyProjects\TASystemsAPIs\src\test\resources\testDataFiles\Lookups_cities_schema.json"". @18-10-2022 15:10:52.0818 PM
[ReportManager] File Action "ReadFromFile" successfully performed. With the following test data "File Path: "C:\eclipse-workspace\MyProjects\TASystemsAPIs\src\test\resources\testDataFiles\Lookups_cities_schema.json"". @18-10-2022 15:10:52.0819 PM
[ReportManager] Assertion Passed: The API response schema matches that in this file "src/test/resources/testDataFiles/Lookups_cities_schema.json". @18-10-2022 15:10:52.0820 PM
[ReportManager] Successfully created attachment "Validation Test Data - Expected JSON Value" @18-10-2022 15:10:52.0822 PM
[ReportManager] Successfully created attachment "Validation Test Data - Actual JSON Value" @18-10-2022 15:10:52.0824 PM