{"uuid":"88ae154a-da4c-4b9c-b85f-e1770764def3","historyId":"2c9bf8dd5b9ce2ddce75a09f984901a9","fullName":"SteeringCompanyAPI_TestCases.Test_Lookups_Cases.Valid_GET_all_cities_Lookups_by_Qry_Rq_TC","labels":[{"name":"package","value":"SteeringCompanyAPI_TestCases.Test_Lookups_Cases"},{"name":"testClass","value":"SteeringCompanyAPI_TestCases.Test_Lookups_Cases"},{"name":"testMethod","value":"Valid_GET_all_cities_Lookups_by_Qry_Rq_TC"},{"name":"parentSuite","value":"Suite"},{"name":"suite","value":"Test"},{"name":"subSuite","value":"SteeringCompanyAPI_TestCases.Test_Lookups_Cases"},{"name":"host","value":"TW-1056"},{"name":"thread","value":"17656@TW-1056.main(1)"},{"name":"framework","value":"testng"},{"name":"language","value":"java"}],"links":[],"name":"TC002 - Peform Get all cities API by parameters Qry with valid user name and password and retun with token","status":"passed","statusDetails":{"known":false,"muted":false,"flaky":false},"stage":"finished","steps":[{"name":"Loaded Test Data: \"src/test/resources/testDataFiles/SteeringCompanyAPI_TestData/SteeringCompanyAPI_TestData.xlsx\".","status":"passed","stage":"finished","steps":[],"attachments":[{"name":"Test Data - Excel","source":"6b02ee6c-9d76-49b4-b335-6e23794aa0c9-attachment.xlsx","type":"application/vnd.openxmlformats-officedocument.spreadsheetml.sheet"}],"parameters":[{"name":"logText","value":"Loaded Test Data: \"src/test/resources/testDataFiles/SteeringCompanyAPI_TestData/SteeringCompanyAPI_TestData.xlsx\"."},{"name":"attachments","value":"[[Test Data, Excel, java.io.FileInputStream@3ca07d9]]"}],"start":1666012787921,"stop":1666012787926},{"name":"Assertion Passed: Evaluating the actual response status code against the expected one...","status":"passed","stage":"finished","steps":[],"attachments":[],"parameters":[{"name":"customLog","value":"Assertion Passed: Evaluating the actual response status code against the expected one..."},{"name":"stepLog","value":"Assertion \"ValidateComparativeRelation\" PASSED. Expected \"200\" and Actual \"200\". Comparison Type \"EQUALS\". Validation Type \"POSITIVE\"."},{"name":"attachments","value":"null"}],"start":1666012788759,"stop":1666012788759},{"name":"Perform request \"POST | Target Status Code: 200 | Service URL: https://auth-demo.np.transporticonline.com/auth/realms/tic/protocol/openid-connect/token | Content Type: application/x-www-form-urlencoded | Response Time: 822ms\".","status":"passed","stage":"finished","steps":[],"attachments":[{"name":"API Request - Specifications","source":"95ed6a82-0c8b-42f3-8984-a7337f1f4297-attachment"},{"name":"API Request - Body","source":"1cf452f3-123f-401c-9855-483b1b3a3a91-attachment"},{"name":"API Response - JSON Body","source":"8284577d-5755-4a51-8ebf-02a6d16f4e99-attachment.json","type":"text/json"}],"parameters":[{"name":"logText","value":"Perform request \"POST | Target Status Code: 200 | Service URL: https://auth-demo.np.transporticonline.com/auth/realms/tic/protocol/openid-connect/token | Content Type: application/x-www-form-urlencoded | Response Time: 822ms\"."},{"name":"attachments","value":"[[API Request, Specifications, Headers:\r\n_______________\r\n\r\nContent-Type=application/x-www-form-urlencoded\r\n\r\n], [API Request, Body, java.io.ByteArrayInputStream@228ec493], null, [API Response, JSON Body, java.io.ByteArrayInputStream@5592464a]]"}],"start":1666012788794,"stop":1666012788798},{"name":"Assertion Passed: Check Response Status Code is 200 and it is valid.","status":"passed","stage":"finished","steps":[],"attachments":[],"parameters":[{"name":"customLog","value":"Assertion Passed: Check Response Status Code is 200 and it is valid."},{"name":"stepLog","value":"Assertion \"ValidateComparativeRelation\" PASSED. Expected \"200\" and Actual \"200\". Comparison Type \"EQUALS\". Validation Type \"POSITIVE\"."},{"name":"attachments","value":"null"}],"start":1666012788799,"stop":1666012788799},{"name":"Loaded Test Data: \"src/test/resources/testDataFiles/SteeringCompanyAPI_TestData/SteeringCompanyAPI_TestData.xlsx\".","status":"passed","stage":"finished","steps":[],"attachments":[{"name":"Test Data - Excel","source":"82fdd4bf-29b2-4a79-8b98-6613a6e2ea04-attachment.xlsx","type":"application/vnd.openxmlformats-officedocument.spreadsheetml.sheet"}],"parameters":[{"name":"logText","value":"Loaded Test Data: \"src/test/resources/testDataFiles/SteeringCompanyAPI_TestData/SteeringCompanyAPI_TestData.xlsx\"."},{"name":"attachments","value":"[[Test Data, Excel, java.io.FileInputStream@4f1dd46b]]"}],"start":1666012788854,"stop":1666012788867},{"name":"Assertion Passed: Evaluating the actual response status code against the expected one...","status":"passed","stage":"finished","steps":[],"attachments":[],"parameters":[{"name":"customLog","value":"Assertion Passed: Evaluating the actual response status code against the expected one..."},{"name":"stepLog","value":"Assertion \"ValidateComparativeRelation\" PASSED. Expected \"200\" and Actual \"200\". Comparison Type \"EQUALS\". Validation Type \"POSITIVE\"."},{"name":"attachments","value":"null"}],"start":1666012789643,"stop":1666012789644},{"name":"Perform request \"GET | Target Status Code: 200 | Service URL: https://api-demo.np.transporticonline.com/steeringcompanies/v1/lookups/cities | Content Type: */* | Response Time: 723ms\".","status":"passed","stage":"finished","steps":[],"attachments":[{"name":"API Request - Specifications","source":"905ae8ae-e78b-4d1d-8ade-f762b8d3d463-attachment"},{"name":"API Response - JSON Body","source":"3b5c2061-ba5a-4406-aed8-8dd602f9e096-attachment.json","type":"text/json"}],"parameters":[{"name":"logText","value":"Perform request \"GET | Target Status Code: 200 | Service URL: https://api-demo.np.transporticonline.com/steeringcompanies/v1/lookups/cities | Content Type: */* | Response Time: 723ms\"."},{"name":"attachments","value":"[[API Request, Specifications, Headers:\r\n_______________\r\n\r\nAuthorization=Bearer eyJhbGciOiJSUzI1NiIsInR5cCIgOiAiSldUIiwia2lkIiA6ICJjck9ORDFNdFVPVWhzS2Mtb0ppVFFmb0o1d1l4REF6Y3k0ZjNYZ0dveGdZIn0.eyJleHAiOjE2NjYwMTMwODYsImlhdCI6MTY2NjAxMjc4NiwianRpIjoiOGI1OTYyYzgtODRjOS00OTNhLWE3YTQtY2JjOGMyMWExYzk1IiwiaXNzIjoiaHR0cHM6Ly9hdXRoLWRlbW8ubnAudHJhbnNwb3J0aWNvbmxpbmUuY29tL2F1dGgvcmVhbG1zL3RpYyIsImF1ZCI6ImFjY291bnQiLCJzdWIiOiI0ZTk3NmQ0NC1iM2ZkLTRjYTktODk1Ny0wYWJiODUwNzNhNzQiLCJ0eXAiOiJCZWFyZXIiLCJhenAiOiJ0aWMtYXBpIiwic2Vzc2lvbl9zdGF0ZSI6IjVjN2I2ZjBjLTIzZTMtNDZkYi1iMzc2LTU5NzdjM2E0MjA1NSIsImFjciI6IjEiLCJhbGxvd2VkLW9yaWdpbnMiOlsiaHR0cHM6Ly9hcGktZGV2Lm5wLnRyYW5zcG9ydGljb25saW5lLmNvbSJdLCJyZWFsbV9hY2Nlc3MiOnsicm9sZXMiOlsib2ZmbGluZV9hY2Nlc3MiLCJkZWZhdWx0LXJvbGVzLXRpYyIsInVtYV9hdXRob3JpemF0aW9uIiwidXNlciJdfSwicmVzb3VyY2VfYWNjZXNzIjp7ImFjY291bnQiOnsicm9sZXMiOlsibWFuYWdlLWFjY291bnQiLCJtYW5hZ2UtYWNjb3VudC1saW5rcyIsInZpZXctcHJvZmlsZSJdfX0sInNjb3BlIjoiZW1haWwgcHJvZmlsZSIsInNpZCI6IjVjN2I2ZjBjLTIzZTMtNDZkYi1iMzc2LTU5NzdjM2E0MjA1NSIsImVtYWlsX3ZlcmlmaWVkIjpmYWxzZSwicHJlZmVycmVkX3VzZXJuYW1lIjoidG9raGkiLCJ0Y0lkIjoiMzE5OTU3In0.Dbo6Nq9axTKbAdpjM3L2ledr7_IWJWG21rB9Kg6DeacErok8fyGtkDyAYDox_8WD3jPXd24dlLrHdiZAh_4UMxVvg78XP0QQDaTf3cMfP3R8i1L_zIBZQNGrfjw81K6wkQsI9QeqFzzpqoNPiYzE620HEYbdokc0hRb7j4sFAkIolfqvnNGWY8CAs8t_yDTAh_9JWYCD4W8efxjgS8Mzf6wyeJrTSapGX-pgcabSGXM4JRLQqPRW7DAn7Is2xzBMIw-Tuano5W103qIxa5_QFUCk99T3x7dj25EM-5R0WGzi5YPuh3g7rM0RNINj7mOOYFF1OsCqh8PVaYaVDG2ONg\r\nContent-Type=*/*\r\n\r\nQuery Parameters:\r\n_______________\r\n\r\nsize=3\r\npage=0\r\n], null, [API Response, JSON Body, java.io.ByteArrayInputStream@50bf00c2]]"}],"start":1666012789670,"stop":1666012789675},{"name":"Assertion Passed: \"200\" is equal to \"200\".","status":"passed","stage":"finished","steps":[],"attachments":[],"parameters":[{"name":"customLog","value":"Assertion Passed: \"200\" is equal to \"200\"."},{"name":"stepLog","value":"Assertion \"ValidateComparativeRelation\" PASSED. Expected \"200\" and Actual \"200\". Comparison Type \"EQUALS\". Validation Type \"POSITIVE\"."},{"name":"attachments","value":"null"}],"start":1666012789676,"stop":1666012789676},{"name":"Verification Passed: \"723\" is greater than or equal to \"1.1\".","status":"passed","stage":"finished","steps":[],"attachments":[],"parameters":[{"name":"customLog","value":"Verification Passed: \"723\" is greater than or equal to \"1.1\"."},{"name":"stepLog","value":"Verification \"ValidateComparativeRelation\" PASSED. Expected \"1.1\" and Actual \"723\". Comparison Type \"GREATER_THAN_OR_EQUALS\". Validation Type \"POSITIVE\"."},{"name":"attachments","value":"null"}],"start":1666012789677,"stop":1666012789677},{"name":"Verification Passed: \"723\" is less than or equal to \"10000\".","status":"passed","stage":"finished","steps":[],"attachments":[],"parameters":[{"name":"customLog","value":"Verification Passed: \"723\" is less than or equal to \"10000\"."},{"name":"stepLog","value":"Verification \"ValidateComparativeRelation\" PASSED. Expected \"10000\" and Actual \"723\". Comparison Type \"LESS_THAN_OR_EQUALS\". Validation Type \"POSITIVE\"."},{"name":"attachments","value":"null"}],"start":1666012789678,"stop":1666012789678},{"name":"Assertion Passed: \"{\"page\":0,\"size\":3,\"totalPages\":235,\"totalElements\":704,\"content\":[{\"id\":1071,\"nameArabic\":\"مطار دنيزلي كارداك\",\"nameEnglish\":\"Denizli Cardak Airport\",\"isActive\":true,\"lastUpdated\":\"2022-06-02T00:13:35Z\",\"sectors\":null},{\"id\":390021162,\"nameArabic\":\"براتو\",\"nameEnglish\":\"PRATO\",\"isActive\":true,\"lastUpdated\":\"2022-06-02T00:13:44Z\",\"sectors\":null},{\"id\":36,\"nameArabic\":\"كوالالمبور\",\"nameEnglish\":\"Kuala Lumpur\",\"isActive\":true,\"lastUpdated\":\"2022-06-02T01:21:49Z\",\"sectors\":null}]}\" contains \"content\".","status":"passed","stage":"finished","steps":[],"attachments":[],"parameters":[{"name":"customLog","value":"Assertion Passed: \"{\"page\":0,\"size\":3,\"totalPages\":235,\"totalElements\":704,\"content\":[{\"id\":1071,\"nameArabic\":\"مطار دنيزلي كارداك\",\"nameEnglish\":\"Denizli Cardak Airport\",\"isActive\":true,\"lastUpdated\":\"2022-06-02T00:13:35Z\",\"sectors\":null},{\"id\":390021162,\"nameArabic\":\"براتو\",\"nameEnglish\":\"PRATO\",\"isActive\":true,\"lastUpdated\":\"2022-06-02T00:13:44Z\",\"sectors\":null},{\"id\":36,\"nameArabic\":\"كوالالمبور\",\"nameEnglish\":\"Kuala Lumpur\",\"isActive\":true,\"lastUpdated\":\"2022-06-02T01:21:49Z\",\"sectors\":null}]}\" contains \"content\"."},{"name":"stepLog","value":"Assertion \"ValidateEquals\" PASSED. Expected \"content\" and Actual \"{\"page\":0,\"size\":3,\"totalPages\":235,\"totalElements\":704,\"content\":[{\"id\":1071,\"nameArabic\":\"مطار دنيزلي كارداك\",\"nameEnglish\":\"Denizli Cardak Airport\",\"isActive\":true,\"lastUpdated\":\"2022-06-02T00:13:35Z\",\"sectors\":null},{\"id\":390021162,\"nameArabic\":\"براتو\",\"nameEnglish\":\"PRATO\",\"isActive\":true,\"lastUpdated\":\"2022-06-02T00:13:44Z\",\"sectors\":null},{\"id\":36,\"nameArabic\":\"كوالالمبور\",\"nameEnglish\":\"Kuala Lumpur\",\"isActive\":true,\"lastUpdated\":\"2022-06-02T01:21:49Z\",\"sectors\":null}]}\". Comparison Type \"CONTAINS\". Validation Type \"POSITIVE\"."},{"name":"attachments","value":"null"}],"start":1666012789680,"stop":1666012789681},{"name":"Assertion Passed: Check that content object is not null.","status":"passed","stage":"finished","steps":[],"attachments":[],"parameters":[{"name":"customLog","value":"Assertion Passed: Check that content object is not null."},{"name":"stepLog","value":"Assertion \"ValidateEquals\" PASSED. Expected \"null\" and Actual \"[{\"id\":1071,\"nameArabic\":\"مطار دنيزلي كارداك\",\"nameEnglish\":\"Denizli Cardak Airport\",\"isActive\":true,\"lastUpdated\":\"2022-06-02T00:13:35Z\",\"sectors\":null},{\"id\":390021162,\"nameArabic\":\"براتو\",\"nameEnglish\":\"PRATO\",\"isActive\":true,\"lastUpdated\":\"2022-06-02T00:13:44Z\",\"sectors\":null},{\"id\":36,\"nameArabic\":\"كوالالمبور\",\"nameEnglish\":\"Kuala Lumpur\",\"isActive\":true,\"lastUpdated\":\"2022-06-02T01:21:49Z\",\"sectors\":null}]\". Comparison Type \"EQUALS\". Validation Type \"NEGATIVE\"."},{"name":"attachments","value":"null"}],"start":1666012789683,"stop":1666012789683},{"name":"Assertion Passed: The API response schema matches that in this file \"src/test/resources/testDataFiles/Lookups_cities_schema.json\".","status":"passed","stage":"finished","steps":[],"attachments":[{"name":"Validation Test Data - Expected JSON Value","source":"9266d8ba-53a4-4397-ae93-df853fed0517-attachment.json","type":"text/json"},{"name":"Validation Test Data - Actual JSON Value","source":"8ec5ab76-dad3-412b-843f-d75c03686e45-attachment.json","type":"text/json"}],"parameters":[{"name":"customLog","value":"Assertion Passed: The API response schema matches that in this file \"src/test/resources/testDataFiles/Lookups_cities_schema.json\"."},{"name":"stepLog","value":"Assertion \"ValidateResponseFileSchema\" PASSED. Expected \"Response data should match the JSON File in this path 'C:\\eclipse-workspace\\MyProjects\\TASystemsAPIs\\src\\test\\resources\\testDataFiles\\Lookups_cities_schema.json'\" and Actual \"TRUE\". Comparison Type \"EQUALS\". Validation Type \"POSITIVE\"."},{"name":"attachments","value":"[[Validation Test Data, Expected JSON Value, java.io.ByteArrayInputStream@9ef7fd8], [Validation Test Data, Actual JSON Value, java.io.ByteArrayInputStream@217ed737]]"}],"start":1666012789704,"stop":1666012789712}],"attachments":[{"name":"SHAFT Engine Logs - Current Method log: Valid_GET_all_cities_Lookups_by_Qry_Rq_TC","source":"ff3d9036-aa45-4f45-9a2b-d9ab70341355-attachment.txt","type":"text/plain"}],"parameters":[],"start":1666012787879,"stop":1666012789714}