
################################################################################################################################################
Starting Execution:	"1 out of 54" test cases in the current suite
Test Method:		"SteeringCompanyAPI_TestCases.Test_Lookups_Cases.Valid_GET_all_cities_Lookups_Rq_TC"
Test Description:	"TC001 - Perform Get all cities API with valid user name and password"
################################################################################################################################################
[ReportManager] File Action "DoesFileExist" successfully performed. With the following test data "File Path: "SteeringCompanyAPI_TestData/SteeringCompanyAPI_TestData.xlsx"". @09-01-2023 22:32:57.0845 PM
[ReportManager] Loaded Test Data: "src/test/resources/testDataFiles/SteeringCompanyAPI_TestData/SteeringCompanyAPI_TestData.xlsx". @09-01-2023 22:32:57.0902 PM
[ReportManager] Successfully created attachment "Test Data - Excel" @09-01-2023 22:32:57.0908 PM
[ReportManager] Response status code: "200", status line: "HTTP/1.1 200 OK" @09-01-2023 22:33:00.0953 PM
[ReportManager] Assertion Passed: Evaluating the actual response status code against the expected one... @09-01-2023 22:33:00.0959 PM
[ReportManager] Perform request "POST | Target Status Code: 200 | Service URL: https://auth-demo.np.transporticonline.com/auth/realms/tic/protocol/openid-connect/token | Content Type: application/x-www-form-urlencoded | Response Time: 1888ms". @09-01-2023 22:33:01.0802 PM
[ReportManager] Successfully created attachment "API Request - Specifications" @09-01-2023 22:33:01.0804 PM
[ReportManager] Successfully created attachment "API Request - Body" @09-01-2023 22:33:01.0806 PM
[ReportManager] Successfully created attachment "API Response - JSON Body" @09-01-2023 22:33:01.0965 PM
[ReportManager] Assertion Passed: Check Response Status Code is 200 and it is valid. @09-01-2023 22:33:01.0967 PM
[ReportManager] File Action "DoesFileExist" successfully performed. With the following test data "File Path: "SteeringCompanyAPI_TestData/SteeringCompanyAPI_TestData.xlsx"". @09-01-2023 22:33:01.0986 PM
[ReportManager] Loaded Test Data: "src/test/resources/testDataFiles/SteeringCompanyAPI_TestData/SteeringCompanyAPI_TestData.xlsx". @09-01-2023 22:33:02.0041 PM
[ReportManager] Successfully created attachment "Test Data - Excel" @09-01-2023 22:33:02.0043 PM
[ReportManager] Response status code: "200", status line: "HTTP/1.1 200 " @09-01-2023 22:33:03.0097 PM
[ReportManager] Assertion Passed: Evaluating the actual response status code against the expected one... @09-01-2023 22:33:03.0097 PM
[ReportManager] Perform request "GET | Target Status Code: 200 | Service URL: https://api-demo.np.transporticonline.com/steeringcompanies/v1/lookups/cities | Content Type: */* | Response Time: 1045ms". @09-01-2023 22:33:03.0134 PM
[ReportManager] Successfully created attachment "API Request - Specifications" @09-01-2023 22:33:03.0137 PM
[ReportManager] Successfully created attachment "API Response - JSON Body" @09-01-2023 22:33:03.0140 PM
[ReportManager] Assertion Passed: "200" is equal to "200". @09-01-2023 22:33:03.0141 PM
[ReportManager] Verification Passed: "1045" is greater than or equal to "1.1". @09-01-2023 22:33:03.0142 PM
[ReportManager] Verification Passed: "1045" is less than or equal to "10000". @09-01-2023 22:33:03.0142 PM
[ReportManager] Assertion Passed: "{"page":0,"size":20,"totalPages":36,"totalElements":709,"content":[{"id":36,"nameArabic":"??????????","nameEnglish":"Kuala Lumpur","isActive":true,"lastUpdated":"2022-06-02T01:21:49Z","sectors":null},{"id":849,"nameArabic":"???????","nameEnglish":"Solngen","isActive":true,"lastUpdated":"2022-06-02T01:37:02Z","sectors":null},{"id":1006,"nameArabic":"??????","nameEnglish":"FRUNZE","isActive":true,"lastUpdated":"2022-06-02T00:20:05Z","sectors":null},{"id":985,"nameArabic":"??????","nameEnglish":"KANDAHAR","isActive":true,"lastUpdated":"2022-06-02T00:25:20Z","sectors":null},{"id":736,"nameArabic":"?????","nameEnglish":"Tabrka","isActive":true,"lastUpdated":"2022-06-02T01:16:50Z","sectors":null},{"id":953,"nameArabic":"?????","nameEnglish":"Sohag","isActive":true,"lastUpdated":"2022-06-02T00:25:24Z","sectors":null},{"id":816,"nameArabic":"??????","nameEnglish":"Cochin","isActive":true,"lastUpdated":"2022-06-02T01:06:13Z","sectors":null},{"id":789,"nameArabic":"???? ????","nameEnglish":"Faisalabad","isActive":true,"lastUpdated":"2022-06-02T01:27:12Z","sectors":null},{"id":1013,"nameArabic":"?????","nameEnglish":"KAZAN","isActive":true,"lastUpdated":"2022-06-02T00:37:19Z","sectors":null},{"id":794,"nameArabic":"???????","nameEnglish":"KAYSERI","isActive":true,"lastUpdated":"2022-06-02T01:21:58Z","sectors":null},{"id":764,"nameArabic":"????","nameEnglish":"Tangier","isActive":true,"lastUpdated":"2022-06-02T01:27:13Z","sectors":null},{"id":780,"nameArabic":"??????","nameEnglish":"Shahyraz","isActive":true,"lastUpdated":"2022-06-02T00:37:28Z","sectors":null},{"id":712,"nameArabic":"?????","nameEnglish":"Tashkent","isActive":true,"lastUpdated":"2022-06-02T01:27:13Z","sectors":null},{"id":824,"nameArabic":"??????","nameEnglish":"Samarqand","isActive":true,"lastUpdated":"2022-06-02T00:37:28Z","sectors":null},{"id":993,"nameArabic":"?????","nameEnglish":"KRBI","isActive":true,"lastUpdated":"2022-06-02T01:22:03Z","sectors":null},{"id":820,"nameArabic":"???????","nameEnglish":"CALICUT","isActive":true,"lastUpdated":"2022-06-02T01:27:21Z","sectors":null},{"id":91,"nameArabic":"????","nameEnglish":"KANO","isActive":true,"lastUpdated":"2022-06-02T01:22:03Z","sectors":null},{"id":125,"nameArabic":"????","nameEnglish":"Kabul","isActive":true,"lastUpdated":"2022-06-02T00:42:58Z","sectors":null},{"id":34,"nameArabic":"?????","nameEnglish":"Vienna","isActive":true,"lastUpdated":"2022-06-02T00:42:59Z","sectors":null},{"id":67,"nameArabic":"?????","nameEnglish":"Sanaa","isActive":true,"lastUpdated":"2022-06-02T00:55:27Z","sectors":null}]}" contains "content". @09-01-2023 22:33:03.0147 PM
[ReportManager] Successfully created attachment "Validation Test Data - Expected Value" @09-01-2023 22:33:03.0149 PM
[ReportManager] Successfully created attachment "Validation Test Data - Actual Value" @09-01-2023 22:33:03.0150 PM
[ReportManager] Get response jsonvalue "content". @09-01-2023 22:33:03.0280 PM
[ReportManager] Assertion Passed: Check that content object is not null. @09-01-2023 22:33:03.0282 PM
[ReportManager] Successfully created attachment "Validation Test Data - Expected Value" @09-01-2023 22:33:03.0283 PM
[ReportManager] Successfully created attachment "Validation Test Data - Actual Value" @09-01-2023 22:33:03.0287 PM
[ReportManager] File Action "DoesFileExist" successfully performed. With the following test data "File Path: "Schemas/Lookups_cities_schema.json"". @09-01-2023 22:33:03.0287 PM
[ReportManager] File Action "DoesFileExist" successfully performed. With the following test data "File Path: "src/test/resources/testDataFiles/Schemas/Lookups_cities_schema.json"". @09-01-2023 22:33:03.0287 PM
[ReportManager] File Action "GetAbsolutePath" successfully performed. With the following test data "Relative Folder Path: "src/test/resources/testDataFiles/Schemas/Lookups_cities_schema.json"". @09-01-2023 22:33:03.0288 PM
[ReportManager] File Action "DoesFileExist" successfully performed. With the following test data "File Path: "C:\eclipse-workspace\MyProjects\TASystemsAPIs\src\test\resources\testDataFiles\Schemas\Lookups_cities_schema.json"". @09-01-2023 22:33:04.0085 PM
[ReportManager] File Action "GetAbsolutePath" successfully performed. With the following test data "Relative Folder Path: "C:\eclipse-workspace\MyProjects\TASystemsAPIs\src\test\resources\testDataFiles\Schemas\Lookups_cities_schema.json"". @09-01-2023 22:33:04.0086 PM
[ReportManager] File Action "ReadFile" successfully performed. With the following test data "File Path: "C:\eclipse-workspace\MyProjects\TASystemsAPIs\src\test\resources\testDataFiles\Schemas\Lookups_cities_schema.json"". @09-01-2023 22:33:04.0088 PM
[ReportManager] Assertion Passed: The API response schema matches that in this file "src/test/resources/testDataFiles/Schemas/Lookups_cities_schema.json". @09-01-2023 22:33:04.0091 PM
[ReportManager] Successfully created attachment "Validation Test Data - Expected JSON Value" @09-01-2023 22:33:04.0093 PM
[ReportManager] Successfully created attachment "Validation Test Data - Actual JSON Value" @09-01-2023 22:33:04.0094 PM