
################################################################################################################################################
Starting Execution:	"1 out of 56" test cases in the current suite
Test Method:		"SteeringCompanyAPI_TestCases.Test_Lookups_Cases.Valid_GET_all_cities_Lookups_Rq_TC"
Test Description:	"TC001 - Perform Get all cities API with valid user name and password"
################################################################################################################################################
[ReportManager] File Action "DoesFileExist" successfully performed. With the following test data "File Path: "SteeringCompanyAPI_TestData/SteeringCompanyAPI_TestData.xlsx"". @12-01-2023 11:55:54.0146 AM
[ReportManager] Loaded Test Data: "src/test/resources/testDataFiles/SteeringCompanyAPI_TestData/SteeringCompanyAPI_TestData.xlsx". @12-01-2023 11:55:54.0204 AM
[ReportManager] Successfully created attachment "Test Data - Excel" @12-01-2023 11:55:54.0210 AM
[ReportManager] Response status code: "200", status line: "HTTP/1.1 200 OK" @12-01-2023 11:55:56.0403 AM
[ReportManager] Assertion Passed: Evaluating the actual response status code against the expected one... @12-01-2023 11:55:56.0409 AM
[ReportManager] Perform request "POST | Target Status Code: 200 | Service URL: https://auth-demo.np.transporticonline.com/auth/realms/tic/protocol/openid-connect/token | Content Type: application/x-www-form-urlencoded | Response Time: 1161ms". @12-01-2023 11:55:57.0203 AM
[ReportManager] Successfully created attachment "API Request - Specifications" @12-01-2023 11:55:57.0204 AM
[ReportManager] Successfully created attachment "API Request - Body" @12-01-2023 11:55:57.0206 AM
[ReportManager] Successfully created attachment "API Response - JSON Body" @12-01-2023 11:55:57.0401 AM
[ReportManager] Assertion Passed: Check Response Status Code is 200 and it is valid. @12-01-2023 11:55:57.0403 AM
[ReportManager] File Action "DoesFileExist" successfully performed. With the following test data "File Path: "SteeringCompanyAPI_TestData/SteeringCompanyAPI_TestData.xlsx"". @12-01-2023 11:55:57.0422 AM
[ReportManager] Loaded Test Data: "src/test/resources/testDataFiles/SteeringCompanyAPI_TestData/SteeringCompanyAPI_TestData.xlsx". @12-01-2023 11:55:57.0474 AM
[ReportManager] Successfully created attachment "Test Data - Excel" @12-01-2023 11:55:57.0475 AM
[ReportManager] Response status code: "200", status line: "HTTP/1.1 200 " @12-01-2023 11:55:57.0988 AM
[ReportManager] Assertion Passed: Evaluating the actual response status code against the expected one... @12-01-2023 11:55:57.0989 AM
[ReportManager] Perform request "GET | Target Status Code: 200 | Service URL: https://api-demo.np.transporticonline.com/steeringcompanies/v1/lookups/cities | Content Type: */* | Response Time: 503ms". @12-01-2023 11:55:58.0014 AM
[ReportManager] Successfully created attachment "API Request - Specifications" @12-01-2023 11:55:58.0015 AM
[ReportManager] Successfully created attachment "API Response - JSON Body" @12-01-2023 11:55:58.0017 AM
[ReportManager] Assertion Passed: "200" is equal to "200". @12-01-2023 11:55:58.0018 AM
[ReportManager] Verification Passed: "503" is greater than or equal to "1.1". @12-01-2023 11:55:58.0019 AM
[ReportManager] Verification Passed: "503" is less than or equal to "10000". @12-01-2023 11:55:58.0019 AM
[ReportManager] Assertion Passed: "{"page":0,"size":20,"totalPages":36,"totalElements":709,"content":[{"id":36,"nameArabic":"??????????","nameEnglish":"Kuala Lumpur","isActive":true,"lastUpdated":"2022-06-02T01:21:49Z","sectors":null},{"id":849,"nameArabic":"???????","nameEnglish":"Solngen","isActive":true,"lastUpdated":"2022-06-02T01:37:02Z","sectors":null},{"id":1006,"nameArabic":"??????","nameEnglish":"FRUNZE","isActive":true,"lastUpdated":"2022-06-02T00:20:05Z","sectors":null},{"id":985,"nameArabic":"??????","nameEnglish":"KANDAHAR","isActive":true,"lastUpdated":"2022-06-02T00:25:20Z","sectors":null},{"id":736,"nameArabic":"?????","nameEnglish":"Tabrka","isActive":true,"lastUpdated":"2022-06-02T01:16:50Z","sectors":null},{"id":953,"nameArabic":"?????","nameEnglish":"Sohag","isActive":true,"lastUpdated":"2022-06-02T00:25:24Z","sectors":null},{"id":816,"nameArabic":"??????","nameEnglish":"Cochin","isActive":true,"lastUpdated":"2022-06-02T01:06:13Z","sectors":null},{"id":789,"nameArabic":"???? ????","nameEnglish":"Faisalabad","isActive":true,"lastUpdated":"2022-06-02T01:27:12Z","sectors":null},{"id":1013,"nameArabic":"?????","nameEnglish":"KAZAN","isActive":true,"lastUpdated":"2022-06-02T00:37:19Z","sectors":null},{"id":794,"nameArabic":"???????","nameEnglish":"KAYSERI","isActive":true,"lastUpdated":"2022-06-02T01:21:58Z","sectors":null},{"id":764,"nameArabic":"????","nameEnglish":"Tangier","isActive":true,"lastUpdated":"2022-06-02T01:27:13Z","sectors":null},{"id":780,"nameArabic":"??????","nameEnglish":"Shahyraz","isActive":true,"lastUpdated":"2022-06-02T00:37:28Z","sectors":null},{"id":712,"nameArabic":"?????","nameEnglish":"Tashkent","isActive":true,"lastUpdated":"2022-06-02T01:27:13Z","sectors":null},{"id":824,"nameArabic":"??????","nameEnglish":"Samarqand","isActive":true,"lastUpdated":"2022-06-02T00:37:28Z","sectors":null},{"id":993,"nameArabic":"?????","nameEnglish":"KRBI","isActive":true,"lastUpdated":"2022-06-02T01:22:03Z","sectors":null},{"id":820,"nameArabic":"???????","nameEnglish":"CALICUT","isActive":true,"lastUpdated":"2022-06-02T01:27:21Z","sectors":null},{"id":91,"nameArabic":"????","nameEnglish":"KANO","isActive":true,"lastUpdated":"2022-06-02T01:22:03Z","sectors":null},{"id":125,"nameArabic":"????","nameEnglish":"Kabul","isActive":true,"lastUpdated":"2022-06-02T00:42:58Z","sectors":null},{"id":34,"nameArabic":"?????","nameEnglish":"Vienna","isActive":true,"lastUpdated":"2022-06-02T00:42:59Z","sectors":null},{"id":67,"nameArabic":"?????","nameEnglish":"Sanaa","isActive":true,"lastUpdated":"2022-06-02T00:55:27Z","sectors":null}]}" contains "content". @12-01-2023 11:55:58.0023 AM
[ReportManager] Successfully created attachment "Validation Test Data - Expected Value" @12-01-2023 11:55:58.0025 AM
[ReportManager] Successfully created attachment "Validation Test Data - Actual Value" @12-01-2023 11:55:58.0026 AM
[ReportManager] Get response jsonvalue "content". @12-01-2023 11:55:58.0147 AM
[ReportManager] Assertion Passed: Check that content object is not null. @12-01-2023 11:55:58.0148 AM
[ReportManager] Successfully created attachment "Validation Test Data - Expected Value" @12-01-2023 11:55:58.0150 AM
[ReportManager] Successfully created attachment "Validation Test Data - Actual Value" @12-01-2023 11:55:58.0153 AM
[ReportManager] File Action "DoesFileExist" successfully performed. With the following test data "File Path: "Schemas/Lookups_cities_schema.json"". @12-01-2023 11:55:58.0154 AM
[ReportManager] File Action "DoesFileExist" successfully performed. With the following test data "File Path: "src/test/resources/testDataFiles/Schemas/Lookups_cities_schema.json"". @12-01-2023 11:55:58.0156 AM
[ReportManager] File Action "GetAbsolutePath" successfully performed. With the following test data "Relative Folder Path: "src/test/resources/testDataFiles/Schemas/Lookups_cities_schema.json"". @12-01-2023 11:55:58.0156 AM
[ReportManager] File Action "DoesFileExist" successfully performed. With the following test data "File Path: "C:\eclipse-workspace\MyProjects\TASystemsAPIs\src\test\resources\testDataFiles\Schemas\Lookups_cities_schema.json"". @12-01-2023 11:55:59.0235 AM
[ReportManager] File Action "GetAbsolutePath" successfully performed. With the following test data "Relative Folder Path: "C:\eclipse-workspace\MyProjects\TASystemsAPIs\src\test\resources\testDataFiles\Schemas\Lookups_cities_schema.json"". @12-01-2023 11:55:59.0236 AM
[ReportManager] File Action "ReadFile" successfully performed. With the following test data "File Path: "C:\eclipse-workspace\MyProjects\TASystemsAPIs\src\test\resources\testDataFiles\Schemas\Lookups_cities_schema.json"". @12-01-2023 11:55:59.0236 AM
[ReportManager] Assertion Passed: The API response schema matches that in this file "src/test/resources/testDataFiles/Schemas/Lookups_cities_schema.json". @12-01-2023 11:55:59.0239 AM
[ReportManager] Successfully created attachment "Validation Test Data - Expected JSON Value" @12-01-2023 11:55:59.0240 AM
[ReportManager] Successfully created attachment "Validation Test Data - Actual JSON Value" @12-01-2023 11:55:59.0241 AM