{"uuid":"9e34e81a-6851-4fe3-bf17-e890d804c1d1","historyId":"3da8675260de4f0e72331833df441679","fullName":"SteeringCompanyAPI_TestCases.Test_Lookups_Cases.Valid_GET_all_cities_Lookups_Rq_TC","labels":[{"name":"package","value":"SteeringCompanyAPI_TestCases.Test_Lookups_Cases"},{"name":"testClass","value":"SteeringCompanyAPI_TestCases.Test_Lookups_Cases"},{"name":"testMethod","value":"Valid_GET_all_cities_Lookups_Rq_TC"},{"name":"parentSuite","value":"Suite"},{"name":"suite","value":"Test"},{"name":"subSuite","value":"SteeringCompanyAPI_TestCases.Test_Lookups_Cases"},{"name":"host","value":"TW-1056"},{"name":"thread","value":"12248@TW-1056.main(1)"},{"name":"framework","value":"testng"},{"name":"language","value":"java"}],"links":[],"name":"TC001 - Perform Get all cities API with valid user name and password","status":"passed","statusDetails":{"known":false,"muted":false,"flaky":false},"stage":"finished","steps":[{"name":"Loaded Test Data: \"src/test/resources/testDataFiles/SteeringCompanyAPI_TestData/SteeringCompanyAPI_TestData.xlsx\".","status":"passed","stage":"finished","steps":[],"attachments":[{"name":"Test Data - Excel","source":"eb51a7ed-0a22-403f-8ac3-94473c35aa76-attachment.xlsx","type":"application/vnd.openxmlformats-officedocument.spreadsheetml.sheet"}],"parameters":[{"name":"logText","value":"Loaded Test Data: \"src/test/resources/testDataFiles/SteeringCompanyAPI_TestData/SteeringCompanyAPI_TestData.xlsx\"."},{"name":"attachments","value":"[[Test Data, Excel, java.io.FileInputStream@24479256]]"}],"start":1675774622002,"stop":1675774622003},{"name":"Assertion Passed: Evaluating the actual response status code against the expected one...","status":"passed","stage":"finished","steps":[],"attachments":[],"parameters":[{"name":"customLog","value":"Assertion Passed: Evaluating the actual response status code against the expected one..."},{"name":"stepLog","value":"Assertion \"ValidateComparativeRelation\" PASSED. Expected \"200\" and Actual \"200\". Comparison Type \"EQUALS\". Validation Type \"POSITIVE\"."},{"name":"attachments","value":"null"}],"start":1675774622778,"stop":1675774622778},{"name":"Perform request \"POST | Target Status Code: 200 | Service URL: https://auth-demo.np.transporticonline.com/auth/realms/tic/protocol/openid-connect/token | Content Type: application/x-www-form-urlencoded | Response Time: 772ms\".","status":"passed","stage":"finished","steps":[],"attachments":[{"name":"API Request - Specifications","source":"d0eb5fef-9be3-4443-99ea-71b086316a5d-attachment"},{"name":"API Request - Body","source":"c4f1669c-9642-4f66-a7a2-903dcf31d624-attachment"},{"name":"API Response - JSON Body","source":"e1a36860-01e7-4bc7-a607-ebb6ef765a54-attachment.json","type":"text/json"}],"parameters":[{"name":"logText","value":"Perform request \"POST | Target Status Code: 200 | Service URL: https://auth-demo.np.transporticonline.com/auth/realms/tic/protocol/openid-connect/token | Content Type: application/x-www-form-urlencoded | Response Time: 772ms\"."},{"name":"attachments","value":"[[API Request, Specifications, Headers:\r\n_______________\r\n\r\nContent-Type=application/x-www-form-urlencoded\r\n\r\n], [API Request, Body, java.io.ByteArrayInputStream@733620d0], null, [API Response, JSON Body, java.io.ByteArrayInputStream@ea8842c]]"}],"start":1675774622809,"stop":1675774622814},{"name":"Assertion Passed: Check Response Status Code is 200 and it is valid.","status":"passed","stage":"finished","steps":[],"attachments":[],"parameters":[{"name":"customLog","value":"Assertion Passed: Check Response Status Code is 200 and it is valid."},{"name":"stepLog","value":"Assertion \"ValidateComparativeRelation\" PASSED. Expected \"200\" and Actual \"200\". Comparison Type \"EQUALS\". Validation Type \"POSITIVE\"."},{"name":"attachments","value":"null"}],"start":1675774622814,"stop":1675774622814},{"name":"Loaded Test Data: \"src/test/resources/testDataFiles/SteeringCompanyAPI_TestData/SteeringCompanyAPI_TestData.xlsx\".","status":"passed","stage":"finished","steps":[],"attachments":[{"name":"Test Data - Excel","source":"bdb01c3d-66e0-4c2f-9315-edd261ac884b-attachment.xlsx","type":"application/vnd.openxmlformats-officedocument.spreadsheetml.sheet"}],"parameters":[{"name":"logText","value":"Loaded Test Data: \"src/test/resources/testDataFiles/SteeringCompanyAPI_TestData/SteeringCompanyAPI_TestData.xlsx\"."},{"name":"attachments","value":"[[Test Data, Excel, java.io.FileInputStream@1c1fb4e6]]"}],"start":1675774622869,"stop":1675774622870},{"name":"Assertion Passed: Evaluating the actual response status code against the expected one...","status":"passed","stage":"finished","steps":[],"attachments":[],"parameters":[{"name":"customLog","value":"Assertion Passed: Evaluating the actual response status code against the expected one..."},{"name":"stepLog","value":"Assertion \"ValidateComparativeRelation\" PASSED. Expected \"200\" and Actual \"200\". Comparison Type \"EQUALS\". Validation Type \"POSITIVE\"."},{"name":"attachments","value":"null"}],"start":1675774623571,"stop":1675774623571},{"name":"Perform request \"GET | Target Status Code: 200 | Service URL: https://api-demo.np.transporticonline.com/steeringcompanies/v1/lookups/cities | Content Type: */* | Response Time: 697ms\".","status":"passed","stage":"finished","steps":[],"attachments":[{"name":"API Request - Specifications","source":"dfb9d351-6f96-40b6-934c-8cbe804bdb7d-attachment"},{"name":"API Response - JSON Body","source":"7648b606-85fc-4160-952d-259dd6565716-attachment.json","type":"text/json"}],"parameters":[{"name":"logText","value":"Perform request \"GET | Target Status Code: 200 | Service URL: https://api-demo.np.transporticonline.com/steeringcompanies/v1/lookups/cities | Content Type: */* | Response Time: 697ms\"."},{"name":"attachments","value":"[[API Request, Specifications, Headers:\r\n_______________\r\n\r\nAuthorization=Bearer eyJhbGciOiJSUzI1NiIsInR5cCIgOiAiSldUIiwia2lkIiA6ICJjck9ORDFNdFVPVWhzS2Mtb0ppVFFmb0o1d1l4REF6Y3k0ZjNYZ0dveGdZIn0.eyJleHAiOjE2NzU3OTYyMjAsImlhdCI6MTY3NTc3NDYyMCwianRpIjoiOWY4NThiMjEtYmUwNC00NWY0LWE0MTEtYzkwMDRlNDNkM2RlIiwiaXNzIjoiaHR0cHM6Ly9hdXRoLWRlbW8ubnAudHJhbnNwb3J0aWNvbmxpbmUuY29tL2F1dGgvcmVhbG1zL3RpYyIsImF1ZCI6ImFjY291bnQiLCJzdWIiOiI0ZTk3NmQ0NC1iM2ZkLTRjYTktODk1Ny0wYWJiODUwNzNhNzQiLCJ0eXAiOiJCZWFyZXIiLCJhenAiOiJ0aWMtYXBpIiwic2Vzc2lvbl9zdGF0ZSI6IjA0NzE3NDZlLTgwMTctNDFiNy1hNTQ3LWExMmQ4NjJhMTY1NiIsImFjciI6IjEiLCJhbGxvd2VkLW9yaWdpbnMiOlsiaHR0cHM6Ly9hcGktZGV2Lm5wLnRyYW5zcG9ydGljb25saW5lLmNvbSJdLCJyZWFsbV9hY2Nlc3MiOnsicm9sZXMiOlsib2ZmbGluZV9hY2Nlc3MiLCJkZWZhdWx0LXJvbGVzLXRpYyIsInVtYV9hdXRob3JpemF0aW9uIiwidXNlciJdfSwicmVzb3VyY2VfYWNjZXNzIjp7ImFjY291bnQiOnsicm9sZXMiOlsibWFuYWdlLWFjY291bnQiLCJtYW5hZ2UtYWNjb3VudC1saW5rcyIsInZpZXctcHJvZmlsZSJdfX0sInNjb3BlIjoiZW1haWwgcHJvZmlsZSIsInNpZCI6IjA0NzE3NDZlLTgwMTctNDFiNy1hNTQ3LWExMmQ4NjJhMTY1NiIsImVtYWlsX3ZlcmlmaWVkIjpmYWxzZSwicHJlZmVycmVkX3VzZXJuYW1lIjoidG9raGkiLCJ0Y0lkIjoiMzE5OTU3In0.YodoQiRS9gcqSN6Oq2eeyjqKD8Wwn6x7v7JPSLq_kx4-vs0mc_zHj4TM9zZegw5GV_bUtRCkxD5K8g7akfxxBVgkiL6xpX6CK5DHlt96kDczUfNoeVUHOlLTWoNAANV5sjRNQEs7QKfUdwNqzMjDDie99kkjeN_uyooDEt3lZUxCy-sgsxd3lK64yhNPISrAkZMrvQV1B5vmC1p82qGTtM1_46jMbrlylpH_rB31fNfTk44W6_cEvHe376LYRYqHyIkjG_odK1dQtCJU7YTncT_AbDiET_5m8i93bZkvIfV_Unhd2hft3AEfW1vvsesv2pDwZIjk3VpJ9IhYuDIPVQ\r\nContent-Type=*/*\r\n\r\n], null, [API Response, JSON Body, java.io.ByteArrayInputStream@799ac0ef]]"}],"start":1675774623596,"stop":1675774623599},{"name":"Assertion Passed: \"200\" is equal to \"200\".","status":"passed","stage":"finished","steps":[],"attachments":[],"parameters":[{"name":"customLog","value":"Assertion Passed: \"200\" is equal to \"200\"."},{"name":"stepLog","value":"Assertion \"ValidateComparativeRelation\" PASSED. Expected \"200\" and Actual \"200\". Comparison Type \"EQUALS\". Validation Type \"POSITIVE\"."},{"name":"attachments","value":"null"}],"start":1675774623599,"stop":1675774623599},{"name":"Verification Passed: \"697\" is greater than or equal to \"1.1\".","status":"passed","stage":"finished","steps":[],"attachments":[],"parameters":[{"name":"customLog","value":"Verification Passed: \"697\" is greater than or equal to \"1.1\"."},{"name":"stepLog","value":"Verification \"ValidateComparativeRelation\" PASSED. Expected \"1.1\" and Actual \"697\". Comparison Type \"GREATER_THAN_OR_EQUALS\". Validation Type \"POSITIVE\"."},{"name":"attachments","value":"null"}],"start":1675774623600,"stop":1675774623600},{"name":"Verification Passed: \"697\" is less than or equal to \"10000\".","status":"passed","stage":"finished","steps":[],"attachments":[],"parameters":[{"name":"customLog","value":"Verification Passed: \"697\" is less than or equal to \"10000\"."},{"name":"stepLog","value":"Verification \"ValidateComparativeRelation\" PASSED. Expected \"10000\" and Actual \"697\". Comparison Type \"LESS_THAN_OR_EQUALS\". Validation Type \"POSITIVE\"."},{"name":"attachments","value":"null"}],"start":1675774623600,"stop":1675774623600},{"name":"Assertion Passed: \"{\"page\":0,\"size\":20,\"totalPages\":36,\"totalElements\":709,\"content\":[{\"id\":36,\"nameArabic\":\"كوالالمبور\",\"nameEnglish\":\"Kuala Lumpur\",\"isActive\":true,\"lastUpdated\":\"2022-06-02T01:21:49Z\",\"sectors\":null},{\"id\":849,\"nameArabic\":\"سولنجين\",\"nameEnglish\":\"Solngen\",\"isActive\":true,\"lastUpdated\":\"2022-06-02T01:37:02Z\",\"sectors\":null},{\"id\":1006,\"nameArabic\":\"بشكشكي\",\"nameEnglish\":\"FRUNZE\",\"isActive\":true,\"lastUpdated\":\"2022-06-02T00:20:05Z\",\"sectors\":null},{\"id\":985,\"nameArabic\":\"قندهار\",\"nameEnglish\":\"KANDAHAR\",\"isActive\":true,\"lastUpdated\":\"2022-06-02T00:25:20Z\",\"sectors\":null},{\"id\":736,\"nameArabic\":\"طبركا\",\"nameEnglish\":\"Tabrka\",\"isActive\":true,\"lastUpdated\":\"2022-06-02T01:16:50Z\",\"sectors\":null},{\"id\":953,\"nameArabic\":\"سوهاج\",\"nameEnglish\":\"Sohag\",\"isActive\":true,\"lastUpdated\":\"2022-06-02T00:25:24Z\",\"sectors\":null},{\"id\":816,\"nameArabic\":\"كوتشين\",\"nameEnglish\":\"Cochin\",\"isActive\":true,\"lastUpdated\":\"2022-06-02T01:06:13Z\",\"sectors\":null},{\"id\":789,\"nameArabic\":\"فيصل اباد\",\"nameEnglish\":\"Faisalabad\",\"isActive\":true,\"lastUpdated\":\"2022-06-02T01:27:12Z\",\"sectors\":null},{\"id\":1013,\"nameArabic\":\"كازان\",\"nameEnglish\":\"KAZAN\",\"isActive\":true,\"lastUpdated\":\"2022-06-02T00:37:19Z\",\"sectors\":null},{\"id\":794,\"nameArabic\":\"كايسيري\",\"nameEnglish\":\"KAYSERI\",\"isActive\":true,\"lastUpdated\":\"2022-06-02T01:21:58Z\",\"sectors\":null},{\"id\":764,\"nameArabic\":\"طنجه\",\"nameEnglish\":\"Tangier\",\"isActive\":true,\"lastUpdated\":\"2022-06-02T01:27:13Z\",\"sectors\":null},{\"id\":780,\"nameArabic\":\"شهيراز\",\"nameEnglish\":\"Shahyraz\",\"isActive\":true,\"lastUpdated\":\"2022-06-02T00:37:28Z\",\"sectors\":null},{\"id\":712,\"nameArabic\":\"طشقند\",\"nameEnglish\":\"Tashkent\",\"isActive\":true,\"lastUpdated\":\"2022-06-02T01:27:13Z\",\"sectors\":null},{\"id\":824,\"nameArabic\":\"سمكرند\",\"nameEnglish\":\"Samarqand\",\"isActive\":true,\"lastUpdated\":\"2022-06-02T00:37:28Z\",\"sectors\":null},{\"id\":993,\"nameArabic\":\"كرابي\",\"nameEnglish\":\"KRBI\",\"isActive\":true,\"lastUpdated\":\"2022-06-02T01:22:03Z\",\"sectors\":null},{\"id\":820,\"nameArabic\":\"كاليكوت\",\"nameEnglish\":\"CALICUT\",\"isActive\":true,\"lastUpdated\":\"2022-06-02T01:27:21Z\",\"sectors\":null},{\"id\":91,\"nameArabic\":\"كانو\",\"nameEnglish\":\"KANO\",\"isActive\":true,\"lastUpdated\":\"2022-06-02T01:22:03Z\",\"sectors\":null},{\"id\":125,\"nameArabic\":\"كابل\",\"nameEnglish\":\"Kabul\",\"isActive\":true,\"lastUpdated\":\"2022-06-02T00:42:58Z\",\"sectors\":null},{\"id\":34,\"nameArabic\":\"فيينا\",\"nameEnglish\":\"Vienna\",\"isActive\":true,\"lastUpdated\":\"2022-06-02T00:42:59Z\",\"sectors\":null},{\"id\":67,\"nameArabic\":\"صنعاء\",\"nameEnglish\":\"Sanaa\",\"isActive\":true,\"lastUpdated\":\"2022-06-02T00:55:27Z\",\"sectors\":null}]}\" contains \"content\".","status":"passed","stage":"finished","steps":[],"attachments":[{"name":"Validation Test Data - Expected Value","source":"63afbf75-81d6-4986-a8ab-7c9f249807d7-attachment"},{"name":"Validation Test Data - Actual Value","source":"9abd24c7-e205-48cb-8b22-4df7765e12ab-attachment"}],"parameters":[{"name":"customLog","value":"Assertion Passed: \"{\"page\":0,\"size\":20,\"totalPages\":36,\"totalElements\":709,\"content\":[{\"id\":36,\"nameArabic\":\"كوالالمبور\",\"nameEnglish\":\"Kuala Lumpur\",\"isActive\":true,\"lastUpdated\":\"2022-06-02T01:21:49Z\",\"sectors\":null},{\"id\":849,\"nameArabic\":\"سولنجين\",\"nameEnglish\":\"Solngen\",\"isActive\":true,\"lastUpdated\":\"2022-06-02T01:37:02Z\",\"sectors\":null},{\"id\":1006,\"nameArabic\":\"بشكشكي\",\"nameEnglish\":\"FRUNZE\",\"isActive\":true,\"lastUpdated\":\"2022-06-02T00:20:05Z\",\"sectors\":null},{\"id\":985,\"nameArabic\":\"قندهار\",\"nameEnglish\":\"KANDAHAR\",\"isActive\":true,\"lastUpdated\":\"2022-06-02T00:25:20Z\",\"sectors\":null},{\"id\":736,\"nameArabic\":\"طبركا\",\"nameEnglish\":\"Tabrka\",\"isActive\":true,\"lastUpdated\":\"2022-06-02T01:16:50Z\",\"sectors\":null},{\"id\":953,\"nameArabic\":\"سوهاج\",\"nameEnglish\":\"Sohag\",\"isActive\":true,\"lastUpdated\":\"2022-06-02T00:25:24Z\",\"sectors\":null},{\"id\":816,\"nameArabic\":\"كوتشين\",\"nameEnglish\":\"Cochin\",\"isActive\":true,\"lastUpdated\":\"2022-06-02T01:06:13Z\",\"sectors\":null},{\"id\":789,\"nameArabic\":\"فيصل اباد\",\"nameEnglish\":\"Faisalabad\",\"isActive\":true,\"lastUpdated\":\"2022-06-02T01:27:12Z\",\"sectors\":null},{\"id\":1013,\"nameArabic\":\"كازان\",\"nameEnglish\":\"KAZAN\",\"isActive\":true,\"lastUpdated\":\"2022-06-02T00:37:19Z\",\"sectors\":null},{\"id\":794,\"nameArabic\":\"كايسيري\",\"nameEnglish\":\"KAYSERI\",\"isActive\":true,\"lastUpdated\":\"2022-06-02T01:21:58Z\",\"sectors\":null},{\"id\":764,\"nameArabic\":\"طنجه\",\"nameEnglish\":\"Tangier\",\"isActive\":true,\"lastUpdated\":\"2022-06-02T01:27:13Z\",\"sectors\":null},{\"id\":780,\"nameArabic\":\"شهيراز\",\"nameEnglish\":\"Shahyraz\",\"isActive\":true,\"lastUpdated\":\"2022-06-02T00:37:28Z\",\"sectors\":null},{\"id\":712,\"nameArabic\":\"طشقند\",\"nameEnglish\":\"Tashkent\",\"isActive\":true,\"lastUpdated\":\"2022-06-02T01:27:13Z\",\"sectors\":null},{\"id\":824,\"nameArabic\":\"سمكرند\",\"nameEnglish\":\"Samarqand\",\"isActive\":true,\"lastUpdated\":\"2022-06-02T00:37:28Z\",\"sectors\":null},{\"id\":993,\"nameArabic\":\"كرابي\",\"nameEnglish\":\"KRBI\",\"isActive\":true,\"lastUpdated\":\"2022-06-02T01:22:03Z\",\"sectors\":null},{\"id\":820,\"nameArabic\":\"كاليكوت\",\"nameEnglish\":\"CALICUT\",\"isActive\":true,\"lastUpdated\":\"2022-06-02T01:27:21Z\",\"sectors\":null},{\"id\":91,\"nameArabic\":\"كانو\",\"nameEnglish\":\"KANO\",\"isActive\":true,\"lastUpdated\":\"2022-06-02T01:22:03Z\",\"sectors\":null},{\"id\":125,\"nameArabic\":\"كابل\",\"nameEnglish\":\"Kabul\",\"isActive\":true,\"lastUpdated\":\"2022-06-02T00:42:58Z\",\"sectors\":null},{\"id\":34,\"nameArabic\":\"فيينا\",\"nameEnglish\":\"Vienna\",\"isActive\":true,\"lastUpdated\":\"2022-06-02T00:42:59Z\",\"sectors\":null},{\"id\":67,\"nameArabic\":\"صنعاء\",\"nameEnglish\":\"Sanaa\",\"isActive\":true,\"lastUpdated\":\"2022-06-02T00:55:27Z\",\"sectors\":null}]}\" contains \"content\"."},{"name":"stepLog","value":"Assertion \"ValidateEquals\" PASSED. Expected and Actual values are attached. Comparison Type \"CONTAINS\". Validation Type \"POSITIVE\"."},{"name":"attachments","value":"[[Validation Test Data, Expected Value, content], [Validation Test Data, Actual Value, {\"page\":0,\"size\":20,\"totalPages\":36,\"totalElements\":709,\"content\":[{\"id\":36,\"nameArabic\":\"كوالالمبور\",\"nameEnglish\":\"Kuala Lumpur\",\"isActive\":true,\"lastUpdated\":\"2022-06-02T01:21:49Z\",\"sectors\":null},{\"id\":849,\"nameArabic\":\"سولنجين\",\"nameEnglish\":\"Solngen\",\"isActive\":true,\"lastUpdated\":\"2022-06-02T01:37:02Z\",\"sectors\":null},{\"id\":1006,\"nameArabic\":\"بشكشكي\",\"nameEnglish\":\"FRUNZE\",\"isActive\":true,\"lastUpdated\":\"2022-06-02T00:20:05Z\",\"sectors\":null},{\"id\":985,\"nameArabic\":\"قندهار\",\"nameEnglish\":\"KANDAHAR\",\"isActive\":true,\"lastUpdated\":\"2022-06-02T00:25:20Z\",\"sectors\":null},{\"id\":736,\"nameArabic\":\"طبركا\",\"nameEnglish\":\"Tabrka\",\"isActive\":true,\"lastUpdated\":\"2022-06-02T01:16:50Z\",\"sectors\":null},{\"id\":953,\"nameArabic\":\"سوهاج\",\"nameEnglish\":\"Sohag\",\"isActive\":true,\"lastUpdated\":\"2022-06-02T00:25:24Z\",\"sectors\":null},{\"id\":816,\"nameArabic\":\"كوتشين\",\"nameEnglish\":\"Cochin\",\"isActive\":true,\"lastUpdated\":\"2022-06-02T01:06:13Z\",\"sectors\":null},{\"id\":789,\"nameArabic\":\"فيصل اباد\",\"nameEnglish\":\"Faisalabad\",\"isActive\":true,\"lastUpdated\":\"2022-06-02T01:27:12Z\",\"sectors\":null},{\"id\":1013,\"nameArabic\":\"كازان\",\"nameEnglish\":\"KAZAN\",\"isActive\":true,\"lastUpdated\":\"2022-06-02T00:37:19Z\",\"sectors\":null},{\"id\":794,\"nameArabic\":\"كايسيري\",\"nameEnglish\":\"KAYSERI\",\"isActive\":true,\"lastUpdated\":\"2022-06-02T01:21:58Z\",\"sectors\":null},{\"id\":764,\"nameArabic\":\"طنجه\",\"nameEnglish\":\"Tangier\",\"isActive\":true,\"lastUpdated\":\"2022-06-02T01:27:13Z\",\"sectors\":null},{\"id\":780,\"nameArabic\":\"شهيراز\",\"nameEnglish\":\"Shahyraz\",\"isActive\":true,\"lastUpdated\":\"2022-06-02T00:37:28Z\",\"sectors\":null},{\"id\":712,\"nameArabic\":\"طشقند\",\"nameEnglish\":\"Tashkent\",\"isActive\":true,\"lastUpdated\":\"2022-06-02T01:27:13Z\",\"sectors\":null},{\"id\":824,\"nameArabic\":\"سمكرند\",\"nameEnglish\":\"Samarqand\",\"isActive\":true,\"lastUpdated\":\"2022-06-02T00:37:28Z\",\"sectors\":null},{\"id\":993,\"nameArabic\":\"كرابي\",\"nameEnglish\":\"KRBI\",\"isActive\":true,\"lastUpdated\":\"2022-06-02T01:22:03Z\",\"sectors\":null},{\"id\":820,\"nameArabic\":\"كاليكوت\",\"nameEnglish\":\"CALICUT\",\"isActive\":true,\"lastUpdated\":\"2022-06-02T01:27:21Z\",\"sectors\":null},{\"id\":91,\"nameArabic\":\"كانو\",\"nameEnglish\":\"KANO\",\"isActive\":true,\"lastUpdated\":\"2022-06-02T01:22:03Z\",\"sectors\":null},{\"id\":125,\"nameArabic\":\"كابل\",\"nameEnglish\":\"Kabul\",\"isActive\":true,\"lastUpdated\":\"2022-06-02T00:42:58Z\",\"sectors\":null},{\"id\":34,\"nameArabic\":\"فيينا\",\"nameEnglish\":\"Vienna\",\"isActive\":true,\"lastUpdated\":\"2022-06-02T00:42:59Z\",\"sectors\":null},{\"id\":67,\"nameArabic\":\"صنعاء\",\"nameEnglish\":\"Sanaa\",\"isActive\":true,\"lastUpdated\":\"2022-06-02T00:55:27Z\",\"sectors\":null}]}]]"}],"start":1675774623600,"stop":1675774623604},{"name":"Assertion Passed: Check that content object is not null.","status":"passed","stage":"finished","steps":[],"attachments":[{"name":"Validation Test Data - Expected Value","source":"e6e15b06-d31b-4eb8-ad0c-f8d595e9cd0c-attachment"},{"name":"Validation Test Data - Actual Value","source":"dcebd41d-4cfc-44ad-ae43-00810ba2c4a0-attachment"}],"parameters":[{"name":"customLog","value":"Assertion Passed: Check that content object is not null."},{"name":"stepLog","value":"Assertion \"ValidateEquals\" PASSED. Expected and Actual values are attached. Comparison Type \"EQUALS\". Validation Type \"NEGATIVE\"."},{"name":"attachments","value":"[[Validation Test Data, Expected Value, null], [Validation Test Data, Actual Value, [{\"id\":36,\"nameArabic\":\"كوالالمبور\",\"nameEnglish\":\"Kuala Lumpur\",\"isActive\":true,\"lastUpdated\":\"2022-06-02T01:21:49Z\",\"sectors\":null},{\"id\":849,\"nameArabic\":\"سولنجين\",\"nameEnglish\":\"Solngen\",\"isActive\":true,\"lastUpdated\":\"2022-06-02T01:37:02Z\",\"sectors\":null},{\"id\":1006,\"nameArabic\":\"بشكشكي\",\"nameEnglish\":\"FRUNZE\",\"isActive\":true,\"lastUpdated\":\"2022-06-02T00:20:05Z\",\"sectors\":null},{\"id\":985,\"nameArabic\":\"قندهار\",\"nameEnglish\":\"KANDAHAR\",\"isActive\":true,\"lastUpdated\":\"2022-06-02T00:25:20Z\",\"sectors\":null},{\"id\":736,\"nameArabic\":\"طبركا\",\"nameEnglish\":\"Tabrka\",\"isActive\":true,\"lastUpdated\":\"2022-06-02T01:16:50Z\",\"sectors\":null},{\"id\":953,\"nameArabic\":\"سوهاج\",\"nameEnglish\":\"Sohag\",\"isActive\":true,\"lastUpdated\":\"2022-06-02T00:25:24Z\",\"sectors\":null},{\"id\":816,\"nameArabic\":\"كوتشين\",\"nameEnglish\":\"Cochin\",\"isActive\":true,\"lastUpdated\":\"2022-06-02T01:06:13Z\",\"sectors\":null},{\"id\":789,\"nameArabic\":\"فيصل اباد\",\"nameEnglish\":\"Faisalabad\",\"isActive\":true,\"lastUpdated\":\"2022-06-02T01:27:12Z\",\"sectors\":null},{\"id\":1013,\"nameArabic\":\"كازان\",\"nameEnglish\":\"KAZAN\",\"isActive\":true,\"lastUpdated\":\"2022-06-02T00:37:19Z\",\"sectors\":null},{\"id\":794,\"nameArabic\":\"كايسيري\",\"nameEnglish\":\"KAYSERI\",\"isActive\":true,\"lastUpdated\":\"2022-06-02T01:21:58Z\",\"sectors\":null},{\"id\":764,\"nameArabic\":\"طنجه\",\"nameEnglish\":\"Tangier\",\"isActive\":true,\"lastUpdated\":\"2022-06-02T01:27:13Z\",\"sectors\":null},{\"id\":780,\"nameArabic\":\"شهيراز\",\"nameEnglish\":\"Shahyraz\",\"isActive\":true,\"lastUpdated\":\"2022-06-02T00:37:28Z\",\"sectors\":null},{\"id\":712,\"nameArabic\":\"طشقند\",\"nameEnglish\":\"Tashkent\",\"isActive\":true,\"lastUpdated\":\"2022-06-02T01:27:13Z\",\"sectors\":null},{\"id\":824,\"nameArabic\":\"سمكرند\",\"nameEnglish\":\"Samarqand\",\"isActive\":true,\"lastUpdated\":\"2022-06-02T00:37:28Z\",\"sectors\":null},{\"id\":993,\"nameArabic\":\"كرابي\",\"nameEnglish\":\"KRBI\",\"isActive\":true,\"lastUpdated\":\"2022-06-02T01:22:03Z\",\"sectors\":null},{\"id\":820,\"nameArabic\":\"كاليكوت\",\"nameEnglish\":\"CALICUT\",\"isActive\":true,\"lastUpdated\":\"2022-06-02T01:27:21Z\",\"sectors\":null},{\"id\":91,\"nameArabic\":\"كانو\",\"nameEnglish\":\"KANO\",\"isActive\":true,\"lastUpdated\":\"2022-06-02T01:22:03Z\",\"sectors\":null},{\"id\":125,\"nameArabic\":\"كابل\",\"nameEnglish\":\"Kabul\",\"isActive\":true,\"lastUpdated\":\"2022-06-02T00:42:58Z\",\"sectors\":null},{\"id\":34,\"nameArabic\":\"فيينا\",\"nameEnglish\":\"Vienna\",\"isActive\":true,\"lastUpdated\":\"2022-06-02T00:42:59Z\",\"sectors\":null},{\"id\":67,\"nameArabic\":\"صنعاء\",\"nameEnglish\":\"Sanaa\",\"isActive\":true,\"lastUpdated\":\"2022-06-02T00:55:27Z\",\"sectors\":null}]]]"}],"start":1675774623606,"stop":1675774623608},{"name":"Assertion Passed: The API response schema matches that in this file \"src/test/resources/testDataFiles/Schemas/Lookups_cities_schema.json\".","status":"passed","stage":"finished","steps":[],"attachments":[{"name":"Validation Test Data - Expected JSON Value","source":"652322b8-dc14-4a29-9a03-bef92b4250c6-attachment.json","type":"text/json"},{"name":"Validation Test Data - Actual JSON Value","source":"d8b30be1-d336-4986-82b4-5750eda5e6fe-attachment.json","type":"text/json"}],"parameters":[{"name":"customLog","value":"Assertion Passed: The API response schema matches that in this file \"src/test/resources/testDataFiles/Schemas/Lookups_cities_schema.json\"."},{"name":"stepLog","value":"Assertion \"ValidateResponseFileSchema\" PASSED. Expected \"Response data should match the JSON File in this path 'C:\\eclipse-workspace\\MyProjects\\TASystemsAPIs\\src\\test\\resources\\testDataFiles\\Schemas\\Lookups_cities_schema.json'\" and Actual \"TRUE\". Comparison Type \"EQUALS\". Validation Type \"POSITIVE\"."},{"name":"attachments","value":"[[Validation Test Data, Expected JSON Value, java.io.ByteArrayInputStream@44807113], [Validation Test Data, Actual JSON Value, java.io.ByteArrayInputStream@1c441c0c]]"}],"start":1675774623623,"stop":1675774623626}],"attachments":[{"name":"SHAFT Engine Logs - Current Method log: Valid_GET_all_cities_Lookups_Rq_TC","source":"f699ec9e-7307-4fc7-9b2a-57796b3e5c49-attachment.txt","type":"text/plain"}],"parameters":[],"start":1675774621962,"stop":1675774623627}