[ReportManager] Setting discrete logging to: "false" @02-10-2022 20:52:44.0671 PM

################################################################################################################################################
Starting Execution:	"12 out of 13" test cases in the current suite
Test Method:		"SteeringCompanyAPI_TestCases.Test_Case.Valid_GET_all_vehicleTypes_Lookups_Rq_TC"
################################################################################################################################################
[ReportManager] Setting discrete logging to: "false" @02-10-2022 20:52:44.0671 PM
[ReportManager] Setting discrete logging to: "true" @02-10-2022 20:52:45.0115 PM
[ReportManager] Response status code: "200", status line: "HTTP/1.1 200 OK" @02-10-2022 20:52:45.0115 PM
[ReportManager] Assertion Passed: Evaluating the actual response status code against the expected one... @02-10-2022 20:52:45.0115 PM
[ReportManager] Setting discrete logging to: "false" @02-10-2022 20:52:45.0115 PM
[ReportManager] Perform request "POST | Target Status Code: 200 | Service URL: https://auth-demo.np.transporticonline.com/auth/realms/tic/protocol/openid-connect/token | Content Type: application/x-www-form-urlencoded | Response Time: 444ms". @02-10-2022 20:52:45.0145 PM
[ReportManager] Successfully created attachment "API Request - Specifications" @02-10-2022 20:52:45.0146 PM
[ReportManager] Successfully created attachment "API Request - Body" @02-10-2022 20:52:45.0148 PM
[ReportManager] Successfully created attachment "API Response - JSON Body" @02-10-2022 20:52:45.0150 PM
[ReportManager] Assertion Passed: "200" is equal to "200". @02-10-2022 20:52:45.0150 PM
[ReportManager] Verification Passed: "444" is greater than or equal to "1.1". @02-10-2022 20:52:45.0151 PM
[ReportManager] Verification Passed: "444" is less than or equal to "10000". @02-10-2022 20:52:45.0151 PM
[ReportManager] Assertion Passed: "{"access_token":"eyJhbGciOiJSUzI1NiIsInR5cCIgOiAiSldUIiwia2lkIiA6ICJjck9ORDFNdFVPVWhzS2Mtb0ppVFFmb0o1d1l4REF6Y3k0ZjNYZ0dveGdZIn0.eyJleHAiOjE2NjQ3MzcwNjUsImlhdCI6MTY2NDczNjc2NSwianRpIjoiY2M1MWQ5OTQtZTlhNy00MzZhLWJhMTEtZGY5NWM1MjFjYmUyIiwiaXNzIjoiaHR0cHM6Ly9hdXRoLWRlbW8ubnAudHJhbnNwb3J0aWNvbmxpbmUuY29tL2F1dGgvcmVhbG1zL3RpYyIsImF1ZCI6ImFjY291bnQiLCJzdWIiOiI0ZTk3NmQ0NC1iM2ZkLTRjYTktODk1Ny0wYWJiODUwNzNhNzQiLCJ0eXAiOiJCZWFyZXIiLCJhenAiOiJ0aWMtYXBpIiwic2Vzc2lvbl9zdGF0ZSI6ImU3YjI4ZWYyLWVmNjgtNDY1Ny05YTI4LWE1OGUwMmI2MGE4OSIsImFjciI6IjEiLCJhbGxvd2VkLW9yaWdpbnMiOlsiaHR0cHM6Ly9hcGktZGV2Lm5wLnRyYW5zcG9ydGljb25saW5lLmNvbSJdLCJyZWFsbV9hY2Nlc3MiOnsicm9sZXMiOlsib2ZmbGluZV9hY2Nlc3MiLCJkZWZhdWx0LXJvbGVzLXRpYyIsInVtYV9hdXRob3JpemF0aW9uIiwidXNlciJdfSwicmVzb3VyY2VfYWNjZXNzIjp7ImFjY291bnQiOnsicm9sZXMiOlsibWFuYWdlLWFjY291bnQiLCJtYW5hZ2UtYWNjb3VudC1saW5rcyIsInZpZXctcHJvZmlsZSJdfX0sInNjb3BlIjoiZW1haWwgcHJvZmlsZSIsInNpZCI6ImU3YjI4ZWYyLWVmNjgtNDY1Ny05YTI4LWE1OGUwMmI2MGE4OSIsImVtYWlsX3ZlcmlmaWVkIjpmYWxzZSwicHJlZmVycmVkX3VzZXJuYW1lIjoidG9raGkiLCJ0Y0lkIjoiMzE5OTU3In0.XIhlhmw2WCbbh6Rc9qIOPYcr2fZ-QW9-nOjsQgSCl7UsCB8hFrZ37B_9A3j_d5waNzfuzamZ5Q-F-Bv3YIhZd5dv_7zXicjTyWb3myUV0RI2xqO-Oz8RdWPMP5ec-jyS0QIWIm_GnWHIcdqTvDvkt5u0WTWVCDDG44SW-ZqCrxPp_KbAxuTo1u-5puBvjCR-nX4J-zri6RJ0Q2GGuIP1JjV91YCnD6fdOPLzoqZ2Z39ZF4sX7bTx7mshlL6vti0lLsH1gS-gfIt4TN4jq1VabYd050wH3zIQSlIOM6KOpuxWgOxBKFQAET1kLT-uXUBsDjFOY0QrHg99JNkGYDQqjQ","expires_in":300,"refresh_expires_in":1800,"refresh_token":"eyJhbGciOiJIUzI1NiIsInR5cCIgOiAiSldUIiwia2lkIiA6ICJkMTFjNTY4Yi1iMjAyLTQzYjgtYTBiMy1hYWI4ZWMyYWQzZDEifQ.eyJleHAiOjE2NjQ3Mzg1NjUsImlhdCI6MTY2NDczNjc2NSwianRpIjoiNjc3MTM5NjQtOWYwNy00OTRmLTk1YzEtYzM4MGE3ZGI0NzFhIiwiaXNzIjoiaHR0cHM6Ly9hdXRoLWRlbW8ubnAudHJhbnNwb3J0aWNvbmxpbmUuY29tL2F1dGgvcmVhbG1zL3RpYyIsImF1ZCI6Imh0dHBzOi8vYXV0aC1kZW1vLm5wLnRyYW5zcG9ydGljb25saW5lLmNvbS9hdXRoL3JlYWxtcy90aWMiLCJzdWIiOiI0ZTk3NmQ0NC1iM2ZkLTRjYTktODk1Ny0wYWJiODUwNzNhNzQiLCJ0eXAiOiJSZWZyZXNoIiwiYXpwIjoidGljLWFwaSIsInNlc3Npb25fc3RhdGUiOiJlN2IyOGVmMi1lZjY4LTQ2NTctOWEyOC1hNThlMDJiNjBhODkiLCJzY29wZSI6ImVtYWlsIHByb2ZpbGUiLCJzaWQiOiJlN2IyOGVmMi1lZjY4LTQ2NTctOWEyOC1hNThlMDJiNjBhODkifQ.B37cEzUFEGZ6x3mtRI_CizbFLgu9Bihe7u-jDG5UWac","token_type":"Bearer","not-before-policy":0,"session_state":"e7b28ef2-ef68-4657-9a28-a58e02b60a89","scope":"email profile"}" contains "access_token". @02-10-2022 20:52:45.0151 PM
[ReportManager] Successfully created attachment "Validation Test Data - Expected Value" @02-10-2022 20:52:45.0154 PM
[ReportManager] Successfully created attachment "Validation Test Data - Actual Value" @02-10-2022 20:52:45.0155 PM
[ReportManager] Get response jsonvalue "access_token". @02-10-2022 20:52:45.0156 PM
[ReportManager] Assertion Passed: Check that Access token is not null. @02-10-2022 20:52:45.0156 PM
[ReportManager] Successfully created attachment "Validation Test Data - Expected Value" @02-10-2022 20:52:45.0158 PM
[ReportManager] Successfully created attachment "Validation Test Data - Actual Value" @02-10-2022 20:52:45.0158 PM
[ReportManager] File Action "DoesFileExist" successfully performed. With the following test data "File Path: "Token_schema.json"". @02-10-2022 20:52:45.0160 PM
[ReportManager] File Action "DoesFileExist" successfully performed. With the following test data "File Path: "src/test/resources/testDataFiles/Token_schema.json"". @02-10-2022 20:52:45.0160 PM
[ReportManager] File Action "GetAbsolutePath" successfully performed. With the following test data "Relative Folder Path: "src/test/resources/testDataFiles/Token_schema.json"". @02-10-2022 20:52:45.0162 PM
[ReportManager] File Action "DoesFileExist" successfully performed. With the following test data "File Path: "C:\eclipse-workspace\MyProjects\TASystemsAPIs\src\test\resources\testDataFiles\Token_schema.json"". @02-10-2022 20:52:45.0162 PM
[ReportManager] File Action "GetAbsolutePath" successfully performed. With the following test data "Relative Folder Path: "C:\eclipse-workspace\MyProjects\TASystemsAPIs\src\test\resources\testDataFiles\Token_schema.json"". @02-10-2022 20:52:45.0162 PM
[ReportManager] File Action "ReadFromFile" successfully performed. With the following test data "File Path: "C:\eclipse-workspace\MyProjects\TASystemsAPIs\src\test\resources\testDataFiles\Token_schema.json"". @02-10-2022 20:52:45.0162 PM
[ReportManager] Assertion Passed: The API response schema matches that in this file "src/test/resources/testDataFiles/Token_schema.json". @02-10-2022 20:52:45.0162 PM
[ReportManager] Successfully created attachment "Validation Test Data - Expected JSON Value" @02-10-2022 20:52:45.0174 PM
[ReportManager] Successfully created attachment "Validation Test Data - Actual JSON Value" @02-10-2022 20:52:45.0176 PM
[ReportManager] Verification Passed: "444" is greater than or equal to "1.1". @02-10-2022 20:52:45.0197 PM
[ReportManager] Verification Passed: "444" is less than or equal to "10000". @02-10-2022 20:52:45.0197 PM
[ReportManager] Setting discrete logging to: "true" @02-10-2022 20:52:45.0585 PM
[ReportManager] Response status code: "200", status line: "HTTP/1.1 200 " @02-10-2022 20:52:45.0585 PM
[ReportManager] Assertion Passed: Evaluating the actual response status code against the expected one... @02-10-2022 20:52:45.0585 PM
[ReportManager] Setting discrete logging to: "false" @02-10-2022 20:52:45.0587 PM
[ReportManager] Perform request "GET | Target Status Code: 200 | Service URL: https://api-demo.np.transporticonline.com/steeringcompanies/v1/lookups/vehicleTypes | Content Type: */* | Response Time: 346ms". @02-10-2022 20:52:45.0614 PM
[ReportManager] Successfully created attachment "API Request - Specifications" @02-10-2022 20:52:45.0614 PM
[ReportManager] Successfully created attachment "API Response - JSON Body" @02-10-2022 20:52:45.0618 PM
[ReportManager] Assertion Passed: "200" is equal to "200". @02-10-2022 20:52:45.0621 PM
[ReportManager] Verification Passed: "346" is greater than or equal to "1.1". @02-10-2022 20:52:45.0621 PM
[ReportManager] Verification Passed: "346" is less than or equal to "10000". @02-10-2022 20:52:45.0624 PM
[ReportManager] Assertion Passed: "{"page":0,"size":2147483647,"totalPages":1,"totalElements":4,"content":[{"id":1,"nameArabic":"????? ?????","nameEnglish":"Sedan Car","isActive":true,"lastUpdated":"2019-12-15T12:21:55Z","maximumCapacity":4,"sectors":null},{"id":4,"nameArabic":"???","nameEnglish":"Van","isActive":true,"lastUpdated":"2020-01-21T07:57:12Z","maximumCapacity":15,"sectors":null},{"id":2,"nameArabic":"????? ???","nameEnglish":"SUV Car","isActive":true,"lastUpdated":"2019-12-15T12:22:01Z","maximumCapacity":7,"sectors":null},{"id":3,"nameArabic":"?????","nameEnglish":"Bus","isActive":true,"lastUpdated":"2020-01-05T18:27:40Z","maximumCapacity":55,"sectors":null}]}" contains "content". @02-10-2022 20:52:45.0624 PM
[ReportManager] Successfully created attachment "Validation Test Data - Expected Value" @02-10-2022 20:52:45.0624 PM
[ReportManager] Successfully created attachment "Validation Test Data - Actual Value" @02-10-2022 20:52:45.0629 PM
[ReportManager] Get response jsonvalue "content". @02-10-2022 20:52:45.0632 PM
[ReportManager] Assertion Passed: Check that content object is not null. @02-10-2022 20:52:45.0632 PM
[ReportManager] Successfully created attachment "Validation Test Data - Expected Value" @02-10-2022 20:52:45.0633 PM
[ReportManager] Successfully created attachment "Validation Test Data - Actual Value" @02-10-2022 20:52:45.0633 PM
[ReportManager] File Action "DoesFileExist" successfully performed. With the following test data "File Path: "Lookups_vehicleTypes_schema.json"". @02-10-2022 20:52:45.0633 PM
[ReportManager] File Action "DoesFileExist" successfully performed. With the following test data "File Path: "src/test/resources/testDataFiles/Lookups_vehicleTypes_schema.json"". @02-10-2022 20:52:45.0633 PM
[ReportManager] File Action "GetAbsolutePath" successfully performed. With the following test data "Relative Folder Path: "src/test/resources/testDataFiles/Lookups_vehicleTypes_schema.json"". @02-10-2022 20:52:45.0633 PM
[ReportManager] File Action "DoesFileExist" successfully performed. With the following test data "File Path: "C:\eclipse-workspace\MyProjects\TASystemsAPIs\src\test\resources\testDataFiles\Lookups_vehicleTypes_schema.json"". @02-10-2022 20:52:45.0650 PM
[ReportManager] File Action "GetAbsolutePath" successfully performed. With the following test data "Relative Folder Path: "C:\eclipse-workspace\MyProjects\TASystemsAPIs\src\test\resources\testDataFiles\Lookups_vehicleTypes_schema.json"". @02-10-2022 20:52:45.0652 PM
[ReportManager] File Action "ReadFromFile" successfully performed. With the following test data "File Path: "C:\eclipse-workspace\MyProjects\TASystemsAPIs\src\test\resources\testDataFiles\Lookups_vehicleTypes_schema.json"". @02-10-2022 20:52:45.0654 PM
[ReportManager] Assertion Passed: The API response schema matches that in this file "src/test/resources/testDataFiles/Lookups_vehicleTypes_schema.json". @02-10-2022 20:52:45.0656 PM
[ReportManager] Successfully created attachment "Validation Test Data - Expected JSON Value" @02-10-2022 20:52:45.0656 PM
[ReportManager] Successfully created attachment "Validation Test Data - Actual JSON Value" @02-10-2022 20:52:45.0656 PM
[ReportManager] Verification Passed: "346" is greater than or equal to "1.1". @02-10-2022 20:52:45.0656 PM
[ReportManager] Verification Passed: "346" is less than or equal to "10000". @02-10-2022 20:52:45.0656 PM
[ReportManager] Setting discrete logging to: "true" @02-10-2022 20:52:45.0989 PM
[ReportManager] Response status code: "200", status line: "HTTP/1.1 200 " @02-10-2022 20:52:45.0989 PM
[ReportManager] Assertion Passed: Evaluating the actual response status code against the expected one... @02-10-2022 20:52:45.0989 PM
[ReportManager] Setting discrete logging to: "false" @02-10-2022 20:52:45.0989 PM
[ReportManager] Perform request "GET | Target Status Code: 200 | Service URL: https://api-demo.np.transporticonline.com/steeringcompanies/v1/lookups/vehicleTypes | Content Type: */* | Response Time: 325ms". @02-10-2022 20:52:46.0017 PM
[ReportManager] Successfully created attachment "API Request - Specifications" @02-10-2022 20:52:46.0020 PM
[ReportManager] Successfully created attachment "API Response - JSON Body" @02-10-2022 20:52:46.0025 PM
[ReportManager] Assertion Passed: "200" is equal to "200". @02-10-2022 20:52:46.0027 PM
[ReportManager] Verification Passed: "325" is greater than or equal to "1.1". @02-10-2022 20:52:46.0027 PM
[ReportManager] Verification Passed: "325" is less than or equal to "10000". @02-10-2022 20:52:46.0027 PM
[ReportManager] Assertion Passed: "{"page":0,"size":3,"totalPages":2,"totalElements":4,"content":[{"id":1,"nameArabic":"????? ?????","nameEnglish":"Sedan Car","isActive":true,"lastUpdated":"2019-12-15T12:21:55Z","maximumCapacity":4,"sectors":null},{"id":4,"nameArabic":"???","nameEnglish":"Van","isActive":true,"lastUpdated":"2020-01-21T07:57:12Z","maximumCapacity":15,"sectors":null},{"id":2,"nameArabic":"????? ???","nameEnglish":"SUV Car","isActive":true,"lastUpdated":"2019-12-15T12:22:01Z","maximumCapacity":7,"sectors":null}]}" contains "content". @02-10-2022 20:52:46.0027 PM
[ReportManager] Get response jsonvalue "content". @02-10-2022 20:52:46.0027 PM
[ReportManager] Assertion Passed: Check that content object is not null. @02-10-2022 20:52:46.0027 PM
[ReportManager] File Action "DoesFileExist" successfully performed. With the following test data "File Path: "Lookups_vehicleTypes_schema.json"". @02-10-2022 20:52:46.0027 PM
[ReportManager] File Action "DoesFileExist" successfully performed. With the following test data "File Path: "src/test/resources/testDataFiles/Lookups_vehicleTypes_schema.json"". @02-10-2022 20:52:46.0027 PM
[ReportManager] File Action "GetAbsolutePath" successfully performed. With the following test data "Relative Folder Path: "src/test/resources/testDataFiles/Lookups_vehicleTypes_schema.json"". @02-10-2022 20:52:46.0027 PM
[ReportManager] File Action "DoesFileExist" successfully performed. With the following test data "File Path: "C:\eclipse-workspace\MyProjects\TASystemsAPIs\src\test\resources\testDataFiles\Lookups_vehicleTypes_schema.json"". @02-10-2022 20:52:46.0037 PM
[ReportManager] File Action "GetAbsolutePath" successfully performed. With the following test data "Relative Folder Path: "C:\eclipse-workspace\MyProjects\TASystemsAPIs\src\test\resources\testDataFiles\Lookups_vehicleTypes_schema.json"". @02-10-2022 20:52:46.0037 PM
[ReportManager] File Action "ReadFromFile" successfully performed. With the following test data "File Path: "C:\eclipse-workspace\MyProjects\TASystemsAPIs\src\test\resources\testDataFiles\Lookups_vehicleTypes_schema.json"". @02-10-2022 20:52:46.0037 PM
[ReportManager] Assertion Passed: The API response schema matches that in this file "src/test/resources/testDataFiles/Lookups_vehicleTypes_schema.json". @02-10-2022 20:52:46.0037 PM
[ReportManager] Successfully created attachment "Validation Test Data - Expected JSON Value" @02-10-2022 20:52:46.0045 PM
[ReportManager] Successfully created attachment "Validation Test Data - Actual JSON Value" @02-10-2022 20:52:46.0047 PM
[ReportManager] Verification Passed: "325" is greater than or equal to "1.1". @02-10-2022 20:52:46.0048 PM
[ReportManager] Verification Passed: "325" is less than or equal to "10000". @02-10-2022 20:52:46.0048 PM