[ReportManager] Setting discrete logging to: "false" @03-10-2022 13:40:29.0659 PM

################################################################################################################################################
Starting Execution:	"10 out of 13" test cases in the current suite
Test Method:		"SteeringCompanyAPI_TestCases.Test_Case.Valid_GET_all_terminals_Lookups_Rq_TC"
################################################################################################################################################
[ReportManager] Setting discrete logging to: "false" @03-10-2022 13:40:29.0659 PM
[ReportManager] Setting discrete logging to: "true" @03-10-2022 13:40:30.0319 PM
[ReportManager] Response status code: "200", status line: "HTTP/1.1 200 OK" @03-10-2022 13:40:30.0319 PM
[ReportManager] Assertion Passed: Evaluating the actual response status code against the expected one... @03-10-2022 13:40:30.0319 PM
[ReportManager] Setting discrete logging to: "false" @03-10-2022 13:40:30.0320 PM
[ReportManager] Perform request "POST | Target Status Code: 200 | Service URL: https://auth-demo.np.transporticonline.com/auth/realms/tic/protocol/openid-connect/token | Content Type: application/x-www-form-urlencoded | Response Time: 658ms". @03-10-2022 13:40:30.0342 PM
[ReportManager] Successfully created attachment "API Request - Specifications" @03-10-2022 13:40:30.0344 PM
[ReportManager] Successfully created attachment "API Request - Body" @03-10-2022 13:40:30.0346 PM
[ReportManager] Successfully created attachment "API Response - JSON Body" @03-10-2022 13:40:30.0350 PM
[ReportManager] Assertion Passed: "200" is equal to "200". @03-10-2022 13:40:30.0350 PM
[ReportManager] Verification Passed: "658" is greater than or equal to "1.1". @03-10-2022 13:40:30.0351 PM
[ReportManager] Verification Passed: "658" is less than or equal to "10000". @03-10-2022 13:40:30.0351 PM
[ReportManager] Assertion Passed: "{"access_token":"eyJhbGciOiJSUzI1NiIsInR5cCIgOiAiSldUIiwia2lkIiA6ICJjck9ORDFNdFVPVWhzS2Mtb0ppVFFmb0o1d1l4REF6Y3k0ZjNYZ0dveGdZIn0.eyJleHAiOjE2NjQ3OTc1MjgsImlhdCI6MTY2NDc5NzIyOCwianRpIjoiNDY4NDY5MDgtYzFlNy00YjEyLWFhZDItZTdhODlhMDFhODFmIiwiaXNzIjoiaHR0cHM6Ly9hdXRoLWRlbW8ubnAudHJhbnNwb3J0aWNvbmxpbmUuY29tL2F1dGgvcmVhbG1zL3RpYyIsImF1ZCI6ImFjY291bnQiLCJzdWIiOiI0ZTk3NmQ0NC1iM2ZkLTRjYTktODk1Ny0wYWJiODUwNzNhNzQiLCJ0eXAiOiJCZWFyZXIiLCJhenAiOiJ0aWMtYXBpIiwic2Vzc2lvbl9zdGF0ZSI6IjI2YWFiYTQ5LTc1YzItNGQ3Ny04NThmLTdiODBhMWY2MGQzMyIsImFjciI6IjEiLCJhbGxvd2VkLW9yaWdpbnMiOlsiaHR0cHM6Ly9hcGktZGV2Lm5wLnRyYW5zcG9ydGljb25saW5lLmNvbSJdLCJyZWFsbV9hY2Nlc3MiOnsicm9sZXMiOlsib2ZmbGluZV9hY2Nlc3MiLCJkZWZhdWx0LXJvbGVzLXRpYyIsInVtYV9hdXRob3JpemF0aW9uIiwidXNlciJdfSwicmVzb3VyY2VfYWNjZXNzIjp7ImFjY291bnQiOnsicm9sZXMiOlsibWFuYWdlLWFjY291bnQiLCJtYW5hZ2UtYWNjb3VudC1saW5rcyIsInZpZXctcHJvZmlsZSJdfX0sInNjb3BlIjoiZW1haWwgcHJvZmlsZSIsInNpZCI6IjI2YWFiYTQ5LTc1YzItNGQ3Ny04NThmLTdiODBhMWY2MGQzMyIsImVtYWlsX3ZlcmlmaWVkIjpmYWxzZSwicHJlZmVycmVkX3VzZXJuYW1lIjoidG9raGkiLCJ0Y0lkIjoiMzE5OTU3In0.IgX-116dbCAWOWkCSMJ81KME2fNlW46lsz0mFnAxqmg7DbYZsu7ZG3mQxxV7wfVeVK6Qmtp-It3JiknuUSykgWFgK5Wyga9Aps3937VUmNSFI0JrT6Rj35u2bQ9l8Z1qqOjyfEw3764RmkYLkXQBNx7cvMj6TO30D2bMwZOf8lLhZU3ONumeeP0mzdy528QK8HKHdeSLTltoZQ0CEJ2mD97breQovOqmwmX0qFMnHfD1_DIWgvkENwZMJkqj9qJW-Chjm3otXGiF-nCwNM60ZQb6u9aBuXS9LODHHLM3ta2h4wJ11DshOBaN2V4bNx_avd5VP3nvek8hF7CyQ-X7xg","expires_in":300,"refresh_expires_in":1800,"refresh_token":"eyJhbGciOiJIUzI1NiIsInR5cCIgOiAiSldUIiwia2lkIiA6ICJkMTFjNTY4Yi1iMjAyLTQzYjgtYTBiMy1hYWI4ZWMyYWQzZDEifQ.eyJleHAiOjE2NjQ3OTkwMjgsImlhdCI6MTY2NDc5NzIyOCwianRpIjoiNjI5MGI5OGYtNmQ3Ni00Yjk0LWI4NzctZmEyYTI4YjBjMjFiIiwiaXNzIjoiaHR0cHM6Ly9hdXRoLWRlbW8ubnAudHJhbnNwb3J0aWNvbmxpbmUuY29tL2F1dGgvcmVhbG1zL3RpYyIsImF1ZCI6Imh0dHBzOi8vYXV0aC1kZW1vLm5wLnRyYW5zcG9ydGljb25saW5lLmNvbS9hdXRoL3JlYWxtcy90aWMiLCJzdWIiOiI0ZTk3NmQ0NC1iM2ZkLTRjYTktODk1Ny0wYWJiODUwNzNhNzQiLCJ0eXAiOiJSZWZyZXNoIiwiYXpwIjoidGljLWFwaSIsInNlc3Npb25fc3RhdGUiOiIyNmFhYmE0OS03NWMyLTRkNzctODU4Zi03YjgwYTFmNjBkMzMiLCJzY29wZSI6ImVtYWlsIHByb2ZpbGUiLCJzaWQiOiIyNmFhYmE0OS03NWMyLTRkNzctODU4Zi03YjgwYTFmNjBkMzMifQ.YRSElZ4sNDpcCFXr_Mz24ett-AGOVKQlLqbbUB4hTWc","token_type":"Bearer","not-before-policy":0,"session_state":"26aaba49-75c2-4d77-858f-7b80a1f60d33","scope":"email profile"}" contains "access_token". @03-10-2022 13:40:30.0351 PM
[ReportManager] Successfully created attachment "Validation Test Data - Expected Value" @03-10-2022 13:40:30.0353 PM
[ReportManager] Successfully created attachment "Validation Test Data - Actual Value" @03-10-2022 13:40:30.0353 PM
[ReportManager] Get response jsonvalue "access_token". @03-10-2022 13:40:30.0354 PM
[ReportManager] Assertion Passed: Check that Access token is not null. @03-10-2022 13:40:30.0355 PM
[ReportManager] Successfully created attachment "Validation Test Data - Expected Value" @03-10-2022 13:40:30.0355 PM
[ReportManager] Successfully created attachment "Validation Test Data - Actual Value" @03-10-2022 13:40:30.0356 PM
[ReportManager] File Action "DoesFileExist" successfully performed. With the following test data "File Path: "Token_schema.json"". @03-10-2022 13:40:30.0356 PM
[ReportManager] File Action "DoesFileExist" successfully performed. With the following test data "File Path: "src/test/resources/testDataFiles/Token_schema.json"". @03-10-2022 13:40:30.0357 PM
[ReportManager] File Action "GetAbsolutePath" successfully performed. With the following test data "Relative Folder Path: "src/test/resources/testDataFiles/Token_schema.json"". @03-10-2022 13:40:30.0357 PM
[ReportManager] File Action "DoesFileExist" successfully performed. With the following test data "File Path: "C:\eclipse-workspace\MyProjects\TASystemsAPIs\src\test\resources\testDataFiles\Token_schema.json"". @03-10-2022 13:40:30.0360 PM
[ReportManager] File Action "GetAbsolutePath" successfully performed. With the following test data "Relative Folder Path: "C:\eclipse-workspace\MyProjects\TASystemsAPIs\src\test\resources\testDataFiles\Token_schema.json"". @03-10-2022 13:40:30.0360 PM
[ReportManager] File Action "ReadFromFile" successfully performed. With the following test data "File Path: "C:\eclipse-workspace\MyProjects\TASystemsAPIs\src\test\resources\testDataFiles\Token_schema.json"". @03-10-2022 13:40:30.0361 PM
[ReportManager] Assertion Passed: The API response schema matches that in this file "src/test/resources/testDataFiles/Token_schema.json". @03-10-2022 13:40:30.0362 PM
[ReportManager] Successfully created attachment "Validation Test Data - Expected JSON Value" @03-10-2022 13:40:30.0363 PM
[ReportManager] Successfully created attachment "Validation Test Data - Actual JSON Value" @03-10-2022 13:40:30.0364 PM
[ReportManager] Verification Passed: "658" is greater than or equal to "1.1". @03-10-2022 13:40:30.0385 PM
[ReportManager] Verification Passed: "658" is less than or equal to "10000". @03-10-2022 13:40:30.0386 PM
[ReportManager] Setting discrete logging to: "true" @03-10-2022 13:40:30.0974 PM
[ReportManager] Response status code: "200", status line: "HTTP/1.1 200 " @03-10-2022 13:40:30.0975 PM
[ReportManager] Assertion Passed: Evaluating the actual response status code against the expected one... @03-10-2022 13:40:30.0975 PM
[ReportManager] Setting discrete logging to: "false" @03-10-2022 13:40:30.0975 PM
[ReportManager] Perform request "GET | Target Status Code: 200 | Service URL: https://api-demo.np.transporticonline.com/steeringcompanies/v1/lookups/terminals | Content Type: */* | Response Time: 568ms". @03-10-2022 13:40:30.0995 PM
[ReportManager] Successfully created attachment "API Request - Specifications" @03-10-2022 13:40:30.0996 PM
[ReportManager] Successfully created attachment "API Response - JSON Body" @03-10-2022 13:40:30.0999 PM
[ReportManager] Assertion Passed: "200" is equal to "200". @03-10-2022 13:40:30.0999 PM
[ReportManager] Verification Passed: "568" is greater than or equal to "1.1". @03-10-2022 13:40:30.0999 PM
[ReportManager] Verification Passed: "568" is less than or equal to "10000". @03-10-2022 13:40:30.0999 PM
[ReportManager] Assertion Passed: "{"page":0,"size":2147483647,"totalPages":1,"totalElements":13,"content":[{"id":20,"nameArabic":"???? ????????","nameEnglish":"Departure Terminal","isActive":false,"lastUpdated":"2021-04-11T21:05:44Z","portId":51,"sectors":null},{"id":12,"nameArabic":"??????? - ???? ?????? ???? ???","nameEnglish":"","isActive":false,"lastUpdated":"2021-04-11T21:05:58Z","code":"","portId":51,"sectors":null},{"id":7,"nameArabic":"??????? ?????? ??????","nameEnglish":"Madinah Fast Track Terminal","isActive":false,"lastUpdated":"2021-04-11T21:06:12Z","code":"","portId":51,"sectors":null},{"id":1,"nameArabic":"???? ?????? ???","nameEnglish":"Jeddah Hajj Terminal","isActive":false,"lastUpdated":"2021-04-11T21:06:20Z","code":"H","portId":50,"sectors":null},{"id":6,"nameArabic":"????? ??? ????????","nameEnglish":"Jeddah Sea Ports","isActive":true,"lastUpdated":null,"code":"P","portId":52,"sectors":null},{"id":8,"nameArabic":"????? ????","nameEnglish":"Trustees Yanbo TERMINAL","isActive":true,"lastUpdated":null,"code":"B","portId":53,"sectors":null},{"id":9,"nameArabic":"???? ?????? ??? ?????? ?? ??? ??????","nameEnglish":"Abdul Mohsin bin Abdulaziz Airport","isActive":true,"lastUpdated":null,"code":"Y","portId":67,"sectors":null},{"id":10,"nameArabic":"???? ?????? ??????? ?? ????","nameEnglish":"International Arrival Terminal on Yanbo","isActive":true,"lastUpdated":null,"code":"TR3","portId":67,"sectors":null},{"id":11,"nameArabic":"?????? 1","nameEnglish":"TERMINAL 1","isActive":true,"lastUpdated":null,"code":"T1","portId":50,"sectors":null},{"id":2,"nameArabic":"??? ?????? ????????","nameEnglish":"Jeddah South Terminal","isActive":true,"lastUpdated":"2020-10-15T12:35:51Z","code":"S","portId":50,"sectors":null},{"id":3,"nameArabic":"??? ?????? ????????","nameEnglish":"Jeddah North Terminal","isActive":true,"lastUpdated":"2020-10-15T12:35:51Z","code":"N","portId":50,"sectors":null},{"id":5,"nameArabic":"??????? ?????? ???????","nameEnglish":"Madinah Intarnational Terminal","isActive":true,"lastUpdated":"2020-10-15T12:35:51Z","code":"I","portId":51,"sectors":null},{"id":4,"nameArabic":"???? ?????? ???????","nameEnglish":"Madinah Hajj Terminal","isActive":true,"lastUpdated":"2020-12-15T10:56:54Z","code":"H","portId":51,"sectors":null}]}" contains "content". @03-10-2022 13:40:30.0999 PM
[ReportManager] Successfully created attachment "Validation Test Data - Expected Value" @03-10-2022 13:40:31.0000 PM
[ReportManager] Successfully created attachment "Validation Test Data - Actual Value" @03-10-2022 13:40:31.0001 PM
[ReportManager] Get response jsonvalue "content". @03-10-2022 13:40:31.0004 PM
[ReportManager] Assertion Passed: Check that content object is not null. @03-10-2022 13:40:31.0005 PM
[ReportManager] Successfully created attachment "Validation Test Data - Expected Value" @03-10-2022 13:40:31.0005 PM
[ReportManager] Successfully created attachment "Validation Test Data - Actual Value" @03-10-2022 13:40:31.0007 PM
[ReportManager] File Action "DoesFileExist" successfully performed. With the following test data "File Path: "Lookups_terminals_schema.json"". @03-10-2022 13:40:31.0007 PM
[ReportManager] File Action "DoesFileExist" successfully performed. With the following test data "File Path: "src/test/resources/testDataFiles/Lookups_terminals_schema.json"". @03-10-2022 13:40:31.0008 PM
[ReportManager] File Action "GetAbsolutePath" successfully performed. With the following test data "Relative Folder Path: "src/test/resources/testDataFiles/Lookups_terminals_schema.json"". @03-10-2022 13:40:31.0009 PM
[ReportManager] File Action "DoesFileExist" successfully performed. With the following test data "File Path: "C:\eclipse-workspace\MyProjects\TASystemsAPIs\src\test\resources\testDataFiles\Lookups_terminals_schema.json"". @03-10-2022 13:40:31.0026 PM
[ReportManager] File Action "GetAbsolutePath" successfully performed. With the following test data "Relative Folder Path: "C:\eclipse-workspace\MyProjects\TASystemsAPIs\src\test\resources\testDataFiles\Lookups_terminals_schema.json"". @03-10-2022 13:40:31.0026 PM
[ReportManager] File Action "ReadFromFile" successfully performed. With the following test data "File Path: "C:\eclipse-workspace\MyProjects\TASystemsAPIs\src\test\resources\testDataFiles\Lookups_terminals_schema.json"". @03-10-2022 13:40:31.0027 PM
[ReportManager] Assertion Passed: The API response schema matches that in this file "src/test/resources/testDataFiles/Lookups_terminals_schema.json". @03-10-2022 13:40:31.0029 PM
[ReportManager] Successfully created attachment "Validation Test Data - Expected JSON Value" @03-10-2022 13:40:31.0030 PM
[ReportManager] Successfully created attachment "Validation Test Data - Actual JSON Value" @03-10-2022 13:40:31.0031 PM
[ReportManager] Verification Passed: "568" is greater than or equal to "1.1". @03-10-2022 13:40:31.0031 PM
[ReportManager] Verification Passed: "568" is less than or equal to "10000". @03-10-2022 13:40:31.0031 PM
[ReportManager] Setting discrete logging to: "true" @03-10-2022 13:40:31.0779 PM
[ReportManager] Response status code: "200", status line: "HTTP/1.1 200 " @03-10-2022 13:40:31.0779 PM
[ReportManager] Assertion Passed: Evaluating the actual response status code against the expected one... @03-10-2022 13:40:31.0780 PM
[ReportManager] Setting discrete logging to: "false" @03-10-2022 13:40:31.0780 PM
[ReportManager] Perform request "GET | Target Status Code: 200 | Service URL: https://api-demo.np.transporticonline.com/steeringcompanies/v1/lookups/terminals | Content Type: */* | Response Time: 747ms". @03-10-2022 13:40:31.0805 PM
[ReportManager] Successfully created attachment "API Request - Specifications" @03-10-2022 13:40:31.0807 PM
[ReportManager] Successfully created attachment "API Response - JSON Body" @03-10-2022 13:40:31.0809 PM
[ReportManager] Assertion Passed: "200" is equal to "200". @03-10-2022 13:40:31.0809 PM
[ReportManager] Verification Passed: "747" is greater than or equal to "1.1". @03-10-2022 13:40:31.0810 PM
[ReportManager] Verification Passed: "747" is less than or equal to "10000". @03-10-2022 13:40:31.0811 PM
[ReportManager] Assertion Passed: "{"page":0,"size":3,"totalPages":5,"totalElements":13,"content":[{"id":20,"nameArabic":"???? ????????","nameEnglish":"Departure Terminal","isActive":false,"lastUpdated":"2021-04-11T21:05:44Z","portId":51,"sectors":null},{"id":12,"nameArabic":"??????? - ???? ?????? ???? ???","nameEnglish":"","isActive":false,"lastUpdated":"2021-04-11T21:05:58Z","code":"","portId":51,"sectors":null},{"id":7,"nameArabic":"??????? ?????? ??????","nameEnglish":"Madinah Fast Track Terminal","isActive":false,"lastUpdated":"2021-04-11T21:06:12Z","code":"","portId":51,"sectors":null}]}" contains "content". @03-10-2022 13:40:31.0811 PM
[ReportManager] Successfully created attachment "Validation Test Data - Expected Value" @03-10-2022 13:40:31.0815 PM
[ReportManager] Successfully created attachment "Validation Test Data - Actual Value" @03-10-2022 13:40:31.0816 PM
[ReportManager] Get response jsonvalue "content". @03-10-2022 13:40:31.0817 PM
[ReportManager] Assertion Passed: Check that content object is not null. @03-10-2022 13:40:31.0818 PM
[ReportManager] Successfully created attachment "Validation Test Data - Expected Value" @03-10-2022 13:40:31.0818 PM
[ReportManager] Successfully created attachment "Validation Test Data - Actual Value" @03-10-2022 13:40:31.0819 PM
[ReportManager] File Action "DoesFileExist" successfully performed. With the following test data "File Path: "Lookups_terminals_schema.json"". @03-10-2022 13:40:31.0820 PM
[ReportManager] File Action "DoesFileExist" successfully performed. With the following test data "File Path: "src/test/resources/testDataFiles/Lookups_terminals_schema.json"". @03-10-2022 13:40:31.0820 PM
[ReportManager] File Action "GetAbsolutePath" successfully performed. With the following test data "Relative Folder Path: "src/test/resources/testDataFiles/Lookups_terminals_schema.json"". @03-10-2022 13:40:31.0820 PM
[ReportManager] File Action "DoesFileExist" successfully performed. With the following test data "File Path: "C:\eclipse-workspace\MyProjects\TASystemsAPIs\src\test\resources\testDataFiles\Lookups_terminals_schema.json"". @03-10-2022 13:40:31.0828 PM
[ReportManager] File Action "GetAbsolutePath" successfully performed. With the following test data "Relative Folder Path: "C:\eclipse-workspace\MyProjects\TASystemsAPIs\src\test\resources\testDataFiles\Lookups_terminals_schema.json"". @03-10-2022 13:40:31.0828 PM
[ReportManager] File Action "ReadFromFile" successfully performed. With the following test data "File Path: "C:\eclipse-workspace\MyProjects\TASystemsAPIs\src\test\resources\testDataFiles\Lookups_terminals_schema.json"". @03-10-2022 13:40:31.0828 PM
[ReportManager] Assertion Passed: The API response schema matches that in this file "src/test/resources/testDataFiles/Lookups_terminals_schema.json". @03-10-2022 13:40:31.0829 PM
[ReportManager] Successfully created attachment "Validation Test Data - Expected JSON Value" @03-10-2022 13:40:31.0831 PM
[ReportManager] Successfully created attachment "Validation Test Data - Actual JSON Value" @03-10-2022 13:40:31.0832 PM
[ReportManager] Verification Passed: "747" is greater than or equal to "1.1". @03-10-2022 13:40:31.0833 PM
[ReportManager] Verification Passed: "747" is less than or equal to "10000". @03-10-2022 13:40:31.0833 PM