
################################################################################################################################################
Starting Execution:	"2 out of 64" test cases in the current suite
Test Method:		"SteeringCompanyAPI_TestCases.Test_Lookups_Cases.Valid_GET_all_cities_Lookups_by_Qry_Rq_TC"
Test Description:	"TC002 - Perform Get all cities API by parameters Qry with valid user name and password and return with token"
################################################################################################################################################
[ReportManager] File Action "DoesFileExist" successfully performed. With the following test data "File Path: "SteeringCompanyAPI_TestData/SteeringCompanyAPI_TestData.xlsx"". @19-01-2023 11:44:16.0500 AM
[ReportManager] Loaded Test Data: "src/test/resources/testDataFiles/SteeringCompanyAPI_TestData/SteeringCompanyAPI_TestData.xlsx". @19-01-2023 11:44:16.0574 AM
[ReportManager] Successfully created attachment "Test Data - Excel" @19-01-2023 11:44:16.0578 AM
[ReportManager] Response status code: "200", status line: "HTTP/1.1 200 OK" @19-01-2023 11:44:17.0285 AM
[ReportManager] Assertion Passed: Evaluating the actual response status code against the expected one... @19-01-2023 11:44:17.0287 AM
[ReportManager] Perform request "POST | Target Status Code: 200 | Service URL: https://auth-demo.np.transporticonline.com/auth/realms/tic/protocol/openid-connect/token | Content Type: application/x-www-form-urlencoded | Response Time: 697ms". @19-01-2023 11:44:17.0308 AM
[ReportManager] Successfully created attachment "API Request - Specifications" @19-01-2023 11:44:17.0309 AM
[ReportManager] Successfully created attachment "API Request - Body" @19-01-2023 11:44:17.0310 AM
[ReportManager] Successfully created attachment "API Response - JSON Body" @19-01-2023 11:44:17.0313 AM
[ReportManager] Assertion Passed: Check Response Status Code is 200 and it is valid. @19-01-2023 11:44:17.0315 AM
[ReportManager] File Action "DoesFileExist" successfully performed. With the following test data "File Path: "SteeringCompanyAPI_TestData/SteeringCompanyAPI_TestData.xlsx"". @19-01-2023 11:44:17.0331 AM
[ReportManager] Loaded Test Data: "src/test/resources/testDataFiles/SteeringCompanyAPI_TestData/SteeringCompanyAPI_TestData.xlsx". @19-01-2023 11:44:17.0386 AM
[ReportManager] Successfully created attachment "Test Data - Excel" @19-01-2023 11:44:17.0387 AM
[ReportManager] Response status code: "200", status line: "HTTP/1.1 200 " @19-01-2023 11:44:17.0937 AM
[ReportManager] Assertion Passed: Evaluating the actual response status code against the expected one... @19-01-2023 11:44:17.0938 AM
[ReportManager] Perform request "GET | Target Status Code: 200 | Service URL: https://api-demo.np.transporticonline.com/steeringcompanies/v1/lookups/cities | Content Type: */* | Response Time: 515ms". @19-01-2023 11:44:17.0954 AM
[ReportManager] Successfully created attachment "API Request - Specifications" @19-01-2023 11:44:17.0955 AM
[ReportManager] Successfully created attachment "API Response - JSON Body" @19-01-2023 11:44:17.0957 AM
[ReportManager] Assertion Passed: "200" is equal to "200". @19-01-2023 11:44:17.0958 AM
[ReportManager] Verification Passed: "515" is greater than or equal to "1.1". @19-01-2023 11:44:17.0959 AM
[ReportManager] Verification Passed: "515" is less than or equal to "10000". @19-01-2023 11:44:17.0959 AM
[ReportManager] Assertion Passed: "{"page":0,"size":3,"totalPages":237,"totalElements":709,"content":[{"id":36,"nameArabic":"??????????","nameEnglish":"Kuala Lumpur","isActive":true,"lastUpdated":"2022-06-02T01:21:49Z","sectors":null},{"id":849,"nameArabic":"???????","nameEnglish":"Solngen","isActive":true,"lastUpdated":"2022-06-02T01:37:02Z","sectors":null},{"id":1006,"nameArabic":"??????","nameEnglish":"FRUNZE","isActive":true,"lastUpdated":"2022-06-02T00:20:05Z","sectors":null}]}" contains "content". @19-01-2023 11:44:17.0960 AM
[ReportManager] Get response jsonvalue "content". @19-01-2023 11:44:17.0963 AM
[ReportManager] Assertion Passed: Check that content object is not null. @19-01-2023 11:44:17.0964 AM
[ReportManager] File Action "DoesFileExist" successfully performed. With the following test data "File Path: "Schemas/Lookups_cities_schema.json"". @19-01-2023 11:44:17.0964 AM
[ReportManager] File Action "DoesFileExist" successfully performed. With the following test data "File Path: "src/test/resources/testDataFiles/Schemas/Lookups_cities_schema.json"". @19-01-2023 11:44:17.0969 AM
[ReportManager] File Action "GetAbsolutePath" successfully performed. With the following test data "Relative Folder Path: "src/test/resources/testDataFiles/Schemas/Lookups_cities_schema.json"". @19-01-2023 11:44:17.0973 AM
[ReportManager] File Action "DoesFileExist" successfully performed. With the following test data "File Path: "C:\eclipse-workspace\MyProjects\TASystemsAPIs\src\test\resources\testDataFiles\Schemas\Lookups_cities_schema.json"". @19-01-2023 11:44:17.0982 AM
[ReportManager] File Action "GetAbsolutePath" successfully performed. With the following test data "Relative Folder Path: "C:\eclipse-workspace\MyProjects\TASystemsAPIs\src\test\resources\testDataFiles\Schemas\Lookups_cities_schema.json"". @19-01-2023 11:44:17.0982 AM
[ReportManager] File Action "ReadFile" successfully performed. With the following test data "File Path: "C:\eclipse-workspace\MyProjects\TASystemsAPIs\src\test\resources\testDataFiles\Schemas\Lookups_cities_schema.json"". @19-01-2023 11:44:17.0984 AM
[ReportManager] Assertion Passed: The API response schema matches that in this file "src/test/resources/testDataFiles/Schemas/Lookups_cities_schema.json". @19-01-2023 11:44:17.0986 AM
[ReportManager] Successfully created attachment "Validation Test Data - Expected JSON Value" @19-01-2023 11:44:17.0987 AM
[ReportManager] Successfully created attachment "Validation Test Data - Actual JSON Value" @19-01-2023 11:44:17.0990 AM