
################################################################################################################################################
Starting Execution:	"32 out of 110" test cases in the current suite
Test Method:		"SteeringCompanyAPI_TestCases.Test_Commissions_Cases.Valid_GET_all_Commissions_by_Qry_Rq_TC"
Test Description:	"TC002  -Commission- Perform Get all Commissions API with pagination with valid user name and password"
################################################################################################################################################
[ReportManager] File Action "DoesFileExist" successfully performed. With the following test data "File Path: "SteeringCompanyAPI_TestData/SteeringCompanyAPI_TestData.xlsx"". @07-02-2023 14:55:43.0351 PM
[ReportManager] Loaded Test Data: "src/test/resources/testDataFiles/SteeringCompanyAPI_TestData/SteeringCompanyAPI_TestData.xlsx". @07-02-2023 14:55:43.0394 PM
[ReportManager] Successfully created attachment "Test Data - Excel" @07-02-2023 14:55:43.0396 PM
[ReportManager] Response status code: "200", status line: "HTTP/1.1 200 OK" @07-02-2023 14:55:44.0063 PM
[ReportManager] Assertion Passed: Evaluating the actual response status code against the expected one... @07-02-2023 14:55:44.0064 PM
[ReportManager] Perform request "POST | Target Status Code: 200 | Service URL: https://auth-demo.np.transporticonline.com/auth/realms/tic/protocol/openid-connect/token | Content Type: application/x-www-form-urlencoded | Response Time: 660ms". @07-02-2023 14:55:44.0082 PM
[ReportManager] Successfully created attachment "API Request - Specifications" @07-02-2023 14:55:44.0083 PM
[ReportManager] Successfully created attachment "API Request - Body" @07-02-2023 14:55:44.0084 PM
[ReportManager] Successfully created attachment "API Response - JSON Body" @07-02-2023 14:55:44.0087 PM
[ReportManager] Assertion Passed: Check Response Status Code is 200 and it is valid. @07-02-2023 14:55:44.0088 PM
[ReportManager] File Action "DoesFileExist" successfully performed. With the following test data "File Path: "SteeringCompanyAPI_TestData/SteeringCompanyAPI_TestData.xlsx"". @07-02-2023 14:55:44.0126 PM
[ReportManager] Loaded Test Data: "src/test/resources/testDataFiles/SteeringCompanyAPI_TestData/SteeringCompanyAPI_TestData.xlsx". @07-02-2023 14:55:44.0175 PM
[ReportManager] Successfully created attachment "Test Data - Excel" @07-02-2023 14:55:44.0176 PM
[ReportManager] File Action "DoesFileExist" successfully performed. With the following test data "File Path: "SteeringCompanyAPI_TestData/SteeringCompanyAPI_TestData.xlsx"". @07-02-2023 14:55:44.0177 PM
[ReportManager] Loaded Test Data: "src/test/resources/testDataFiles/SteeringCompanyAPI_TestData/SteeringCompanyAPI_TestData.xlsx". @07-02-2023 14:55:44.0230 PM
[ReportManager] Successfully created attachment "Test Data - Excel" @07-02-2023 14:55:44.0231 PM
[ReportManager] File Action "DoesFileExist" successfully performed. With the following test data "File Path: "SteeringCompanyAPI_TestData/SteeringCompanyAPI_TestData.xlsx"". @07-02-2023 14:55:44.0232 PM
[ReportManager] Loaded Test Data: "src/test/resources/testDataFiles/SteeringCompanyAPI_TestData/SteeringCompanyAPI_TestData.xlsx". @07-02-2023 14:55:44.0313 PM
[ReportManager] Successfully created attachment "Test Data - Excel" @07-02-2023 14:55:44.0315 PM
[ReportManager] Response status code: "200", status line: "HTTP/1.1 200 " @07-02-2023 14:55:45.0236 PM
[ReportManager] Assertion Passed: Evaluating the actual response status code against the expected one... @07-02-2023 14:55:45.0237 PM
[ReportManager] Perform request "GET | Target Status Code: 200 | Service URL: https://api-demo.np.transporticonline.com/steeringcompanies/v1/commissions | Content Type: */* | Response Time: 916ms". @07-02-2023 14:55:45.0263 PM
[ReportManager] Successfully created attachment "API Request - Specifications" @07-02-2023 14:55:45.0265 PM
[ReportManager] Successfully created attachment "API Response - JSON Body" @07-02-2023 14:55:45.0266 PM
[ReportManager] Assertion Passed: "200" is equal to "200". @07-02-2023 14:55:45.0266 PM
[ReportManager] Verification Passed: "916" is greater than or equal to "1.1". @07-02-2023 14:55:45.0266 PM
[ReportManager] Verification Passed: "916" is less than or equal to "30000". @07-02-2023 14:55:45.0267 PM
[ReportManager] Assertion Passed: "{"page":0,"size":1,"totalPages":18,"totalElements":18,"content":[{"otaCode":"ZowarOTA","baseCommission":3.0,"addCommission":0.0,"lastUpdated":"2022-12-15T17:26:35.889109","isActive":true}]}" contains "content". @07-02-2023 14:55:45.0267 PM
[ReportManager] Get response jsonvalue "content". @07-02-2023 14:55:45.0268 PM
[ReportManager] Assertion Passed: Check that content object is not null. @07-02-2023 14:55:45.0269 PM
[ReportManager] File Action "DoesFileExist" successfully performed. With the following test data "File Path: "Schemas/Commission_schema.json"". @07-02-2023 14:55:45.0271 PM
[ReportManager] File Action "DoesFileExist" successfully performed. With the following test data "File Path: "src/test/resources/testDataFiles/Schemas/Commission_schema.json"". @07-02-2023 14:55:45.0272 PM
[ReportManager] File Action "GetAbsolutePath" successfully performed. With the following test data "Relative Folder Path: "src/test/resources/testDataFiles/Schemas/Commission_schema.json"". @07-02-2023 14:55:45.0272 PM
[ReportManager] File Action "DoesFileExist" successfully performed. With the following test data "File Path: "C:\eclipse-workspace\MyProjects\TASystemsAPIs\src\test\resources\testDataFiles\Schemas\Commission_schema.json"". @07-02-2023 14:55:45.0276 PM
[ReportManager] File Action "GetAbsolutePath" successfully performed. With the following test data "Relative Folder Path: "C:\eclipse-workspace\MyProjects\TASystemsAPIs\src\test\resources\testDataFiles\Schemas\Commission_schema.json"". @07-02-2023 14:55:45.0277 PM
[ReportManager] File Action "ReadFile" successfully performed. With the following test data "File Path: "C:\eclipse-workspace\MyProjects\TASystemsAPIs\src\test\resources\testDataFiles\Schemas\Commission_schema.json"". @07-02-2023 14:55:45.0278 PM
[ReportManager] Assertion Passed: The API response schema matches that in this file "src/test/resources/testDataFiles/Schemas/Commission_schema.json". @07-02-2023 14:55:45.0279 PM
[ReportManager] Successfully created attachment "Validation Test Data - Expected JSON Value" @07-02-2023 14:55:45.0280 PM
[ReportManager] Successfully created attachment "Validation Test Data - Actual JSON Value" @07-02-2023 14:55:45.0280 PM