
################################################################################################################################################
Starting Execution:	"1 out of 64" test cases in the current suite
Test Method:		"SteeringCompanyAPI_TestCases.Test_Lookups_Cases.Valid_GET_all_cities_Lookups_Rq_TC"
Test Description:	"TC001 - Perform Get all cities API with valid user name and password"
################################################################################################################################################
[ReportManager] File Action "DoesFileExist" successfully performed. With the following test data "File Path: "SteeringCompanyAPI_TestData/SteeringCompanyAPI_TestData.xlsx"". @16-01-2023 14:06:48.0745 PM
[ReportManager] Loaded Test Data: "src/test/resources/testDataFiles/SteeringCompanyAPI_TestData/SteeringCompanyAPI_TestData.xlsx". @16-01-2023 14:06:48.0941 PM
[ReportManager] Successfully created attachment "Test Data - Excel" @16-01-2023 14:06:48.0954 PM
[ReportManager] Response status code: "200", status line: "HTTP/1.1 200 OK" @16-01-2023 14:06:54.0475 PM
[ReportManager] Assertion Passed: Evaluating the actual response status code against the expected one... @16-01-2023 14:06:54.0492 PM
[ReportManager] Perform request "POST | Target Status Code: 200 | Service URL: https://auth-demo.np.transporticonline.com/auth/realms/tic/protocol/openid-connect/token | Content Type: application/x-www-form-urlencoded | Response Time: 2807ms". @16-01-2023 14:06:56.0989 PM
[ReportManager] Successfully created attachment "API Request - Specifications" @16-01-2023 14:06:56.0992 PM
[ReportManager] Successfully created attachment "API Request - Body" @16-01-2023 14:06:56.0996 PM
[ReportManager] Successfully created attachment "API Response - JSON Body" @16-01-2023 14:06:57.0580 PM
[ReportManager] Assertion Passed: Check Response Status Code is 200 and it is valid. @16-01-2023 14:06:57.0583 PM
[ReportManager] File Action "DoesFileExist" successfully performed. With the following test data "File Path: "SteeringCompanyAPI_TestData/SteeringCompanyAPI_TestData.xlsx"". @16-01-2023 14:06:57.0627 PM
[ReportManager] Loaded Test Data: "src/test/resources/testDataFiles/SteeringCompanyAPI_TestData/SteeringCompanyAPI_TestData.xlsx". @16-01-2023 14:06:57.0803 PM
[ReportManager] Successfully created attachment "Test Data - Excel" @16-01-2023 14:06:57.0806 PM
[ReportManager] Response status code: "200", status line: "HTTP/1.1 200 " @16-01-2023 14:06:58.0749 PM
[ReportManager] Assertion Passed: Evaluating the actual response status code against the expected one... @16-01-2023 14:06:58.0751 PM
[ReportManager] Perform request "GET | Target Status Code: 200 | Service URL: https://api-demo.np.transporticonline.com/steeringcompanies/v1/lookups/cities | Content Type: */* | Response Time: 920ms". @16-01-2023 14:06:58.0815 PM
[ReportManager] Successfully created attachment "API Request - Specifications" @16-01-2023 14:06:58.0817 PM
[ReportManager] Successfully created attachment "API Response - JSON Body" @16-01-2023 14:06:58.0820 PM
[ReportManager] Assertion Passed: "200" is equal to "200". @16-01-2023 14:06:58.0822 PM
[ReportManager] Verification Passed: "920" is greater than or equal to "1.1". @16-01-2023 14:06:58.0824 PM
[ReportManager] Verification Passed: "920" is less than or equal to "10000". @16-01-2023 14:06:58.0825 PM
[ReportManager] Assertion Passed: "{"page":0,"size":20,"totalPages":36,"totalElements":709,"content":[{"id":36,"nameArabic":"??????????","nameEnglish":"Kuala Lumpur","isActive":true,"lastUpdated":"2022-06-02T01:21:49Z","sectors":null},{"id":849,"nameArabic":"???????","nameEnglish":"Solngen","isActive":true,"lastUpdated":"2022-06-02T01:37:02Z","sectors":null},{"id":1006,"nameArabic":"??????","nameEnglish":"FRUNZE","isActive":true,"lastUpdated":"2022-06-02T00:20:05Z","sectors":null},{"id":985,"nameArabic":"??????","nameEnglish":"KANDAHAR","isActive":true,"lastUpdated":"2022-06-02T00:25:20Z","sectors":null},{"id":736,"nameArabic":"?????","nameEnglish":"Tabrka","isActive":true,"lastUpdated":"2022-06-02T01:16:50Z","sectors":null},{"id":953,"nameArabic":"?????","nameEnglish":"Sohag","isActive":true,"lastUpdated":"2022-06-02T00:25:24Z","sectors":null},{"id":816,"nameArabic":"??????","nameEnglish":"Cochin","isActive":true,"lastUpdated":"2022-06-02T01:06:13Z","sectors":null},{"id":789,"nameArabic":"???? ????","nameEnglish":"Faisalabad","isActive":true,"lastUpdated":"2022-06-02T01:27:12Z","sectors":null},{"id":1013,"nameArabic":"?????","nameEnglish":"KAZAN","isActive":true,"lastUpdated":"2022-06-02T00:37:19Z","sectors":null},{"id":794,"nameArabic":"???????","nameEnglish":"KAYSERI","isActive":true,"lastUpdated":"2022-06-02T01:21:58Z","sectors":null},{"id":764,"nameArabic":"????","nameEnglish":"Tangier","isActive":true,"lastUpdated":"2022-06-02T01:27:13Z","sectors":null},{"id":780,"nameArabic":"??????","nameEnglish":"Shahyraz","isActive":true,"lastUpdated":"2022-06-02T00:37:28Z","sectors":null},{"id":712,"nameArabic":"?????","nameEnglish":"Tashkent","isActive":true,"lastUpdated":"2022-06-02T01:27:13Z","sectors":null},{"id":824,"nameArabic":"??????","nameEnglish":"Samarqand","isActive":true,"lastUpdated":"2022-06-02T00:37:28Z","sectors":null},{"id":993,"nameArabic":"?????","nameEnglish":"KRBI","isActive":true,"lastUpdated":"2022-06-02T01:22:03Z","sectors":null},{"id":820,"nameArabic":"???????","nameEnglish":"CALICUT","isActive":true,"lastUpdated":"2022-06-02T01:27:21Z","sectors":null},{"id":91,"nameArabic":"????","nameEnglish":"KANO","isActive":true,"lastUpdated":"2022-06-02T01:22:03Z","sectors":null},{"id":125,"nameArabic":"????","nameEnglish":"Kabul","isActive":true,"lastUpdated":"2022-06-02T00:42:58Z","sectors":null},{"id":34,"nameArabic":"?????","nameEnglish":"Vienna","isActive":true,"lastUpdated":"2022-06-02T00:42:59Z","sectors":null},{"id":67,"nameArabic":"?????","nameEnglish":"Sanaa","isActive":true,"lastUpdated":"2022-06-02T00:55:27Z","sectors":null}]}" contains "content". @16-01-2023 14:06:58.0835 PM
[ReportManager] Successfully created attachment "Validation Test Data - Expected Value" @16-01-2023 14:06:58.0837 PM
[ReportManager] Successfully created attachment "Validation Test Data - Actual Value" @16-01-2023 14:06:58.0838 PM
[ReportManager] Get response jsonvalue "content". @16-01-2023 14:06:59.0103 PM
[ReportManager] Assertion Passed: Check that content object is not null. @16-01-2023 14:06:59.0104 PM
[ReportManager] Successfully created attachment "Validation Test Data - Expected Value" @16-01-2023 14:06:59.0106 PM
[ReportManager] Successfully created attachment "Validation Test Data - Actual Value" @16-01-2023 14:06:59.0109 PM
[ReportManager] File Action "DoesFileExist" successfully performed. With the following test data "File Path: "Schemas/Lookups_cities_schema.json"". @16-01-2023 14:06:59.0111 PM
[ReportManager] File Action "DoesFileExist" successfully performed. With the following test data "File Path: "src/test/resources/testDataFiles/Schemas/Lookups_cities_schema.json"". @16-01-2023 14:06:59.0113 PM
[ReportManager] File Action "GetAbsolutePath" successfully performed. With the following test data "Relative Folder Path: "src/test/resources/testDataFiles/Schemas/Lookups_cities_schema.json"". @16-01-2023 14:06:59.0114 PM
[ReportManager] File Action "DoesFileExist" successfully performed. With the following test data "File Path: "C:\eclipse-workspace\MyProjects\TASystemsAPIs\src\test\resources\testDataFiles\Schemas\Lookups_cities_schema.json"". @16-01-2023 14:07:00.0899 PM
[ReportManager] File Action "GetAbsolutePath" successfully performed. With the following test data "Relative Folder Path: "C:\eclipse-workspace\MyProjects\TASystemsAPIs\src\test\resources\testDataFiles\Schemas\Lookups_cities_schema.json"". @16-01-2023 14:07:00.0901 PM
[ReportManager] File Action "ReadFile" successfully performed. With the following test data "File Path: "C:\eclipse-workspace\MyProjects\TASystemsAPIs\src\test\resources\testDataFiles\Schemas\Lookups_cities_schema.json"". @16-01-2023 14:07:00.0903 PM
[ReportManager] Assertion Passed: The API response schema matches that in this file "src/test/resources/testDataFiles/Schemas/Lookups_cities_schema.json". @16-01-2023 14:07:00.0913 PM
[ReportManager] Successfully created attachment "Validation Test Data - Expected JSON Value" @16-01-2023 14:07:00.0917 PM
[ReportManager] Successfully created attachment "Validation Test Data - Actual JSON Value" @16-01-2023 14:07:00.0922 PM