{"uuid":"a9029477-7ec9-478e-83fa-a6dabb5517ce","historyId":"1ee66c37f44545e65a59a3dbc44247b","fullName":"SteeringCompanyAPI_TestCases.Test_Commissions_Cases.Valid_GET_all_Commissions_by_Qry_Rq_TC","labels":[{"name":"package","value":"SteeringCompanyAPI_TestCases.Test_Commissions_Cases"},{"name":"testClass","value":"SteeringCompanyAPI_TestCases.Test_Commissions_Cases"},{"name":"testMethod","value":"Valid_GET_all_Commissions_by_Qry_Rq_TC"},{"name":"parentSuite","value":"Suite"},{"name":"suite","value":"Test"},{"name":"subSuite","value":"SteeringCompanyAPI_TestCases.Test_Commissions_Cases"},{"name":"host","value":"TW-1056"},{"name":"thread","value":"12248@TW-1056.main(1)"},{"name":"framework","value":"testng"},{"name":"language","value":"java"},{"name":"story","value":"Retrieving All Active Commission with Pagination"},{"name":"severity","value":"critical"}],"links":[],"name":"TC002  -Commission- Perform Get all Commissions API with pagination with valid user name and password","status":"passed","statusDetails":{"known":false,"muted":false,"flaky":false},"stage":"finished","steps":[{"name":"Loaded Test Data: \"src/test/resources/testDataFiles/SteeringCompanyAPI_TestData/SteeringCompanyAPI_TestData.xlsx\".","status":"passed","stage":"finished","steps":[],"attachments":[{"name":"Test Data - Excel","source":"e63466a1-6c37-45b8-bd37-08fc4f16bd46-attachment.xlsx","type":"application/vnd.openxmlformats-officedocument.spreadsheetml.sheet"}],"parameters":[{"name":"logText","value":"Loaded Test Data: \"src/test/resources/testDataFiles/SteeringCompanyAPI_TestData/SteeringCompanyAPI_TestData.xlsx\"."},{"name":"attachments","value":"[[Test Data, Excel, java.io.FileInputStream@5d744727]]"}],"start":1675774556761,"stop":1675774556764},{"name":"Assertion Passed: Evaluating the actual response status code against the expected one...","status":"passed","stage":"finished","steps":[],"attachments":[],"parameters":[{"name":"customLog","value":"Assertion Passed: Evaluating the actual response status code against the expected one..."},{"name":"stepLog","value":"Assertion \"ValidateComparativeRelation\" PASSED. Expected \"200\" and Actual \"200\". Comparison Type \"EQUALS\". Validation Type \"POSITIVE\"."},{"name":"attachments","value":"null"}],"start":1675774557402,"stop":1675774557402},{"name":"Perform request \"POST | Target Status Code: 200 | Service URL: https://auth-demo.np.transporticonline.com/auth/realms/tic/protocol/openid-connect/token | Content Type: application/x-www-form-urlencoded | Response Time: 628ms\".","status":"passed","stage":"finished","steps":[],"attachments":[{"name":"API Request - Specifications","source":"b951e8a2-2c89-4d92-a132-ff380b6f7308-attachment"},{"name":"API Request - Body","source":"91bd0e50-fa01-4bd4-bafb-8ec3a1170ee4-attachment"},{"name":"API Response - JSON Body","source":"df80d3cf-3732-47d2-b321-43ce31a60e30-attachment.json","type":"text/json"}],"parameters":[{"name":"logText","value":"Perform request \"POST | Target Status Code: 200 | Service URL: https://auth-demo.np.transporticonline.com/auth/realms/tic/protocol/openid-connect/token | Content Type: application/x-www-form-urlencoded | Response Time: 628ms\"."},{"name":"attachments","value":"[[API Request, Specifications, Headers:\r\n_______________\r\n\r\nContent-Type=application/x-www-form-urlencoded\r\n\r\n], [API Request, Body, java.io.ByteArrayInputStream@3d972b37], null, [API Response, JSON Body, java.io.ByteArrayInputStream@77615884]]"}],"start":1675774557423,"stop":1675774557426},{"name":"Assertion Passed: Check Response Status Code is 200 and it is valid.","status":"passed","stage":"finished","steps":[],"attachments":[],"parameters":[{"name":"customLog","value":"Assertion Passed: Check Response Status Code is 200 and it is valid."},{"name":"stepLog","value":"Assertion \"ValidateComparativeRelation\" PASSED. Expected \"200\" and Actual \"200\". Comparison Type \"EQUALS\". Validation Type \"POSITIVE\"."},{"name":"attachments","value":"null"}],"start":1675774557426,"stop":1675774557426},{"name":"Loaded Test Data: \"src/test/resources/testDataFiles/SteeringCompanyAPI_TestData/SteeringCompanyAPI_TestData.xlsx\".","status":"passed","stage":"finished","steps":[],"attachments":[{"name":"Test Data - Excel","source":"0239a269-1aad-44bd-951f-4ae6b3ea0164-attachment.xlsx","type":"application/vnd.openxmlformats-officedocument.spreadsheetml.sheet"}],"parameters":[{"name":"logText","value":"Loaded Test Data: \"src/test/resources/testDataFiles/SteeringCompanyAPI_TestData/SteeringCompanyAPI_TestData.xlsx\"."},{"name":"attachments","value":"[[Test Data, Excel, java.io.FileInputStream@5f69bf81]]"}],"start":1675774557475,"stop":1675774557477},{"name":"Loaded Test Data: \"src/test/resources/testDataFiles/SteeringCompanyAPI_TestData/SteeringCompanyAPI_TestData.xlsx\".","status":"passed","stage":"finished","steps":[],"attachments":[{"name":"Test Data - Excel","source":"41427dab-6e5f-46df-9514-851608f59b0b-attachment.xlsx","type":"application/vnd.openxmlformats-officedocument.spreadsheetml.sheet"}],"parameters":[{"name":"logText","value":"Loaded Test Data: \"src/test/resources/testDataFiles/SteeringCompanyAPI_TestData/SteeringCompanyAPI_TestData.xlsx\"."},{"name":"attachments","value":"[[Test Data, Excel, java.io.FileInputStream@228605e1]]"}],"start":1675774557522,"stop":1675774557525},{"name":"Loaded Test Data: \"src/test/resources/testDataFiles/SteeringCompanyAPI_TestData/SteeringCompanyAPI_TestData.xlsx\".","status":"passed","stage":"finished","steps":[],"attachments":[{"name":"Test Data - Excel","source":"9dc1129d-4459-432d-93e7-0ed7bc8f5812-attachment.xlsx","type":"application/vnd.openxmlformats-officedocument.spreadsheetml.sheet"}],"parameters":[{"name":"logText","value":"Loaded Test Data: \"src/test/resources/testDataFiles/SteeringCompanyAPI_TestData/SteeringCompanyAPI_TestData.xlsx\"."},{"name":"attachments","value":"[[Test Data, Excel, java.io.FileInputStream@2787e051]]"}],"start":1675774557589,"stop":1675774557590},{"name":"Assertion Passed: Evaluating the actual response status code against the expected one...","status":"passed","stage":"finished","steps":[],"attachments":[],"parameters":[{"name":"customLog","value":"Assertion Passed: Evaluating the actual response status code against the expected one..."},{"name":"stepLog","value":"Assertion \"ValidateComparativeRelation\" PASSED. Expected \"200\" and Actual \"200\". Comparison Type \"EQUALS\". Validation Type \"POSITIVE\"."},{"name":"attachments","value":"null"}],"start":1675774558121,"stop":1675774558121},{"name":"Perform request \"GET | Target Status Code: 200 | Service URL: https://api-demo.np.transporticonline.com/steeringcompanies/v1/commissions | Content Type: */* | Response Time: 525ms\".","status":"passed","stage":"finished","steps":[],"attachments":[{"name":"API Request - Specifications","source":"e89626be-8232-40e6-89c2-f714274a369a-attachment"},{"name":"API Response - JSON Body","source":"86fc4735-ecc0-4a55-9b6f-0eafc26d31b7-attachment.json","type":"text/json"}],"parameters":[{"name":"logText","value":"Perform request \"GET | Target Status Code: 200 | Service URL: https://api-demo.np.transporticonline.com/steeringcompanies/v1/commissions | Content Type: */* | Response Time: 525ms\"."},{"name":"attachments","value":"[[API Request, Specifications, Headers:\r\n_______________\r\n\r\nAuthorization=Bearer eyJhbGciOiJSUzI1NiIsInR5cCIgOiAiSldUIiwia2lkIiA6ICJjck9ORDFNdFVPVWhzS2Mtb0ppVFFmb0o1d1l4REF6Y3k0ZjNYZ0dveGdZIn0.eyJleHAiOjE2NzU3OTYxNTQsImlhdCI6MTY3NTc3NDU1NCwianRpIjoiYWFiYTkyMzktMjNlMi00NjQ4LWJlMjMtZjAxN2NhNmJiZWQyIiwiaXNzIjoiaHR0cHM6Ly9hdXRoLWRlbW8ubnAudHJhbnNwb3J0aWNvbmxpbmUuY29tL2F1dGgvcmVhbG1zL3RpYyIsImF1ZCI6ImFjY291bnQiLCJzdWIiOiI0ZTk3NmQ0NC1iM2ZkLTRjYTktODk1Ny0wYWJiODUwNzNhNzQiLCJ0eXAiOiJCZWFyZXIiLCJhenAiOiJ0aWMtYXBpIiwic2Vzc2lvbl9zdGF0ZSI6IjUxMzYxOGEzLTg3MTktNGE1MS1iZTAyLTY5NzNkMGUzNzVmZiIsImFjciI6IjEiLCJhbGxvd2VkLW9yaWdpbnMiOlsiaHR0cHM6Ly9hcGktZGV2Lm5wLnRyYW5zcG9ydGljb25saW5lLmNvbSJdLCJyZWFsbV9hY2Nlc3MiOnsicm9sZXMiOlsib2ZmbGluZV9hY2Nlc3MiLCJkZWZhdWx0LXJvbGVzLXRpYyIsInVtYV9hdXRob3JpemF0aW9uIiwidXNlciJdfSwicmVzb3VyY2VfYWNjZXNzIjp7ImFjY291bnQiOnsicm9sZXMiOlsibWFuYWdlLWFjY291bnQiLCJtYW5hZ2UtYWNjb3VudC1saW5rcyIsInZpZXctcHJvZmlsZSJdfX0sInNjb3BlIjoiZW1haWwgcHJvZmlsZSIsInNpZCI6IjUxMzYxOGEzLTg3MTktNGE1MS1iZTAyLTY5NzNkMGUzNzVmZiIsImVtYWlsX3ZlcmlmaWVkIjpmYWxzZSwicHJlZmVycmVkX3VzZXJuYW1lIjoidG9raGkiLCJ0Y0lkIjoiMzE5OTU3In0.cta_E0OGhlR8svsmcrk6tbz7BIxywr9MAZo53sZmbSRnEo_SFCT92IGX4Ai47D7iNV8jMVw3Xd5Oz-Ru7CZubF0eTy2zMl0vaOvTmJaZ5Q9sZ5cEDs6G1nsr-l_ci7u1N890WfHlDfz7-w5s1-bLsM9W4jwgzXOi7ju-BHvw9suwayc_ZxyK9cmkoC1XjlG08fZ4jmCn6y3G6yNsZDdMYNIxowi7i4jlEGWFp0WW09o6sU7fFsjQ6RYozB0qjNdJHBdrzD74ZtnVJk7DtykQfd2aYM0XiRrvwOv4c-zRDTGF0pqCvAp0nRges2Sk_po7sJOHE38H1_R-rc3r-4-8Fw\r\nContent-Type=*/*\r\n\r\nQuery Parameters:\r\n_______________\r\n\r\nsize=10\r\npage=\r\n], null, [API Response, JSON Body, java.io.ByteArrayInputStream@5ad92945]]"}],"start":1675774558150,"stop":1675774558155},{"name":"Assertion Passed: \"200\" is equal to \"200\".","status":"passed","stage":"finished","steps":[],"attachments":[],"parameters":[{"name":"customLog","value":"Assertion Passed: \"200\" is equal to \"200\"."},{"name":"stepLog","value":"Assertion \"ValidateComparativeRelation\" PASSED. Expected \"200\" and Actual \"200\". Comparison Type \"EQUALS\". Validation Type \"POSITIVE\"."},{"name":"attachments","value":"null"}],"start":1675774558156,"stop":1675774558156},{"name":"Verification Passed: \"525\" is greater than or equal to \"1.1\".","status":"passed","stage":"finished","steps":[],"attachments":[],"parameters":[{"name":"customLog","value":"Verification Passed: \"525\" is greater than or equal to \"1.1\"."},{"name":"stepLog","value":"Verification \"ValidateComparativeRelation\" PASSED. Expected \"1.1\" and Actual \"525\". Comparison Type \"GREATER_THAN_OR_EQUALS\". Validation Type \"POSITIVE\"."},{"name":"attachments","value":"null"}],"start":1675774558156,"stop":1675774558156},{"name":"Verification Passed: \"525\" is less than or equal to \"30000\".","status":"passed","stage":"finished","steps":[],"attachments":[],"parameters":[{"name":"customLog","value":"Verification Passed: \"525\" is less than or equal to \"30000\"."},{"name":"stepLog","value":"Verification \"ValidateComparativeRelation\" PASSED. Expected \"30000\" and Actual \"525\". Comparison Type \"LESS_THAN_OR_EQUALS\". Validation Type \"POSITIVE\"."},{"name":"attachments","value":"null"}],"start":1675774558156,"stop":1675774558156},{"name":"Assertion Passed: \"{\"page\":0,\"size\":10,\"totalPages\":2,\"totalElements\":18,\"content\":[{\"otaCode\":\"ZowarOTA\",\"baseCommission\":3.0,\"addCommission\":0.0,\"lastUpdated\":\"2022-12-15T17:26:35.889109\",\"isActive\":true},{\"otaCode\":\"AlrajhiOTA\",\"baseCommission\":3.0,\"addCommission\":0.0,\"lastUpdated\":\"2022-12-15T17:21:34.550112\",\"isActive\":true},{\"otaCode\":\"0226_OTA\",\"baseCommission\":3.0,\"addCommission\":3.5,\"lastUpdated\":\"2022-12-15T17:26:06.5894\",\"isActive\":true},{\"otaCode\":\"ELAF_OTA\",\"baseCommission\":3.0,\"addCommission\":0.0,\"lastUpdated\":\"2022-12-12T15:49:49.939996\",\"isActive\":true},{\"otaCode\":\"HotelGate\",\"baseCommission\":3.0,\"addCommission\":3.125,\"lastUpdated\":\"2022-12-01T14:29:31.706037\",\"isActive\":false},{\"otaCode\":\"ZamzamOTA\",\"baseCommission\":3.0,\"addCommission\":0.0,\"lastUpdated\":\"2022-12-12T15:49:54.037276\",\"isActive\":false},{\"otaCode\":\"SafirTravelOTA\",\"baseCommission\":3.0,\"addCommission\":0.0,\"lastUpdated\":\"2022-12-12T15:50:08.792469\",\"isActive\":true},{\"otaCode\":\"HUBOOKING\",\"baseCommission\":3.0,\"addCommission\":0.0,\"lastUpdated\":\"2022-12-12T15:50:12.53256\",\"isActive\":true},{\"otaCode\":\"agoda\",\"baseCommission\":3.0,\"addCommission\":10.0,\"lastUpdated\":\"2023-02-07T15:55:29.785514\",\"isActive\":true},{\"otaCode\":\"Mawasim\",\"baseCommission\":3.0,\"addCommission\":0.0,\"lastUpdated\":\"2023-02-07T15:55:32.534103\",\"isActive\":true}]}\" contains \"content\".","status":"passed","stage":"finished","steps":[],"attachments":[{"name":"Validation Test Data - Expected Value","source":"4c0f72f7-4e97-45d5-968e-a6fe63fe291d-attachment"},{"name":"Validation Test Data - Actual Value","source":"0afadd55-ffdf-4a17-aa6b-0b80c60f9fae-attachment"}],"parameters":[{"name":"customLog","value":"Assertion Passed: \"{\"page\":0,\"size\":10,\"totalPages\":2,\"totalElements\":18,\"content\":[{\"otaCode\":\"ZowarOTA\",\"baseCommission\":3.0,\"addCommission\":0.0,\"lastUpdated\":\"2022-12-15T17:26:35.889109\",\"isActive\":true},{\"otaCode\":\"AlrajhiOTA\",\"baseCommission\":3.0,\"addCommission\":0.0,\"lastUpdated\":\"2022-12-15T17:21:34.550112\",\"isActive\":true},{\"otaCode\":\"0226_OTA\",\"baseCommission\":3.0,\"addCommission\":3.5,\"lastUpdated\":\"2022-12-15T17:26:06.5894\",\"isActive\":true},{\"otaCode\":\"ELAF_OTA\",\"baseCommission\":3.0,\"addCommission\":0.0,\"lastUpdated\":\"2022-12-12T15:49:49.939996\",\"isActive\":true},{\"otaCode\":\"HotelGate\",\"baseCommission\":3.0,\"addCommission\":3.125,\"lastUpdated\":\"2022-12-01T14:29:31.706037\",\"isActive\":false},{\"otaCode\":\"ZamzamOTA\",\"baseCommission\":3.0,\"addCommission\":0.0,\"lastUpdated\":\"2022-12-12T15:49:54.037276\",\"isActive\":false},{\"otaCode\":\"SafirTravelOTA\",\"baseCommission\":3.0,\"addCommission\":0.0,\"lastUpdated\":\"2022-12-12T15:50:08.792469\",\"isActive\":true},{\"otaCode\":\"HUBOOKING\",\"baseCommission\":3.0,\"addCommission\":0.0,\"lastUpdated\":\"2022-12-12T15:50:12.53256\",\"isActive\":true},{\"otaCode\":\"agoda\",\"baseCommission\":3.0,\"addCommission\":10.0,\"lastUpdated\":\"2023-02-07T15:55:29.785514\",\"isActive\":true},{\"otaCode\":\"Mawasim\",\"baseCommission\":3.0,\"addCommission\":0.0,\"lastUpdated\":\"2023-02-07T15:55:32.534103\",\"isActive\":true}]}\" contains \"content\"."},{"name":"stepLog","value":"Assertion \"ValidateEquals\" PASSED. Expected and Actual values are attached. Comparison Type \"CONTAINS\". Validation Type \"POSITIVE\"."},{"name":"attachments","value":"[[Validation Test Data, Expected Value, content], [Validation Test Data, Actual Value, {\"page\":0,\"size\":10,\"totalPages\":2,\"totalElements\":18,\"content\":[{\"otaCode\":\"ZowarOTA\",\"baseCommission\":3.0,\"addCommission\":0.0,\"lastUpdated\":\"2022-12-15T17:26:35.889109\",\"isActive\":true},{\"otaCode\":\"AlrajhiOTA\",\"baseCommission\":3.0,\"addCommission\":0.0,\"lastUpdated\":\"2022-12-15T17:21:34.550112\",\"isActive\":true},{\"otaCode\":\"0226_OTA\",\"baseCommission\":3.0,\"addCommission\":3.5,\"lastUpdated\":\"2022-12-15T17:26:06.5894\",\"isActive\":true},{\"otaCode\":\"ELAF_OTA\",\"baseCommission\":3.0,\"addCommission\":0.0,\"lastUpdated\":\"2022-12-12T15:49:49.939996\",\"isActive\":true},{\"otaCode\":\"HotelGate\",\"baseCommission\":3.0,\"addCommission\":3.125,\"lastUpdated\":\"2022-12-01T14:29:31.706037\",\"isActive\":false},{\"otaCode\":\"ZamzamOTA\",\"baseCommission\":3.0,\"addCommission\":0.0,\"lastUpdated\":\"2022-12-12T15:49:54.037276\",\"isActive\":false},{\"otaCode\":\"SafirTravelOTA\",\"baseCommission\":3.0,\"addCommission\":0.0,\"lastUpdated\":\"2022-12-12T15:50:08.792469\",\"isActive\":true},{\"otaCode\":\"HUBOOKING\",\"baseCommission\":3.0,\"addCommission\":0.0,\"lastUpdated\":\"2022-12-12T15:50:12.53256\",\"isActive\":true},{\"otaCode\":\"agoda\",\"baseCommission\":3.0,\"addCommission\":10.0,\"lastUpdated\":\"2023-02-07T15:55:29.785514\",\"isActive\":true},{\"otaCode\":\"Mawasim\",\"baseCommission\":3.0,\"addCommission\":0.0,\"lastUpdated\":\"2023-02-07T15:55:32.534103\",\"isActive\":true}]}]]"}],"start":1675774558156,"stop":1675774558158},{"name":"Assertion Passed: Check that content object is not null.","status":"passed","stage":"finished","steps":[],"attachments":[{"name":"Validation Test Data - Expected Value","source":"166eef67-c538-469a-96a0-ee545a1957c8-attachment"},{"name":"Validation Test Data - Actual Value","source":"5ffc0374-cd4b-4f72-9f4d-40ba9b337c33-attachment"}],"parameters":[{"name":"customLog","value":"Assertion Passed: Check that content object is not null."},{"name":"stepLog","value":"Assertion \"ValidateEquals\" PASSED. Expected and Actual values are attached. Comparison Type \"EQUALS\". Validation Type \"NEGATIVE\"."},{"name":"attachments","value":"[[Validation Test Data, Expected Value, null], [Validation Test Data, Actual Value, [{\"otaCode\":\"ZowarOTA\",\"baseCommission\":3.0,\"addCommission\":0.0,\"lastUpdated\":\"2022-12-15T17:26:35.889109\",\"isActive\":true},{\"otaCode\":\"AlrajhiOTA\",\"baseCommission\":3.0,\"addCommission\":0.0,\"lastUpdated\":\"2022-12-15T17:21:34.550112\",\"isActive\":true},{\"otaCode\":\"0226_OTA\",\"baseCommission\":3.0,\"addCommission\":3.5,\"lastUpdated\":\"2022-12-15T17:26:06.5894\",\"isActive\":true},{\"otaCode\":\"ELAF_OTA\",\"baseCommission\":3.0,\"addCommission\":0.0,\"lastUpdated\":\"2022-12-12T15:49:49.939996\",\"isActive\":true},{\"otaCode\":\"HotelGate\",\"baseCommission\":3.0,\"addCommission\":3.125,\"lastUpdated\":\"2022-12-01T14:29:31.706037\",\"isActive\":false},{\"otaCode\":\"ZamzamOTA\",\"baseCommission\":3.0,\"addCommission\":0.0,\"lastUpdated\":\"2022-12-12T15:49:54.037276\",\"isActive\":false},{\"otaCode\":\"SafirTravelOTA\",\"baseCommission\":3.0,\"addCommission\":0.0,\"lastUpdated\":\"2022-12-12T15:50:08.792469\",\"isActive\":true},{\"otaCode\":\"HUBOOKING\",\"baseCommission\":3.0,\"addCommission\":0.0,\"lastUpdated\":\"2022-12-12T15:50:12.53256\",\"isActive\":true},{\"otaCode\":\"agoda\",\"baseCommission\":3.0,\"addCommission\":10.0,\"lastUpdated\":\"2023-02-07T15:55:29.785514\",\"isActive\":true},{\"otaCode\":\"Mawasim\",\"baseCommission\":3.0,\"addCommission\":0.0,\"lastUpdated\":\"2023-02-07T15:55:32.534103\",\"isActive\":true}]]]"}],"start":1675774558159,"stop":1675774558162},{"name":"Assertion Passed: The API response schema matches that in this file \"src/test/resources/testDataFiles/Schemas/Commission_schema.json\".","status":"passed","stage":"finished","steps":[],"attachments":[{"name":"Validation Test Data - Expected JSON Value","source":"1cb966b6-1a72-4b2e-92b6-f5cf0d7ddbb3-attachment.json","type":"text/json"},{"name":"Validation Test Data - Actual JSON Value","source":"54afd403-e54f-4591-a636-adedd877fd24-attachment.json","type":"text/json"}],"parameters":[{"name":"customLog","value":"Assertion Passed: The API response schema matches that in this file \"src/test/resources/testDataFiles/Schemas/Commission_schema.json\"."},{"name":"stepLog","value":"Assertion \"ValidateResponseFileSchema\" PASSED. Expected \"Response data should match the JSON File in this path 'C:\\eclipse-workspace\\MyProjects\\TASystemsAPIs\\src\\test\\resources\\testDataFiles\\Schemas\\Commission_schema.json'\" and Actual \"TRUE\". Comparison Type \"EQUALS\". Validation Type \"POSITIVE\"."},{"name":"attachments","value":"[[Validation Test Data, Expected JSON Value, java.io.ByteArrayInputStream@295af3a1], [Validation Test Data, Actual JSON Value, java.io.ByteArrayInputStream@243bc6df]]"}],"start":1675774558174,"stop":1675774558176}],"attachments":[{"name":"SHAFT Engine Logs - Current Method log: Valid_GET_all_Commissions_by_Qry_Rq_TC","source":"070cc2af-9f5b-46d5-b103-c516ccee8904-attachment.txt","type":"text/plain"}],"parameters":[],"start":1675774556713,"stop":1675774558177}