{"uuid":"ab616233-99f0-4de0-ab0b-d8d10fadc1d2","historyId":"1ee66c37f44545e65a59a3dbc44247b","fullName":"SteeringCompanyAPI_TestCases.Test_Commissions_Cases.Valid_GET_all_Commissions_by_Qry_Rq_TC","labels":[{"name":"package","value":"SteeringCompanyAPI_TestCases.Test_Commissions_Cases"},{"name":"testClass","value":"SteeringCompanyAPI_TestCases.Test_Commissions_Cases"},{"name":"testMethod","value":"Valid_GET_all_Commissions_by_Qry_Rq_TC"},{"name":"parentSuite","value":"Suite"},{"name":"suite","value":"Test"},{"name":"subSuite","value":"SteeringCompanyAPI_TestCases.Test_Commissions_Cases"},{"name":"host","value":"TW-1056"},{"name":"thread","value":"15616@TW-1056.main(1)"},{"name":"framework","value":"testng"},{"name":"language","value":"java"},{"name":"story","value":"Retrieving All Active Commission with Pagination"},{"name":"severity","value":"critical"}],"links":[],"name":"TC002  -Commission- Perform Get all Commissions API with pagination with valid user name and password","status":"passed","statusDetails":{"known":false,"muted":false,"flaky":false},"stage":"finished","steps":[{"name":"Loaded Test Data: \"src/test/resources/testDataFiles/SteeringCompanyAPI_TestData/SteeringCompanyAPI_TestData.xlsx\".","status":"passed","stage":"finished","steps":[],"attachments":[{"name":"Test Data - Excel","source":"b621b154-bc1b-4a11-82ad-d2b16bb9c52d-attachment.xlsx","type":"application/vnd.openxmlformats-officedocument.spreadsheetml.sheet"}],"parameters":[{"name":"logText","value":"Loaded Test Data: \"src/test/resources/testDataFiles/SteeringCompanyAPI_TestData/SteeringCompanyAPI_TestData.xlsx\"."},{"name":"attachments","value":"[[Test Data, Excel, java.io.FileInputStream@31eb7dd4]]"}],"start":1677582981917,"stop":1677582981918},{"name":"Assertion Passed: Evaluating the actual response status code against the expected one...","status":"passed","stage":"finished","steps":[],"attachments":[],"parameters":[{"name":"customLog","value":"Assertion Passed: Evaluating the actual response status code against the expected one..."},{"name":"stepLog","value":"Assertion \"ValidateComparativeRelation\" PASSED. Expected \"200\" and Actual \"200\". Comparison Type \"EQUALS\". Validation Type \"POSITIVE\"."},{"name":"attachments","value":"null"}],"start":1677582982559,"stop":1677582982559},{"name":"Perform request \"POST | Target Status Code: 200 | Service URL: https://auth-demo.np.transporticonline.com/auth/realms/tic/protocol/openid-connect/token | Content Type: application/x-www-form-urlencoded | Response Time: 637ms\".","status":"passed","stage":"finished","steps":[],"attachments":[{"name":"API Request - Specifications","source":"b0cee0bd-feb8-4d69-ba52-3165ff83b068-attachment"},{"name":"API Request - Body","source":"be25cb46-4977-49a6-884b-497da92e0501-attachment"},{"name":"API Response - JSON Body","source":"fdbe505e-7149-4bdd-81fd-d3353dcda8ba-attachment.json","type":"text/json"}],"parameters":[{"name":"logText","value":"Perform request \"POST | Target Status Code: 200 | Service URL: https://auth-demo.np.transporticonline.com/auth/realms/tic/protocol/openid-connect/token | Content Type: application/x-www-form-urlencoded | Response Time: 637ms\"."},{"name":"attachments","value":"[[API Request, Specifications, Headers:\r\n_______________\r\n\r\nContent-Type=application/x-www-form-urlencoded\r\n\r\n], [API Request, Body, java.io.ByteArrayInputStream@7affa3fb], null, [API Response, JSON Body, java.io.ByteArrayInputStream@903d2ee]]"}],"start":1677582982581,"stop":1677582982587},{"name":"Assertion Passed: Check Response Status Code is 200 and it is valid.","status":"passed","stage":"finished","steps":[],"attachments":[],"parameters":[{"name":"customLog","value":"Assertion Passed: Check Response Status Code is 200 and it is valid."},{"name":"stepLog","value":"Assertion \"ValidateComparativeRelation\" PASSED. Expected \"200\" and Actual \"200\". Comparison Type \"EQUALS\". Validation Type \"POSITIVE\"."},{"name":"attachments","value":"null"}],"start":1677582982587,"stop":1677582982588},{"name":"Loaded Test Data: \"src/test/resources/testDataFiles/SteeringCompanyAPI_TestData/SteeringCompanyAPI_TestData.xlsx\".","status":"passed","stage":"finished","steps":[],"attachments":[{"name":"Test Data - Excel","source":"16c9c142-a4c2-43f2-8e67-1352b82a1adb-attachment.xlsx","type":"application/vnd.openxmlformats-officedocument.spreadsheetml.sheet"}],"parameters":[{"name":"logText","value":"Loaded Test Data: \"src/test/resources/testDataFiles/SteeringCompanyAPI_TestData/SteeringCompanyAPI_TestData.xlsx\"."},{"name":"attachments","value":"[[Test Data, Excel, java.io.FileInputStream@6b296904]]"}],"start":1677582982642,"stop":1677582982643},{"name":"Assertion Passed: Evaluating the actual response status code against the expected one...","status":"passed","stage":"finished","steps":[],"attachments":[],"parameters":[{"name":"customLog","value":"Assertion Passed: Evaluating the actual response status code against the expected one..."},{"name":"stepLog","value":"Assertion \"ValidateComparativeRelation\" PASSED. Expected \"200\" and Actual \"200\". Comparison Type \"EQUALS\". Validation Type \"POSITIVE\"."},{"name":"attachments","value":"null"}],"start":1677582983182,"stop":1677582983183},{"name":"Perform request \"GET | Target Status Code: 200 | Service URL: https://api-demo.np.transporticonline.com/steeringcompanies/v1/commissions | Content Type: */* | Response Time: 536ms\".","status":"passed","stage":"finished","steps":[],"attachments":[{"name":"API Request - Specifications","source":"ae99db4b-3bef-4256-9c5a-fbedef2598b8-attachment"},{"name":"API Response - JSON Body","source":"830754e4-af79-4a77-a343-a73b4490b77b-attachment.json","type":"text/json"}],"parameters":[{"name":"logText","value":"Perform request \"GET | Target Status Code: 200 | Service URL: https://api-demo.np.transporticonline.com/steeringcompanies/v1/commissions | Content Type: */* | Response Time: 536ms\"."},{"name":"attachments","value":"[[API Request, Specifications, Headers:\r\n_______________\r\n\r\nAuthorization=Bearer eyJhbGciOiJSUzI1NiIsInR5cCIgOiAiSldUIiwia2lkIiA6ICJjck9ORDFNdFVPVWhzS2Mtb0ppVFFmb0o1d1l4REF6Y3k0ZjNYZ0dveGdZIn0.eyJleHAiOjE2Nzc2MDQ1ODIsImlhdCI6MTY3NzU4Mjk4MiwianRpIjoiMmFiMGZlNzctMTBlYy00NDZjLThhZWMtNmQwMjg0ZDIwMmRmIiwiaXNzIjoiaHR0cHM6Ly9hdXRoLWRlbW8ubnAudHJhbnNwb3J0aWNvbmxpbmUuY29tL2F1dGgvcmVhbG1zL3RpYyIsImF1ZCI6ImFjY291bnQiLCJzdWIiOiI0ZTk3NmQ0NC1iM2ZkLTRjYTktODk1Ny0wYWJiODUwNzNhNzQiLCJ0eXAiOiJCZWFyZXIiLCJhenAiOiJ0aWMtYXBpIiwic2Vzc2lvbl9zdGF0ZSI6IjZjYzQzY2U5LTQ2YzYtNGRjMy1hYjhiLTQ4M2U2NWY2ZTdiOSIsImFjciI6IjEiLCJhbGxvd2VkLW9yaWdpbnMiOlsiaHR0cHM6Ly9hcGktZGV2Lm5wLnRyYW5zcG9ydGljb25saW5lLmNvbSJdLCJyZWFsbV9hY2Nlc3MiOnsicm9sZXMiOlsib2ZmbGluZV9hY2Nlc3MiLCJkZWZhdWx0LXJvbGVzLXRpYyIsInVtYV9hdXRob3JpemF0aW9uIiwidXNlciJdfSwicmVzb3VyY2VfYWNjZXNzIjp7ImFjY291bnQiOnsicm9sZXMiOlsibWFuYWdlLWFjY291bnQiLCJtYW5hZ2UtYWNjb3VudC1saW5rcyIsInZpZXctcHJvZmlsZSJdfX0sInNjb3BlIjoiZW1haWwgcHJvZmlsZSIsInNpZCI6IjZjYzQzY2U5LTQ2YzYtNGRjMy1hYjhiLTQ4M2U2NWY2ZTdiOSIsImVtYWlsX3ZlcmlmaWVkIjpmYWxzZSwicHJlZmVycmVkX3VzZXJuYW1lIjoidG9raGkiLCJ0Y0lkIjoiMzE5OTU3In0.BwCFtkbK_fL0Vt7V2RlqKUHWS9fp1aP6llUpp8YbJ8Nq8S1owj7n83SHxEGP7EXRIJJsTnPR72VE-3tYACZOJUolies1HXl3b-55FUq5xS98V6A-eCU6C8iwJ7lxq3yvYJnO8aF84_R34WORlgl7JxWzdQy5UyktkyITFNWn3_sxAyfuSEoyp6Uu-mHCEK_5EppQ-VbXFCC3GyLOkWo26dRO7P9O4pS3x8yuIm9cXp3CBUFujU80TBn2dPMC_ER3EKAgBiTrOxWwkzWwmytJmLh-ZYifuikd5GmSNnfMCOIdYCGCewJ_UVzlQaxa66QsXI2Ne6zcC-PO4-Wup5-ytw\r\nContent-Type=*/*\r\n\r\nQuery Parameters:\r\n_______________\r\n\r\nsize=10\r\npage=\r\n], null, [API Response, JSON Body, java.io.ByteArrayInputStream@367d083e]]"}],"start":1677582983209,"stop":1677582983212},{"name":"Assertion Passed: \"200\" is equal to \"200\".","status":"passed","stage":"finished","steps":[],"attachments":[],"parameters":[{"name":"customLog","value":"Assertion Passed: \"200\" is equal to \"200\"."},{"name":"stepLog","value":"Assertion \"ValidateComparativeRelation\" PASSED. Expected \"200\" and Actual \"200\". Comparison Type \"EQUALS\". Validation Type \"POSITIVE\"."},{"name":"attachments","value":"null"}],"start":1677582983212,"stop":1677582983212},{"name":"Verification Passed: \"536\" is greater than or equal to \"1.1\".","status":"passed","stage":"finished","steps":[],"attachments":[],"parameters":[{"name":"customLog","value":"Verification Passed: \"536\" is greater than or equal to \"1.1\"."},{"name":"stepLog","value":"Verification \"ValidateComparativeRelation\" PASSED. Expected \"1.1\" and Actual \"536\". Comparison Type \"GREATER_THAN_OR_EQUALS\". Validation Type \"POSITIVE\"."},{"name":"attachments","value":"null"}],"start":1677582983212,"stop":1677582983213},{"name":"Verification Passed: \"536\" is less than or equal to \"30000\".","status":"passed","stage":"finished","steps":[],"attachments":[],"parameters":[{"name":"customLog","value":"Verification Passed: \"536\" is less than or equal to \"30000\"."},{"name":"stepLog","value":"Verification \"ValidateComparativeRelation\" PASSED. Expected \"30000\" and Actual \"536\". Comparison Type \"LESS_THAN_OR_EQUALS\". Validation Type \"POSITIVE\"."},{"name":"attachments","value":"null"}],"start":1677582983213,"stop":1677582983213},{"name":"Assertion Passed: \"{\"page\":0,\"size\":10,\"totalPages\":2,\"totalElements\":18,\"content\":[{\"otaCode\":\"ZowarOTA\",\"baseCommission\":3.0,\"addCommission\":0.0,\"lastUpdated\":\"2022-12-15T17:26:35.889109\",\"isActive\":true},{\"otaCode\":\"AlrajhiOTA\",\"baseCommission\":3.0,\"addCommission\":0.0,\"lastUpdated\":\"2022-12-15T17:21:34.550112\",\"isActive\":true},{\"otaCode\":\"0226_OTA\",\"baseCommission\":3.0,\"addCommission\":3.5,\"lastUpdated\":\"2022-12-15T17:26:06.5894\",\"isActive\":true},{\"otaCode\":\"agoda\",\"baseCommission\":3.0,\"addCommission\":10.0,\"lastUpdated\":\"2023-02-28T14:16:05.884406\",\"isActive\":true},{\"otaCode\":\"ELAF_OTA\",\"baseCommission\":3.0,\"addCommission\":0.0,\"lastUpdated\":\"2022-12-12T15:49:49.939996\",\"isActive\":true},{\"otaCode\":\"Mawasim\",\"baseCommission\":3.0,\"addCommission\":0.0,\"lastUpdated\":\"2023-02-28T14:16:07.286704\",\"isActive\":true},{\"otaCode\":\"HotelGate\",\"baseCommission\":3.0,\"addCommission\":3.125,\"lastUpdated\":\"2022-12-01T14:29:31.706037\",\"isActive\":false},{\"otaCode\":\"Taqneen\",\"baseCommission\":3.0,\"addCommission\":97.0,\"lastUpdated\":\"2023-02-28T14:16:09.416179\",\"isActive\":true},{\"otaCode\":\"ZamzamOTA\",\"baseCommission\":3.0,\"addCommission\":0.0,\"lastUpdated\":\"2022-12-12T15:49:54.037276\",\"isActive\":false},{\"otaCode\":\"SafirTravelOTA\",\"baseCommission\":3.0,\"addCommission\":0.0,\"lastUpdated\":\"2022-12-12T15:50:08.792469\",\"isActive\":true}]}\" contains \"content\".","status":"passed","stage":"finished","steps":[],"attachments":[{"name":"Validation Test Data - Expected Value","source":"8a1148b0-b19e-4e09-84bb-8dc7b7b05f8d-attachment"},{"name":"Validation Test Data - Actual Value","source":"a46153e3-3f9c-416e-95eb-d2267565716d-attachment"}],"parameters":[{"name":"customLog","value":"Assertion Passed: \"{\"page\":0,\"size\":10,\"totalPages\":2,\"totalElements\":18,\"content\":[{\"otaCode\":\"ZowarOTA\",\"baseCommission\":3.0,\"addCommission\":0.0,\"lastUpdated\":\"2022-12-15T17:26:35.889109\",\"isActive\":true},{\"otaCode\":\"AlrajhiOTA\",\"baseCommission\":3.0,\"addCommission\":0.0,\"lastUpdated\":\"2022-12-15T17:21:34.550112\",\"isActive\":true},{\"otaCode\":\"0226_OTA\",\"baseCommission\":3.0,\"addCommission\":3.5,\"lastUpdated\":\"2022-12-15T17:26:06.5894\",\"isActive\":true},{\"otaCode\":\"agoda\",\"baseCommission\":3.0,\"addCommission\":10.0,\"lastUpdated\":\"2023-02-28T14:16:05.884406\",\"isActive\":true},{\"otaCode\":\"ELAF_OTA\",\"baseCommission\":3.0,\"addCommission\":0.0,\"lastUpdated\":\"2022-12-12T15:49:49.939996\",\"isActive\":true},{\"otaCode\":\"Mawasim\",\"baseCommission\":3.0,\"addCommission\":0.0,\"lastUpdated\":\"2023-02-28T14:16:07.286704\",\"isActive\":true},{\"otaCode\":\"HotelGate\",\"baseCommission\":3.0,\"addCommission\":3.125,\"lastUpdated\":\"2022-12-01T14:29:31.706037\",\"isActive\":false},{\"otaCode\":\"Taqneen\",\"baseCommission\":3.0,\"addCommission\":97.0,\"lastUpdated\":\"2023-02-28T14:16:09.416179\",\"isActive\":true},{\"otaCode\":\"ZamzamOTA\",\"baseCommission\":3.0,\"addCommission\":0.0,\"lastUpdated\":\"2022-12-12T15:49:54.037276\",\"isActive\":false},{\"otaCode\":\"SafirTravelOTA\",\"baseCommission\":3.0,\"addCommission\":0.0,\"lastUpdated\":\"2022-12-12T15:50:08.792469\",\"isActive\":true}]}\" contains \"content\"."},{"name":"stepLog","value":"Assertion \"ValidateEquals\" PASSED. Expected and Actual values are attached. Comparison Type \"CONTAINS\". Validation Type \"POSITIVE\"."},{"name":"attachments","value":"[[Validation Test Data, Expected Value, content], [Validation Test Data, Actual Value, {\"page\":0,\"size\":10,\"totalPages\":2,\"totalElements\":18,\"content\":[{\"otaCode\":\"ZowarOTA\",\"baseCommission\":3.0,\"addCommission\":0.0,\"lastUpdated\":\"2022-12-15T17:26:35.889109\",\"isActive\":true},{\"otaCode\":\"AlrajhiOTA\",\"baseCommission\":3.0,\"addCommission\":0.0,\"lastUpdated\":\"2022-12-15T17:21:34.550112\",\"isActive\":true},{\"otaCode\":\"0226_OTA\",\"baseCommission\":3.0,\"addCommission\":3.5,\"lastUpdated\":\"2022-12-15T17:26:06.5894\",\"isActive\":true},{\"otaCode\":\"agoda\",\"baseCommission\":3.0,\"addCommission\":10.0,\"lastUpdated\":\"2023-02-28T14:16:05.884406\",\"isActive\":true},{\"otaCode\":\"ELAF_OTA\",\"baseCommission\":3.0,\"addCommission\":0.0,\"lastUpdated\":\"2022-12-12T15:49:49.939996\",\"isActive\":true},{\"otaCode\":\"Mawasim\",\"baseCommission\":3.0,\"addCommission\":0.0,\"lastUpdated\":\"2023-02-28T14:16:07.286704\",\"isActive\":true},{\"otaCode\":\"HotelGate\",\"baseCommission\":3.0,\"addCommission\":3.125,\"lastUpdated\":\"2022-12-01T14:29:31.706037\",\"isActive\":false},{\"otaCode\":\"Taqneen\",\"baseCommission\":3.0,\"addCommission\":97.0,\"lastUpdated\":\"2023-02-28T14:16:09.416179\",\"isActive\":true},{\"otaCode\":\"ZamzamOTA\",\"baseCommission\":3.0,\"addCommission\":0.0,\"lastUpdated\":\"2022-12-12T15:49:54.037276\",\"isActive\":false},{\"otaCode\":\"SafirTravelOTA\",\"baseCommission\":3.0,\"addCommission\":0.0,\"lastUpdated\":\"2022-12-12T15:50:08.792469\",\"isActive\":true}]}]]"}],"start":1677582983213,"stop":1677582983214},{"name":"Assertion Passed: Check that content object is not null.","status":"passed","stage":"finished","steps":[],"attachments":[{"name":"Validation Test Data - Expected Value","source":"b18e3fb1-3f37-447e-a428-39bcf11b473e-attachment"},{"name":"Validation Test Data - Actual Value","source":"644d094a-6896-42f4-9d9b-8e2798ea29d7-attachment"}],"parameters":[{"name":"customLog","value":"Assertion Passed: Check that content object is not null."},{"name":"stepLog","value":"Assertion \"ValidateEquals\" PASSED. Expected and Actual values are attached. Comparison Type \"EQUALS\". Validation Type \"NEGATIVE\"."},{"name":"attachments","value":"[[Validation Test Data, Expected Value, null], [Validation Test Data, Actual Value, [{\"otaCode\":\"ZowarOTA\",\"baseCommission\":3.0,\"addCommission\":0.0,\"lastUpdated\":\"2022-12-15T17:26:35.889109\",\"isActive\":true},{\"otaCode\":\"AlrajhiOTA\",\"baseCommission\":3.0,\"addCommission\":0.0,\"lastUpdated\":\"2022-12-15T17:21:34.550112\",\"isActive\":true},{\"otaCode\":\"0226_OTA\",\"baseCommission\":3.0,\"addCommission\":3.5,\"lastUpdated\":\"2022-12-15T17:26:06.5894\",\"isActive\":true},{\"otaCode\":\"agoda\",\"baseCommission\":3.0,\"addCommission\":10.0,\"lastUpdated\":\"2023-02-28T14:16:05.884406\",\"isActive\":true},{\"otaCode\":\"ELAF_OTA\",\"baseCommission\":3.0,\"addCommission\":0.0,\"lastUpdated\":\"2022-12-12T15:49:49.939996\",\"isActive\":true},{\"otaCode\":\"Mawasim\",\"baseCommission\":3.0,\"addCommission\":0.0,\"lastUpdated\":\"2023-02-28T14:16:07.286704\",\"isActive\":true},{\"otaCode\":\"HotelGate\",\"baseCommission\":3.0,\"addCommission\":3.125,\"lastUpdated\":\"2022-12-01T14:29:31.706037\",\"isActive\":false},{\"otaCode\":\"Taqneen\",\"baseCommission\":3.0,\"addCommission\":97.0,\"lastUpdated\":\"2023-02-28T14:16:09.416179\",\"isActive\":true},{\"otaCode\":\"ZamzamOTA\",\"baseCommission\":3.0,\"addCommission\":0.0,\"lastUpdated\":\"2022-12-12T15:49:54.037276\",\"isActive\":false},{\"otaCode\":\"SafirTravelOTA\",\"baseCommission\":3.0,\"addCommission\":0.0,\"lastUpdated\":\"2022-12-12T15:50:08.792469\",\"isActive\":true}]]]"}],"start":1677582983215,"stop":1677582983216},{"name":"Assertion Passed: The API response schema matches that in this file \"src/test/resources/testDataFiles/Schemas/Commission_schema.json\".","status":"passed","stage":"finished","steps":[],"attachments":[{"name":"Validation Test Data - Expected JSON Value","source":"4798a00c-0c8e-4c40-b6ae-3a46b10e8930-attachment.json","type":"text/json"},{"name":"Validation Test Data - Actual JSON Value","source":"7c087711-0df1-4d4e-bab2-c2cb111a8cd8-attachment.json","type":"text/json"}],"parameters":[{"name":"customLog","value":"Assertion Passed: The API response schema matches that in this file \"src/test/resources/testDataFiles/Schemas/Commission_schema.json\"."},{"name":"stepLog","value":"Assertion \"ValidateResponseFileSchema\" PASSED. Expected \"Response data should match the JSON File in this path 'C:\\eclipse-workspace\\MyProjects\\TASystemsAPIs\\src\\test\\resources\\testDataFiles\\Schemas\\Commission_schema.json'\" and Actual \"TRUE\". Comparison Type \"EQUALS\". Validation Type \"POSITIVE\"."},{"name":"attachments","value":"[[Validation Test Data, Expected JSON Value, java.io.ByteArrayInputStream@3c929623], [Validation Test Data, Actual JSON Value, java.io.ByteArrayInputStream@67b2ea33]]"}],"start":1677582983225,"stop":1677582983226}],"attachments":[{"name":"SHAFT Engine Logs - Current Method log: Valid_GET_all_Commissions_by_Qry_Rq_TC","source":"c780b2e5-dd5a-4c03-82c4-a3f2f668801d-attachment.txt","type":"text/plain"}],"parameters":[],"start":1677582981865,"stop":1677582983227}