[ReportManager] Setting discrete logging to: "false" @03-10-2022 15:19:21.0301 PM

################################################################################################################################################
Starting Execution:	"7 out of 13" test cases in the current suite
Test Method:		"SteeringCompanyAPI_TestCases.Test_Case.Valid_GET_all_ports_Lookups_Rq_TC"
################################################################################################################################################
[ReportManager] Setting discrete logging to: "false" @03-10-2022 15:19:21.0301 PM
[ReportManager] Setting discrete logging to: "true" @03-10-2022 15:19:22.0013 PM
[ReportManager] Response status code: "200", status line: "HTTP/1.1 200 OK" @03-10-2022 15:19:22.0013 PM
[ReportManager] Assertion Passed: Evaluating the actual response status code against the expected one... @03-10-2022 15:19:22.0014 PM
[ReportManager] Setting discrete logging to: "false" @03-10-2022 15:19:22.0014 PM
[ReportManager] Perform request "POST | Target Status Code: 200 | Service URL: https://auth-demo.np.transporticonline.com/auth/realms/tic/protocol/openid-connect/token | Content Type: application/x-www-form-urlencoded | Response Time: 709ms". @03-10-2022 15:19:22.0044 PM
[ReportManager] Successfully created attachment "API Request - Specifications" @03-10-2022 15:19:22.0047 PM
[ReportManager] Successfully created attachment "API Request - Body" @03-10-2022 15:19:22.0048 PM
[ReportManager] Successfully created attachment "API Response - JSON Body" @03-10-2022 15:19:22.0050 PM
[ReportManager] Assertion Passed: "200" is equal to "200". @03-10-2022 15:19:22.0051 PM
[ReportManager] Verification Passed: "709" is greater than or equal to "1.1". @03-10-2022 15:19:22.0052 PM
[ReportManager] Verification Passed: "709" is less than or equal to "10000". @03-10-2022 15:19:22.0052 PM
[ReportManager] Assertion Passed: "{"access_token":"eyJhbGciOiJSUzI1NiIsInR5cCIgOiAiSldUIiwia2lkIiA6ICJjck9ORDFNdFVPVWhzS2Mtb0ppVFFmb0o1d1l4REF6Y3k0ZjNYZ0dveGdZIn0.eyJleHAiOjE2NjQ4MDM0NjAsImlhdCI6MTY2NDgwMzE2MCwianRpIjoiNjFjNTI2MWMtMjI5MC00NTBhLWIwY2UtZWQ3YWUzODBlMmQ3IiwiaXNzIjoiaHR0cHM6Ly9hdXRoLWRlbW8ubnAudHJhbnNwb3J0aWNvbmxpbmUuY29tL2F1dGgvcmVhbG1zL3RpYyIsImF1ZCI6ImFjY291bnQiLCJzdWIiOiI0ZTk3NmQ0NC1iM2ZkLTRjYTktODk1Ny0wYWJiODUwNzNhNzQiLCJ0eXAiOiJCZWFyZXIiLCJhenAiOiJ0aWMtYXBpIiwic2Vzc2lvbl9zdGF0ZSI6IjdjMmM5OThhLTA2OWEtNGI0YS1iNjU0LTMzNGNlZGE4NDVlNyIsImFjciI6IjEiLCJhbGxvd2VkLW9yaWdpbnMiOlsiaHR0cHM6Ly9hcGktZGV2Lm5wLnRyYW5zcG9ydGljb25saW5lLmNvbSJdLCJyZWFsbV9hY2Nlc3MiOnsicm9sZXMiOlsib2ZmbGluZV9hY2Nlc3MiLCJkZWZhdWx0LXJvbGVzLXRpYyIsInVtYV9hdXRob3JpemF0aW9uIiwidXNlciJdfSwicmVzb3VyY2VfYWNjZXNzIjp7ImFjY291bnQiOnsicm9sZXMiOlsibWFuYWdlLWFjY291bnQiLCJtYW5hZ2UtYWNjb3VudC1saW5rcyIsInZpZXctcHJvZmlsZSJdfX0sInNjb3BlIjoiZW1haWwgcHJvZmlsZSIsInNpZCI6IjdjMmM5OThhLTA2OWEtNGI0YS1iNjU0LTMzNGNlZGE4NDVlNyIsImVtYWlsX3ZlcmlmaWVkIjpmYWxzZSwicHJlZmVycmVkX3VzZXJuYW1lIjoidG9raGkiLCJ0Y0lkIjoiMzE5OTU3In0.IMYKatfa_P5MbmEEbCDTq1kYou48tomfvIWlfVHi561ti3oRZB1YZ14VgKdpetgAkLP4pOXctLfND4-ZRvyNC6PC23FzgSsNbNH6pJEvJ-Rr7fiAhKfWAKjflM97OCOiKrVfieCCbmRPW5JdwiCw6ISpXu_q_pPRE13pcdtDIAnO6aCjAxLLWUDNjzd4PJALb6MRKKSoNH75jn4UvZidvgfwMTlkIFdI6uV2GffNsIeMXJ45qjiLqJ_eBQowzIvYJ2D7eggCCai8P3rc2rXpgUHXZwxATT1yuzJb8UoHgj6fu2f-hGnz4KTzBS6FRtrty7wMLtts1bxlBkoeKqCUvA","expires_in":300,"refresh_expires_in":1800,"refresh_token":"eyJhbGciOiJIUzI1NiIsInR5cCIgOiAiSldUIiwia2lkIiA6ICJkMTFjNTY4Yi1iMjAyLTQzYjgtYTBiMy1hYWI4ZWMyYWQzZDEifQ.eyJleHAiOjE2NjQ4MDQ5NjAsImlhdCI6MTY2NDgwMzE2MCwianRpIjoiOWFmMDE2YTAtNzUwYi00MzdmLWI5ZjktZDU4NDg4ZGZjNDI3IiwiaXNzIjoiaHR0cHM6Ly9hdXRoLWRlbW8ubnAudHJhbnNwb3J0aWNvbmxpbmUuY29tL2F1dGgvcmVhbG1zL3RpYyIsImF1ZCI6Imh0dHBzOi8vYXV0aC1kZW1vLm5wLnRyYW5zcG9ydGljb25saW5lLmNvbS9hdXRoL3JlYWxtcy90aWMiLCJzdWIiOiI0ZTk3NmQ0NC1iM2ZkLTRjYTktODk1Ny0wYWJiODUwNzNhNzQiLCJ0eXAiOiJSZWZyZXNoIiwiYXpwIjoidGljLWFwaSIsInNlc3Npb25fc3RhdGUiOiI3YzJjOTk4YS0wNjlhLTRiNGEtYjY1NC0zMzRjZWRhODQ1ZTciLCJzY29wZSI6ImVtYWlsIHByb2ZpbGUiLCJzaWQiOiI3YzJjOTk4YS0wNjlhLTRiNGEtYjY1NC0zMzRjZWRhODQ1ZTcifQ.rIjeiZeM8Emfaba1xdgrDUKaIojq9KtTsONOANzRHeI","token_type":"Bearer","not-before-policy":0,"session_state":"7c2c998a-069a-4b4a-b654-334ceda845e7","scope":"email profile"}" contains "access_token". @03-10-2022 15:19:22.0053 PM
[ReportManager] Successfully created attachment "Validation Test Data - Expected Value" @03-10-2022 15:19:22.0054 PM
[ReportManager] Successfully created attachment "Validation Test Data - Actual Value" @03-10-2022 15:19:22.0056 PM
[ReportManager] Get response jsonvalue "access_token". @03-10-2022 15:19:22.0058 PM
[ReportManager] Assertion Passed: Check that Access token is not null. @03-10-2022 15:19:22.0058 PM
[ReportManager] Successfully created attachment "Validation Test Data - Expected Value" @03-10-2022 15:19:22.0060 PM
[ReportManager] Successfully created attachment "Validation Test Data - Actual Value" @03-10-2022 15:19:22.0060 PM
[ReportManager] File Action "DoesFileExist" successfully performed. With the following test data "File Path: "Token_schema.json"". @03-10-2022 15:19:22.0060 PM
[ReportManager] File Action "DoesFileExist" successfully performed. With the following test data "File Path: "src/test/resources/testDataFiles/Token_schema.json"". @03-10-2022 15:19:22.0060 PM
[ReportManager] File Action "GetAbsolutePath" successfully performed. With the following test data "Relative Folder Path: "src/test/resources/testDataFiles/Token_schema.json"". @03-10-2022 15:19:22.0061 PM
[ReportManager] File Action "DoesFileExist" successfully performed. With the following test data "File Path: "C:\eclipse-workspace\MyProjects\TASystemsAPIs\src\test\resources\testDataFiles\Token_schema.json"". @03-10-2022 15:19:22.0064 PM
[ReportManager] File Action "GetAbsolutePath" successfully performed. With the following test data "Relative Folder Path: "C:\eclipse-workspace\MyProjects\TASystemsAPIs\src\test\resources\testDataFiles\Token_schema.json"". @03-10-2022 15:19:22.0065 PM
[ReportManager] File Action "ReadFromFile" successfully performed. With the following test data "File Path: "C:\eclipse-workspace\MyProjects\TASystemsAPIs\src\test\resources\testDataFiles\Token_schema.json"". @03-10-2022 15:19:22.0065 PM
[ReportManager] Assertion Passed: The API response schema matches that in this file "src/test/resources/testDataFiles/Token_schema.json". @03-10-2022 15:19:22.0066 PM
[ReportManager] Successfully created attachment "Validation Test Data - Expected JSON Value" @03-10-2022 15:19:22.0067 PM
[ReportManager] Successfully created attachment "Validation Test Data - Actual JSON Value" @03-10-2022 15:19:22.0069 PM
[ReportManager] Verification Passed: "709" is greater than or equal to "1.1". @03-10-2022 15:19:22.0089 PM
[ReportManager] Verification Passed: "709" is less than or equal to "10000". @03-10-2022 15:19:22.0089 PM
[ReportManager] Setting discrete logging to: "true" @03-10-2022 15:19:23.0342 PM
[ReportManager] Response status code: "200", status line: "HTTP/1.1 200 " @03-10-2022 15:19:23.0342 PM
[ReportManager] Assertion Passed: Evaluating the actual response status code against the expected one... @03-10-2022 15:19:23.0342 PM
[ReportManager] Setting discrete logging to: "false" @03-10-2022 15:19:23.0343 PM
[ReportManager] Perform request "GET | Target Status Code: 200 | Service URL: https://api-demo.np.transporticonline.com/steeringcompanies/v1/lookups/ports | Content Type: */* | Response Time: 1236ms". @03-10-2022 15:19:23.0512 PM
[ReportManager] Successfully created attachment "API Request - Specifications" @03-10-2022 15:19:23.0514 PM
[ReportManager] Successfully created attachment "API Response - JSON Body" @03-10-2022 15:19:23.0515 PM
[ReportManager] Assertion Passed: "200" is equal to "200". @03-10-2022 15:19:23.0516 PM
[ReportManager] Verification Passed: "1236" is greater than or equal to "1.1". @03-10-2022 15:19:23.0516 PM
[ReportManager] Verification Passed: "1236" is less than or equal to "10000". @03-10-2022 15:19:23.0516 PM
[ReportManager] Assertion Passed: "{"page":0,"size":2147483647,"totalPages":1,"totalElements":29,"content":[{"id":59,"nameArabic":"???? ??? ","nameEnglish":"Alab Port","cityId":656,"isActive":true,"lastUpdated":"2020-10-22T18:41:32Z","sectors":null},{"id":53,"nameArabic":"????? ???? ???????","nameEnglish":"Yanbu Commercial Port","cityId":646,"isActive":true,"lastUpdated":"2020-10-22T18:41:32Z","sectors":null},{"id":49,"nameArabic":"???? ????? ????","nameEnglish":"Jadedat Arar Port","cityId":612,"isActive":true,"lastUpdated":"2020-10-22T18:41:32Z","sectors":null},{"id":65,"nameArabic":"???? ???????","nameEnglish":"Alwadeah Port","cityId":664,"isActive":true,"lastUpdated":"2020-10-22T18:41:32Z","sectors":null},{"id":41,"nameArabic":"???? ????? ???? ??????","nameEnglish":"King Khalid International Airport","cityId":601,"isActive":true,"lastUpdated":"2020-10-22T18:41:32Z","sectors":null},{"id":71,"nameArabic":"???? ????? 5 - ???? ????? ???","nameEnglish":"???? ????? 5 - ???? ????? ???","cityId":602,"isActive":true,"lastUpdated":"2020-10-22T18:41:32Z","sectors":null},{"id":48,"nameArabic":"???? ???? ????","nameEnglish":"Halat Amar Port","cityId":606,"isActive":true,"lastUpdated":"2020-10-22T18:41:32Z","sectors":null},{"id":54,"nameArabic":"???? ???????","nameEnglish":"Alkhadra Port","cityId":664,"isActive":true,"lastUpdated":"2020-10-22T18:41:32Z","sectors":null},{"id":58,"nameArabic":"???? ????? ???","nameEnglish":"King Fahad Airport","cityId":607,"isActive":true,"lastUpdated":"2020-10-22T18:41:32Z","sectors":null},{"id":66,"nameArabic":"???? ?????-1???? ????? ????? ","nameEnglish":"???? ?????-1???? ????? ????? ","cityId":602,"isActive":true,"lastUpdated":"2020-10-22T18:41:32Z","sectors":null},{"id":72,"nameArabic":"???? ????? ?????? - ?? ??????","nameEnglish":"Empty quarter Port","isActive":true,"lastUpdated":"2022-06-29T08:08:58Z","sectors":null},{"id":50,"nameArabic":"???? ????? ??? ?????? ??????","nameEnglish":"KING ABDUL AZIZ INTERNATIONAL AIRPORT","cityId":602,"isActive":true,"lastUpdated":"2020-10-22T18:41:32Z","sectors":null},{"id":45,"nameArabic":"???? ????","nameEnglish":"Salwa Port","cityId":672,"isActive":true,"lastUpdated":"2020-10-22T18:41:32Z","sectors":null},{"id":63,"nameArabic":"???? ??????","nameEnglish":"Altaif Airport","cityId":604,"isActive":true,"lastUpdated":"2020-10-22T18:41:32Z","sectors":null},{"id":4,"nameArabic":"?????","nameEnglish":"albalad","isActive":true,"lastUpdated":null,"sectors":null},{"id":55,"nameArabic":"???? ??????","nameEnglish":"Altowal Port","cityId":607,"isActive":true,"lastUpdated":"2020-10-22T18:41:32Z","sectors":null},{"id":5,"nameArabic":"???? ????? 2-???? ??????","nameEnglish":"???? ????? 2-???? ??????","cityId":602,"isActive":true,"lastUpdated":"2020-10-22T18:41:32Z","sectors":null},{"id":70,"nameArabic":"???? ????? 4-???? ????","nameEnglish":"???? ????? 4-???? ????","cityId":602,"isActive":true,"lastUpdated":"2020-10-22T18:41:32Z","sectors":null},{"id":69,"nameArabic":"???? ????? 3-???????","nameEnglish":"???? ????? 3-???????","cityId":602,"isActive":true,"lastUpdated":"2020-10-22T18:41:32Z","sectors":null},{"id":68,"nameArabic":"???? ????? 6 - ???? ???","nameEnglish":"???? ????? 6 - ???? ???","cityId":602,"isActive":true,"lastUpdated":"2020-10-22T18:41:32Z","sectors":null},{"id":43,"nameArabic":"???? ??????","nameEnglish":"Alkhafji Port","cityId":631,"isActive":true,"lastUpdated":"2020-10-22T18:41:32Z","sectors":null},{"id":67,"nameArabic":"??????????????????? ?????","nameEnglish":"Prince AbdulMohsen Bin Abdulaziz Airport","isActive":true,"lastUpdated":null,"sectors":null},{"id":47,"nameArabic":"???? ???????","nameEnglish":"Albatha Port","cityId":672,"isActive":true,"lastUpdated":"2020-10-22T18:41:32Z","sectors":null},{"id":52,"nameArabic":"????? ??? ????????","nameEnglish":"JEDDAH ISLAMIC PORT","cityId":602,"isActive":true,"lastUpdated":"2020-10-22T18:41:32Z","sectors":null},{"id":56,"nameArabic":"???? ???????","nameEnglish":"Alhadithah Port","cityId":641,"isActive":true,"lastUpdated":"2020-10-22T18:41:32Z","sectors":null},{"id":46,"nameArabic":"??? ????? ???","nameEnglish":"King Fahad Bridge","cityId":608,"isActive":true,"lastUpdated":"2020-10-22T18:41:32Z","sectors":null},{"id":51,"nameArabic":"???? ?????? ????","nameEnglish":"PRINCE MOHAMMAD INTERNATIONAL AIRPORT","cityId":605,"isActive":true,"lastUpdated":"2020-10-22T18:41:32Z","sectors":null},{"id":44,"nameArabic":"???? ??????","nameEnglish":"Alraqai Port","cityId":630,"isActive":true,"lastUpdated":"2020-10-22T18:41:32Z","sectors":null},{"id":64,"nameArabic":"???? ????","nameEnglish":"Abha Airport","cityId":613,"isActive":true,"lastUpdated":"2020-10-22T18:41:32Z","sectors":null}]}" contains "content". @03-10-2022 15:19:23.0516 PM
[ReportManager] Successfully created attachment "Validation Test Data - Expected Value" @03-10-2022 15:19:23.0520 PM
[ReportManager] Successfully created attachment "Validation Test Data - Actual Value" @03-10-2022 15:19:23.0521 PM
[ReportManager] Get response jsonvalue "content". @03-10-2022 15:19:23.0524 PM
[ReportManager] Assertion Passed: Check that content object is not null. @03-10-2022 15:19:23.0524 PM
[ReportManager] Successfully created attachment "Validation Test Data - Expected Value" @03-10-2022 15:19:23.0525 PM
[ReportManager] Successfully created attachment "Validation Test Data - Actual Value" @03-10-2022 15:19:23.0526 PM
[ReportManager] File Action "DoesFileExist" successfully performed. With the following test data "File Path: "Lookups_ports_schema.json"". @03-10-2022 15:19:23.0526 PM
[ReportManager] File Action "DoesFileExist" successfully performed. With the following test data "File Path: "src/test/resources/testDataFiles/Lookups_ports_schema.json"". @03-10-2022 15:19:23.0526 PM
[ReportManager] File Action "GetAbsolutePath" successfully performed. With the following test data "Relative Folder Path: "src/test/resources/testDataFiles/Lookups_ports_schema.json"". @03-10-2022 15:19:23.0526 PM
[ReportManager] File Action "DoesFileExist" successfully performed. With the following test data "File Path: "C:\eclipse-workspace\MyProjects\TASystemsAPIs\src\test\resources\testDataFiles\Lookups_ports_schema.json"". @03-10-2022 15:19:23.0531 PM
[ReportManager] File Action "GetAbsolutePath" successfully performed. With the following test data "Relative Folder Path: "C:\eclipse-workspace\MyProjects\TASystemsAPIs\src\test\resources\testDataFiles\Lookups_ports_schema.json"". @03-10-2022 15:19:23.0531 PM
[ReportManager] File Action "ReadFromFile" successfully performed. With the following test data "File Path: "C:\eclipse-workspace\MyProjects\TASystemsAPIs\src\test\resources\testDataFiles\Lookups_ports_schema.json"". @03-10-2022 15:19:23.0531 PM
[ReportManager] Assertion Passed: The API response schema matches that in this file "src/test/resources/testDataFiles/Lookups_ports_schema.json". @03-10-2022 15:19:23.0534 PM
[ReportManager] Successfully created attachment "Validation Test Data - Expected JSON Value" @03-10-2022 15:19:23.0536 PM
[ReportManager] Successfully created attachment "Validation Test Data - Actual JSON Value" @03-10-2022 15:19:23.0537 PM
[ReportManager] Verification Passed: "1236" is greater than or equal to "1.1". @03-10-2022 15:19:23.0538 PM
[ReportManager] Verification Passed: "1236" is less than or equal to "10000". @03-10-2022 15:19:23.0538 PM
[ReportManager] Setting discrete logging to: "true" @03-10-2022 15:19:24.0067 PM
[ReportManager] Response status code: "200", status line: "HTTP/1.1 200 " @03-10-2022 15:19:24.0067 PM
[ReportManager] Assertion Passed: Evaluating the actual response status code against the expected one... @03-10-2022 15:19:24.0068 PM
[ReportManager] Setting discrete logging to: "false" @03-10-2022 15:19:24.0068 PM
[ReportManager] Perform request "GET | Target Status Code: 200 | Service URL: https://api-demo.np.transporticonline.com/steeringcompanies/v1/lookups/ports | Content Type: */* | Response Time: 527ms". @03-10-2022 15:19:24.0089 PM
[ReportManager] Successfully created attachment "API Request - Specifications" @03-10-2022 15:19:24.0091 PM
[ReportManager] Successfully created attachment "API Response - JSON Body" @03-10-2022 15:19:24.0093 PM
[ReportManager] Assertion Passed: "200" is equal to "200". @03-10-2022 15:19:24.0094 PM
[ReportManager] Verification Passed: "527" is greater than or equal to "1.1". @03-10-2022 15:19:24.0094 PM
[ReportManager] Verification Passed: "527" is less than or equal to "10000". @03-10-2022 15:19:24.0095 PM
[ReportManager] Assertion Passed: "{"page":0,"size":3,"totalPages":10,"totalElements":29,"content":[{"id":59,"nameArabic":"???? ??? ","nameEnglish":"Alab Port","cityId":656,"isActive":true,"lastUpdated":"2020-10-22T18:41:32Z","sectors":null},{"id":53,"nameArabic":"????? ???? ???????","nameEnglish":"Yanbu Commercial Port","cityId":646,"isActive":true,"lastUpdated":"2020-10-22T18:41:32Z","sectors":null},{"id":49,"nameArabic":"???? ????? ????","nameEnglish":"Jadedat Arar Port","cityId":612,"isActive":true,"lastUpdated":"2020-10-22T18:41:32Z","sectors":null}]}" contains "content". @03-10-2022 15:19:24.0095 PM
[ReportManager] Successfully created attachment "Validation Test Data - Expected Value" @03-10-2022 15:19:24.0097 PM
[ReportManager] Successfully created attachment "Validation Test Data - Actual Value" @03-10-2022 15:19:24.0101 PM
[ReportManager] Get response jsonvalue "content". @03-10-2022 15:19:24.0102 PM
[ReportManager] Assertion Passed: Check that content object is not null. @03-10-2022 15:19:24.0103 PM
[ReportManager] File Action "DoesFileExist" successfully performed. With the following test data "File Path: "Lookups_ports_schema.json"". @03-10-2022 15:19:24.0104 PM
[ReportManager] File Action "DoesFileExist" successfully performed. With the following test data "File Path: "src/test/resources/testDataFiles/Lookups_ports_schema.json"". @03-10-2022 15:19:24.0105 PM
[ReportManager] File Action "GetAbsolutePath" successfully performed. With the following test data "Relative Folder Path: "src/test/resources/testDataFiles/Lookups_ports_schema.json"". @03-10-2022 15:19:24.0105 PM
[ReportManager] File Action "DoesFileExist" successfully performed. With the following test data "File Path: "C:\eclipse-workspace\MyProjects\TASystemsAPIs\src\test\resources\testDataFiles\Lookups_ports_schema.json"". @03-10-2022 15:19:24.0113 PM
[ReportManager] File Action "GetAbsolutePath" successfully performed. With the following test data "Relative Folder Path: "C:\eclipse-workspace\MyProjects\TASystemsAPIs\src\test\resources\testDataFiles\Lookups_ports_schema.json"". @03-10-2022 15:19:24.0113 PM
[ReportManager] File Action "ReadFromFile" successfully performed. With the following test data "File Path: "C:\eclipse-workspace\MyProjects\TASystemsAPIs\src\test\resources\testDataFiles\Lookups_ports_schema.json"". @03-10-2022 15:19:24.0114 PM
[ReportManager] Assertion Passed: The API response schema matches that in this file "src/test/resources/testDataFiles/Lookups_ports_schema.json". @03-10-2022 15:19:24.0115 PM
[ReportManager] Successfully created attachment "Validation Test Data - Expected JSON Value" @03-10-2022 15:19:24.0118 PM
[ReportManager] Successfully created attachment "Validation Test Data - Actual JSON Value" @03-10-2022 15:19:24.0120 PM
[ReportManager] Verification Passed: "527" is greater than or equal to "1.1". @03-10-2022 15:19:24.0121 PM
[ReportManager] Verification Passed: "527" is less than or equal to "10000". @03-10-2022 15:19:24.0121 PM