
################################################################################################################################################
Starting Execution:	"32 out of 111" test cases in the current suite
Test Method:		"SteeringCompanyAPI_TestCases.Test_Commissions_Cases.Valid_GET_all_Commissions_by_Qry_Rq_TC"
Test Description:	"TC002  -Commission- Perform Get all Commissions API with pagination with valid user name and password"
################################################################################################################################################
[ReportManager] File Action "DoesFileExist" successfully performed. With the following test data "File Path: "SteeringCompanyAPI_TestData/SteeringCompanyAPI_TestData.xlsx"". @28-02-2023 13:16:12.0467 PM
[ReportManager] Loaded Test Data: "src/test/resources/testDataFiles/SteeringCompanyAPI_TestData/SteeringCompanyAPI_TestData.xlsx". @28-02-2023 13:16:12.0509 PM
[ReportManager] Successfully created attachment "Test Data - Excel" @28-02-2023 13:16:12.0510 PM
[ReportManager] Response status code: "200", status line: "HTTP/1.1 200 OK" @28-02-2023 13:16:13.0188 PM
[ReportManager] Assertion Passed: Evaluating the actual response status code against the expected one... @28-02-2023 13:16:13.0189 PM
[ReportManager] Perform request "POST | Target Status Code: 200 | Service URL: https://auth-demo.np.transporticonline.com/auth/realms/tic/protocol/openid-connect/token | Content Type: application/x-www-form-urlencoded | Response Time: 672ms". @28-02-2023 13:16:13.0210 PM
[ReportManager] Successfully created attachment "API Request - Specifications" @28-02-2023 13:16:13.0211 PM
[ReportManager] Successfully created attachment "API Request - Body" @28-02-2023 13:16:13.0213 PM
[ReportManager] Successfully created attachment "API Response - JSON Body" @28-02-2023 13:16:13.0214 PM
[ReportManager] Assertion Passed: Check Response Status Code is 200 and it is valid. @28-02-2023 13:16:13.0214 PM
[ReportManager] File Action "DoesFileExist" successfully performed. With the following test data "File Path: "SteeringCompanyAPI_TestData/SteeringCompanyAPI_TestData.xlsx"". @28-02-2023 13:16:13.0260 PM
[ReportManager] Loaded Test Data: "src/test/resources/testDataFiles/SteeringCompanyAPI_TestData/SteeringCompanyAPI_TestData.xlsx". @28-02-2023 13:16:13.0292 PM
[ReportManager] Successfully created attachment "Test Data - Excel" @28-02-2023 13:16:13.0293 PM
[ReportManager] Response status code: "200", status line: "HTTP/1.1 200 " @28-02-2023 13:16:13.0826 PM
[ReportManager] Assertion Passed: Evaluating the actual response status code against the expected one... @28-02-2023 13:16:13.0827 PM
[ReportManager] Perform request "GET | Target Status Code: 200 | Service URL: https://api-demo.np.transporticonline.com/steeringcompanies/v1/commissions | Content Type: */* | Response Time: 530ms". @28-02-2023 13:16:13.0850 PM
[ReportManager] Successfully created attachment "API Request - Specifications" @28-02-2023 13:16:13.0851 PM
[ReportManager] Successfully created attachment "API Response - JSON Body" @28-02-2023 13:16:13.0854 PM
[ReportManager] Assertion Passed: "200" is equal to "200". @28-02-2023 13:16:13.0855 PM
[ReportManager] Verification Passed: "530" is greater than or equal to "1.1". @28-02-2023 13:16:13.0855 PM
[ReportManager] Verification Passed: "530" is less than or equal to "30000". @28-02-2023 13:16:13.0856 PM
[ReportManager] Assertion Passed: "{"page":0,"size":1,"totalPages":18,"totalElements":18,"content":[{"otaCode":"ZowarOTA","baseCommission":3.0,"addCommission":0.0,"lastUpdated":"2022-12-15T17:26:35.889109","isActive":true}]}" contains "content". @28-02-2023 13:16:13.0856 PM
[ReportManager] Get response jsonvalue "content". @28-02-2023 13:16:13.0857 PM
[ReportManager] Assertion Passed: Check that content object is not null. @28-02-2023 13:16:13.0858 PM
[ReportManager] File Action "DoesFileExist" successfully performed. With the following test data "File Path: "Schemas/Commission_schema.json"". @28-02-2023 13:16:13.0859 PM
[ReportManager] File Action "DoesFileExist" successfully performed. With the following test data "File Path: "src/test/resources/testDataFiles/Schemas/Commission_schema.json"". @28-02-2023 13:16:13.0859 PM
[ReportManager] File Action "GetAbsolutePath" successfully performed. With the following test data "Relative Folder Path: "src/test/resources/testDataFiles/Schemas/Commission_schema.json"". @28-02-2023 13:16:13.0859 PM
[ReportManager] File Action "DoesFileExist" successfully performed. With the following test data "File Path: "C:\eclipse-workspace\MyProjects\TASystemsAPIs\src\test\resources\testDataFiles\Schemas\Commission_schema.json"". @28-02-2023 13:16:13.0869 PM
[ReportManager] File Action "GetAbsolutePath" successfully performed. With the following test data "Relative Folder Path: "C:\eclipse-workspace\MyProjects\TASystemsAPIs\src\test\resources\testDataFiles\Schemas\Commission_schema.json"". @28-02-2023 13:16:13.0869 PM
[ReportManager] File Action "ReadFile" successfully performed. With the following test data "File Path: "C:\eclipse-workspace\MyProjects\TASystemsAPIs\src\test\resources\testDataFiles\Schemas\Commission_schema.json"". @28-02-2023 13:16:13.0870 PM
[ReportManager] Assertion Passed: The API response schema matches that in this file "src/test/resources/testDataFiles/Schemas/Commission_schema.json". @28-02-2023 13:16:13.0872 PM
[ReportManager] Successfully created attachment "Validation Test Data - Expected JSON Value" @28-02-2023 13:16:13.0874 PM
[ReportManager] Successfully created attachment "Validation Test Data - Actual JSON Value" @28-02-2023 13:16:13.0877 PM