{"uuid":"b383d789-65ba-4892-8122-43272843c35b","historyId":"2c9bf8dd5b9ce2ddce75a09f984901a9","fullName":"SteeringCompanyAPI_TestCases.Test_Lookups_Cases.Valid_GET_all_cities_Lookups_by_Qry_Rq_TC","labels":[{"name":"package","value":"SteeringCompanyAPI_TestCases.Test_Lookups_Cases"},{"name":"testClass","value":"SteeringCompanyAPI_TestCases.Test_Lookups_Cases"},{"name":"testMethod","value":"Valid_GET_all_cities_Lookups_by_Qry_Rq_TC"},{"name":"parentSuite","value":"Suite"},{"name":"suite","value":"Test"},{"name":"subSuite","value":"SteeringCompanyAPI_TestCases.Test_Lookups_Cases"},{"name":"host","value":"TW-1056"},{"name":"thread","value":"12248@TW-1056.main(1)"},{"name":"framework","value":"testng"},{"name":"language","value":"java"}],"links":[],"name":"TC002 - Perform Get all cities API by parameters Qry with valid user name and password and return with token","status":"passed","statusDetails":{"known":false,"muted":false,"flaky":false},"stage":"finished","steps":[{"name":"Loaded Test Data: \"src/test/resources/testDataFiles/SteeringCompanyAPI_TestData/SteeringCompanyAPI_TestData.xlsx\".","status":"passed","stage":"finished","steps":[],"attachments":[{"name":"Test Data - Excel","source":"94bc6bb1-bc73-4d02-9898-efeec1acaf06-attachment.xlsx","type":"application/vnd.openxmlformats-officedocument.spreadsheetml.sheet"}],"parameters":[{"name":"logText","value":"Loaded Test Data: \"src/test/resources/testDataFiles/SteeringCompanyAPI_TestData/SteeringCompanyAPI_TestData.xlsx\"."},{"name":"attachments","value":"[[Test Data, Excel, java.io.FileInputStream@363f5a2]]"}],"start":1675774623660,"stop":1675774623661},{"name":"Assertion Passed: Evaluating the actual response status code against the expected one...","status":"passed","stage":"finished","steps":[],"attachments":[],"parameters":[{"name":"customLog","value":"Assertion Passed: Evaluating the actual response status code against the expected one..."},{"name":"stepLog","value":"Assertion \"ValidateComparativeRelation\" PASSED. Expected \"200\" and Actual \"200\". Comparison Type \"EQUALS\". Validation Type \"POSITIVE\"."},{"name":"attachments","value":"null"}],"start":1675774624300,"stop":1675774624300},{"name":"Perform request \"POST | Target Status Code: 200 | Service URL: https://auth-demo.np.transporticonline.com/auth/realms/tic/protocol/openid-connect/token | Content Type: application/x-www-form-urlencoded | Response Time: 636ms\".","status":"passed","stage":"finished","steps":[],"attachments":[{"name":"API Request - Specifications","source":"8216f308-4f8a-49bb-8dca-c08091f23471-attachment"},{"name":"API Request - Body","source":"bbb7d7fd-edd7-4d64-a510-b3cb4c5eb443-attachment"},{"name":"API Response - JSON Body","source":"5c6eed13-2e4c-4d83-8467-4de4d10bcc9f-attachment.json","type":"text/json"}],"parameters":[{"name":"logText","value":"Perform request \"POST | Target Status Code: 200 | Service URL: https://auth-demo.np.transporticonline.com/auth/realms/tic/protocol/openid-connect/token | Content Type: application/x-www-form-urlencoded | Response Time: 636ms\"."},{"name":"attachments","value":"[[API Request, Specifications, Headers:\r\n_______________\r\n\r\nContent-Type=application/x-www-form-urlencoded\r\n\r\n], [API Request, Body, java.io.ByteArrayInputStream@5c2fbeda], null, [API Response, JSON Body, java.io.ByteArrayInputStream@6f211822]]"}],"start":1675774624326,"stop":1675774624333},{"name":"Assertion Passed: Check Response Status Code is 200 and it is valid.","status":"passed","stage":"finished","steps":[],"attachments":[],"parameters":[{"name":"customLog","value":"Assertion Passed: Check Response Status Code is 200 and it is valid."},{"name":"stepLog","value":"Assertion \"ValidateComparativeRelation\" PASSED. Expected \"200\" and Actual \"200\". Comparison Type \"EQUALS\". Validation Type \"POSITIVE\"."},{"name":"attachments","value":"null"}],"start":1675774624333,"stop":1675774624333},{"name":"Loaded Test Data: \"src/test/resources/testDataFiles/SteeringCompanyAPI_TestData/SteeringCompanyAPI_TestData.xlsx\".","status":"passed","stage":"finished","steps":[],"attachments":[{"name":"Test Data - Excel","source":"32056ab4-2c65-46ff-a3bc-0c53b794ef1b-attachment.xlsx","type":"application/vnd.openxmlformats-officedocument.spreadsheetml.sheet"}],"parameters":[{"name":"logText","value":"Loaded Test Data: \"src/test/resources/testDataFiles/SteeringCompanyAPI_TestData/SteeringCompanyAPI_TestData.xlsx\"."},{"name":"attachments","value":"[[Test Data, Excel, java.io.FileInputStream@12e3b398]]"}],"start":1675774624383,"stop":1675774624384},{"name":"Assertion Passed: Evaluating the actual response status code against the expected one...","status":"passed","stage":"finished","steps":[],"attachments":[],"parameters":[{"name":"customLog","value":"Assertion Passed: Evaluating the actual response status code against the expected one..."},{"name":"stepLog","value":"Assertion \"ValidateComparativeRelation\" PASSED. Expected \"200\" and Actual \"200\". Comparison Type \"EQUALS\". Validation Type \"POSITIVE\"."},{"name":"attachments","value":"null"}],"start":1675774624882,"stop":1675774624882},{"name":"Perform request \"GET | Target Status Code: 200 | Service URL: https://api-demo.np.transporticonline.com/steeringcompanies/v1/lookups/cities | Content Type: */* | Response Time: 495ms\".","status":"passed","stage":"finished","steps":[],"attachments":[{"name":"API Request - Specifications","source":"2fdec83f-b06c-4f5f-9d5c-c89eda1b47b6-attachment"},{"name":"API Response - JSON Body","source":"d539901f-d038-47dc-a24a-41b948815c6c-attachment.json","type":"text/json"}],"parameters":[{"name":"logText","value":"Perform request \"GET | Target Status Code: 200 | Service URL: https://api-demo.np.transporticonline.com/steeringcompanies/v1/lookups/cities | Content Type: */* | Response Time: 495ms\"."},{"name":"attachments","value":"[[API Request, Specifications, Headers:\r\n_______________\r\n\r\nAuthorization=Bearer eyJhbGciOiJSUzI1NiIsInR5cCIgOiAiSldUIiwia2lkIiA6ICJjck9ORDFNdFVPVWhzS2Mtb0ppVFFmb0o1d1l4REF6Y3k0ZjNYZ0dveGdZIn0.eyJleHAiOjE2NzU3OTYyMjEsImlhdCI6MTY3NTc3NDYyMSwianRpIjoiYjg3MWExZTYtODNiMy00MTVjLThjMTAtODQwMzU0ZTEyODdjIiwiaXNzIjoiaHR0cHM6Ly9hdXRoLWRlbW8ubnAudHJhbnNwb3J0aWNvbmxpbmUuY29tL2F1dGgvcmVhbG1zL3RpYyIsImF1ZCI6ImFjY291bnQiLCJzdWIiOiI0ZTk3NmQ0NC1iM2ZkLTRjYTktODk1Ny0wYWJiODUwNzNhNzQiLCJ0eXAiOiJCZWFyZXIiLCJhenAiOiJ0aWMtYXBpIiwic2Vzc2lvbl9zdGF0ZSI6IjUwODU0NzljLTE3NjctNDNiNS04MzMwLTJlNjE2OGM5ZDg0OCIsImFjciI6IjEiLCJhbGxvd2VkLW9yaWdpbnMiOlsiaHR0cHM6Ly9hcGktZGV2Lm5wLnRyYW5zcG9ydGljb25saW5lLmNvbSJdLCJyZWFsbV9hY2Nlc3MiOnsicm9sZXMiOlsib2ZmbGluZV9hY2Nlc3MiLCJkZWZhdWx0LXJvbGVzLXRpYyIsInVtYV9hdXRob3JpemF0aW9uIiwidXNlciJdfSwicmVzb3VyY2VfYWNjZXNzIjp7ImFjY291bnQiOnsicm9sZXMiOlsibWFuYWdlLWFjY291bnQiLCJtYW5hZ2UtYWNjb3VudC1saW5rcyIsInZpZXctcHJvZmlsZSJdfX0sInNjb3BlIjoiZW1haWwgcHJvZmlsZSIsInNpZCI6IjUwODU0NzljLTE3NjctNDNiNS04MzMwLTJlNjE2OGM5ZDg0OCIsImVtYWlsX3ZlcmlmaWVkIjpmYWxzZSwicHJlZmVycmVkX3VzZXJuYW1lIjoidG9raGkiLCJ0Y0lkIjoiMzE5OTU3In0.Ckbv7RTgO7FFzBNTrrUEYTPaw2oEwp2XPb0_51g1JIlG43xQ9IcpXO7lWUBu__vX_rZUVaB6VR726fmrapGqXp4ZE_YPPx4hfX3neAcM4_RJEdP4AULS8W5NcUJ06VD5cUgO95ap9TuuMiNvFBqyJYjdT-D76o1rMIWY9fkKE0D4aGDFFddWc3M8NbRpQJTSjiisO6HB9KZzcIIHqu126IZ9t8mUUL2Y_FIWIkVtF7u2EzIErQRoOXvGSf9oFbgfaAzeDxGaGaG5qfFxIGIt-94fvbrtwP3nkex1p-jEAoW-2RdR0HpF1eU-YdGzl_KBFo_L3K6I3q9-V94HsX9LSg\r\nContent-Type=*/*\r\n\r\nQuery Parameters:\r\n_______________\r\n\r\nsize=3\r\npage=0\r\n], null, [API Response, JSON Body, java.io.ByteArrayInputStream@2a4cc4fb]]"}],"start":1675774624899,"stop":1675774624903},{"name":"Assertion Passed: \"200\" is equal to \"200\".","status":"passed","stage":"finished","steps":[],"attachments":[],"parameters":[{"name":"customLog","value":"Assertion Passed: \"200\" is equal to \"200\"."},{"name":"stepLog","value":"Assertion \"ValidateComparativeRelation\" PASSED. Expected \"200\" and Actual \"200\". Comparison Type \"EQUALS\". Validation Type \"POSITIVE\"."},{"name":"attachments","value":"null"}],"start":1675774624904,"stop":1675774624904},{"name":"Verification Passed: \"495\" is greater than or equal to \"1.1\".","status":"passed","stage":"finished","steps":[],"attachments":[],"parameters":[{"name":"customLog","value":"Verification Passed: \"495\" is greater than or equal to \"1.1\"."},{"name":"stepLog","value":"Verification \"ValidateComparativeRelation\" PASSED. Expected \"1.1\" and Actual \"495\". Comparison Type \"GREATER_THAN_OR_EQUALS\". Validation Type \"POSITIVE\"."},{"name":"attachments","value":"null"}],"start":1675774624904,"stop":1675774624904},{"name":"Verification Passed: \"495\" is less than or equal to \"10000\".","status":"passed","stage":"finished","steps":[],"attachments":[],"parameters":[{"name":"customLog","value":"Verification Passed: \"495\" is less than or equal to \"10000\"."},{"name":"stepLog","value":"Verification \"ValidateComparativeRelation\" PASSED. Expected \"10000\" and Actual \"495\". Comparison Type \"LESS_THAN_OR_EQUALS\". Validation Type \"POSITIVE\"."},{"name":"attachments","value":"null"}],"start":1675774624905,"stop":1675774624905},{"name":"Assertion Passed: \"{\"page\":0,\"size\":3,\"totalPages\":237,\"totalElements\":709,\"content\":[{\"id\":36,\"nameArabic\":\"كوالالمبور\",\"nameEnglish\":\"Kuala Lumpur\",\"isActive\":true,\"lastUpdated\":\"2022-06-02T01:21:49Z\",\"sectors\":null},{\"id\":849,\"nameArabic\":\"سولنجين\",\"nameEnglish\":\"Solngen\",\"isActive\":true,\"lastUpdated\":\"2022-06-02T01:37:02Z\",\"sectors\":null},{\"id\":1006,\"nameArabic\":\"بشكشكي\",\"nameEnglish\":\"FRUNZE\",\"isActive\":true,\"lastUpdated\":\"2022-06-02T00:20:05Z\",\"sectors\":null}]}\" contains \"content\".","status":"passed","stage":"finished","steps":[],"attachments":[],"parameters":[{"name":"customLog","value":"Assertion Passed: \"{\"page\":0,\"size\":3,\"totalPages\":237,\"totalElements\":709,\"content\":[{\"id\":36,\"nameArabic\":\"كوالالمبور\",\"nameEnglish\":\"Kuala Lumpur\",\"isActive\":true,\"lastUpdated\":\"2022-06-02T01:21:49Z\",\"sectors\":null},{\"id\":849,\"nameArabic\":\"سولنجين\",\"nameEnglish\":\"Solngen\",\"isActive\":true,\"lastUpdated\":\"2022-06-02T01:37:02Z\",\"sectors\":null},{\"id\":1006,\"nameArabic\":\"بشكشكي\",\"nameEnglish\":\"FRUNZE\",\"isActive\":true,\"lastUpdated\":\"2022-06-02T00:20:05Z\",\"sectors\":null}]}\" contains \"content\"."},{"name":"stepLog","value":"Assertion \"ValidateEquals\" PASSED. Expected \"content\" and Actual \"{\"page\":0,\"size\":3,\"totalPages\":237,\"totalElements\":709,\"content\":[{\"id\":36,\"nameArabic\":\"كوالالمبور\",\"nameEnglish\":\"Kuala Lumpur\",\"isActive\":true,\"lastUpdated\":\"2022-06-02T01:21:49Z\",\"sectors\":null},{\"id\":849,\"nameArabic\":\"سولنجين\",\"nameEnglish\":\"Solngen\",\"isActive\":true,\"lastUpdated\":\"2022-06-02T01:37:02Z\",\"sectors\":null},{\"id\":1006,\"nameArabic\":\"بشكشكي\",\"nameEnglish\":\"FRUNZE\",\"isActive\":true,\"lastUpdated\":\"2022-06-02T00:20:05Z\",\"sectors\":null}]}\". Comparison Type \"CONTAINS\". Validation Type \"POSITIVE\"."},{"name":"attachments","value":"null"}],"start":1675774624906,"stop":1675774624906},{"name":"Assertion Passed: Check that content object is not null.","status":"passed","stage":"finished","steps":[],"attachments":[],"parameters":[{"name":"customLog","value":"Assertion Passed: Check that content object is not null."},{"name":"stepLog","value":"Assertion \"ValidateEquals\" PASSED. Expected \"null\" and Actual \"[{\"id\":36,\"nameArabic\":\"كوالالمبور\",\"nameEnglish\":\"Kuala Lumpur\",\"isActive\":true,\"lastUpdated\":\"2022-06-02T01:21:49Z\",\"sectors\":null},{\"id\":849,\"nameArabic\":\"سولنجين\",\"nameEnglish\":\"Solngen\",\"isActive\":true,\"lastUpdated\":\"2022-06-02T01:37:02Z\",\"sectors\":null},{\"id\":1006,\"nameArabic\":\"بشكشكي\",\"nameEnglish\":\"FRUNZE\",\"isActive\":true,\"lastUpdated\":\"2022-06-02T00:20:05Z\",\"sectors\":null}]\". Comparison Type \"EQUALS\". Validation Type \"NEGATIVE\"."},{"name":"attachments","value":"null"}],"start":1675774624909,"stop":1675774624911},{"name":"Assertion Passed: The API response schema matches that in this file \"src/test/resources/testDataFiles/Schemas/Lookups_cities_schema.json\".","status":"passed","stage":"finished","steps":[],"attachments":[{"name":"Validation Test Data - Expected JSON Value","source":"cb53e51b-229e-4dfa-b644-a49b11e6d4e2-attachment.json","type":"text/json"},{"name":"Validation Test Data - Actual JSON Value","source":"57f490bd-81d7-48ae-83b7-e9cab4c6c25c-attachment.json","type":"text/json"}],"parameters":[{"name":"customLog","value":"Assertion Passed: The API response schema matches that in this file \"src/test/resources/testDataFiles/Schemas/Lookups_cities_schema.json\"."},{"name":"stepLog","value":"Assertion \"ValidateResponseFileSchema\" PASSED. Expected \"Response data should match the JSON File in this path 'C:\\eclipse-workspace\\MyProjects\\TASystemsAPIs\\src\\test\\resources\\testDataFiles\\Schemas\\Lookups_cities_schema.json'\" and Actual \"TRUE\". Comparison Type \"EQUALS\". Validation Type \"POSITIVE\"."},{"name":"attachments","value":"[[Validation Test Data, Expected JSON Value, java.io.ByteArrayInputStream@7e85a0da], [Validation Test Data, Actual JSON Value, java.io.ByteArrayInputStream@6ae9c300]]"}],"start":1675774624919,"stop":1675774624921}],"attachments":[{"name":"SHAFT Engine Logs - Current Method log: Valid_GET_all_cities_Lookups_by_Qry_Rq_TC","source":"c083e066-84c1-4f0d-bd93-029df56fbc95-attachment.txt","type":"text/plain"}],"parameters":[],"start":1675774623630,"stop":1675774624923}