{"uuid":"b8a4297a-7750-4a53-8b1a-c24a1a8497ba","historyId":"86af33bb9d7f0d849ff95edafab474d6","fullName":"SteeringCompanyAPI_TestCases.Test_PeriodProgram_Cases.Valid_Get_All_PeriodProgram_Pagination_TC","labels":[{"name":"package","value":"SteeringCompanyAPI_TestCases.Test_PeriodProgram_Cases"},{"name":"testClass","value":"SteeringCompanyAPI_TestCases.Test_PeriodProgram_Cases"},{"name":"testMethod","value":"Valid_Get_All_PeriodProgram_Pagination_TC"},{"name":"parentSuite","value":"Suite"},{"name":"suite","value":"TASystemsAPIs"},{"name":"subSuite","value":"SteeringCompanyAPI_TestCases.Test_PeriodProgram_Cases"},{"name":"host","value":"TW-1056"},{"name":"thread","value":"19100@TW-1056.main(1)"},{"name":"framework","value":"testng"},{"name":"language","value":"java"},{"name":"story","value":"Geting Valid all PeriodProgram"},{"name":"severity","value":"critical"}],"links":[],"name":"TC002 -PeriodProgram- Perform Get Valid all PeriodProgram withPagenation","status":"passed","statusDetails":{"known":false,"muted":false,"flaky":false},"stage":"finished","steps":[{"name":"Loaded Test Data: \"src/test/resources/testDataFiles/SteeringCompanyAPI_TestData/SteeringCompanyAPI_TestData.xlsx\".","status":"passed","stage":"finished","steps":[],"attachments":[{"name":"Test Data - Excel","source":"e2fb5979-3797-43e3-aab3-df1138d00809-attachment.xlsx","type":"application/vnd.openxmlformats-officedocument.spreadsheetml.sheet"}],"parameters":[{"name":"logText","value":"Loaded Test Data: \"src/test/resources/testDataFiles/SteeringCompanyAPI_TestData/SteeringCompanyAPI_TestData.xlsx\"."},{"name":"attachments","value":"[[Test Data, Excel, java.io.FileInputStream@4f29badf]]"}],"start":1680521948749,"stop":1680521948752},{"name":"Assertion Passed: Evaluating the actual response status code against the expected one...","status":"passed","stage":"finished","steps":[],"attachments":[],"parameters":[{"name":"customLog","value":"Assertion Passed: Evaluating the actual response status code against the expected one..."},{"name":"stepLog","value":"Assertion \"ValidateComparativeRelation\" PASSED. Expected \"200\" and Actual \"200\". Comparison Type \"EQUALS\". Validation Type \"POSITIVE\"."},{"name":"attachments","value":"null"}],"start":1680521949846,"stop":1680521949846},{"name":"Perform request \"POST | Target Status Code: 200 | Service URL: https://auth-demo.np.transporticonline.com/auth/realms/tic/protocol/openid-connect/token | Content Type: application/x-www-form-urlencoded | Response Time: 1088ms\".","status":"passed","stage":"finished","steps":[],"attachments":[{"name":"API Request - Specifications","source":"31f0d93e-ad5f-452a-bfb9-8428a0f5de80-attachment"},{"name":"API Request - Body","source":"5462f5c8-8548-4a70-98a0-6bdcc4ca9e29-attachment"},{"name":"API Response - JSON Body","source":"33520a8e-607f-4472-a5b2-a7bdf2c5f959-attachment.json","type":"text/json"}],"parameters":[{"name":"logText","value":"Perform request \"POST | Target Status Code: 200 | Service URL: https://auth-demo.np.transporticonline.com/auth/realms/tic/protocol/openid-connect/token | Content Type: application/x-www-form-urlencoded | Response Time: 1088ms\"."},{"name":"attachments","value":"[[API Request, Specifications, Headers:\r\n_______________\r\n\r\nContent-Type=application/x-www-form-urlencoded\r\n\r\n], [API Request, Body, java.io.ByteArrayInputStream@6b5cfb55], null, [API Response, JSON Body, java.io.ByteArrayInputStream@c6354d2]]"}],"start":1680521949876,"stop":1680521949879},{"name":"Assertion Passed: Check Response Status Code is 200 and it is valid.","status":"passed","stage":"finished","steps":[],"attachments":[],"parameters":[{"name":"customLog","value":"Assertion Passed: Check Response Status Code is 200 and it is valid."},{"name":"stepLog","value":"Assertion \"ValidateComparativeRelation\" PASSED. Expected \"200\" and Actual \"200\". Comparison Type \"EQUALS\". Validation Type \"POSITIVE\"."},{"name":"attachments","value":"null"}],"start":1680521949879,"stop":1680521949880},{"name":"Loaded Test Data: \"src/test/resources/testDataFiles/SteeringCompanyAPI_TestData/SteeringCompanyAPI_TestData.xlsx\".","status":"passed","stage":"finished","steps":[],"attachments":[{"name":"Test Data - Excel","source":"05df6524-deae-4d4d-9345-7a0ceafa6671-attachment.xlsx","type":"application/vnd.openxmlformats-officedocument.spreadsheetml.sheet"}],"parameters":[{"name":"logText","value":"Loaded Test Data: \"src/test/resources/testDataFiles/SteeringCompanyAPI_TestData/SteeringCompanyAPI_TestData.xlsx\"."},{"name":"attachments","value":"[[Test Data, Excel, java.io.FileInputStream@5c2e07af]]"}],"start":1680521949964,"stop":1680521949967},{"name":"Loaded Test Data: \"src/test/resources/testDataFiles/SteeringCompanyAPI_TestData/SteeringCompanyAPI_TestData.xlsx\".","status":"passed","stage":"finished","steps":[],"attachments":[{"name":"Test Data - Excel","source":"09e66072-4275-4489-81a0-c4111d8f282f-attachment.xlsx","type":"application/vnd.openxmlformats-officedocument.spreadsheetml.sheet"}],"parameters":[{"name":"logText","value":"Loaded Test Data: \"src/test/resources/testDataFiles/SteeringCompanyAPI_TestData/SteeringCompanyAPI_TestData.xlsx\"."},{"name":"attachments","value":"[[Test Data, Excel, java.io.FileInputStream@4c7a7f8]]"}],"start":1680521950040,"stop":1680521950042},{"name":"Loaded Test Data: \"src/test/resources/testDataFiles/SteeringCompanyAPI_TestData/SteeringCompanyAPI_TestData.xlsx\".","status":"passed","stage":"finished","steps":[],"attachments":[{"name":"Test Data - Excel","source":"a9fcd510-4ed8-4e41-ba83-604a45489c16-attachment.xlsx","type":"application/vnd.openxmlformats-officedocument.spreadsheetml.sheet"}],"parameters":[{"name":"logText","value":"Loaded Test Data: \"src/test/resources/testDataFiles/SteeringCompanyAPI_TestData/SteeringCompanyAPI_TestData.xlsx\"."},{"name":"attachments","value":"[[Test Data, Excel, java.io.FileInputStream@1f034294]]"}],"start":1680521950169,"stop":1680521950171},{"name":"Assertion Passed: Evaluating the actual response status code against the expected one...","status":"passed","stage":"finished","steps":[],"attachments":[],"parameters":[{"name":"customLog","value":"Assertion Passed: Evaluating the actual response status code against the expected one..."},{"name":"stepLog","value":"Assertion \"ValidateComparativeRelation\" PASSED. Expected \"200\" and Actual \"200\". Comparison Type \"EQUALS\". Validation Type \"POSITIVE\"."},{"name":"attachments","value":"null"}],"start":1680521951063,"stop":1680521951063},{"name":"Perform request \"GET | Target Status Code: 200 | Service URL: https://api-demo.np.transporticonline.com/steeringcompanies/v1/periodPrograms | Content Type: */* | Response Time: 887ms\".","status":"passed","stage":"finished","steps":[],"attachments":[{"name":"API Request - Specifications","source":"cb19641f-1958-4264-a90a-cefb64c12ebe-attachment"},{"name":"API Response - JSON Body","source":"3f89c7bd-dd04-416c-8726-602fd0cc044c-attachment.json","type":"text/json"}],"parameters":[{"name":"logText","value":"Perform request \"GET | Target Status Code: 200 | Service URL: https://api-demo.np.transporticonline.com/steeringcompanies/v1/periodPrograms | Content Type: */* | Response Time: 887ms\"."},{"name":"attachments","value":"[[API Request, Specifications, Headers:\r\n_______________\r\n\r\nAuthorization=Bearer eyJhbGciOiJSUzI1NiIsInR5cCIgOiAiSldUIiwia2lkIiA6ICJjck9ORDFNdFVPVWhzS2Mtb0ppVFFmb0o1d1l4REF6Y3k0ZjNYZ0dveGdZIn0.eyJleHAiOjE2ODA1NDM1NDksImlhdCI6MTY4MDUyMTk0OSwianRpIjoiNjhkNThjZDktNTVlMC00YWM1LWE5NzctMzM0ZWQwNmEyYTJjIiwiaXNzIjoiaHR0cHM6Ly9hdXRoLWRlbW8ubnAudHJhbnNwb3J0aWNvbmxpbmUuY29tL2F1dGgvcmVhbG1zL3RpYyIsImF1ZCI6ImFjY291bnQiLCJzdWIiOiI0ZTk3NmQ0NC1iM2ZkLTRjYTktODk1Ny0wYWJiODUwNzNhNzQiLCJ0eXAiOiJCZWFyZXIiLCJhenAiOiJ0aWMtYXBpIiwic2Vzc2lvbl9zdGF0ZSI6IjlkM2I2OTE1LTYxMGUtNDc3YS05YzhhLWQyOWE5ZGE1ZTJjYiIsImFjciI6IjEiLCJhbGxvd2VkLW9yaWdpbnMiOlsiaHR0cHM6Ly9hcGktZGV2Lm5wLnRyYW5zcG9ydGljb25saW5lLmNvbSJdLCJyZWFsbV9hY2Nlc3MiOnsicm9sZXMiOlsib2ZmbGluZV9hY2Nlc3MiLCJkZWZhdWx0LXJvbGVzLXRpYyIsInVtYV9hdXRob3JpemF0aW9uIiwidXNlciJdfSwicmVzb3VyY2VfYWNjZXNzIjp7ImFjY291bnQiOnsicm9sZXMiOlsibWFuYWdlLWFjY291bnQiLCJtYW5hZ2UtYWNjb3VudC1saW5rcyIsInZpZXctcHJvZmlsZSJdfX0sInNjb3BlIjoiZW1haWwgcHJvZmlsZSIsInNpZCI6IjlkM2I2OTE1LTYxMGUtNDc3YS05YzhhLWQyOWE5ZGE1ZTJjYiIsImVtYWlsX3ZlcmlmaWVkIjpmYWxzZSwicHJlZmVycmVkX3VzZXJuYW1lIjoidG9raGkiLCJ0Y0lkIjoiMzE5OTU3In0.gIIdZ6kvnKPv0x1f4lmGwKV_kuRfIlR0PybzVYLdp4fDhQjDM6-S662hing0NX74TgTcd6MdQue0J97RSnHTxBIjeHP21cQQ4dHmJieIoaiNRqYJxHeRQv1dVlPgNTYR7CC_gnY9QcbGYYINbgGbx6jJtZ8tG0LhBX5UBXDWyEo97TkxzZ0rEEKLDcBpzYESpfUfcth4ojDmnZS9cSdu5SC-4c8XakHsVhhm7WhbQFNn1niOt1swWF2V7XwQ5ONI6LYiIT8vD6oi8RbnyhMWzzdaBQiwLKpXMlHS2Bxbw6sgfd8BGhsAQlegVCveuvS9LAb51vg9naz78dr7PAsYYw\r\nContent-Type=*/*\r\n\r\nQuery Parameters:\r\n_______________\r\n\r\nsize=1\r\npage=0\r\n], null, [API Response, JSON Body, java.io.ByteArrayInputStream@73591532]]"}],"start":1680521951093,"stop":1680521951099},{"name":"Assertion Passed: \"200\" is equal to \"200\".","status":"passed","stage":"finished","steps":[],"attachments":[],"parameters":[{"name":"customLog","value":"Assertion Passed: \"200\" is equal to \"200\"."},{"name":"stepLog","value":"Assertion \"ValidateComparativeRelation\" PASSED. Expected \"200\" and Actual \"200\". Comparison Type \"EQUALS\". Validation Type \"POSITIVE\"."},{"name":"attachments","value":"null"}],"start":1680521951099,"stop":1680521951099},{"name":"Verification Passed: \"887\" is greater than or equal to \"1.1\".","status":"passed","stage":"finished","steps":[],"attachments":[],"parameters":[{"name":"customLog","value":"Verification Passed: \"887\" is greater than or equal to \"1.1\"."},{"name":"stepLog","value":"Verification \"ValidateComparativeRelation\" PASSED. Expected \"1.1\" and Actual \"887\". Comparison Type \"GREATER_THAN_OR_EQUALS\". Validation Type \"POSITIVE\"."},{"name":"attachments","value":"null"}],"start":1680521951100,"stop":1680521951100},{"name":"Verification Passed: \"887\" is less than or equal to \"30000\".","status":"passed","stage":"finished","steps":[],"attachments":[],"parameters":[{"name":"customLog","value":"Verification Passed: \"887\" is less than or equal to \"30000\"."},{"name":"stepLog","value":"Verification \"ValidateComparativeRelation\" PASSED. Expected \"30000\" and Actual \"887\". Comparison Type \"LESS_THAN_OR_EQUALS\". Validation Type \"POSITIVE\"."},{"name":"attachments","value":"null"}],"start":1680521951101,"stop":1680521951101},{"name":"Assertion Passed: \"{\"page\":0,\"size\":1,\"totalPages\":138,\"totalElements\":138,\"content\":[{\"id\":1021,\"templateId\":252,\"periodMaxQuotaPerPeriod\":92,\"minimumModelYear\":2010,\"maximumModelYear\":2011,\"minimumSeat\":11,\"maximumSeat\":11,\"vehiclePricePer\":1.0,\"creationPeriodId\":142,\"isActive\":true,\"policyInfo\":{}}]}\" contains \"content\".","status":"passed","stage":"finished","steps":[],"attachments":[],"parameters":[{"name":"customLog","value":"Assertion Passed: \"{\"page\":0,\"size\":1,\"totalPages\":138,\"totalElements\":138,\"content\":[{\"id\":1021,\"templateId\":252,\"periodMaxQuotaPerPeriod\":92,\"minimumModelYear\":2010,\"maximumModelYear\":2011,\"minimumSeat\":11,\"maximumSeat\":11,\"vehiclePricePer\":1.0,\"creationPeriodId\":142,\"isActive\":true,\"policyInfo\":{}}]}\" contains \"content\"."},{"name":"stepLog","value":"Assertion \"ValidateEquals\" PASSED. Expected \"content\" and Actual \"{\"page\":0,\"size\":1,\"totalPages\":138,\"totalElements\":138,\"content\":[{\"id\":1021,\"templateId\":252,\"periodMaxQuotaPerPeriod\":92,\"minimumModelYear\":2010,\"maximumModelYear\":2011,\"minimumSeat\":11,\"maximumSeat\":11,\"vehiclePricePer\":1.0,\"creationPeriodId\":142,\"isActive\":true,\"policyInfo\":{}}]}\". Comparison Type \"CONTAINS\". Validation Type \"POSITIVE\"."},{"name":"attachments","value":"null"}],"start":1680521951101,"stop":1680521951101},{"name":"Assertion Passed: Check that content object is not null.","status":"passed","stage":"finished","steps":[],"attachments":[],"parameters":[{"name":"customLog","value":"Assertion Passed: Check that content object is not null."},{"name":"stepLog","value":"Assertion \"ValidateEquals\" PASSED. Expected \"null\" and Actual \"[{\"id\":1021,\"templateId\":252,\"periodMaxQuotaPerPeriod\":92,\"minimumModelYear\":2010,\"maximumModelYear\":2011,\"minimumSeat\":11,\"maximumSeat\":11,\"vehiclePricePer\":1.0,\"creationPeriodId\":142,\"isActive\":true,\"policyInfo\":{}}]\". Comparison Type \"EQUALS\". Validation Type \"NEGATIVE\"."},{"name":"attachments","value":"null"}],"start":1680521951104,"stop":1680521951104},{"name":"Assertion Passed: The API response schema matches that in this file \"src/test/resources/testDataFiles/Schemas/GetAllPeriodProgram_schema.json\".","status":"passed","stage":"finished","steps":[],"attachments":[{"name":"Validation Test Data - Expected JSON Value","source":"35f407dc-1ad1-4415-9af9-4ee7d08d2951-attachment.json","type":"text/json"},{"name":"Validation Test Data - Actual JSON Value","source":"a7eb08ff-96b0-4f86-a3f7-5d33636c7153-attachment.json","type":"text/json"}],"parameters":[{"name":"customLog","value":"Assertion Passed: The API response schema matches that in this file \"src/test/resources/testDataFiles/Schemas/GetAllPeriodProgram_schema.json\"."},{"name":"stepLog","value":"Assertion \"ValidateResponseFileSchema\" PASSED. Expected \"Response data should match the JSON File in this path 'C:\\eclipse-workspace\\MyProjects\\TASystemsAPIs\\src\\test\\resources\\testDataFiles\\Schemas\\GetAllPeriodProgram_schema.json'\" and Actual \"TRUE\". Comparison Type \"EQUALS\". Validation Type \"POSITIVE\"."},{"name":"attachments","value":"[[Validation Test Data, Expected JSON Value, java.io.ByteArrayInputStream@3c32f44d], [Validation Test Data, Actual JSON Value, java.io.ByteArrayInputStream@7010f314]]"}],"start":1680521951128,"stop":1680521951132}],"attachments":[{"name":"SHAFT Engine Logs - Current Method log: Valid_Get_All_PeriodProgram_Pagination_TC","source":"8ad77a0e-717b-48a7-b57b-12be9f9de4c8-attachment.txt","type":"text/plain"}],"parameters":[],"start":1680521948688,"stop":1680521951133}