[ReportManager] Setting discrete logging to: "false" @04-10-2022 15:16:19.0820 PM

################################################################################################################################################
Starting Execution:	"10 out of 13" test cases in the current suite
Test Method:		"SteeringCompanyAPI_TestCases.Test_Case.Valid_GET_all_terminals_Lookups_Rq_TC"
################################################################################################################################################
[ReportManager] Setting discrete logging to: "false" @04-10-2022 15:16:19.0820 PM
[ReportManager] Setting discrete logging to: "true" @04-10-2022 15:16:20.0480 PM
[ReportManager] Response status code: "200", status line: "HTTP/1.1 200 OK" @04-10-2022 15:16:20.0480 PM
[ReportManager] Assertion Passed: Evaluating the actual response status code against the expected one... @04-10-2022 15:16:20.0480 PM
[ReportManager] Setting discrete logging to: "false" @04-10-2022 15:16:20.0480 PM
[ReportManager] Perform request "POST | Target Status Code: 200 | Service URL: https://auth-demo.np.transporticonline.com/auth/realms/tic/protocol/openid-connect/token | Content Type: application/x-www-form-urlencoded | Response Time: 659ms". @04-10-2022 15:16:20.0491 PM
[ReportManager] Successfully created attachment "API Request - Specifications" @04-10-2022 15:16:20.0491 PM
[ReportManager] Successfully created attachment "API Request - Body" @04-10-2022 15:16:20.0492 PM
[ReportManager] Successfully created attachment "API Response - JSON Body" @04-10-2022 15:16:20.0493 PM
[ReportManager] Assertion Passed: "200" is equal to "200". @04-10-2022 15:16:20.0493 PM
[ReportManager] Verification Passed: "659" is greater than or equal to "1.1". @04-10-2022 15:16:20.0493 PM
[ReportManager] Verification Passed: "659" is less than or equal to "10000". @04-10-2022 15:16:20.0494 PM
[ReportManager] Assertion Passed: "{"access_token":"eyJhbGciOiJSUzI1NiIsInR5cCIgOiAiSldUIiwia2lkIiA6ICJjck9ORDFNdFVPVWhzS2Mtb0ppVFFmb0o1d1l4REF6Y3k0ZjNYZ0dveGdZIn0.eyJleHAiOjE2NjQ4ODk2NzksImlhdCI6MTY2NDg4OTM3OSwianRpIjoiMTkyYTIxODAtYWIwMS00N2MwLTkwYWQtYjAyZTY2MTExYmY5IiwiaXNzIjoiaHR0cHM6Ly9hdXRoLWRlbW8ubnAudHJhbnNwb3J0aWNvbmxpbmUuY29tL2F1dGgvcmVhbG1zL3RpYyIsImF1ZCI6ImFjY291bnQiLCJzdWIiOiI0ZTk3NmQ0NC1iM2ZkLTRjYTktODk1Ny0wYWJiODUwNzNhNzQiLCJ0eXAiOiJCZWFyZXIiLCJhenAiOiJ0aWMtYXBpIiwic2Vzc2lvbl9zdGF0ZSI6IjdiODVlMWUyLWQ1YWQtNDI3Ni04ZmRkLTdiZmI1Mjc3NWYwYSIsImFjciI6IjEiLCJhbGxvd2VkLW9yaWdpbnMiOlsiaHR0cHM6Ly9hcGktZGV2Lm5wLnRyYW5zcG9ydGljb25saW5lLmNvbSJdLCJyZWFsbV9hY2Nlc3MiOnsicm9sZXMiOlsib2ZmbGluZV9hY2Nlc3MiLCJkZWZhdWx0LXJvbGVzLXRpYyIsInVtYV9hdXRob3JpemF0aW9uIiwidXNlciJdfSwicmVzb3VyY2VfYWNjZXNzIjp7ImFjY291bnQiOnsicm9sZXMiOlsibWFuYWdlLWFjY291bnQiLCJtYW5hZ2UtYWNjb3VudC1saW5rcyIsInZpZXctcHJvZmlsZSJdfX0sInNjb3BlIjoiZW1haWwgcHJvZmlsZSIsInNpZCI6IjdiODVlMWUyLWQ1YWQtNDI3Ni04ZmRkLTdiZmI1Mjc3NWYwYSIsImVtYWlsX3ZlcmlmaWVkIjpmYWxzZSwicHJlZmVycmVkX3VzZXJuYW1lIjoidG9raGkiLCJ0Y0lkIjoiMzE5OTU3In0.RsxneVYFEAaoc9HgUwnA5F8ZwJBBa1GNnN4ZbD8y8udDVen2BOr5dS5KiLMKdLl_MODI3LdWTx4ug8HG9HMllAFvYT2clcmhXUUXBiVwN8EoV-zg2hiP7E44HumypP09OELoG-v6lziWgltXNGM9S96_j1DxwDWUq_ltddxjt_HYjIKkUHav3szoFsaXbFDGFTn3zanCT3JnCdij4tMBj_veYAKAH84LlkGIQjBeLT4AdKvDK1ATaoB38ecqSHmjM_eM4W_HctCIh3S3RgjakktbMyiFQnS6Xmjrn5YAo_JhIkx8LnQaFd7NZqEjGcgjYvoa1UPqSaRPLmBI-24tJw","expires_in":300,"refresh_expires_in":1800,"refresh_token":"eyJhbGciOiJIUzI1NiIsInR5cCIgOiAiSldUIiwia2lkIiA6ICJkMTFjNTY4Yi1iMjAyLTQzYjgtYTBiMy1hYWI4ZWMyYWQzZDEifQ.eyJleHAiOjE2NjQ4OTExNzksImlhdCI6MTY2NDg4OTM3OSwianRpIjoiNGVlNTFmMDMtZjliZi00MWM4LWEwNWItYWY2MzJlM2EyNTcwIiwiaXNzIjoiaHR0cHM6Ly9hdXRoLWRlbW8ubnAudHJhbnNwb3J0aWNvbmxpbmUuY29tL2F1dGgvcmVhbG1zL3RpYyIsImF1ZCI6Imh0dHBzOi8vYXV0aC1kZW1vLm5wLnRyYW5zcG9ydGljb25saW5lLmNvbS9hdXRoL3JlYWxtcy90aWMiLCJzdWIiOiI0ZTk3NmQ0NC1iM2ZkLTRjYTktODk1Ny0wYWJiODUwNzNhNzQiLCJ0eXAiOiJSZWZyZXNoIiwiYXpwIjoidGljLWFwaSIsInNlc3Npb25fc3RhdGUiOiI3Yjg1ZTFlMi1kNWFkLTQyNzYtOGZkZC03YmZiNTI3NzVmMGEiLCJzY29wZSI6ImVtYWlsIHByb2ZpbGUiLCJzaWQiOiI3Yjg1ZTFlMi1kNWFkLTQyNzYtOGZkZC03YmZiNTI3NzVmMGEifQ.2afjr1skdvt2hPMHgCqIIvaETraTHagBgd6olXizAKo","token_type":"Bearer","not-before-policy":0,"session_state":"7b85e1e2-d5ad-4276-8fdd-7bfb52775f0a","scope":"email profile"}" contains "access_token". @04-10-2022 15:16:20.0494 PM
[ReportManager] Successfully created attachment "Validation Test Data - Expected Value" @04-10-2022 15:16:20.0494 PM
[ReportManager] Successfully created attachment "Validation Test Data - Actual Value" @04-10-2022 15:16:20.0495 PM
[ReportManager] Get response jsonvalue "access_token". @04-10-2022 15:16:20.0495 PM
[ReportManager] Assertion Passed: Check that Access token is not null. @04-10-2022 15:16:20.0495 PM
[ReportManager] Successfully created attachment "Validation Test Data - Expected Value" @04-10-2022 15:16:20.0496 PM
[ReportManager] Successfully created attachment "Validation Test Data - Actual Value" @04-10-2022 15:16:20.0496 PM
[ReportManager] File Action "DoesFileExist" successfully performed. With the following test data "File Path: "Token_schema.json"". @04-10-2022 15:16:20.0496 PM
[ReportManager] File Action "DoesFileExist" successfully performed. With the following test data "File Path: "src/test/resources/testDataFiles/Token_schema.json"". @04-10-2022 15:16:20.0496 PM
[ReportManager] File Action "GetAbsolutePath" successfully performed. With the following test data "Relative Folder Path: "src/test/resources/testDataFiles/Token_schema.json"". @04-10-2022 15:16:20.0496 PM
[ReportManager] File Action "DoesFileExist" successfully performed. With the following test data "File Path: "C:\eclipse-workspace\MyProjects\TASystemsAPIs\src\test\resources\testDataFiles\Token_schema.json"". @04-10-2022 15:16:20.0499 PM
[ReportManager] File Action "GetAbsolutePath" successfully performed. With the following test data "Relative Folder Path: "C:\eclipse-workspace\MyProjects\TASystemsAPIs\src\test\resources\testDataFiles\Token_schema.json"". @04-10-2022 15:16:20.0499 PM
[ReportManager] File Action "ReadFromFile" successfully performed. With the following test data "File Path: "C:\eclipse-workspace\MyProjects\TASystemsAPIs\src\test\resources\testDataFiles\Token_schema.json"". @04-10-2022 15:16:20.0499 PM
[ReportManager] Assertion Passed: The API response schema matches that in this file "src/test/resources/testDataFiles/Token_schema.json". @04-10-2022 15:16:20.0500 PM
[ReportManager] Successfully created attachment "Validation Test Data - Expected JSON Value" @04-10-2022 15:16:20.0501 PM
[ReportManager] Successfully created attachment "Validation Test Data - Actual JSON Value" @04-10-2022 15:16:20.0502 PM
[ReportManager] Verification Passed: "659" is greater than or equal to "1.1". @04-10-2022 15:16:20.0514 PM
[ReportManager] Verification Passed: "659" is less than or equal to "10000". @04-10-2022 15:16:20.0515 PM
[ReportManager] Setting discrete logging to: "true" @04-10-2022 15:16:21.0130 PM
[ReportManager] Response status code: "200", status line: "HTTP/1.1 200 " @04-10-2022 15:16:21.0130 PM
[ReportManager] Assertion Passed: Evaluating the actual response status code against the expected one... @04-10-2022 15:16:21.0131 PM
[ReportManager] Setting discrete logging to: "false" @04-10-2022 15:16:21.0131 PM
[ReportManager] Perform request "GET | Target Status Code: 200 | Service URL: https://api-demo.np.transporticonline.com/steeringcompanies/v1/lookups/terminals | Content Type: */* | Response Time: 591ms". @04-10-2022 15:16:21.0143 PM
[ReportManager] Successfully created attachment "API Request - Specifications" @04-10-2022 15:16:21.0144 PM
[ReportManager] Successfully created attachment "API Response - JSON Body" @04-10-2022 15:16:21.0145 PM
[ReportManager] Assertion Passed: "200" is equal to "200". @04-10-2022 15:16:21.0145 PM
[ReportManager] Verification Passed: "591" is greater than or equal to "1.1". @04-10-2022 15:16:21.0145 PM
[ReportManager] Verification Passed: "591" is less than or equal to "10000". @04-10-2022 15:16:21.0145 PM
[ReportManager] Assertion Passed: "{"page":0,"size":2147483647,"totalPages":1,"totalElements":13,"content":[{"id":20,"nameArabic":"???? ????????","nameEnglish":"Departure Terminal","isActive":false,"lastUpdated":"2021-04-11T21:05:44Z","portId":51,"sectors":null},{"id":12,"nameArabic":"??????? - ???? ?????? ???? ???","nameEnglish":"","isActive":false,"lastUpdated":"2021-04-11T21:05:58Z","code":"","portId":51,"sectors":null},{"id":7,"nameArabic":"??????? ?????? ??????","nameEnglish":"Madinah Fast Track Terminal","isActive":false,"lastUpdated":"2021-04-11T21:06:12Z","code":"","portId":51,"sectors":null},{"id":1,"nameArabic":"???? ?????? ???","nameEnglish":"Jeddah Hajj Terminal","isActive":false,"lastUpdated":"2021-04-11T21:06:20Z","code":"H","portId":50,"sectors":null},{"id":6,"nameArabic":"????? ??? ????????","nameEnglish":"Jeddah Sea Ports","isActive":true,"lastUpdated":null,"code":"P","portId":52,"sectors":null},{"id":8,"nameArabic":"????? ????","nameEnglish":"Trustees Yanbo TERMINAL","isActive":true,"lastUpdated":null,"code":"B","portId":53,"sectors":null},{"id":9,"nameArabic":"???? ?????? ??? ?????? ?? ??? ??????","nameEnglish":"Abdul Mohsin bin Abdulaziz Airport","isActive":true,"lastUpdated":null,"code":"Y","portId":67,"sectors":null},{"id":10,"nameArabic":"???? ?????? ??????? ?? ????","nameEnglish":"International Arrival Terminal on Yanbo","isActive":true,"lastUpdated":null,"code":"TR3","portId":67,"sectors":null},{"id":11,"nameArabic":"?????? 1","nameEnglish":"TERMINAL 1","isActive":true,"lastUpdated":null,"code":"T1","portId":50,"sectors":null},{"id":2,"nameArabic":"??? ?????? ????????","nameEnglish":"Jeddah South Terminal","isActive":true,"lastUpdated":"2020-10-15T12:35:51Z","code":"S","portId":50,"sectors":null},{"id":3,"nameArabic":"??? ?????? ????????","nameEnglish":"Jeddah North Terminal","isActive":true,"lastUpdated":"2020-10-15T12:35:51Z","code":"N","portId":50,"sectors":null},{"id":5,"nameArabic":"??????? ?????? ???????","nameEnglish":"Madinah Intarnational Terminal","isActive":true,"lastUpdated":"2020-10-15T12:35:51Z","code":"I","portId":51,"sectors":null},{"id":4,"nameArabic":"???? ?????? ???????","nameEnglish":"Madinah Hajj Terminal","isActive":true,"lastUpdated":"2020-12-15T10:56:54Z","code":"H","portId":51,"sectors":null}]}" contains "content". @04-10-2022 15:16:21.0146 PM
[ReportManager] Successfully created attachment "Validation Test Data - Expected Value" @04-10-2022 15:16:21.0146 PM
[ReportManager] Successfully created attachment "Validation Test Data - Actual Value" @04-10-2022 15:16:21.0146 PM
[ReportManager] Get response jsonvalue "content". @04-10-2022 15:16:21.0147 PM
[ReportManager] Assertion Passed: Check that content object is not null. @04-10-2022 15:16:21.0147 PM
[ReportManager] Successfully created attachment "Validation Test Data - Expected Value" @04-10-2022 15:16:21.0148 PM
[ReportManager] Successfully created attachment "Validation Test Data - Actual Value" @04-10-2022 15:16:21.0148 PM
[ReportManager] File Action "DoesFileExist" successfully performed. With the following test data "File Path: "Lookups_terminals_schema.json"". @04-10-2022 15:16:21.0148 PM
[ReportManager] File Action "DoesFileExist" successfully performed. With the following test data "File Path: "src/test/resources/testDataFiles/Lookups_terminals_schema.json"". @04-10-2022 15:16:21.0149 PM
[ReportManager] File Action "GetAbsolutePath" successfully performed. With the following test data "Relative Folder Path: "src/test/resources/testDataFiles/Lookups_terminals_schema.json"". @04-10-2022 15:16:21.0150 PM
[ReportManager] File Action "DoesFileExist" successfully performed. With the following test data "File Path: "C:\eclipse-workspace\MyProjects\TASystemsAPIs\src\test\resources\testDataFiles\Lookups_terminals_schema.json"". @04-10-2022 15:16:21.0167 PM
[ReportManager] File Action "GetAbsolutePath" successfully performed. With the following test data "Relative Folder Path: "C:\eclipse-workspace\MyProjects\TASystemsAPIs\src\test\resources\testDataFiles\Lookups_terminals_schema.json"". @04-10-2022 15:16:21.0167 PM
[ReportManager] File Action "ReadFromFile" successfully performed. With the following test data "File Path: "C:\eclipse-workspace\MyProjects\TASystemsAPIs\src\test\resources\testDataFiles\Lookups_terminals_schema.json"". @04-10-2022 15:16:21.0167 PM
[ReportManager] Assertion Passed: The API response schema matches that in this file "src/test/resources/testDataFiles/Lookups_terminals_schema.json". @04-10-2022 15:16:21.0168 PM
[ReportManager] Successfully created attachment "Validation Test Data - Expected JSON Value" @04-10-2022 15:16:21.0169 PM
[ReportManager] Successfully created attachment "Validation Test Data - Actual JSON Value" @04-10-2022 15:16:21.0172 PM
[ReportManager] Verification Passed: "591" is greater than or equal to "1.1". @04-10-2022 15:16:21.0173 PM
[ReportManager] Verification Passed: "591" is less than or equal to "10000". @04-10-2022 15:16:21.0173 PM
[ReportManager] Setting discrete logging to: "true" @04-10-2022 15:16:21.0730 PM
[ReportManager] Response status code: "200", status line: "HTTP/1.1 200 " @04-10-2022 15:16:21.0730 PM
[ReportManager] Assertion Passed: Evaluating the actual response status code against the expected one... @04-10-2022 15:16:21.0730 PM
[ReportManager] Setting discrete logging to: "false" @04-10-2022 15:16:21.0731 PM
[ReportManager] Perform request "GET | Target Status Code: 200 | Service URL: https://api-demo.np.transporticonline.com/steeringcompanies/v1/lookups/terminals | Content Type: */* | Response Time: 555ms". @04-10-2022 15:16:21.0741 PM
[ReportManager] Successfully created attachment "API Request - Specifications" @04-10-2022 15:16:21.0741 PM
[ReportManager] Successfully created attachment "API Response - JSON Body" @04-10-2022 15:16:21.0742 PM
[ReportManager] Assertion Passed: "200" is equal to "200". @04-10-2022 15:16:21.0742 PM
[ReportManager] Verification Passed: "555" is greater than or equal to "1.1". @04-10-2022 15:16:21.0742 PM
[ReportManager] Verification Passed: "555" is less than or equal to "10000". @04-10-2022 15:16:21.0742 PM
[ReportManager] Assertion Passed: "{"page":0,"size":3,"totalPages":5,"totalElements":13,"content":[{"id":20,"nameArabic":"???? ????????","nameEnglish":"Departure Terminal","isActive":false,"lastUpdated":"2021-04-11T21:05:44Z","portId":51,"sectors":null},{"id":12,"nameArabic":"??????? - ???? ?????? ???? ???","nameEnglish":"","isActive":false,"lastUpdated":"2021-04-11T21:05:58Z","code":"","portId":51,"sectors":null},{"id":7,"nameArabic":"??????? ?????? ??????","nameEnglish":"Madinah Fast Track Terminal","isActive":false,"lastUpdated":"2021-04-11T21:06:12Z","code":"","portId":51,"sectors":null}]}" contains "content". @04-10-2022 15:16:21.0743 PM
[ReportManager] Successfully created attachment "Validation Test Data - Expected Value" @04-10-2022 15:16:21.0743 PM
[ReportManager] Successfully created attachment "Validation Test Data - Actual Value" @04-10-2022 15:16:21.0744 PM
[ReportManager] Get response jsonvalue "content". @04-10-2022 15:16:21.0744 PM
[ReportManager] Assertion Passed: Check that content object is not null. @04-10-2022 15:16:21.0744 PM
[ReportManager] Successfully created attachment "Validation Test Data - Expected Value" @04-10-2022 15:16:21.0745 PM
[ReportManager] Successfully created attachment "Validation Test Data - Actual Value" @04-10-2022 15:16:21.0745 PM
[ReportManager] File Action "DoesFileExist" successfully performed. With the following test data "File Path: "Lookups_terminals_schema.json"". @04-10-2022 15:16:21.0745 PM
[ReportManager] File Action "DoesFileExist" successfully performed. With the following test data "File Path: "src/test/resources/testDataFiles/Lookups_terminals_schema.json"". @04-10-2022 15:16:21.0745 PM
[ReportManager] File Action "GetAbsolutePath" successfully performed. With the following test data "Relative Folder Path: "src/test/resources/testDataFiles/Lookups_terminals_schema.json"". @04-10-2022 15:16:21.0746 PM
[ReportManager] File Action "DoesFileExist" successfully performed. With the following test data "File Path: "C:\eclipse-workspace\MyProjects\TASystemsAPIs\src\test\resources\testDataFiles\Lookups_terminals_schema.json"". @04-10-2022 15:16:21.0751 PM
[ReportManager] File Action "GetAbsolutePath" successfully performed. With the following test data "Relative Folder Path: "C:\eclipse-workspace\MyProjects\TASystemsAPIs\src\test\resources\testDataFiles\Lookups_terminals_schema.json"". @04-10-2022 15:16:21.0751 PM
[ReportManager] File Action "ReadFromFile" successfully performed. With the following test data "File Path: "C:\eclipse-workspace\MyProjects\TASystemsAPIs\src\test\resources\testDataFiles\Lookups_terminals_schema.json"". @04-10-2022 15:16:21.0752 PM
[ReportManager] Assertion Passed: The API response schema matches that in this file "src/test/resources/testDataFiles/Lookups_terminals_schema.json". @04-10-2022 15:16:21.0752 PM
[ReportManager] Successfully created attachment "Validation Test Data - Expected JSON Value" @04-10-2022 15:16:21.0753 PM
[ReportManager] Successfully created attachment "Validation Test Data - Actual JSON Value" @04-10-2022 15:16:21.0754 PM
[ReportManager] Verification Passed: "555" is greater than or equal to "1.1". @04-10-2022 15:16:21.0754 PM
[ReportManager] Verification Passed: "555" is less than or equal to "10000". @04-10-2022 15:16:21.0755 PM