
################################################################################################################################################
Starting Execution:	"2 out of 5" test cases in the current suite
Test Method:		"SteeringCompanyAPI_TestCases.Test_Lookups_Cases.Valid_GET_all_cities_Lookups_by_Qry_Rq_TC"
Test Description:	"TC002 - Perform Get all cities API by parameters Qry with valid user name and password and return with token"
################################################################################################################################################
[ReportManager] File Action "DoesFileExist" successfully performed. With the following test data "File Path: "SteeringCompanyAPI_TestData/SteeringCompanyAPI_TestData.xlsx"". @02-01-2023 09:11:21.0524 AM
[ReportManager] Loaded Test Data: "src/test/resources/testDataFiles/SteeringCompanyAPI_TestData/SteeringCompanyAPI_TestData.xlsx". @02-01-2023 09:11:21.0545 AM
[ReportManager] Successfully created attachment "Test Data - Excel" @02-01-2023 09:11:21.0547 AM
[ReportManager] Response status code: "200", status line: "HTTP/1.1 200 OK" @02-01-2023 09:11:22.0202 AM
[ReportManager] Assertion Passed: Evaluating the actual response status code against the expected one... @02-01-2023 09:11:22.0203 AM
[ReportManager] Perform request "POST | Target Status Code: 200 | Service URL: https://auth-demo.np.transporticonline.com/auth/realms/tic/protocol/openid-connect/token | Content Type: application/x-www-form-urlencoded | Response Time: 647ms". @02-01-2023 09:11:22.0218 AM
[ReportManager] Successfully created attachment "API Request - Specifications" @02-01-2023 09:11:22.0219 AM
[ReportManager] Successfully created attachment "API Request - Body" @02-01-2023 09:11:22.0221 AM
[ReportManager] Successfully created attachment "API Response - JSON Body" @02-01-2023 09:11:22.0222 AM
[ReportManager] Assertion Passed: Check Response Status Code is 200 and it is valid. @02-01-2023 09:11:22.0223 AM
[ReportManager] File Action "DoesFileExist" successfully performed. With the following test data "File Path: "SteeringCompanyAPI_TestData/SteeringCompanyAPI_TestData.xlsx"". @02-01-2023 09:11:22.0236 AM
[ReportManager] Loaded Test Data: "src/test/resources/testDataFiles/SteeringCompanyAPI_TestData/SteeringCompanyAPI_TestData.xlsx". @02-01-2023 09:11:22.0253 AM
[ReportManager] Successfully created attachment "Test Data - Excel" @02-01-2023 09:11:22.0254 AM
[ReportManager] Response status code: "200", status line: "HTTP/1.1 200 " @02-01-2023 09:11:22.0733 AM
[ReportManager] Assertion Passed: Evaluating the actual response status code against the expected one... @02-01-2023 09:11:22.0734 AM
[ReportManager] Perform request "GET | Target Status Code: 200 | Service URL: https://api-demo.np.transporticonline.com/steeringcompanies/v1/lookups/cities | Content Type: */* | Response Time: 458ms". @02-01-2023 09:11:22.0751 AM
[ReportManager] Successfully created attachment "API Request - Specifications" @02-01-2023 09:11:22.0752 AM
[ReportManager] Successfully created attachment "API Response - JSON Body" @02-01-2023 09:11:22.0753 AM
[ReportManager] Assertion Passed: "200" is equal to "200". @02-01-2023 09:11:22.0754 AM
[ReportManager] Verification Passed: "458" is greater than or equal to "1.1". @02-01-2023 09:11:22.0754 AM
[ReportManager] Verification Passed: "458" is less than or equal to "10000". @02-01-2023 09:11:22.0754 AM
[ReportManager] Assertion Passed: "{"page":0,"size":3,"totalPages":237,"totalElements":709,"content":[{"id":36,"nameArabic":"??????????","nameEnglish":"Kuala Lumpur","isActive":true,"lastUpdated":"2022-06-02T01:21:49Z","sectors":null},{"id":849,"nameArabic":"???????","nameEnglish":"Solngen","isActive":true,"lastUpdated":"2022-06-02T01:37:02Z","sectors":null},{"id":1006,"nameArabic":"??????","nameEnglish":"FRUNZE","isActive":true,"lastUpdated":"2022-06-02T00:20:05Z","sectors":null}]}" contains "content". @02-01-2023 09:11:22.0755 AM
[ReportManager] Get response jsonvalue "content". @02-01-2023 09:11:22.0756 AM
[ReportManager] Assertion Passed: Check that content object is not null. @02-01-2023 09:11:22.0757 AM
[ReportManager] File Action "DoesFileExist" successfully performed. With the following test data "File Path: "Lookups_cities_schema.json"". @02-01-2023 09:11:22.0757 AM
[ReportManager] File Action "DoesFileExist" successfully performed. With the following test data "File Path: "src/test/resources/testDataFiles/Lookups_cities_schema.json"". @02-01-2023 09:11:22.0757 AM
[ReportManager] File Action "GetAbsolutePath" successfully performed. With the following test data "Relative Folder Path: "src/test/resources/testDataFiles/Lookups_cities_schema.json"". @02-01-2023 09:11:22.0758 AM
[ReportManager] File Action "DoesFileExist" successfully performed. With the following test data "File Path: "C:\eclipse-workspace\MyProjects\TASystemsAPIs\src\test\resources\testDataFiles\Lookups_cities_schema.json"". @02-01-2023 09:11:22.0773 AM
[ReportManager] File Action "GetAbsolutePath" successfully performed. With the following test data "Relative Folder Path: "C:\eclipse-workspace\MyProjects\TASystemsAPIs\src\test\resources\testDataFiles\Lookups_cities_schema.json"". @02-01-2023 09:11:22.0773 AM
[ReportManager] File Action "ReadFile" successfully performed. With the following test data "File Path: "C:\eclipse-workspace\MyProjects\TASystemsAPIs\src\test\resources\testDataFiles\Lookups_cities_schema.json"". @02-01-2023 09:11:22.0774 AM
[ReportManager] Assertion Passed: The API response schema matches that in this file "src/test/resources/testDataFiles/Lookups_cities_schema.json". @02-01-2023 09:11:22.0775 AM
[ReportManager] Successfully created attachment "Validation Test Data - Expected JSON Value" @02-01-2023 09:11:22.0777 AM
[ReportManager] Successfully created attachment "Validation Test Data - Actual JSON Value" @02-01-2023 09:11:22.0778 AM