[ReportManager] Setting discrete logging to: "false" @28-09-2022 14:52:52.0064 PM

################################################################################################################################################
Starting Execution:	"3 out of 9" test cases in the current suite
Test Method:		"SteeringCompanyAPI_TestCases.Test_Case.Valid_GET_all_ports_Lookups_Rq_TC"
################################################################################################################################################
[ReportManager] Setting discrete logging to: "false" @28-09-2022 14:52:52.0064 PM
[ReportManager] Setting discrete logging to: "true" @28-09-2022 14:52:52.0526 PM
[ReportManager] Response status code: "200", status line: "HTTP/1.1 200 OK" @28-09-2022 14:52:52.0526 PM
[ReportManager] Assertion Passed: Evaluating the actual response status code against the expected one... @28-09-2022 14:52:52.0527 PM
[ReportManager] Setting discrete logging to: "false" @28-09-2022 14:52:52.0527 PM
[ReportManager] Perform request "POST | Target Status Code: 200 | Service URL: https://auth-demo.np.transporticonline.com/auth/realms/tic/protocol/openid-connect/token | Content Type: application/x-www-form-urlencoded | Response Time: 458ms". @28-09-2022 14:52:52.0537 PM
[ReportManager] Successfully created attachment "API Request - Specifications" @28-09-2022 14:52:52.0538 PM
[ReportManager] Successfully created attachment "API Request - Body" @28-09-2022 14:52:52.0538 PM
[ReportManager] Successfully created attachment "API Response - JSON Body" @28-09-2022 14:52:52.0539 PM
[ReportManager] Assertion Passed: "200" is equal to "200". @28-09-2022 14:52:52.0539 PM
[ReportManager] Verification Passed: "458" is greater than or equal to "1.1". @28-09-2022 14:52:52.0539 PM
[ReportManager] Verification Passed: "458" is less than or equal to "10000". @28-09-2022 14:52:52.0540 PM
[ReportManager] Assertion Passed: "{"access_token":"eyJhbGciOiJSUzI1NiIsInR5cCIgOiAiSldUIiwia2lkIiA6ICJjck9ORDFNdFVPVWhzS2Mtb0ppVFFmb0o1d1l4REF6Y3k0ZjNYZ0dveGdZIn0.eyJleHAiOjE2NjQzNjk4NzIsImlhdCI6MTY2NDM2OTU3MiwianRpIjoiNTYwMThhNWUtZWM0MC00NzZkLTliNjctMGQ2Y2UwMDQwMWIxIiwiaXNzIjoiaHR0cHM6Ly9hdXRoLWRlbW8ubnAudHJhbnNwb3J0aWNvbmxpbmUuY29tL2F1dGgvcmVhbG1zL3RpYyIsImF1ZCI6ImFjY291bnQiLCJzdWIiOiI0ZTk3NmQ0NC1iM2ZkLTRjYTktODk1Ny0wYWJiODUwNzNhNzQiLCJ0eXAiOiJCZWFyZXIiLCJhenAiOiJ0aWMtYXBpIiwic2Vzc2lvbl9zdGF0ZSI6ImM2YmY4ZTFhLWEwY2EtNDJjMS05YTVkLWYzODZkY2YxZjExOCIsImFjciI6IjEiLCJhbGxvd2VkLW9yaWdpbnMiOlsiaHR0cHM6Ly9hcGktZGV2Lm5wLnRyYW5zcG9ydGljb25saW5lLmNvbSJdLCJyZWFsbV9hY2Nlc3MiOnsicm9sZXMiOlsib2ZmbGluZV9hY2Nlc3MiLCJkZWZhdWx0LXJvbGVzLXRpYyIsInVtYV9hdXRob3JpemF0aW9uIiwidXNlciJdfSwicmVzb3VyY2VfYWNjZXNzIjp7ImFjY291bnQiOnsicm9sZXMiOlsibWFuYWdlLWFjY291bnQiLCJtYW5hZ2UtYWNjb3VudC1saW5rcyIsInZpZXctcHJvZmlsZSJdfX0sInNjb3BlIjoiZW1haWwgcHJvZmlsZSIsInNpZCI6ImM2YmY4ZTFhLWEwY2EtNDJjMS05YTVkLWYzODZkY2YxZjExOCIsImVtYWlsX3ZlcmlmaWVkIjpmYWxzZSwicHJlZmVycmVkX3VzZXJuYW1lIjoidG9raGkiLCJ0Y0lkIjoiMzE5OTU3In0.JoWxRcudBtwiROp4Tb_-zppw73dvx3vyk7rqYHE02-CZv19ct6KRiJrQo9HS1OzB8C7hDkrcfH-dkddyD-LCcXzjhf7uMmjcPr--BU-tvONrMXs9n5s2xatsC1IKfh_CCx7MPn12o4PHz_4Obtg6_GZWaK_sZby64mhTtfh133PYRAVHHqUVnYVn2zYyYdg2NNLKMLQxZPTLvcCz9lb54ReDL4Aeu8BnieQ9bUGAQXjRBlTo_0lhtM8l02e0_j-vKepjkAFMCgOcdacXa608FOuKbtaCN0-r900U5TwKJblbzQucs53rtdZitmLqnayvpCD3S0j0anwGaczcrB7BrA","expires_in":300,"refresh_expires_in":1800,"refresh_token":"eyJhbGciOiJIUzI1NiIsInR5cCIgOiAiSldUIiwia2lkIiA6ICJkMTFjNTY4Yi1iMjAyLTQzYjgtYTBiMy1hYWI4ZWMyYWQzZDEifQ.eyJleHAiOjE2NjQzNzEzNzIsImlhdCI6MTY2NDM2OTU3MiwianRpIjoiZTM5ZDUyOWMtMDE5ZC00YjBlLTlmMmYtMTY4OTAxOWE0ZjBlIiwiaXNzIjoiaHR0cHM6Ly9hdXRoLWRlbW8ubnAudHJhbnNwb3J0aWNvbmxpbmUuY29tL2F1dGgvcmVhbG1zL3RpYyIsImF1ZCI6Imh0dHBzOi8vYXV0aC1kZW1vLm5wLnRyYW5zcG9ydGljb25saW5lLmNvbS9hdXRoL3JlYWxtcy90aWMiLCJzdWIiOiI0ZTk3NmQ0NC1iM2ZkLTRjYTktODk1Ny0wYWJiODUwNzNhNzQiLCJ0eXAiOiJSZWZyZXNoIiwiYXpwIjoidGljLWFwaSIsInNlc3Npb25fc3RhdGUiOiJjNmJmOGUxYS1hMGNhLTQyYzEtOWE1ZC1mMzg2ZGNmMWYxMTgiLCJzY29wZSI6ImVtYWlsIHByb2ZpbGUiLCJzaWQiOiJjNmJmOGUxYS1hMGNhLTQyYzEtOWE1ZC1mMzg2ZGNmMWYxMTgifQ.JeOREF9UvNiaNbKEVVfzT_vELGNKnyoAiEXaVwSqS3c","token_type":"Bearer","not-before-policy":0,"session_state":"c6bf8e1a-a0ca-42c1-9a5d-f386dcf1f118","scope":"email profile"}" contains "access_token". @28-09-2022 14:52:52.0540 PM
[ReportManager] Successfully created attachment "Validation Test Data - Expected Value" @28-09-2022 14:52:52.0540 PM
[ReportManager] Successfully created attachment "Validation Test Data - Actual Value" @28-09-2022 14:52:52.0541 PM
[ReportManager] Get response jsonvalue "access_token". @28-09-2022 14:52:52.0541 PM
[ReportManager] Assertion Passed: Check that Access token is not null. @28-09-2022 14:52:52.0541 PM
[ReportManager] Successfully created attachment "Validation Test Data - Expected Value" @28-09-2022 14:52:52.0542 PM
[ReportManager] Successfully created attachment "Validation Test Data - Actual Value" @28-09-2022 14:52:52.0542 PM
[ReportManager] File Action "DoesFileExist" successfully performed. With the following test data "File Path: "Token_schema.json"". @28-09-2022 14:52:52.0542 PM
[ReportManager] File Action "DoesFileExist" successfully performed. With the following test data "File Path: "src/test/resources/testDataFiles/Token_schema.json"". @28-09-2022 14:52:52.0543 PM
[ReportManager] File Action "GetAbsolutePath" successfully performed. With the following test data "Relative Folder Path: "src/test/resources/testDataFiles/Token_schema.json"". @28-09-2022 14:52:52.0543 PM
[ReportManager] File Action "DoesFileExist" successfully performed. With the following test data "File Path: "C:\eclipse-workspace\MyProjects\TASystemsAPIs\src\test\resources\testDataFiles\Token_schema.json"". @28-09-2022 14:52:52.0546 PM
[ReportManager] File Action "GetAbsolutePath" successfully performed. With the following test data "Relative Folder Path: "C:\eclipse-workspace\MyProjects\TASystemsAPIs\src\test\resources\testDataFiles\Token_schema.json"". @28-09-2022 14:52:52.0546 PM
[ReportManager] File Action "ReadFromFile" successfully performed. With the following test data "File Path: "C:\eclipse-workspace\MyProjects\TASystemsAPIs\src\test\resources\testDataFiles\Token_schema.json"". @28-09-2022 14:52:52.0546 PM
[ReportManager] Assertion Passed: The API response schema matches that in this file "src/test/resources/testDataFiles/Token_schema.json". @28-09-2022 14:52:52.0547 PM
[ReportManager] Successfully created attachment "Validation Test Data - Expected JSON Value" @28-09-2022 14:52:52.0547 PM
[ReportManager] Successfully created attachment "Validation Test Data - Actual JSON Value" @28-09-2022 14:52:52.0548 PM
[ReportManager] Verification Passed: "458" is greater than or equal to "1.1". @28-09-2022 14:52:52.0559 PM
[ReportManager] Verification Passed: "458" is less than or equal to "10000". @28-09-2022 14:52:52.0559 PM
[ReportManager] Setting discrete logging to: "true" @28-09-2022 14:52:52.0968 PM
[ReportManager] Response status code: "200", status line: "HTTP/1.1 200 " @28-09-2022 14:52:52.0968 PM
[ReportManager] Assertion Passed: Evaluating the actual response status code against the expected one... @28-09-2022 14:52:52.0969 PM
[ReportManager] Setting discrete logging to: "false" @28-09-2022 14:52:52.0969 PM
[ReportManager] Perform request "GET | Target Status Code: 200 | Service URL: https://api-demo.np.transporticonline.com/steeringcompanies/v1/lookups/ports | Content Type: */* | Response Time: 389ms". @28-09-2022 14:52:52.0984 PM
[ReportManager] Successfully created attachment "API Request - Specifications" @28-09-2022 14:52:52.0985 PM
[ReportManager] Successfully created attachment "API Response - JSON Body" @28-09-2022 14:52:52.0986 PM
[ReportManager] Assertion Passed: "200" is equal to "200". @28-09-2022 14:52:52.0986 PM
[ReportManager] Verification Passed: "389" is greater than or equal to "1.1". @28-09-2022 14:52:52.0986 PM
[ReportManager] Verification Passed: "389" is less than or equal to "10000". @28-09-2022 14:52:52.0986 PM
[ReportManager] Assertion Passed: "{"page":0,"size":2147483647,"totalPages":1,"totalElements":29,"content":[{"id":59,"nameArabic":"???? ??? ","nameEnglish":"Alab Port","cityId":656,"isActive":true,"lastUpdated":"2020-10-22T18:41:32Z","sectors":null},{"id":53,"nameArabic":"????? ???? ???????","nameEnglish":"Yanbu Commercial Port","cityId":646,"isActive":true,"lastUpdated":"2020-10-22T18:41:32Z","sectors":null},{"id":49,"nameArabic":"???? ????? ????","nameEnglish":"Jadedat Arar Port","cityId":612,"isActive":true,"lastUpdated":"2020-10-22T18:41:32Z","sectors":null},{"id":65,"nameArabic":"???? ???????","nameEnglish":"Alwadeah Port","cityId":664,"isActive":true,"lastUpdated":"2020-10-22T18:41:32Z","sectors":null},{"id":41,"nameArabic":"???? ????? ???? ??????","nameEnglish":"King Khalid International Airport","cityId":601,"isActive":true,"lastUpdated":"2020-10-22T18:41:32Z","sectors":null},{"id":71,"nameArabic":"???? ????? 5 - ???? ????? ???","nameEnglish":"???? ????? 5 - ???? ????? ???","cityId":602,"isActive":true,"lastUpdated":"2020-10-22T18:41:32Z","sectors":null},{"id":48,"nameArabic":"???? ???? ????","nameEnglish":"Halat Amar Port","cityId":606,"isActive":true,"lastUpdated":"2020-10-22T18:41:32Z","sectors":null},{"id":54,"nameArabic":"???? ???????","nameEnglish":"Alkhadra Port","cityId":664,"isActive":true,"lastUpdated":"2020-10-22T18:41:32Z","sectors":null},{"id":58,"nameArabic":"???? ????? ???","nameEnglish":"King Fahad Airport","cityId":607,"isActive":true,"lastUpdated":"2020-10-22T18:41:32Z","sectors":null},{"id":66,"nameArabic":"???? ?????-1???? ????? ????? ","nameEnglish":"???? ?????-1???? ????? ????? ","cityId":602,"isActive":true,"lastUpdated":"2020-10-22T18:41:32Z","sectors":null},{"id":72,"nameArabic":"???? ????? ?????? - ?? ??????","nameEnglish":"Empty quarter Port","isActive":true,"lastUpdated":"2022-06-29T08:08:58Z","sectors":null},{"id":50,"nameArabic":"???? ????? ??? ?????? ??????","nameEnglish":"KING ABDUL AZIZ INTERNATIONAL AIRPORT","cityId":602,"isActive":true,"lastUpdated":"2020-10-22T18:41:32Z","sectors":null},{"id":45,"nameArabic":"???? ????","nameEnglish":"Salwa Port","cityId":672,"isActive":true,"lastUpdated":"2020-10-22T18:41:32Z","sectors":null},{"id":63,"nameArabic":"???? ??????","nameEnglish":"Altaif Airport","cityId":604,"isActive":true,"lastUpdated":"2020-10-22T18:41:32Z","sectors":null},{"id":4,"nameArabic":"?????","nameEnglish":"albalad","isActive":true,"lastUpdated":null,"sectors":null},{"id":55,"nameArabic":"???? ??????","nameEnglish":"Altowal Port","cityId":607,"isActive":true,"lastUpdated":"2020-10-22T18:41:32Z","sectors":null},{"id":5,"nameArabic":"???? ????? 2-???? ??????","nameEnglish":"???? ????? 2-???? ??????","cityId":602,"isActive":true,"lastUpdated":"2020-10-22T18:41:32Z","sectors":null},{"id":70,"nameArabic":"???? ????? 4-???? ????","nameEnglish":"???? ????? 4-???? ????","cityId":602,"isActive":true,"lastUpdated":"2020-10-22T18:41:32Z","sectors":null},{"id":69,"nameArabic":"???? ????? 3-???????","nameEnglish":"???? ????? 3-???????","cityId":602,"isActive":true,"lastUpdated":"2020-10-22T18:41:32Z","sectors":null},{"id":68,"nameArabic":"???? ????? 6 - ???? ???","nameEnglish":"???? ????? 6 - ???? ???","cityId":602,"isActive":true,"lastUpdated":"2020-10-22T18:41:32Z","sectors":null},{"id":43,"nameArabic":"???? ??????","nameEnglish":"Alkhafji Port","cityId":631,"isActive":true,"lastUpdated":"2020-10-22T18:41:32Z","sectors":null},{"id":67,"nameArabic":"??????????????????? ?????","nameEnglish":"Prince AbdulMohsen Bin Abdulaziz Airport","isActive":true,"lastUpdated":null,"sectors":null},{"id":47,"nameArabic":"???? ???????","nameEnglish":"Albatha Port","cityId":672,"isActive":true,"lastUpdated":"2020-10-22T18:41:32Z","sectors":null},{"id":52,"nameArabic":"????? ??? ????????","nameEnglish":"JEDDAH ISLAMIC PORT","cityId":602,"isActive":true,"lastUpdated":"2020-10-22T18:41:32Z","sectors":null},{"id":56,"nameArabic":"???? ???????","nameEnglish":"Alhadithah Port","cityId":641,"isActive":true,"lastUpdated":"2020-10-22T18:41:32Z","sectors":null},{"id":46,"nameArabic":"??? ????? ???","nameEnglish":"King Fahad Bridge","cityId":608,"isActive":true,"lastUpdated":"2020-10-22T18:41:32Z","sectors":null},{"id":51,"nameArabic":"???? ?????? ????","nameEnglish":"PRINCE MOHAMMAD INTERNATIONAL AIRPORT","cityId":605,"isActive":true,"lastUpdated":"2020-10-22T18:41:32Z","sectors":null},{"id":44,"nameArabic":"???? ??????","nameEnglish":"Alraqai Port","cityId":630,"isActive":true,"lastUpdated":"2020-10-22T18:41:32Z","sectors":null},{"id":64,"nameArabic":"???? ????","nameEnglish":"Abha Airport","cityId":613,"isActive":true,"lastUpdated":"2020-10-22T18:41:32Z","sectors":null}]}" contains "content". @28-09-2022 14:52:52.0987 PM
[ReportManager] Successfully created attachment "Validation Test Data - Expected Value" @28-09-2022 14:52:52.0987 PM
[ReportManager] Successfully created attachment "Validation Test Data - Actual Value" @28-09-2022 14:52:52.0988 PM
[ReportManager] Get response jsonvalue "content". @28-09-2022 14:52:52.0989 PM
[ReportManager] Assertion Passed: Check that content object is not null. @28-09-2022 14:52:52.0989 PM
[ReportManager] Successfully created attachment "Validation Test Data - Expected Value" @28-09-2022 14:52:52.0989 PM
[ReportManager] Successfully created attachment "Validation Test Data - Actual Value" @28-09-2022 14:52:52.0991 PM
[ReportManager] File Action "DoesFileExist" successfully performed. With the following test data "File Path: "Lookups_ports_schema.json"". @28-09-2022 14:52:52.0991 PM
[ReportManager] File Action "DoesFileExist" successfully performed. With the following test data "File Path: "src/test/resources/testDataFiles/Lookups_ports_schema.json"". @28-09-2022 14:52:52.0991 PM
[ReportManager] File Action "GetAbsolutePath" successfully performed. With the following test data "Relative Folder Path: "src/test/resources/testDataFiles/Lookups_ports_schema.json"". @28-09-2022 14:52:52.0991 PM
[ReportManager] File Action "DoesFileExist" successfully performed. With the following test data "File Path: "C:\eclipse-workspace\MyProjects\TASystemsAPIs\src\test\resources\testDataFiles\Lookups_ports_schema.json"". @28-09-2022 14:52:52.0996 PM
[ReportManager] File Action "GetAbsolutePath" successfully performed. With the following test data "Relative Folder Path: "C:\eclipse-workspace\MyProjects\TASystemsAPIs\src\test\resources\testDataFiles\Lookups_ports_schema.json"". @28-09-2022 14:52:52.0996 PM
[ReportManager] File Action "ReadFromFile" successfully performed. With the following test data "File Path: "C:\eclipse-workspace\MyProjects\TASystemsAPIs\src\test\resources\testDataFiles\Lookups_ports_schema.json"". @28-09-2022 14:52:52.0996 PM
[ReportManager] Assertion Passed: The API response schema matches that in this file "src/test/resources/testDataFiles/Lookups_ports_schema.json". @28-09-2022 14:52:52.0997 PM
[ReportManager] Successfully created attachment "Validation Test Data - Expected JSON Value" @28-09-2022 14:52:52.0998 PM
[ReportManager] Successfully created attachment "Validation Test Data - Actual JSON Value" @28-09-2022 14:52:52.0999 PM
[ReportManager] Verification Passed: "389" is greater than or equal to "1.1". @28-09-2022 14:52:52.0999 PM
[ReportManager] Verification Passed: "389" is less than or equal to "10000". @28-09-2022 14:52:52.0999 PM
[ReportManager] Setting discrete logging to: "true" @28-09-2022 14:52:53.0341 PM
[ReportManager] Response status code: "200", status line: "HTTP/1.1 200 " @28-09-2022 14:52:53.0341 PM
[ReportManager] Assertion Passed: Evaluating the actual response status code against the expected one... @28-09-2022 14:52:53.0342 PM
[ReportManager] Setting discrete logging to: "false" @28-09-2022 14:52:53.0342 PM
[ReportManager] Perform request "GET | Target Status Code: 200 | Service URL: https://api-demo.np.transporticonline.com/steeringcompanies/v1/lookups/ports | Content Type: */* | Response Time: 340ms". @28-09-2022 14:52:53.0357 PM
[ReportManager] Successfully created attachment "API Request - Specifications" @28-09-2022 14:52:53.0357 PM
[ReportManager] Successfully created attachment "API Response - JSON Body" @28-09-2022 14:52:53.0358 PM
[ReportManager] Assertion Passed: "200" is equal to "200". @28-09-2022 14:52:53.0358 PM
[ReportManager] Verification Passed: "340" is greater than or equal to "1.1". @28-09-2022 14:52:53.0358 PM
[ReportManager] Verification Passed: "340" is less than or equal to "10000". @28-09-2022 14:52:53.0358 PM
[ReportManager] Assertion Passed: "{"page":0,"size":3,"totalPages":10,"totalElements":29,"content":[{"id":59,"nameArabic":"???? ??? ","nameEnglish":"Alab Port","cityId":656,"isActive":true,"lastUpdated":"2020-10-22T18:41:32Z","sectors":null},{"id":53,"nameArabic":"????? ???? ???????","nameEnglish":"Yanbu Commercial Port","cityId":646,"isActive":true,"lastUpdated":"2020-10-22T18:41:32Z","sectors":null},{"id":49,"nameArabic":"???? ????? ????","nameEnglish":"Jadedat Arar Port","cityId":612,"isActive":true,"lastUpdated":"2020-10-22T18:41:32Z","sectors":null}]}" contains "content". @28-09-2022 14:52:53.0359 PM
[ReportManager] Successfully created attachment "Validation Test Data - Expected Value" @28-09-2022 14:52:53.0359 PM
[ReportManager] Successfully created attachment "Validation Test Data - Actual Value" @28-09-2022 14:52:53.0359 PM
[ReportManager] Get response jsonvalue "content". @28-09-2022 14:52:53.0360 PM
[ReportManager] Assertion Passed: Check that content object is not null. @28-09-2022 14:52:53.0362 PM
[ReportManager] File Action "DoesFileExist" successfully performed. With the following test data "File Path: "Lookups_ports_schema.json"". @28-09-2022 14:52:53.0362 PM
[ReportManager] File Action "DoesFileExist" successfully performed. With the following test data "File Path: "src/test/resources/testDataFiles/Lookups_ports_schema.json"". @28-09-2022 14:52:53.0363 PM
[ReportManager] File Action "GetAbsolutePath" successfully performed. With the following test data "Relative Folder Path: "src/test/resources/testDataFiles/Lookups_ports_schema.json"". @28-09-2022 14:52:53.0363 PM
[ReportManager] File Action "DoesFileExist" successfully performed. With the following test data "File Path: "C:\eclipse-workspace\MyProjects\TASystemsAPIs\src\test\resources\testDataFiles\Lookups_ports_schema.json"". @28-09-2022 14:52:53.0366 PM
[ReportManager] File Action "GetAbsolutePath" successfully performed. With the following test data "Relative Folder Path: "C:\eclipse-workspace\MyProjects\TASystemsAPIs\src\test\resources\testDataFiles\Lookups_ports_schema.json"". @28-09-2022 14:52:53.0366 PM
[ReportManager] File Action "ReadFromFile" successfully performed. With the following test data "File Path: "C:\eclipse-workspace\MyProjects\TASystemsAPIs\src\test\resources\testDataFiles\Lookups_ports_schema.json"". @28-09-2022 14:52:53.0367 PM
[ReportManager] Assertion Passed: The API response schema matches that in this file "src/test/resources/testDataFiles/Lookups_ports_schema.json". @28-09-2022 14:52:53.0367 PM
[ReportManager] Successfully created attachment "Validation Test Data - Expected JSON Value" @28-09-2022 14:52:53.0368 PM
[ReportManager] Successfully created attachment "Validation Test Data - Actual JSON Value" @28-09-2022 14:52:53.0369 PM
[ReportManager] Verification Passed: "340" is greater than or equal to "1.1". @28-09-2022 14:52:53.0369 PM
[ReportManager] Verification Passed: "340" is less than or equal to "10000". @28-09-2022 14:52:53.0369 PM