{"uuid":"b9f2d0a4-930c-4f99-a5cc-9a75a79c1c20","historyId":"1ee66c37f44545e65a59a3dbc44247b","fullName":"SteeringCompanyAPI_TestCases.Test_Commissions_Cases.Valid_GET_all_Commissions_by_Qry_Rq_TC","labels":[{"name":"package","value":"SteeringCompanyAPI_TestCases.Test_Commissions_Cases"},{"name":"testClass","value":"SteeringCompanyAPI_TestCases.Test_Commissions_Cases"},{"name":"testMethod","value":"Valid_GET_all_Commissions_by_Qry_Rq_TC"},{"name":"parentSuite","value":"Suite"},{"name":"suite","value":"Test"},{"name":"subSuite","value":"SteeringCompanyAPI_TestCases.Test_Commissions_Cases"},{"name":"host","value":"TW-1056"},{"name":"thread","value":"12248@TW-1056.main(1)"},{"name":"framework","value":"testng"},{"name":"language","value":"java"},{"name":"story","value":"Retrieving All Active Commission with Pagination"},{"name":"severity","value":"critical"}],"links":[],"name":"TC002  -Commission- Perform Get all Commissions API with pagination with valid user name and password","status":"passed","statusDetails":{"known":false,"muted":false,"flaky":false},"stage":"finished","steps":[{"name":"Loaded Test Data: \"src/test/resources/testDataFiles/SteeringCompanyAPI_TestData/SteeringCompanyAPI_TestData.xlsx\".","status":"passed","stage":"finished","steps":[],"attachments":[{"name":"Test Data - Excel","source":"7fa77c86-f605-4c65-af55-d885ec9a4a1a-attachment.xlsx","type":"application/vnd.openxmlformats-officedocument.spreadsheetml.sheet"}],"parameters":[{"name":"logText","value":"Loaded Test Data: \"src/test/resources/testDataFiles/SteeringCompanyAPI_TestData/SteeringCompanyAPI_TestData.xlsx\"."},{"name":"attachments","value":"[[Test Data, Excel, java.io.FileInputStream@1403187e]]"}],"start":1675774551477,"stop":1675774551478},{"name":"Assertion Passed: Evaluating the actual response status code against the expected one...","status":"passed","stage":"finished","steps":[],"attachments":[],"parameters":[{"name":"customLog","value":"Assertion Passed: Evaluating the actual response status code against the expected one..."},{"name":"stepLog","value":"Assertion \"ValidateComparativeRelation\" PASSED. Expected \"200\" and Actual \"200\". Comparison Type \"EQUALS\". Validation Type \"POSITIVE\"."},{"name":"attachments","value":"null"}],"start":1675774552102,"stop":1675774552102},{"name":"Perform request \"POST | Target Status Code: 200 | Service URL: https://auth-demo.np.transporticonline.com/auth/realms/tic/protocol/openid-connect/token | Content Type: application/x-www-form-urlencoded | Response Time: 620ms\".","status":"passed","stage":"finished","steps":[],"attachments":[{"name":"API Request - Specifications","source":"ffa1628a-c858-484c-823c-c73bb271e84c-attachment"},{"name":"API Request - Body","source":"a375461f-1cc3-41ae-b60d-d0648c993be9-attachment"},{"name":"API Response - JSON Body","source":"5d2cd41f-8190-4755-850d-35d8e97ad098-attachment.json","type":"text/json"}],"parameters":[{"name":"logText","value":"Perform request \"POST | Target Status Code: 200 | Service URL: https://auth-demo.np.transporticonline.com/auth/realms/tic/protocol/openid-connect/token | Content Type: application/x-www-form-urlencoded | Response Time: 620ms\"."},{"name":"attachments","value":"[[API Request, Specifications, Headers:\r\n_______________\r\n\r\nContent-Type=application/x-www-form-urlencoded\r\n\r\n], [API Request, Body, java.io.ByteArrayInputStream@44eebd9f], null, [API Response, JSON Body, java.io.ByteArrayInputStream@3a37d3b6]]"}],"start":1675774552121,"stop":1675774552124},{"name":"Assertion Passed: Check Response Status Code is 200 and it is valid.","status":"passed","stage":"finished","steps":[],"attachments":[],"parameters":[{"name":"customLog","value":"Assertion Passed: Check Response Status Code is 200 and it is valid."},{"name":"stepLog","value":"Assertion \"ValidateComparativeRelation\" PASSED. Expected \"200\" and Actual \"200\". Comparison Type \"EQUALS\". Validation Type \"POSITIVE\"."},{"name":"attachments","value":"null"}],"start":1675774552124,"stop":1675774552124},{"name":"Loaded Test Data: \"src/test/resources/testDataFiles/SteeringCompanyAPI_TestData/SteeringCompanyAPI_TestData.xlsx\".","status":"passed","stage":"finished","steps":[],"attachments":[{"name":"Test Data - Excel","source":"cc208819-f15d-40ef-be8d-8e75256f7f48-attachment.xlsx","type":"application/vnd.openxmlformats-officedocument.spreadsheetml.sheet"}],"parameters":[{"name":"logText","value":"Loaded Test Data: \"src/test/resources/testDataFiles/SteeringCompanyAPI_TestData/SteeringCompanyAPI_TestData.xlsx\"."},{"name":"attachments","value":"[[Test Data, Excel, java.io.FileInputStream@4c3df4aa]]"}],"start":1675774552196,"stop":1675774552198},{"name":"Loaded Test Data: \"src/test/resources/testDataFiles/SteeringCompanyAPI_TestData/SteeringCompanyAPI_TestData.xlsx\".","status":"passed","stage":"finished","steps":[],"attachments":[{"name":"Test Data - Excel","source":"86af9aa2-9e30-48cd-97bd-2707e6727229-attachment.xlsx","type":"application/vnd.openxmlformats-officedocument.spreadsheetml.sheet"}],"parameters":[{"name":"logText","value":"Loaded Test Data: \"src/test/resources/testDataFiles/SteeringCompanyAPI_TestData/SteeringCompanyAPI_TestData.xlsx\"."},{"name":"attachments","value":"[[Test Data, Excel, java.io.FileInputStream@3b8bb9a0]]"}],"start":1675774552251,"stop":1675774552252},{"name":"Loaded Test Data: \"src/test/resources/testDataFiles/SteeringCompanyAPI_TestData/SteeringCompanyAPI_TestData.xlsx\".","status":"passed","stage":"finished","steps":[],"attachments":[{"name":"Test Data - Excel","source":"737924ba-225a-4e83-9257-0321afb8dbdf-attachment.xlsx","type":"application/vnd.openxmlformats-officedocument.spreadsheetml.sheet"}],"parameters":[{"name":"logText","value":"Loaded Test Data: \"src/test/resources/testDataFiles/SteeringCompanyAPI_TestData/SteeringCompanyAPI_TestData.xlsx\"."},{"name":"attachments","value":"[[Test Data, Excel, java.io.FileInputStream@61075589]]"}],"start":1675774552290,"stop":1675774552291},{"name":"Assertion Passed: Evaluating the actual response status code against the expected one...","status":"passed","stage":"finished","steps":[],"attachments":[],"parameters":[{"name":"customLog","value":"Assertion Passed: Evaluating the actual response status code against the expected one..."},{"name":"stepLog","value":"Assertion \"ValidateComparativeRelation\" PASSED. Expected \"200\" and Actual \"200\". Comparison Type \"EQUALS\". Validation Type \"POSITIVE\"."},{"name":"attachments","value":"null"}],"start":1675774553008,"stop":1675774553008},{"name":"Perform request \"GET | Target Status Code: 200 | Service URL: https://api-demo.np.transporticonline.com/steeringcompanies/v1/commissions | Content Type: */* | Response Time: 714ms\".","status":"passed","stage":"finished","steps":[],"attachments":[{"name":"API Request - Specifications","source":"f13ef973-7997-4fc9-8059-01d4954b69f1-attachment"},{"name":"API Response - JSON Body","source":"e14ab1d1-9d69-414c-b4d7-d9432ba6a11d-attachment.json","type":"text/json"}],"parameters":[{"name":"logText","value":"Perform request \"GET | Target Status Code: 200 | Service URL: https://api-demo.np.transporticonline.com/steeringcompanies/v1/commissions | Content Type: */* | Response Time: 714ms\"."},{"name":"attachments","value":"[[API Request, Specifications, Headers:\r\n_______________\r\n\r\nAuthorization=Bearer eyJhbGciOiJSUzI1NiIsInR5cCIgOiAiSldUIiwia2lkIiA6ICJjck9ORDFNdFVPVWhzS2Mtb0ppVFFmb0o1d1l4REF6Y3k0ZjNYZ0dveGdZIn0.eyJleHAiOjE2NzU3OTYxNDksImlhdCI6MTY3NTc3NDU0OSwianRpIjoiM2FmMGUwNTctZGQ3ZS00NGUzLTg5YjUtMjFjMjkxYTdhYmNiIiwiaXNzIjoiaHR0cHM6Ly9hdXRoLWRlbW8ubnAudHJhbnNwb3J0aWNvbmxpbmUuY29tL2F1dGgvcmVhbG1zL3RpYyIsImF1ZCI6ImFjY291bnQiLCJzdWIiOiI0ZTk3NmQ0NC1iM2ZkLTRjYTktODk1Ny0wYWJiODUwNzNhNzQiLCJ0eXAiOiJCZWFyZXIiLCJhenAiOiJ0aWMtYXBpIiwic2Vzc2lvbl9zdGF0ZSI6IjY3ODdmNzhkLWIzMDEtNDkxOC1hZGJiLTg4NTYyZmU3NzhiOCIsImFjciI6IjEiLCJhbGxvd2VkLW9yaWdpbnMiOlsiaHR0cHM6Ly9hcGktZGV2Lm5wLnRyYW5zcG9ydGljb25saW5lLmNvbSJdLCJyZWFsbV9hY2Nlc3MiOnsicm9sZXMiOlsib2ZmbGluZV9hY2Nlc3MiLCJkZWZhdWx0LXJvbGVzLXRpYyIsInVtYV9hdXRob3JpemF0aW9uIiwidXNlciJdfSwicmVzb3VyY2VfYWNjZXNzIjp7ImFjY291bnQiOnsicm9sZXMiOlsibWFuYWdlLWFjY291bnQiLCJtYW5hZ2UtYWNjb3VudC1saW5rcyIsInZpZXctcHJvZmlsZSJdfX0sInNjb3BlIjoiZW1haWwgcHJvZmlsZSIsInNpZCI6IjY3ODdmNzhkLWIzMDEtNDkxOC1hZGJiLTg4NTYyZmU3NzhiOCIsImVtYWlsX3ZlcmlmaWVkIjpmYWxzZSwicHJlZmVycmVkX3VzZXJuYW1lIjoidG9raGkiLCJ0Y0lkIjoiMzE5OTU3In0.VZ7G6NrhOAPg2JZ_aZc_d5ix1IE0FzLTf0l1eOnRifZs4dpMpArQ17zycdSWIGGN7dlT-B7P1_0I3rOgdhpLI5sm5xyuwtyGhMV5MUoIjKfUbZKXRYRQ0wFSB-THQTqa5NtFbxPQbBsPdv3ME3-3rzihjzyDrZwHTX6I6PeiXARJ6GrE7IoFgQY2g_5OAk08_eHNbzkizz6zPimzQesB5l7-nN9nWYst71CTLdtfgxthEZxxTa-p-r8y3p56VYx2L2kXwGn19SGFsGAoO2XlBGkqLya8G77dnUkveNZ3SVNqlRD9Y6arEDhnlcFqDoat7Wh6N3crIc0zmrI0EGOVsg\r\nContent-Type=*/*\r\n\r\nQuery Parameters:\r\n_______________\r\n\r\nsize=10\r\npage=test\r\n], null, [API Response, JSON Body, java.io.ByteArrayInputStream@140bb54d]]"}],"start":1675774553035,"stop":1675774553040},{"name":"Assertion Passed: \"200\" is equal to \"200\".","status":"passed","stage":"finished","steps":[],"attachments":[],"parameters":[{"name":"customLog","value":"Assertion Passed: \"200\" is equal to \"200\"."},{"name":"stepLog","value":"Assertion \"ValidateComparativeRelation\" PASSED. Expected \"200\" and Actual \"200\". Comparison Type \"EQUALS\". Validation Type \"POSITIVE\"."},{"name":"attachments","value":"null"}],"start":1675774553040,"stop":1675774553040},{"name":"Verification Passed: \"714\" is greater than or equal to \"1.1\".","status":"passed","stage":"finished","steps":[],"attachments":[],"parameters":[{"name":"customLog","value":"Verification Passed: \"714\" is greater than or equal to \"1.1\"."},{"name":"stepLog","value":"Verification \"ValidateComparativeRelation\" PASSED. Expected \"1.1\" and Actual \"714\". Comparison Type \"GREATER_THAN_OR_EQUALS\". Validation Type \"POSITIVE\"."},{"name":"attachments","value":"null"}],"start":1675774553040,"stop":1675774553040},{"name":"Verification Passed: \"714\" is less than or equal to \"30000\".","status":"passed","stage":"finished","steps":[],"attachments":[],"parameters":[{"name":"customLog","value":"Verification Passed: \"714\" is less than or equal to \"30000\"."},{"name":"stepLog","value":"Verification \"ValidateComparativeRelation\" PASSED. Expected \"30000\" and Actual \"714\". Comparison Type \"LESS_THAN_OR_EQUALS\". Validation Type \"POSITIVE\"."},{"name":"attachments","value":"null"}],"start":1675774553040,"stop":1675774553040},{"name":"Assertion Passed: \"{\"page\":0,\"size\":10,\"totalPages\":2,\"totalElements\":18,\"content\":[{\"otaCode\":\"ZowarOTA\",\"baseCommission\":3.0,\"addCommission\":0.0,\"lastUpdated\":\"2022-12-15T17:26:35.889109\",\"isActive\":true},{\"otaCode\":\"AlrajhiOTA\",\"baseCommission\":3.0,\"addCommission\":0.0,\"lastUpdated\":\"2022-12-15T17:21:34.550112\",\"isActive\":true},{\"otaCode\":\"0226_OTA\",\"baseCommission\":3.0,\"addCommission\":3.5,\"lastUpdated\":\"2022-12-15T17:26:06.5894\",\"isActive\":true},{\"otaCode\":\"ELAF_OTA\",\"baseCommission\":3.0,\"addCommission\":0.0,\"lastUpdated\":\"2022-12-12T15:49:49.939996\",\"isActive\":true},{\"otaCode\":\"HotelGate\",\"baseCommission\":3.0,\"addCommission\":3.125,\"lastUpdated\":\"2022-12-01T14:29:31.706037\",\"isActive\":false},{\"otaCode\":\"ZamzamOTA\",\"baseCommission\":3.0,\"addCommission\":0.0,\"lastUpdated\":\"2022-12-12T15:49:54.037276\",\"isActive\":false},{\"otaCode\":\"SafirTravelOTA\",\"baseCommission\":3.0,\"addCommission\":0.0,\"lastUpdated\":\"2022-12-12T15:50:08.792469\",\"isActive\":true},{\"otaCode\":\"HUBOOKING\",\"baseCommission\":3.0,\"addCommission\":0.0,\"lastUpdated\":\"2022-12-12T15:50:12.53256\",\"isActive\":true},{\"otaCode\":\"agoda\",\"baseCommission\":3.0,\"addCommission\":10.0,\"lastUpdated\":\"2023-02-07T15:55:29.785514\",\"isActive\":true},{\"otaCode\":\"Mawasim\",\"baseCommission\":3.0,\"addCommission\":0.0,\"lastUpdated\":\"2023-02-07T15:55:32.534103\",\"isActive\":true}]}\" contains \"content\".","status":"passed","stage":"finished","steps":[],"attachments":[{"name":"Validation Test Data - Expected Value","source":"9230927b-52fe-4ed9-9752-b67287d645ac-attachment"},{"name":"Validation Test Data - Actual Value","source":"031864a5-586f-4553-a4d7-dca1c530358e-attachment"}],"parameters":[{"name":"customLog","value":"Assertion Passed: \"{\"page\":0,\"size\":10,\"totalPages\":2,\"totalElements\":18,\"content\":[{\"otaCode\":\"ZowarOTA\",\"baseCommission\":3.0,\"addCommission\":0.0,\"lastUpdated\":\"2022-12-15T17:26:35.889109\",\"isActive\":true},{\"otaCode\":\"AlrajhiOTA\",\"baseCommission\":3.0,\"addCommission\":0.0,\"lastUpdated\":\"2022-12-15T17:21:34.550112\",\"isActive\":true},{\"otaCode\":\"0226_OTA\",\"baseCommission\":3.0,\"addCommission\":3.5,\"lastUpdated\":\"2022-12-15T17:26:06.5894\",\"isActive\":true},{\"otaCode\":\"ELAF_OTA\",\"baseCommission\":3.0,\"addCommission\":0.0,\"lastUpdated\":\"2022-12-12T15:49:49.939996\",\"isActive\":true},{\"otaCode\":\"HotelGate\",\"baseCommission\":3.0,\"addCommission\":3.125,\"lastUpdated\":\"2022-12-01T14:29:31.706037\",\"isActive\":false},{\"otaCode\":\"ZamzamOTA\",\"baseCommission\":3.0,\"addCommission\":0.0,\"lastUpdated\":\"2022-12-12T15:49:54.037276\",\"isActive\":false},{\"otaCode\":\"SafirTravelOTA\",\"baseCommission\":3.0,\"addCommission\":0.0,\"lastUpdated\":\"2022-12-12T15:50:08.792469\",\"isActive\":true},{\"otaCode\":\"HUBOOKING\",\"baseCommission\":3.0,\"addCommission\":0.0,\"lastUpdated\":\"2022-12-12T15:50:12.53256\",\"isActive\":true},{\"otaCode\":\"agoda\",\"baseCommission\":3.0,\"addCommission\":10.0,\"lastUpdated\":\"2023-02-07T15:55:29.785514\",\"isActive\":true},{\"otaCode\":\"Mawasim\",\"baseCommission\":3.0,\"addCommission\":0.0,\"lastUpdated\":\"2023-02-07T15:55:32.534103\",\"isActive\":true}]}\" contains \"content\"."},{"name":"stepLog","value":"Assertion \"ValidateEquals\" PASSED. Expected and Actual values are attached. Comparison Type \"CONTAINS\". Validation Type \"POSITIVE\"."},{"name":"attachments","value":"[[Validation Test Data, Expected Value, content], [Validation Test Data, Actual Value, {\"page\":0,\"size\":10,\"totalPages\":2,\"totalElements\":18,\"content\":[{\"otaCode\":\"ZowarOTA\",\"baseCommission\":3.0,\"addCommission\":0.0,\"lastUpdated\":\"2022-12-15T17:26:35.889109\",\"isActive\":true},{\"otaCode\":\"AlrajhiOTA\",\"baseCommission\":3.0,\"addCommission\":0.0,\"lastUpdated\":\"2022-12-15T17:21:34.550112\",\"isActive\":true},{\"otaCode\":\"0226_OTA\",\"baseCommission\":3.0,\"addCommission\":3.5,\"lastUpdated\":\"2022-12-15T17:26:06.5894\",\"isActive\":true},{\"otaCode\":\"ELAF_OTA\",\"baseCommission\":3.0,\"addCommission\":0.0,\"lastUpdated\":\"2022-12-12T15:49:49.939996\",\"isActive\":true},{\"otaCode\":\"HotelGate\",\"baseCommission\":3.0,\"addCommission\":3.125,\"lastUpdated\":\"2022-12-01T14:29:31.706037\",\"isActive\":false},{\"otaCode\":\"ZamzamOTA\",\"baseCommission\":3.0,\"addCommission\":0.0,\"lastUpdated\":\"2022-12-12T15:49:54.037276\",\"isActive\":false},{\"otaCode\":\"SafirTravelOTA\",\"baseCommission\":3.0,\"addCommission\":0.0,\"lastUpdated\":\"2022-12-12T15:50:08.792469\",\"isActive\":true},{\"otaCode\":\"HUBOOKING\",\"baseCommission\":3.0,\"addCommission\":0.0,\"lastUpdated\":\"2022-12-12T15:50:12.53256\",\"isActive\":true},{\"otaCode\":\"agoda\",\"baseCommission\":3.0,\"addCommission\":10.0,\"lastUpdated\":\"2023-02-07T15:55:29.785514\",\"isActive\":true},{\"otaCode\":\"Mawasim\",\"baseCommission\":3.0,\"addCommission\":0.0,\"lastUpdated\":\"2023-02-07T15:55:32.534103\",\"isActive\":true}]}]]"}],"start":1675774553040,"stop":1675774553043},{"name":"Assertion Passed: Check that content object is not null.","status":"passed","stage":"finished","steps":[],"attachments":[{"name":"Validation Test Data - Expected Value","source":"e09e60e2-ab6b-41fa-b184-a1c7f57e36ca-attachment"},{"name":"Validation Test Data - Actual Value","source":"187b4e9c-5a9c-463a-bec7-8e7bcd3a9124-attachment"}],"parameters":[{"name":"customLog","value":"Assertion Passed: Check that content object is not null."},{"name":"stepLog","value":"Assertion \"ValidateEquals\" PASSED. Expected and Actual values are attached. Comparison Type \"EQUALS\". Validation Type \"NEGATIVE\"."},{"name":"attachments","value":"[[Validation Test Data, Expected Value, null], [Validation Test Data, Actual Value, [{\"otaCode\":\"ZowarOTA\",\"baseCommission\":3.0,\"addCommission\":0.0,\"lastUpdated\":\"2022-12-15T17:26:35.889109\",\"isActive\":true},{\"otaCode\":\"AlrajhiOTA\",\"baseCommission\":3.0,\"addCommission\":0.0,\"lastUpdated\":\"2022-12-15T17:21:34.550112\",\"isActive\":true},{\"otaCode\":\"0226_OTA\",\"baseCommission\":3.0,\"addCommission\":3.5,\"lastUpdated\":\"2022-12-15T17:26:06.5894\",\"isActive\":true},{\"otaCode\":\"ELAF_OTA\",\"baseCommission\":3.0,\"addCommission\":0.0,\"lastUpdated\":\"2022-12-12T15:49:49.939996\",\"isActive\":true},{\"otaCode\":\"HotelGate\",\"baseCommission\":3.0,\"addCommission\":3.125,\"lastUpdated\":\"2022-12-01T14:29:31.706037\",\"isActive\":false},{\"otaCode\":\"ZamzamOTA\",\"baseCommission\":3.0,\"addCommission\":0.0,\"lastUpdated\":\"2022-12-12T15:49:54.037276\",\"isActive\":false},{\"otaCode\":\"SafirTravelOTA\",\"baseCommission\":3.0,\"addCommission\":0.0,\"lastUpdated\":\"2022-12-12T15:50:08.792469\",\"isActive\":true},{\"otaCode\":\"HUBOOKING\",\"baseCommission\":3.0,\"addCommission\":0.0,\"lastUpdated\":\"2022-12-12T15:50:12.53256\",\"isActive\":true},{\"otaCode\":\"agoda\",\"baseCommission\":3.0,\"addCommission\":10.0,\"lastUpdated\":\"2023-02-07T15:55:29.785514\",\"isActive\":true},{\"otaCode\":\"Mawasim\",\"baseCommission\":3.0,\"addCommission\":0.0,\"lastUpdated\":\"2023-02-07T15:55:32.534103\",\"isActive\":true}]]]"}],"start":1675774553047,"stop":1675774553050},{"name":"Assertion Passed: The API response schema matches that in this file \"src/test/resources/testDataFiles/Schemas/Commission_schema.json\".","status":"passed","stage":"finished","steps":[],"attachments":[{"name":"Validation Test Data - Expected JSON Value","source":"6c2e3085-06c2-49cd-9c28-d0c24a1684b3-attachment.json","type":"text/json"},{"name":"Validation Test Data - Actual JSON Value","source":"9cccf6d1-fc55-4eb5-93a4-cba2758cc11e-attachment.json","type":"text/json"}],"parameters":[{"name":"customLog","value":"Assertion Passed: The API response schema matches that in this file \"src/test/resources/testDataFiles/Schemas/Commission_schema.json\"."},{"name":"stepLog","value":"Assertion \"ValidateResponseFileSchema\" PASSED. Expected \"Response data should match the JSON File in this path 'C:\\eclipse-workspace\\MyProjects\\TASystemsAPIs\\src\\test\\resources\\testDataFiles\\Schemas\\Commission_schema.json'\" and Actual \"TRUE\". Comparison Type \"EQUALS\". Validation Type \"POSITIVE\"."},{"name":"attachments","value":"[[Validation Test Data, Expected JSON Value, java.io.ByteArrayInputStream@23829a8f], [Validation Test Data, Actual JSON Value, java.io.ByteArrayInputStream@5eeb3c53]]"}],"start":1675774553067,"stop":1675774553071}],"attachments":[{"name":"SHAFT Engine Logs - Current Method log: Valid_GET_all_Commissions_by_Qry_Rq_TC","source":"e3fb82ed-085a-4c1a-8292-26cf118b0145-attachment.txt","type":"text/plain"}],"parameters":[],"start":1675774551451,"stop":1675774553072}