{"uuid":"bc033e0a-eb3d-4ce9-861b-0f28c106c512","historyId":"3da8675260de4f0e72331833df441679","fullName":"SteeringCompanyAPI_TestCases.Test_Lookups_Cases.Valid_GET_all_cities_Lookups_Rq_TC","labels":[{"name":"package","value":"SteeringCompanyAPI_TestCases.Test_Lookups_Cases"},{"name":"testClass","value":"SteeringCompanyAPI_TestCases.Test_Lookups_Cases"},{"name":"testMethod","value":"Valid_GET_all_cities_Lookups_Rq_TC"},{"name":"parentSuite","value":"Suite"},{"name":"suite","value":"Test"},{"name":"subSuite","value":"SteeringCompanyAPI_TestCases.Test_Lookups_Cases"},{"name":"host","value":"TW-1056"},{"name":"thread","value":"16708@TW-1056.main(1)"},{"name":"framework","value":"testng"},{"name":"language","value":"java"}],"links":[],"name":"TC001 - Perform Get all cities API with valid user name and password","status":"passed","statusDetails":{"known":false,"muted":false,"flaky":false},"stage":"finished","steps":[{"name":"Loaded Test Data: \"src/test/resources/testDataFiles/SteeringCompanyAPI_TestData/SteeringCompanyAPI_TestData.xlsx\".","status":"passed","stage":"finished","steps":[],"attachments":[{"name":"Test Data - Excel","source":"a3038875-bb2b-4088-a255-a2c0f89579cb-attachment.xlsx","type":"application/vnd.openxmlformats-officedocument.spreadsheetml.sheet"}],"parameters":[{"name":"logText","value":"Loaded Test Data: \"src/test/resources/testDataFiles/SteeringCompanyAPI_TestData/SteeringCompanyAPI_TestData.xlsx\"."},{"name":"attachments","value":"[[Test Data, Excel, java.io.FileInputStream@6eeeb9da]]"}],"start":1673803706069,"stop":1673803706075},{"name":"Assertion Passed: Evaluating the actual response status code against the expected one...","status":"passed","stage":"finished","steps":[],"attachments":[],"parameters":[{"name":"customLog","value":"Assertion Passed: Evaluating the actual response status code against the expected one..."},{"name":"stepLog","value":"Assertion \"ValidateComparativeRelation\" PASSED. Expected \"200\" and Actual \"200\". Comparison Type \"EQUALS\". Validation Type \"POSITIVE\"."},{"name":"attachments","value":"null"}],"start":1673803708663,"stop":1673803708663},{"name":"Perform request \"POST | Target Status Code: 200 | Service URL: https://auth-demo.np.transporticonline.com/auth/realms/tic/protocol/openid-connect/token | Content Type: application/x-www-form-urlencoded | Response Time: 1331ms\".","status":"passed","stage":"finished","steps":[],"attachments":[{"name":"API Request - Specifications","source":"055e04a6-bebd-489c-9d47-6bf72e0f5893-attachment"},{"name":"API Request - Body","source":"ede52fb2-3ec6-4fdd-a99d-01485a28083f-attachment"},{"name":"API Response - JSON Body","source":"ae513690-9d99-4c28-a041-fc69a0150a06-attachment.json","type":"text/json"}],"parameters":[{"name":"logText","value":"Perform request \"POST | Target Status Code: 200 | Service URL: https://auth-demo.np.transporticonline.com/auth/realms/tic/protocol/openid-connect/token | Content Type: application/x-www-form-urlencoded | Response Time: 1331ms\"."},{"name":"attachments","value":"[[API Request, Specifications, Headers:\r\n_______________\r\n\r\nContent-Type=application/x-www-form-urlencoded\r\n\r\n], [API Request, Body, java.io.ByteArrayInputStream@61be2a65], null, [API Response, JSON Body, java.io.ByteArrayInputStream@f5ee0d8]]"}],"start":1673803709538,"stop":1673803709760},{"name":"Assertion Passed: Check Response Status Code is 200 and it is valid.","status":"passed","stage":"finished","steps":[],"attachments":[],"parameters":[{"name":"customLog","value":"Assertion Passed: Check Response Status Code is 200 and it is valid."},{"name":"stepLog","value":"Assertion \"ValidateComparativeRelation\" PASSED. Expected \"200\" and Actual \"200\". Comparison Type \"EQUALS\". Validation Type \"POSITIVE\"."},{"name":"attachments","value":"null"}],"start":1673803709761,"stop":1673803709761},{"name":"Loaded Test Data: \"src/test/resources/testDataFiles/SteeringCompanyAPI_TestData/SteeringCompanyAPI_TestData.xlsx\".","status":"passed","stage":"finished","steps":[],"attachments":[{"name":"Test Data - Excel","source":"2a398fdd-f001-4a3b-b8bb-f11099f04077-attachment.xlsx","type":"application/vnd.openxmlformats-officedocument.spreadsheetml.sheet"}],"parameters":[{"name":"logText","value":"Loaded Test Data: \"src/test/resources/testDataFiles/SteeringCompanyAPI_TestData/SteeringCompanyAPI_TestData.xlsx\"."},{"name":"attachments","value":"[[Test Data, Excel, java.io.FileInputStream@1c07b091]]"}],"start":1673803709833,"stop":1673803709835},{"name":"Assertion Passed: Evaluating the actual response status code against the expected one...","status":"passed","stage":"finished","steps":[],"attachments":[],"parameters":[{"name":"customLog","value":"Assertion Passed: Evaluating the actual response status code against the expected one..."},{"name":"stepLog","value":"Assertion \"ValidateComparativeRelation\" PASSED. Expected \"200\" and Actual \"200\". Comparison Type \"EQUALS\". Validation Type \"POSITIVE\"."},{"name":"attachments","value":"null"}],"start":1673803710582,"stop":1673803710582},{"name":"Perform request \"GET | Target Status Code: 200 | Service URL: https://api-demo.np.transporticonline.com/steeringcompanies/v1/lookups/cities | Content Type: */* | Response Time: 737ms\".","status":"passed","stage":"finished","steps":[],"attachments":[{"name":"API Request - Specifications","source":"dd44b820-1256-467b-99f6-742718e15212-attachment"},{"name":"API Response - JSON Body","source":"10df8a66-48b7-40bf-a021-ac057ceb366c-attachment.json","type":"text/json"}],"parameters":[{"name":"logText","value":"Perform request \"GET | Target Status Code: 200 | Service URL: https://api-demo.np.transporticonline.com/steeringcompanies/v1/lookups/cities | Content Type: */* | Response Time: 737ms\"."},{"name":"attachments","value":"[[API Request, Specifications, Headers:\r\n_______________\r\n\r\nAuthorization=Bearer eyJhbGciOiJSUzI1NiIsInR5cCIgOiAiSldUIiwia2lkIiA6ICJjck9ORDFNdFVPVWhzS2Mtb0ppVFFmb0o1d1l4REF6Y3k0ZjNYZ0dveGdZIn0.eyJleHAiOjE2NzM4MjUzMDgsImlhdCI6MTY3MzgwMzcwOCwianRpIjoiNzY5YThlMmItZGZkNy00YTlkLWI1NmUtM2VkYWZjMzU2MzkzIiwiaXNzIjoiaHR0cHM6Ly9hdXRoLWRlbW8ubnAudHJhbnNwb3J0aWNvbmxpbmUuY29tL2F1dGgvcmVhbG1zL3RpYyIsImF1ZCI6ImFjY291bnQiLCJzdWIiOiI0ZTk3NmQ0NC1iM2ZkLTRjYTktODk1Ny0wYWJiODUwNzNhNzQiLCJ0eXAiOiJCZWFyZXIiLCJhenAiOiJ0aWMtYXBpIiwic2Vzc2lvbl9zdGF0ZSI6ImQ2YTQxZjg0LTVjODQtNGE3NC1hZThmLTI4M2E2ZjIzOTUzZCIsImFjciI6IjEiLCJhbGxvd2VkLW9yaWdpbnMiOlsiaHR0cHM6Ly9hcGktZGV2Lm5wLnRyYW5zcG9ydGljb25saW5lLmNvbSJdLCJyZWFsbV9hY2Nlc3MiOnsicm9sZXMiOlsib2ZmbGluZV9hY2Nlc3MiLCJkZWZhdWx0LXJvbGVzLXRpYyIsInVtYV9hdXRob3JpemF0aW9uIiwidXNlciJdfSwicmVzb3VyY2VfYWNjZXNzIjp7ImFjY291bnQiOnsicm9sZXMiOlsibWFuYWdlLWFjY291bnQiLCJtYW5hZ2UtYWNjb3VudC1saW5rcyIsInZpZXctcHJvZmlsZSJdfX0sInNjb3BlIjoiZW1haWwgcHJvZmlsZSIsInNpZCI6ImQ2YTQxZjg0LTVjODQtNGE3NC1hZThmLTI4M2E2ZjIzOTUzZCIsImVtYWlsX3ZlcmlmaWVkIjpmYWxzZSwicHJlZmVycmVkX3VzZXJuYW1lIjoidG9raGkiLCJ0Y0lkIjoiMzE5OTU3In0.ElEIL_sWhlPF5UKDyRY8IqrRqjDTX4zIVWKraJi50q5CDfFInHDlYusR32QMPQUUpjKV1V0ZN-CibFuyV3rOCHEFdMlMUEh6k1-XxxfKmS5yR3ovHokxyXdLIkq2hdn2TTMrWmhQAVIBuk28qPxRR-fTr1kihkvjg4Yi9C2PT-Usqa_eXyv9lmJKRjMP4sR4eJx1LHGfvpsGcSOMsVDN_s9CZw-yAKGlXDIBdmCdybiRN4R6AxXf-BLljMvXfj7-j39ZK97e_IWPzBRzvFouwAcyg5IVyEsXAVDshuN6afYz7W_RRZtRsvShtxjoL7GFjl5mHGmqiVqdvsAugXj17Q\r\nContent-Type=*/*\r\n\r\n], null, [API Response, JSON Body, java.io.ByteArrayInputStream@6c43d4dd]]"}],"start":1673803710609,"stop":1673803710611},{"name":"Assertion Passed: \"200\" is equal to \"200\".","status":"passed","stage":"finished","steps":[],"attachments":[],"parameters":[{"name":"customLog","value":"Assertion Passed: \"200\" is equal to \"200\"."},{"name":"stepLog","value":"Assertion \"ValidateComparativeRelation\" PASSED. Expected \"200\" and Actual \"200\". Comparison Type \"EQUALS\". Validation Type \"POSITIVE\"."},{"name":"attachments","value":"null"}],"start":1673803710611,"stop":1673803710611},{"name":"Verification Passed: \"737\" is greater than or equal to \"1.1\".","status":"passed","stage":"finished","steps":[],"attachments":[],"parameters":[{"name":"customLog","value":"Verification Passed: \"737\" is greater than or equal to \"1.1\"."},{"name":"stepLog","value":"Verification \"ValidateComparativeRelation\" PASSED. Expected \"1.1\" and Actual \"737\". Comparison Type \"GREATER_THAN_OR_EQUALS\". Validation Type \"POSITIVE\"."},{"name":"attachments","value":"null"}],"start":1673803710612,"stop":1673803710612},{"name":"Verification Passed: \"737\" is less than or equal to \"10000\".","status":"passed","stage":"finished","steps":[],"attachments":[],"parameters":[{"name":"customLog","value":"Verification Passed: \"737\" is less than or equal to \"10000\"."},{"name":"stepLog","value":"Verification \"ValidateComparativeRelation\" PASSED. Expected \"10000\" and Actual \"737\". Comparison Type \"LESS_THAN_OR_EQUALS\". Validation Type \"POSITIVE\"."},{"name":"attachments","value":"null"}],"start":1673803710612,"stop":1673803710613},{"name":"Assertion Passed: \"{\"page\":0,\"size\":20,\"totalPages\":36,\"totalElements\":709,\"content\":[{\"id\":36,\"nameArabic\":\"كوالالمبور\",\"nameEnglish\":\"Kuala Lumpur\",\"isActive\":true,\"lastUpdated\":\"2022-06-02T01:21:49Z\",\"sectors\":null},{\"id\":849,\"nameArabic\":\"سولنجين\",\"nameEnglish\":\"Solngen\",\"isActive\":true,\"lastUpdated\":\"2022-06-02T01:37:02Z\",\"sectors\":null},{\"id\":1006,\"nameArabic\":\"بشكشكي\",\"nameEnglish\":\"FRUNZE\",\"isActive\":true,\"lastUpdated\":\"2022-06-02T00:20:05Z\",\"sectors\":null},{\"id\":985,\"nameArabic\":\"قندهار\",\"nameEnglish\":\"KANDAHAR\",\"isActive\":true,\"lastUpdated\":\"2022-06-02T00:25:20Z\",\"sectors\":null},{\"id\":736,\"nameArabic\":\"طبركا\",\"nameEnglish\":\"Tabrka\",\"isActive\":true,\"lastUpdated\":\"2022-06-02T01:16:50Z\",\"sectors\":null},{\"id\":953,\"nameArabic\":\"سوهاج\",\"nameEnglish\":\"Sohag\",\"isActive\":true,\"lastUpdated\":\"2022-06-02T00:25:24Z\",\"sectors\":null},{\"id\":816,\"nameArabic\":\"كوتشين\",\"nameEnglish\":\"Cochin\",\"isActive\":true,\"lastUpdated\":\"2022-06-02T01:06:13Z\",\"sectors\":null},{\"id\":789,\"nameArabic\":\"فيصل اباد\",\"nameEnglish\":\"Faisalabad\",\"isActive\":true,\"lastUpdated\":\"2022-06-02T01:27:12Z\",\"sectors\":null},{\"id\":1013,\"nameArabic\":\"كازان\",\"nameEnglish\":\"KAZAN\",\"isActive\":true,\"lastUpdated\":\"2022-06-02T00:37:19Z\",\"sectors\":null},{\"id\":794,\"nameArabic\":\"كايسيري\",\"nameEnglish\":\"KAYSERI\",\"isActive\":true,\"lastUpdated\":\"2022-06-02T01:21:58Z\",\"sectors\":null},{\"id\":764,\"nameArabic\":\"طنجه\",\"nameEnglish\":\"Tangier\",\"isActive\":true,\"lastUpdated\":\"2022-06-02T01:27:13Z\",\"sectors\":null},{\"id\":780,\"nameArabic\":\"شهيراز\",\"nameEnglish\":\"Shahyraz\",\"isActive\":true,\"lastUpdated\":\"2022-06-02T00:37:28Z\",\"sectors\":null},{\"id\":712,\"nameArabic\":\"طشقند\",\"nameEnglish\":\"Tashkent\",\"isActive\":true,\"lastUpdated\":\"2022-06-02T01:27:13Z\",\"sectors\":null},{\"id\":824,\"nameArabic\":\"سمكرند\",\"nameEnglish\":\"Samarqand\",\"isActive\":true,\"lastUpdated\":\"2022-06-02T00:37:28Z\",\"sectors\":null},{\"id\":993,\"nameArabic\":\"كرابي\",\"nameEnglish\":\"KRBI\",\"isActive\":true,\"lastUpdated\":\"2022-06-02T01:22:03Z\",\"sectors\":null},{\"id\":820,\"nameArabic\":\"كاليكوت\",\"nameEnglish\":\"CALICUT\",\"isActive\":true,\"lastUpdated\":\"2022-06-02T01:27:21Z\",\"sectors\":null},{\"id\":91,\"nameArabic\":\"كانو\",\"nameEnglish\":\"KANO\",\"isActive\":true,\"lastUpdated\":\"2022-06-02T01:22:03Z\",\"sectors\":null},{\"id\":125,\"nameArabic\":\"كابل\",\"nameEnglish\":\"Kabul\",\"isActive\":true,\"lastUpdated\":\"2022-06-02T00:42:58Z\",\"sectors\":null},{\"id\":34,\"nameArabic\":\"فيينا\",\"nameEnglish\":\"Vienna\",\"isActive\":true,\"lastUpdated\":\"2022-06-02T00:42:59Z\",\"sectors\":null},{\"id\":67,\"nameArabic\":\"صنعاء\",\"nameEnglish\":\"Sanaa\",\"isActive\":true,\"lastUpdated\":\"2022-06-02T00:55:27Z\",\"sectors\":null}]}\" contains \"content\".","status":"passed","stage":"finished","steps":[],"attachments":[{"name":"Validation Test Data - Expected Value","source":"22beed49-9784-4fd1-bbc5-c08216dec8e4-attachment"},{"name":"Validation Test Data - Actual Value","source":"2ea3ed43-d9fd-4764-a6c8-9dd4419bca3b-attachment"}],"parameters":[{"name":"customLog","value":"Assertion Passed: \"{\"page\":0,\"size\":20,\"totalPages\":36,\"totalElements\":709,\"content\":[{\"id\":36,\"nameArabic\":\"كوالالمبور\",\"nameEnglish\":\"Kuala Lumpur\",\"isActive\":true,\"lastUpdated\":\"2022-06-02T01:21:49Z\",\"sectors\":null},{\"id\":849,\"nameArabic\":\"سولنجين\",\"nameEnglish\":\"Solngen\",\"isActive\":true,\"lastUpdated\":\"2022-06-02T01:37:02Z\",\"sectors\":null},{\"id\":1006,\"nameArabic\":\"بشكشكي\",\"nameEnglish\":\"FRUNZE\",\"isActive\":true,\"lastUpdated\":\"2022-06-02T00:20:05Z\",\"sectors\":null},{\"id\":985,\"nameArabic\":\"قندهار\",\"nameEnglish\":\"KANDAHAR\",\"isActive\":true,\"lastUpdated\":\"2022-06-02T00:25:20Z\",\"sectors\":null},{\"id\":736,\"nameArabic\":\"طبركا\",\"nameEnglish\":\"Tabrka\",\"isActive\":true,\"lastUpdated\":\"2022-06-02T01:16:50Z\",\"sectors\":null},{\"id\":953,\"nameArabic\":\"سوهاج\",\"nameEnglish\":\"Sohag\",\"isActive\":true,\"lastUpdated\":\"2022-06-02T00:25:24Z\",\"sectors\":null},{\"id\":816,\"nameArabic\":\"كوتشين\",\"nameEnglish\":\"Cochin\",\"isActive\":true,\"lastUpdated\":\"2022-06-02T01:06:13Z\",\"sectors\":null},{\"id\":789,\"nameArabic\":\"فيصل اباد\",\"nameEnglish\":\"Faisalabad\",\"isActive\":true,\"lastUpdated\":\"2022-06-02T01:27:12Z\",\"sectors\":null},{\"id\":1013,\"nameArabic\":\"كازان\",\"nameEnglish\":\"KAZAN\",\"isActive\":true,\"lastUpdated\":\"2022-06-02T00:37:19Z\",\"sectors\":null},{\"id\":794,\"nameArabic\":\"كايسيري\",\"nameEnglish\":\"KAYSERI\",\"isActive\":true,\"lastUpdated\":\"2022-06-02T01:21:58Z\",\"sectors\":null},{\"id\":764,\"nameArabic\":\"طنجه\",\"nameEnglish\":\"Tangier\",\"isActive\":true,\"lastUpdated\":\"2022-06-02T01:27:13Z\",\"sectors\":null},{\"id\":780,\"nameArabic\":\"شهيراز\",\"nameEnglish\":\"Shahyraz\",\"isActive\":true,\"lastUpdated\":\"2022-06-02T00:37:28Z\",\"sectors\":null},{\"id\":712,\"nameArabic\":\"طشقند\",\"nameEnglish\":\"Tashkent\",\"isActive\":true,\"lastUpdated\":\"2022-06-02T01:27:13Z\",\"sectors\":null},{\"id\":824,\"nameArabic\":\"سمكرند\",\"nameEnglish\":\"Samarqand\",\"isActive\":true,\"lastUpdated\":\"2022-06-02T00:37:28Z\",\"sectors\":null},{\"id\":993,\"nameArabic\":\"كرابي\",\"nameEnglish\":\"KRBI\",\"isActive\":true,\"lastUpdated\":\"2022-06-02T01:22:03Z\",\"sectors\":null},{\"id\":820,\"nameArabic\":\"كاليكوت\",\"nameEnglish\":\"CALICUT\",\"isActive\":true,\"lastUpdated\":\"2022-06-02T01:27:21Z\",\"sectors\":null},{\"id\":91,\"nameArabic\":\"كانو\",\"nameEnglish\":\"KANO\",\"isActive\":true,\"lastUpdated\":\"2022-06-02T01:22:03Z\",\"sectors\":null},{\"id\":125,\"nameArabic\":\"كابل\",\"nameEnglish\":\"Kabul\",\"isActive\":true,\"lastUpdated\":\"2022-06-02T00:42:58Z\",\"sectors\":null},{\"id\":34,\"nameArabic\":\"فيينا\",\"nameEnglish\":\"Vienna\",\"isActive\":true,\"lastUpdated\":\"2022-06-02T00:42:59Z\",\"sectors\":null},{\"id\":67,\"nameArabic\":\"صنعاء\",\"nameEnglish\":\"Sanaa\",\"isActive\":true,\"lastUpdated\":\"2022-06-02T00:55:27Z\",\"sectors\":null}]}\" contains \"content\"."},{"name":"stepLog","value":"Assertion \"ValidateEquals\" PASSED. Expected and Actual values are attached. Comparison Type \"CONTAINS\". Validation Type \"POSITIVE\"."},{"name":"attachments","value":"[[Validation Test Data, Expected Value, content], [Validation Test Data, Actual Value, {\"page\":0,\"size\":20,\"totalPages\":36,\"totalElements\":709,\"content\":[{\"id\":36,\"nameArabic\":\"كوالالمبور\",\"nameEnglish\":\"Kuala Lumpur\",\"isActive\":true,\"lastUpdated\":\"2022-06-02T01:21:49Z\",\"sectors\":null},{\"id\":849,\"nameArabic\":\"سولنجين\",\"nameEnglish\":\"Solngen\",\"isActive\":true,\"lastUpdated\":\"2022-06-02T01:37:02Z\",\"sectors\":null},{\"id\":1006,\"nameArabic\":\"بشكشكي\",\"nameEnglish\":\"FRUNZE\",\"isActive\":true,\"lastUpdated\":\"2022-06-02T00:20:05Z\",\"sectors\":null},{\"id\":985,\"nameArabic\":\"قندهار\",\"nameEnglish\":\"KANDAHAR\",\"isActive\":true,\"lastUpdated\":\"2022-06-02T00:25:20Z\",\"sectors\":null},{\"id\":736,\"nameArabic\":\"طبركا\",\"nameEnglish\":\"Tabrka\",\"isActive\":true,\"lastUpdated\":\"2022-06-02T01:16:50Z\",\"sectors\":null},{\"id\":953,\"nameArabic\":\"سوهاج\",\"nameEnglish\":\"Sohag\",\"isActive\":true,\"lastUpdated\":\"2022-06-02T00:25:24Z\",\"sectors\":null},{\"id\":816,\"nameArabic\":\"كوتشين\",\"nameEnglish\":\"Cochin\",\"isActive\":true,\"lastUpdated\":\"2022-06-02T01:06:13Z\",\"sectors\":null},{\"id\":789,\"nameArabic\":\"فيصل اباد\",\"nameEnglish\":\"Faisalabad\",\"isActive\":true,\"lastUpdated\":\"2022-06-02T01:27:12Z\",\"sectors\":null},{\"id\":1013,\"nameArabic\":\"كازان\",\"nameEnglish\":\"KAZAN\",\"isActive\":true,\"lastUpdated\":\"2022-06-02T00:37:19Z\",\"sectors\":null},{\"id\":794,\"nameArabic\":\"كايسيري\",\"nameEnglish\":\"KAYSERI\",\"isActive\":true,\"lastUpdated\":\"2022-06-02T01:21:58Z\",\"sectors\":null},{\"id\":764,\"nameArabic\":\"طنجه\",\"nameEnglish\":\"Tangier\",\"isActive\":true,\"lastUpdated\":\"2022-06-02T01:27:13Z\",\"sectors\":null},{\"id\":780,\"nameArabic\":\"شهيراز\",\"nameEnglish\":\"Shahyraz\",\"isActive\":true,\"lastUpdated\":\"2022-06-02T00:37:28Z\",\"sectors\":null},{\"id\":712,\"nameArabic\":\"طشقند\",\"nameEnglish\":\"Tashkent\",\"isActive\":true,\"lastUpdated\":\"2022-06-02T01:27:13Z\",\"sectors\":null},{\"id\":824,\"nameArabic\":\"سمكرند\",\"nameEnglish\":\"Samarqand\",\"isActive\":true,\"lastUpdated\":\"2022-06-02T00:37:28Z\",\"sectors\":null},{\"id\":993,\"nameArabic\":\"كرابي\",\"nameEnglish\":\"KRBI\",\"isActive\":true,\"lastUpdated\":\"2022-06-02T01:22:03Z\",\"sectors\":null},{\"id\":820,\"nameArabic\":\"كاليكوت\",\"nameEnglish\":\"CALICUT\",\"isActive\":true,\"lastUpdated\":\"2022-06-02T01:27:21Z\",\"sectors\":null},{\"id\":91,\"nameArabic\":\"كانو\",\"nameEnglish\":\"KANO\",\"isActive\":true,\"lastUpdated\":\"2022-06-02T01:22:03Z\",\"sectors\":null},{\"id\":125,\"nameArabic\":\"كابل\",\"nameEnglish\":\"Kabul\",\"isActive\":true,\"lastUpdated\":\"2022-06-02T00:42:58Z\",\"sectors\":null},{\"id\":34,\"nameArabic\":\"فيينا\",\"nameEnglish\":\"Vienna\",\"isActive\":true,\"lastUpdated\":\"2022-06-02T00:42:59Z\",\"sectors\":null},{\"id\":67,\"nameArabic\":\"صنعاء\",\"nameEnglish\":\"Sanaa\",\"isActive\":true,\"lastUpdated\":\"2022-06-02T00:55:27Z\",\"sectors\":null}]}]]"}],"start":1673803710616,"stop":1673803710620},{"name":"Assertion Passed: Check that content object is not null.","status":"passed","stage":"finished","steps":[],"attachments":[{"name":"Validation Test Data - Expected Value","source":"4d4778be-aec4-4323-b39a-be9c0d5ef6a1-attachment"},{"name":"Validation Test Data - Actual Value","source":"220ede88-a421-439c-a3db-a4d3993dfa62-attachment"}],"parameters":[{"name":"customLog","value":"Assertion Passed: Check that content object is not null."},{"name":"stepLog","value":"Assertion \"ValidateEquals\" PASSED. Expected and Actual values are attached. Comparison Type \"EQUALS\". Validation Type \"NEGATIVE\"."},{"name":"attachments","value":"[[Validation Test Data, Expected Value, null], [Validation Test Data, Actual Value, [{\"id\":36,\"nameArabic\":\"كوالالمبور\",\"nameEnglish\":\"Kuala Lumpur\",\"isActive\":true,\"lastUpdated\":\"2022-06-02T01:21:49Z\",\"sectors\":null},{\"id\":849,\"nameArabic\":\"سولنجين\",\"nameEnglish\":\"Solngen\",\"isActive\":true,\"lastUpdated\":\"2022-06-02T01:37:02Z\",\"sectors\":null},{\"id\":1006,\"nameArabic\":\"بشكشكي\",\"nameEnglish\":\"FRUNZE\",\"isActive\":true,\"lastUpdated\":\"2022-06-02T00:20:05Z\",\"sectors\":null},{\"id\":985,\"nameArabic\":\"قندهار\",\"nameEnglish\":\"KANDAHAR\",\"isActive\":true,\"lastUpdated\":\"2022-06-02T00:25:20Z\",\"sectors\":null},{\"id\":736,\"nameArabic\":\"طبركا\",\"nameEnglish\":\"Tabrka\",\"isActive\":true,\"lastUpdated\":\"2022-06-02T01:16:50Z\",\"sectors\":null},{\"id\":953,\"nameArabic\":\"سوهاج\",\"nameEnglish\":\"Sohag\",\"isActive\":true,\"lastUpdated\":\"2022-06-02T00:25:24Z\",\"sectors\":null},{\"id\":816,\"nameArabic\":\"كوتشين\",\"nameEnglish\":\"Cochin\",\"isActive\":true,\"lastUpdated\":\"2022-06-02T01:06:13Z\",\"sectors\":null},{\"id\":789,\"nameArabic\":\"فيصل اباد\",\"nameEnglish\":\"Faisalabad\",\"isActive\":true,\"lastUpdated\":\"2022-06-02T01:27:12Z\",\"sectors\":null},{\"id\":1013,\"nameArabic\":\"كازان\",\"nameEnglish\":\"KAZAN\",\"isActive\":true,\"lastUpdated\":\"2022-06-02T00:37:19Z\",\"sectors\":null},{\"id\":794,\"nameArabic\":\"كايسيري\",\"nameEnglish\":\"KAYSERI\",\"isActive\":true,\"lastUpdated\":\"2022-06-02T01:21:58Z\",\"sectors\":null},{\"id\":764,\"nameArabic\":\"طنجه\",\"nameEnglish\":\"Tangier\",\"isActive\":true,\"lastUpdated\":\"2022-06-02T01:27:13Z\",\"sectors\":null},{\"id\":780,\"nameArabic\":\"شهيراز\",\"nameEnglish\":\"Shahyraz\",\"isActive\":true,\"lastUpdated\":\"2022-06-02T00:37:28Z\",\"sectors\":null},{\"id\":712,\"nameArabic\":\"طشقند\",\"nameEnglish\":\"Tashkent\",\"isActive\":true,\"lastUpdated\":\"2022-06-02T01:27:13Z\",\"sectors\":null},{\"id\":824,\"nameArabic\":\"سمكرند\",\"nameEnglish\":\"Samarqand\",\"isActive\":true,\"lastUpdated\":\"2022-06-02T00:37:28Z\",\"sectors\":null},{\"id\":993,\"nameArabic\":\"كرابي\",\"nameEnglish\":\"KRBI\",\"isActive\":true,\"lastUpdated\":\"2022-06-02T01:22:03Z\",\"sectors\":null},{\"id\":820,\"nameArabic\":\"كاليكوت\",\"nameEnglish\":\"CALICUT\",\"isActive\":true,\"lastUpdated\":\"2022-06-02T01:27:21Z\",\"sectors\":null},{\"id\":91,\"nameArabic\":\"كانو\",\"nameEnglish\":\"KANO\",\"isActive\":true,\"lastUpdated\":\"2022-06-02T01:22:03Z\",\"sectors\":null},{\"id\":125,\"nameArabic\":\"كابل\",\"nameEnglish\":\"Kabul\",\"isActive\":true,\"lastUpdated\":\"2022-06-02T00:42:58Z\",\"sectors\":null},{\"id\":34,\"nameArabic\":\"فيينا\",\"nameEnglish\":\"Vienna\",\"isActive\":true,\"lastUpdated\":\"2022-06-02T00:42:59Z\",\"sectors\":null},{\"id\":67,\"nameArabic\":\"صنعاء\",\"nameEnglish\":\"Sanaa\",\"isActive\":true,\"lastUpdated\":\"2022-06-02T00:55:27Z\",\"sectors\":null}]]]"}],"start":1673803710740,"stop":1673803710744},{"name":"Assertion Passed: The API response schema matches that in this file \"src/test/resources/testDataFiles/Schemas/Lookups_cities_schema.json\".","status":"passed","stage":"finished","steps":[],"attachments":[{"name":"Validation Test Data - Expected JSON Value","source":"acb8a3b6-1312-4fbf-aeb3-ac7d2f01640b-attachment.json","type":"text/json"},{"name":"Validation Test Data - Actual JSON Value","source":"ed09a2ea-c2e2-4083-a957-947391a7d4fa-attachment.json","type":"text/json"}],"parameters":[{"name":"customLog","value":"Assertion Passed: The API response schema matches that in this file \"src/test/resources/testDataFiles/Schemas/Lookups_cities_schema.json\"."},{"name":"stepLog","value":"Assertion \"ValidateResponseFileSchema\" PASSED. Expected \"Response data should match the JSON File in this path 'C:\\eclipse-workspace\\MyProjects\\TASystemsAPIs\\src\\test\\resources\\testDataFiles\\Schemas\\Lookups_cities_schema.json'\" and Actual \"TRUE\". Comparison Type \"EQUALS\". Validation Type \"POSITIVE\"."},{"name":"attachments","value":"[[Validation Test Data, Expected JSON Value, java.io.ByteArrayInputStream@7eab7479], [Validation Test Data, Actual JSON Value, java.io.ByteArrayInputStream@67ba7db3]]"}],"start":1673803711651,"stop":1673803711654}],"attachments":[{"name":"SHAFT Engine Logs - Current Method log: Valid_GET_all_cities_Lookups_Rq_TC","source":"98bb47da-fcaa-414f-b8c9-40feb4e2eb12-attachment.txt","type":"text/plain"}],"parameters":[],"start":1673803705926,"stop":1673803711660}