{"uuid":"bf781291-a11a-422f-bc40-8a073f58863f","historyId":"7653b5b2be0c5341c428857732852d7c","fullName":"SteeringCompanyAPI_TestCases.Test_PeriodProgramTemplate_Cases.Get_Valid_all_PeriodProgramTemplate_by_Qry_Rq_TC","labels":[{"name":"package","value":"SteeringCompanyAPI_TestCases.Test_PeriodProgramTemplate_Cases"},{"name":"testClass","value":"SteeringCompanyAPI_TestCases.Test_PeriodProgramTemplate_Cases"},{"name":"testMethod","value":"Get_Valid_all_PeriodProgramTemplate_by_Qry_Rq_TC"},{"name":"parentSuite","value":"Suite"},{"name":"suite","value":"Test"},{"name":"subSuite","value":"SteeringCompanyAPI_TestCases.Test_PeriodProgramTemplate_Cases"},{"name":"host","value":"TW-1056"},{"name":"thread","value":"12248@TW-1056.main(1)"},{"name":"framework","value":"testng"},{"name":"language","value":"java"},{"name":"story","value":"Retrieving All Active PeriodProgramTemplate with Pagination"},{"name":"severity","value":"critical"}],"links":[],"name":"TC002  -PeriodProgramTemplate-   Perform Get all PeriodProgramTemplate API with pagination with valid user name and password","status":"passed","statusDetails":{"known":false,"muted":false,"flaky":false},"stage":"finished","steps":[{"name":"Loaded Test Data: \"src/test/resources/testDataFiles/SteeringCompanyAPI_TestData/SteeringCompanyAPI_TestData.xlsx\".","status":"passed","stage":"finished","steps":[],"attachments":[{"name":"Test Data - Excel","source":"6f03c445-b252-4d1c-bab8-919dab17ff37-attachment.xlsx","type":"application/vnd.openxmlformats-officedocument.spreadsheetml.sheet"}],"parameters":[{"name":"logText","value":"Loaded Test Data: \"src/test/resources/testDataFiles/SteeringCompanyAPI_TestData/SteeringCompanyAPI_TestData.xlsx\"."},{"name":"attachments","value":"[[Test Data, Excel, java.io.FileInputStream@2bfdb3ec]]"}],"start":1675774651634,"stop":1675774651636},{"name":"Assertion Passed: Evaluating the actual response status code against the expected one...","status":"passed","stage":"finished","steps":[],"attachments":[],"parameters":[{"name":"customLog","value":"Assertion Passed: Evaluating the actual response status code against the expected one..."},{"name":"stepLog","value":"Assertion \"ValidateComparativeRelation\" PASSED. Expected \"200\" and Actual \"200\". Comparison Type \"EQUALS\". Validation Type \"POSITIVE\"."},{"name":"attachments","value":"null"}],"start":1675774652257,"stop":1675774652257},{"name":"Perform request \"POST | Target Status Code: 200 | Service URL: https://auth-demo.np.transporticonline.com/auth/realms/tic/protocol/openid-connect/token | Content Type: application/x-www-form-urlencoded | Response Time: 619ms\".","status":"passed","stage":"finished","steps":[],"attachments":[{"name":"API Request - Specifications","source":"8d8661f1-0d16-4dd6-9d3f-82e64ad4dc58-attachment"},{"name":"API Request - Body","source":"a7665eb4-1ae1-4266-be7f-de620c98dd25-attachment"},{"name":"API Response - JSON Body","source":"35deeddf-202b-4c10-843d-4626479de3d6-attachment.json","type":"text/json"}],"parameters":[{"name":"logText","value":"Perform request \"POST | Target Status Code: 200 | Service URL: https://auth-demo.np.transporticonline.com/auth/realms/tic/protocol/openid-connect/token | Content Type: application/x-www-form-urlencoded | Response Time: 619ms\"."},{"name":"attachments","value":"[[API Request, Specifications, Headers:\r\n_______________\r\n\r\nContent-Type=application/x-www-form-urlencoded\r\n\r\n], [API Request, Body, java.io.ByteArrayInputStream@6870a1ff], null, [API Response, JSON Body, java.io.ByteArrayInputStream@112a76bd]]"}],"start":1675774652281,"stop":1675774652284},{"name":"Assertion Passed: Check Response Status Code is 200 and it is valid.","status":"passed","stage":"finished","steps":[],"attachments":[],"parameters":[{"name":"customLog","value":"Assertion Passed: Check Response Status Code is 200 and it is valid."},{"name":"stepLog","value":"Assertion \"ValidateComparativeRelation\" PASSED. Expected \"200\" and Actual \"200\". Comparison Type \"EQUALS\". Validation Type \"POSITIVE\"."},{"name":"attachments","value":"null"}],"start":1675774652284,"stop":1675774652284},{"name":"Loaded Test Data: \"src/test/resources/testDataFiles/SteeringCompanyAPI_TestData/SteeringCompanyAPI_TestData.xlsx\".","status":"passed","stage":"finished","steps":[],"attachments":[{"name":"Test Data - Excel","source":"3d3aa985-cce5-4c40-8709-cd4182c4b6b7-attachment.xlsx","type":"application/vnd.openxmlformats-officedocument.spreadsheetml.sheet"}],"parameters":[{"name":"logText","value":"Loaded Test Data: \"src/test/resources/testDataFiles/SteeringCompanyAPI_TestData/SteeringCompanyAPI_TestData.xlsx\"."},{"name":"attachments","value":"[[Test Data, Excel, java.io.FileInputStream@53d1d689]]"}],"start":1675774652342,"stop":1675774652343},{"name":"Assertion Passed: Evaluating the actual response status code against the expected one...","status":"passed","stage":"finished","steps":[],"attachments":[],"parameters":[{"name":"customLog","value":"Assertion Passed: Evaluating the actual response status code against the expected one..."},{"name":"stepLog","value":"Assertion \"ValidateComparativeRelation\" PASSED. Expected \"200\" and Actual \"200\". Comparison Type \"EQUALS\". Validation Type \"POSITIVE\"."},{"name":"attachments","value":"null"}],"start":1675774652860,"stop":1675774652860},{"name":"Perform request \"GET | Target Status Code: 200 | Service URL: https://api-demo.np.transporticonline.com/steeringcompanies/v1/periodProgramTemplates | Content Type: */* | Response Time: 515ms\".","status":"passed","stage":"finished","steps":[],"attachments":[{"name":"API Request - Specifications","source":"9267fb7d-a028-4471-8aeb-4caacd13bf6c-attachment"},{"name":"API Response - JSON Body","source":"3dbefd22-8eba-4e68-960d-0b2aeacd27ea-attachment.json","type":"text/json"}],"parameters":[{"name":"logText","value":"Perform request \"GET | Target Status Code: 200 | Service URL: https://api-demo.np.transporticonline.com/steeringcompanies/v1/periodProgramTemplates | Content Type: */* | Response Time: 515ms\"."},{"name":"attachments","value":"[[API Request, Specifications, Headers:\r\n_______________\r\n\r\nAuthorization=Bearer eyJhbGciOiJSUzI1NiIsInR5cCIgOiAiSldUIiwia2lkIiA6ICJjck9ORDFNdFVPVWhzS2Mtb0ppVFFmb0o1d1l4REF6Y3k0ZjNYZ0dveGdZIn0.eyJleHAiOjE2NzU3OTYyNDksImlhdCI6MTY3NTc3NDY0OSwianRpIjoiZTkxZTY5YmMtZTM5My00ZmRjLTk3ZGMtNmE3ZDgxMjE5MjgyIiwiaXNzIjoiaHR0cHM6Ly9hdXRoLWRlbW8ubnAudHJhbnNwb3J0aWNvbmxpbmUuY29tL2F1dGgvcmVhbG1zL3RpYyIsImF1ZCI6ImFjY291bnQiLCJzdWIiOiI0ZTk3NmQ0NC1iM2ZkLTRjYTktODk1Ny0wYWJiODUwNzNhNzQiLCJ0eXAiOiJCZWFyZXIiLCJhenAiOiJ0aWMtYXBpIiwic2Vzc2lvbl9zdGF0ZSI6IjA2NGRlOGU5LWYwNWItNDY4My1hNTViLTc2NDQ1NTMzZGUxNCIsImFjciI6IjEiLCJhbGxvd2VkLW9yaWdpbnMiOlsiaHR0cHM6Ly9hcGktZGV2Lm5wLnRyYW5zcG9ydGljb25saW5lLmNvbSJdLCJyZWFsbV9hY2Nlc3MiOnsicm9sZXMiOlsib2ZmbGluZV9hY2Nlc3MiLCJkZWZhdWx0LXJvbGVzLXRpYyIsInVtYV9hdXRob3JpemF0aW9uIiwidXNlciJdfSwicmVzb3VyY2VfYWNjZXNzIjp7ImFjY291bnQiOnsicm9sZXMiOlsibWFuYWdlLWFjY291bnQiLCJtYW5hZ2UtYWNjb3VudC1saW5rcyIsInZpZXctcHJvZmlsZSJdfX0sInNjb3BlIjoiZW1haWwgcHJvZmlsZSIsInNpZCI6IjA2NGRlOGU5LWYwNWItNDY4My1hNTViLTc2NDQ1NTMzZGUxNCIsImVtYWlsX3ZlcmlmaWVkIjpmYWxzZSwicHJlZmVycmVkX3VzZXJuYW1lIjoidG9raGkiLCJ0Y0lkIjoiMzE5OTU3In0.A4xV8QpogSpUzLN2Yd0Fm8_R2d5Go_PKUufIN_N9QUuCPzzX5bvepQYK_eSPwuIa_dz5vymYgRfmdYMJp4Q12MgRPSwc5Vg2BMhcvHReyvucu0-TVqhu9aDvMCuS0orm7Kngg1_XyqvEbFkSOiApXZg6Xfwum8mDgEiaW-opusaViTtxE1uv6ct3QamiAaH9KCh0xZDr0zy94FQC4KzHeXeh1tCX_xY8zOc1SPjIxaY6l8cUNIHp-rSdZJBh4SuWvsez5RjUIGuQO_sYaRB3Pc-icT0m3DdvCO1k5BAjp0MST19AjSJGXXOQ-BVJ-ojUu-t8Zm-vdU4kDxf2dodOYA\r\nContent-Type=*/*\r\n\r\nQuery Parameters:\r\n_______________\r\n\r\nsize=1\r\npage=0\r\n], null, [API Response, JSON Body, java.io.ByteArrayInputStream@6c5a438e]]"}],"start":1675774652877,"stop":1675774652882},{"name":"Assertion Passed: \"200\" is equal to \"200\".","status":"passed","stage":"finished","steps":[],"attachments":[],"parameters":[{"name":"customLog","value":"Assertion Passed: \"200\" is equal to \"200\"."},{"name":"stepLog","value":"Assertion \"ValidateComparativeRelation\" PASSED. Expected \"200\" and Actual \"200\". Comparison Type \"EQUALS\". Validation Type \"POSITIVE\"."},{"name":"attachments","value":"null"}],"start":1675774652883,"stop":1675774652883},{"name":"Verification Passed: \"515\" is greater than or equal to \"1.1\".","status":"passed","stage":"finished","steps":[],"attachments":[],"parameters":[{"name":"customLog","value":"Verification Passed: \"515\" is greater than or equal to \"1.1\"."},{"name":"stepLog","value":"Verification \"ValidateComparativeRelation\" PASSED. Expected \"1.1\" and Actual \"515\". Comparison Type \"GREATER_THAN_OR_EQUALS\". Validation Type \"POSITIVE\"."},{"name":"attachments","value":"null"}],"start":1675774652883,"stop":1675774652883},{"name":"Verification Passed: \"515\" is less than or equal to \"10000\".","status":"passed","stage":"finished","steps":[],"attachments":[],"parameters":[{"name":"customLog","value":"Verification Passed: \"515\" is less than or equal to \"10000\"."},{"name":"stepLog","value":"Verification \"ValidateComparativeRelation\" PASSED. Expected \"10000\" and Actual \"515\". Comparison Type \"LESS_THAN_OR_EQUALS\". Validation Type \"POSITIVE\"."},{"name":"attachments","value":"null"}],"start":1675774652883,"stop":1675774652883},{"name":"Assertion Passed: \"{\"page\":0,\"size\":1,\"totalPages\":93,\"totalElements\":93,\"content\":[{\"id\":213,\"seasonType\":\"umrah\",\"saleSystem\":\"GDS\",\"programType\":\"Routes\",\"programMechanism\":\"reservations\",\"routeId\":60,\"season\":1444,\"vehicleTypeId\":4,\"vehicleCategoryId\":1,\"minimumModelYear\":2010,\"maximumModelYear\":2022,\"minimumVehiclePricePer\":1200,\"minimumSeat\":5,\"maximumSeat\":9,\"templatePeriodStartDate\":\"2022-09-05\",\"templatePeriodEndDate\":\"2022-09-12\",\"templatePeriodMaximumQuota\":100,\"isActive\":true}]}\" contains \"content\".","status":"passed","stage":"finished","steps":[],"attachments":[],"parameters":[{"name":"customLog","value":"Assertion Passed: \"{\"page\":0,\"size\":1,\"totalPages\":93,\"totalElements\":93,\"content\":[{\"id\":213,\"seasonType\":\"umrah\",\"saleSystem\":\"GDS\",\"programType\":\"Routes\",\"programMechanism\":\"reservations\",\"routeId\":60,\"season\":1444,\"vehicleTypeId\":4,\"vehicleCategoryId\":1,\"minimumModelYear\":2010,\"maximumModelYear\":2022,\"minimumVehiclePricePer\":1200,\"minimumSeat\":5,\"maximumSeat\":9,\"templatePeriodStartDate\":\"2022-09-05\",\"templatePeriodEndDate\":\"2022-09-12\",\"templatePeriodMaximumQuota\":100,\"isActive\":true}]}\" contains \"content\"."},{"name":"stepLog","value":"Assertion \"ValidateEquals\" PASSED. Expected \"content\" and Actual \"{\"page\":0,\"size\":1,\"totalPages\":93,\"totalElements\":93,\"content\":[{\"id\":213,\"seasonType\":\"umrah\",\"saleSystem\":\"GDS\",\"programType\":\"Routes\",\"programMechanism\":\"reservations\",\"routeId\":60,\"season\":1444,\"vehicleTypeId\":4,\"vehicleCategoryId\":1,\"minimumModelYear\":2010,\"maximumModelYear\":2022,\"minimumVehiclePricePer\":1200,\"minimumSeat\":5,\"maximumSeat\":9,\"templatePeriodStartDate\":\"2022-09-05\",\"templatePeriodEndDate\":\"2022-09-12\",\"templatePeriodMaximumQuota\":100,\"isActive\":true}]}\". Comparison Type \"CONTAINS\". Validation Type \"POSITIVE\"."},{"name":"attachments","value":"null"}],"start":1675774652883,"stop":1675774652884},{"name":"Assertion Passed: Check that content object is not null.","status":"passed","stage":"finished","steps":[],"attachments":[],"parameters":[{"name":"customLog","value":"Assertion Passed: Check that content object is not null."},{"name":"stepLog","value":"Assertion \"ValidateEquals\" PASSED. Expected \"null\" and Actual \"[{\"id\":213,\"seasonType\":\"umrah\",\"saleSystem\":\"GDS\",\"programType\":\"Routes\",\"programMechanism\":\"reservations\",\"routeId\":60,\"season\":1444,\"vehicleTypeId\":4,\"vehicleCategoryId\":1,\"minimumModelYear\":2010,\"maximumModelYear\":2022,\"minimumVehiclePricePer\":1200,\"minimumSeat\":5,\"maximumSeat\":9,\"templatePeriodStartDate\":\"2022-09-05\",\"templatePeriodEndDate\":\"2022-09-12\",\"templatePeriodMaximumQuota\":100,\"isActive\":true}]\". Comparison Type \"EQUALS\". Validation Type \"NEGATIVE\"."},{"name":"attachments","value":"null"}],"start":1675774652885,"stop":1675774652885},{"name":"Assertion Passed: The API response schema matches that in this file \"src/test/resources/testDataFiles/Schemas/PeriodProgramTemplates_schema.json\".","status":"passed","stage":"finished","steps":[],"attachments":[{"name":"Validation Test Data - Expected JSON Value","source":"23f68ab7-e954-464f-bf90-4d833f7f0334-attachment.json","type":"text/json"},{"name":"Validation Test Data - Actual JSON Value","source":"f5cea620-5298-4663-9b62-a889242c435d-attachment.json","type":"text/json"}],"parameters":[{"name":"customLog","value":"Assertion Passed: The API response schema matches that in this file \"src/test/resources/testDataFiles/Schemas/PeriodProgramTemplates_schema.json\"."},{"name":"stepLog","value":"Assertion \"ValidateResponseFileSchema\" PASSED. Expected \"Response data should match the JSON File in this path 'C:\\eclipse-workspace\\MyProjects\\TASystemsAPIs\\src\\test\\resources\\testDataFiles\\Schemas\\PeriodProgramTemplates_schema.json'\" and Actual \"TRUE\". Comparison Type \"EQUALS\". Validation Type \"POSITIVE\"."},{"name":"attachments","value":"[[Validation Test Data, Expected JSON Value, java.io.ByteArrayInputStream@7f980a9b], [Validation Test Data, Actual JSON Value, java.io.ByteArrayInputStream@7f851866]]"}],"start":1675774652894,"stop":1675774652898}],"attachments":[{"name":"SHAFT Engine Logs - Current Method log: Get_Valid_all_PeriodProgramTemplate_by_Qry_Rq_TC","source":"3899152f-3bd8-442a-b963-f74fd4e3fccd-attachment.txt","type":"text/plain"}],"parameters":[],"start":1675774651595,"stop":1675774652900}