[ReportManager] Setting discrete logging to: "false" @03-10-2022 13:40:33.0705 PM

################################################################################################################################################
Starting Execution:	"12 out of 13" test cases in the current suite
Test Method:		"SteeringCompanyAPI_TestCases.Test_Case.Valid_GET_all_vehicleTypes_Lookups_Rq_TC"
################################################################################################################################################
[ReportManager] Setting discrete logging to: "false" @03-10-2022 13:40:33.0705 PM
[ReportManager] Setting discrete logging to: "true" @03-10-2022 13:40:34.0345 PM
[ReportManager] Response status code: "200", status line: "HTTP/1.1 200 OK" @03-10-2022 13:40:34.0345 PM
[ReportManager] Assertion Passed: Evaluating the actual response status code against the expected one... @03-10-2022 13:40:34.0346 PM
[ReportManager] Setting discrete logging to: "false" @03-10-2022 13:40:34.0346 PM
[ReportManager] Perform request "POST | Target Status Code: 200 | Service URL: https://auth-demo.np.transporticonline.com/auth/realms/tic/protocol/openid-connect/token | Content Type: application/x-www-form-urlencoded | Response Time: 637ms". @03-10-2022 13:40:34.0365 PM
[ReportManager] Successfully created attachment "API Request - Specifications" @03-10-2022 13:40:34.0367 PM
[ReportManager] Successfully created attachment "API Request - Body" @03-10-2022 13:40:34.0370 PM
[ReportManager] Successfully created attachment "API Response - JSON Body" @03-10-2022 13:40:34.0371 PM
[ReportManager] Assertion Passed: "200" is equal to "200". @03-10-2022 13:40:34.0372 PM
[ReportManager] Verification Passed: "637" is greater than or equal to "1.1". @03-10-2022 13:40:34.0372 PM
[ReportManager] Verification Passed: "637" is less than or equal to "10000". @03-10-2022 13:40:34.0372 PM
[ReportManager] Assertion Passed: "{"access_token":"eyJhbGciOiJSUzI1NiIsInR5cCIgOiAiSldUIiwia2lkIiA6ICJjck9ORDFNdFVPVWhzS2Mtb0ppVFFmb0o1d1l4REF6Y3k0ZjNYZ0dveGdZIn0.eyJleHAiOjE2NjQ3OTc1MzIsImlhdCI6MTY2NDc5NzIzMiwianRpIjoiYjM3MjMyYTItN2U5ZC00NTJkLThiN2YtNDdhOGM1MWI1MzJlIiwiaXNzIjoiaHR0cHM6Ly9hdXRoLWRlbW8ubnAudHJhbnNwb3J0aWNvbmxpbmUuY29tL2F1dGgvcmVhbG1zL3RpYyIsImF1ZCI6ImFjY291bnQiLCJzdWIiOiI0ZTk3NmQ0NC1iM2ZkLTRjYTktODk1Ny0wYWJiODUwNzNhNzQiLCJ0eXAiOiJCZWFyZXIiLCJhenAiOiJ0aWMtYXBpIiwic2Vzc2lvbl9zdGF0ZSI6IjM5NGZhNzhkLWIzMDYtNDUyNC1iODlhLTU1YzRhMDE4YWY0OSIsImFjciI6IjEiLCJhbGxvd2VkLW9yaWdpbnMiOlsiaHR0cHM6Ly9hcGktZGV2Lm5wLnRyYW5zcG9ydGljb25saW5lLmNvbSJdLCJyZWFsbV9hY2Nlc3MiOnsicm9sZXMiOlsib2ZmbGluZV9hY2Nlc3MiLCJkZWZhdWx0LXJvbGVzLXRpYyIsInVtYV9hdXRob3JpemF0aW9uIiwidXNlciJdfSwicmVzb3VyY2VfYWNjZXNzIjp7ImFjY291bnQiOnsicm9sZXMiOlsibWFuYWdlLWFjY291bnQiLCJtYW5hZ2UtYWNjb3VudC1saW5rcyIsInZpZXctcHJvZmlsZSJdfX0sInNjb3BlIjoiZW1haWwgcHJvZmlsZSIsInNpZCI6IjM5NGZhNzhkLWIzMDYtNDUyNC1iODlhLTU1YzRhMDE4YWY0OSIsImVtYWlsX3ZlcmlmaWVkIjpmYWxzZSwicHJlZmVycmVkX3VzZXJuYW1lIjoidG9raGkiLCJ0Y0lkIjoiMzE5OTU3In0.NgXX2LRqSroayUurEzKhKVvW9d3D10nW8ll2LCm8XXot37wY23JhnaHiYGydMm0T4HTOUhrTgwpTxtFMwFJ99ZFrnfORiC75lmc0tcx-lkYU-6Y8BOcSAcK2U98pjfU4lx1rFSYT0LEIi8c8dDfKdiANhD_g1bUFlUW2bx192Ta29pLr0nr4dXotFREqGfwu_TVRZdoo0Fiun03AIL8HW1EsVXup0AJEMtEDVImtmBRMuFVckfXwFA9IP2-LEwl1wTTA9y-g_WNxBPGGu-Tfiyq8wFBpNxH6Ljgfg_OVRUl0flxK_QE2jsGhq3Maxv351fOVXrXkIWMP91Qnt-o26w","expires_in":300,"refresh_expires_in":1800,"refresh_token":"eyJhbGciOiJIUzI1NiIsInR5cCIgOiAiSldUIiwia2lkIiA6ICJkMTFjNTY4Yi1iMjAyLTQzYjgtYTBiMy1hYWI4ZWMyYWQzZDEifQ.eyJleHAiOjE2NjQ3OTkwMzIsImlhdCI6MTY2NDc5NzIzMiwianRpIjoiYWM1MjQwN2ItNjliYi00ZTkyLTgzODUtOTZkZTU5NGI0ZTYyIiwiaXNzIjoiaHR0cHM6Ly9hdXRoLWRlbW8ubnAudHJhbnNwb3J0aWNvbmxpbmUuY29tL2F1dGgvcmVhbG1zL3RpYyIsImF1ZCI6Imh0dHBzOi8vYXV0aC1kZW1vLm5wLnRyYW5zcG9ydGljb25saW5lLmNvbS9hdXRoL3JlYWxtcy90aWMiLCJzdWIiOiI0ZTk3NmQ0NC1iM2ZkLTRjYTktODk1Ny0wYWJiODUwNzNhNzQiLCJ0eXAiOiJSZWZyZXNoIiwiYXpwIjoidGljLWFwaSIsInNlc3Npb25fc3RhdGUiOiIzOTRmYTc4ZC1iMzA2LTQ1MjQtYjg5YS01NWM0YTAxOGFmNDkiLCJzY29wZSI6ImVtYWlsIHByb2ZpbGUiLCJzaWQiOiIzOTRmYTc4ZC1iMzA2LTQ1MjQtYjg5YS01NWM0YTAxOGFmNDkifQ.S26XhL9aE_33bijJ7rVGLRSTnoJaaR0LvgaEH0FQyRA","token_type":"Bearer","not-before-policy":0,"session_state":"394fa78d-b306-4524-b89a-55c4a018af49","scope":"email profile"}" contains "access_token". @03-10-2022 13:40:34.0373 PM
[ReportManager] Successfully created attachment "Validation Test Data - Expected Value" @03-10-2022 13:40:34.0374 PM
[ReportManager] Successfully created attachment "Validation Test Data - Actual Value" @03-10-2022 13:40:34.0375 PM
[ReportManager] Get response jsonvalue "access_token". @03-10-2022 13:40:34.0376 PM
[ReportManager] Assertion Passed: Check that Access token is not null. @03-10-2022 13:40:34.0377 PM
[ReportManager] Successfully created attachment "Validation Test Data - Expected Value" @03-10-2022 13:40:34.0379 PM
[ReportManager] Successfully created attachment "Validation Test Data - Actual Value" @03-10-2022 13:40:34.0380 PM
[ReportManager] File Action "DoesFileExist" successfully performed. With the following test data "File Path: "Token_schema.json"". @03-10-2022 13:40:34.0380 PM
[ReportManager] File Action "DoesFileExist" successfully performed. With the following test data "File Path: "src/test/resources/testDataFiles/Token_schema.json"". @03-10-2022 13:40:34.0381 PM
[ReportManager] File Action "GetAbsolutePath" successfully performed. With the following test data "Relative Folder Path: "src/test/resources/testDataFiles/Token_schema.json"". @03-10-2022 13:40:34.0381 PM
[ReportManager] File Action "DoesFileExist" successfully performed. With the following test data "File Path: "C:\eclipse-workspace\MyProjects\TASystemsAPIs\src\test\resources\testDataFiles\Token_schema.json"". @03-10-2022 13:40:34.0386 PM
[ReportManager] File Action "GetAbsolutePath" successfully performed. With the following test data "Relative Folder Path: "C:\eclipse-workspace\MyProjects\TASystemsAPIs\src\test\resources\testDataFiles\Token_schema.json"". @03-10-2022 13:40:34.0386 PM
[ReportManager] File Action "ReadFromFile" successfully performed. With the following test data "File Path: "C:\eclipse-workspace\MyProjects\TASystemsAPIs\src\test\resources\testDataFiles\Token_schema.json"". @03-10-2022 13:40:34.0387 PM
[ReportManager] Assertion Passed: The API response schema matches that in this file "src/test/resources/testDataFiles/Token_schema.json". @03-10-2022 13:40:34.0388 PM
[ReportManager] Successfully created attachment "Validation Test Data - Expected JSON Value" @03-10-2022 13:40:34.0389 PM
[ReportManager] Successfully created attachment "Validation Test Data - Actual JSON Value" @03-10-2022 13:40:34.0390 PM
[ReportManager] Verification Passed: "637" is greater than or equal to "1.1". @03-10-2022 13:40:34.0403 PM
[ReportManager] Verification Passed: "637" is less than or equal to "10000". @03-10-2022 13:40:34.0404 PM
[ReportManager] Setting discrete logging to: "true" @03-10-2022 13:40:34.0981 PM
[ReportManager] Response status code: "200", status line: "HTTP/1.1 200 " @03-10-2022 13:40:34.0981 PM
[ReportManager] Assertion Passed: Evaluating the actual response status code against the expected one... @03-10-2022 13:40:34.0981 PM
[ReportManager] Setting discrete logging to: "false" @03-10-2022 13:40:34.0981 PM
[ReportManager] Perform request "GET | Target Status Code: 200 | Service URL: https://api-demo.np.transporticonline.com/steeringcompanies/v1/lookups/vehicleTypes | Content Type: */* | Response Time: 559ms". @03-10-2022 13:40:34.0997 PM
[ReportManager] Successfully created attachment "API Request - Specifications" @03-10-2022 13:40:34.0998 PM
[ReportManager] Successfully created attachment "API Response - JSON Body" @03-10-2022 13:40:35.0000 PM
[ReportManager] Assertion Passed: "200" is equal to "200". @03-10-2022 13:40:35.0001 PM
[ReportManager] Verification Passed: "559" is greater than or equal to "1.1". @03-10-2022 13:40:35.0001 PM
[ReportManager] Verification Passed: "559" is less than or equal to "10000". @03-10-2022 13:40:35.0002 PM
[ReportManager] Assertion Passed: "{"page":0,"size":2147483647,"totalPages":1,"totalElements":4,"content":[{"id":1,"nameArabic":"????? ?????","nameEnglish":"Sedan Car","isActive":true,"lastUpdated":"2019-12-15T12:21:55Z","maximumCapacity":4,"sectors":null},{"id":4,"nameArabic":"???","nameEnglish":"Van","isActive":true,"lastUpdated":"2020-01-21T07:57:12Z","maximumCapacity":15,"sectors":null},{"id":2,"nameArabic":"????? ???","nameEnglish":"SUV Car","isActive":true,"lastUpdated":"2019-12-15T12:22:01Z","maximumCapacity":7,"sectors":null},{"id":3,"nameArabic":"?????","nameEnglish":"Bus","isActive":true,"lastUpdated":"2020-01-05T18:27:40Z","maximumCapacity":55,"sectors":null}]}" contains "content". @03-10-2022 13:40:35.0002 PM
[ReportManager] Successfully created attachment "Validation Test Data - Expected Value" @03-10-2022 13:40:35.0004 PM
[ReportManager] Successfully created attachment "Validation Test Data - Actual Value" @03-10-2022 13:40:35.0005 PM
[ReportManager] Get response jsonvalue "content". @03-10-2022 13:40:35.0007 PM
[ReportManager] Assertion Passed: Check that content object is not null. @03-10-2022 13:40:35.0008 PM
[ReportManager] Successfully created attachment "Validation Test Data - Expected Value" @03-10-2022 13:40:35.0009 PM
[ReportManager] Successfully created attachment "Validation Test Data - Actual Value" @03-10-2022 13:40:35.0011 PM
[ReportManager] File Action "DoesFileExist" successfully performed. With the following test data "File Path: "Lookups_vehicleTypes_schema.json"". @03-10-2022 13:40:35.0011 PM
[ReportManager] File Action "DoesFileExist" successfully performed. With the following test data "File Path: "src/test/resources/testDataFiles/Lookups_vehicleTypes_schema.json"". @03-10-2022 13:40:35.0012 PM
[ReportManager] File Action "GetAbsolutePath" successfully performed. With the following test data "Relative Folder Path: "src/test/resources/testDataFiles/Lookups_vehicleTypes_schema.json"". @03-10-2022 13:40:35.0012 PM
[ReportManager] File Action "DoesFileExist" successfully performed. With the following test data "File Path: "C:\eclipse-workspace\MyProjects\TASystemsAPIs\src\test\resources\testDataFiles\Lookups_vehicleTypes_schema.json"". @03-10-2022 13:40:35.0016 PM
[ReportManager] File Action "GetAbsolutePath" successfully performed. With the following test data "Relative Folder Path: "C:\eclipse-workspace\MyProjects\TASystemsAPIs\src\test\resources\testDataFiles\Lookups_vehicleTypes_schema.json"". @03-10-2022 13:40:35.0016 PM
[ReportManager] File Action "ReadFromFile" successfully performed. With the following test data "File Path: "C:\eclipse-workspace\MyProjects\TASystemsAPIs\src\test\resources\testDataFiles\Lookups_vehicleTypes_schema.json"". @03-10-2022 13:40:35.0016 PM
[ReportManager] Assertion Passed: The API response schema matches that in this file "src/test/resources/testDataFiles/Lookups_vehicleTypes_schema.json". @03-10-2022 13:40:35.0017 PM
[ReportManager] Successfully created attachment "Validation Test Data - Expected JSON Value" @03-10-2022 13:40:35.0019 PM
[ReportManager] Successfully created attachment "Validation Test Data - Actual JSON Value" @03-10-2022 13:40:35.0020 PM
[ReportManager] Verification Passed: "559" is greater than or equal to "1.1". @03-10-2022 13:40:35.0021 PM
[ReportManager] Verification Passed: "559" is less than or equal to "10000". @03-10-2022 13:40:35.0021 PM
[ReportManager] Setting discrete logging to: "true" @03-10-2022 13:40:35.0544 PM
[ReportManager] Response status code: "200", status line: "HTTP/1.1 200 " @03-10-2022 13:40:35.0544 PM
[ReportManager] Assertion Passed: Evaluating the actual response status code against the expected one... @03-10-2022 13:40:35.0544 PM
[ReportManager] Setting discrete logging to: "false" @03-10-2022 13:40:35.0545 PM
[ReportManager] Perform request "GET | Target Status Code: 200 | Service URL: https://api-demo.np.transporticonline.com/steeringcompanies/v1/lookups/vehicleTypes | Content Type: */* | Response Time: 521ms". @03-10-2022 13:40:35.0561 PM
[ReportManager] Successfully created attachment "API Request - Specifications" @03-10-2022 13:40:35.0562 PM
[ReportManager] Successfully created attachment "API Response - JSON Body" @03-10-2022 13:40:35.0564 PM
[ReportManager] Assertion Passed: "200" is equal to "200". @03-10-2022 13:40:35.0565 PM
[ReportManager] Verification Passed: "521" is greater than or equal to "1.1". @03-10-2022 13:40:35.0565 PM
[ReportManager] Verification Passed: "521" is less than or equal to "10000". @03-10-2022 13:40:35.0566 PM
[ReportManager] Assertion Passed: "{"page":0,"size":3,"totalPages":2,"totalElements":4,"content":[{"id":1,"nameArabic":"????? ?????","nameEnglish":"Sedan Car","isActive":true,"lastUpdated":"2019-12-15T12:21:55Z","maximumCapacity":4,"sectors":null},{"id":4,"nameArabic":"???","nameEnglish":"Van","isActive":true,"lastUpdated":"2020-01-21T07:57:12Z","maximumCapacity":15,"sectors":null},{"id":2,"nameArabic":"????? ???","nameEnglish":"SUV Car","isActive":true,"lastUpdated":"2019-12-15T12:22:01Z","maximumCapacity":7,"sectors":null}]}" contains "content". @03-10-2022 13:40:35.0567 PM
[ReportManager] Get response jsonvalue "content". @03-10-2022 13:40:35.0568 PM
[ReportManager] Assertion Passed: Check that content object is not null. @03-10-2022 13:40:35.0569 PM
[ReportManager] File Action "DoesFileExist" successfully performed. With the following test data "File Path: "Lookups_vehicleTypes_schema.json"". @03-10-2022 13:40:35.0569 PM
[ReportManager] File Action "DoesFileExist" successfully performed. With the following test data "File Path: "src/test/resources/testDataFiles/Lookups_vehicleTypes_schema.json"". @03-10-2022 13:40:35.0570 PM
[ReportManager] File Action "GetAbsolutePath" successfully performed. With the following test data "Relative Folder Path: "src/test/resources/testDataFiles/Lookups_vehicleTypes_schema.json"". @03-10-2022 13:40:35.0570 PM
[ReportManager] File Action "DoesFileExist" successfully performed. With the following test data "File Path: "C:\eclipse-workspace\MyProjects\TASystemsAPIs\src\test\resources\testDataFiles\Lookups_vehicleTypes_schema.json"". @03-10-2022 13:40:35.0577 PM
[ReportManager] File Action "GetAbsolutePath" successfully performed. With the following test data "Relative Folder Path: "C:\eclipse-workspace\MyProjects\TASystemsAPIs\src\test\resources\testDataFiles\Lookups_vehicleTypes_schema.json"". @03-10-2022 13:40:35.0577 PM
[ReportManager] File Action "ReadFromFile" successfully performed. With the following test data "File Path: "C:\eclipse-workspace\MyProjects\TASystemsAPIs\src\test\resources\testDataFiles\Lookups_vehicleTypes_schema.json"". @03-10-2022 13:40:35.0577 PM
[ReportManager] Assertion Passed: The API response schema matches that in this file "src/test/resources/testDataFiles/Lookups_vehicleTypes_schema.json". @03-10-2022 13:40:35.0579 PM
[ReportManager] Successfully created attachment "Validation Test Data - Expected JSON Value" @03-10-2022 13:40:35.0580 PM
[ReportManager] Successfully created attachment "Validation Test Data - Actual JSON Value" @03-10-2022 13:40:35.0582 PM
[ReportManager] Verification Passed: "521" is greater than or equal to "1.1". @03-10-2022 13:40:35.0582 PM
[ReportManager] Verification Passed: "521" is less than or equal to "10000". @03-10-2022 13:40:35.0583 PM