
################################################################################################################################################
Starting Execution:	"16 out of 10" test cases in the current suite
Test Method:		"SteeringCompanyAPI_TestCases.Test_CreationalPeriod_Cases.Get_Valid_all_CreationalPeriod_by_Qry_Rq_TC"
Test Description:	"TC002  -CreationalPeriod-   Perform Get all CreationalPeriod API with pagination with valid user name and password"
################################################################################################################################################
[ReportManager] File Action "DoesFileExist" successfully performed. With the following test data "File Path: "SteeringCompanyAPI_TestData/SteeringCompanyAPI_TestData.xlsx"". @24-01-2023 20:05:02.0386 PM
[ReportManager] Loaded Test Data: "src/test/resources/testDataFiles/SteeringCompanyAPI_TestData/SteeringCompanyAPI_TestData.xlsx". @24-01-2023 20:05:02.0427 PM
[ReportManager] Successfully created attachment "Test Data - Excel" @24-01-2023 20:05:02.0429 PM
[ReportManager] Response status code: "200", status line: "HTTP/1.1 200 OK" @24-01-2023 20:05:03.0965 PM
[ReportManager] Assertion Passed: Evaluating the actual response status code against the expected one... @24-01-2023 20:05:03.0966 PM
[ReportManager] Perform request "POST | Target Status Code: 200 | Service URL: https://auth-demo.np.transporticonline.com/auth/realms/tic/protocol/openid-connect/token | Content Type: application/x-www-form-urlencoded | Response Time: 1531ms". @24-01-2023 20:05:03.0980 PM
[ReportManager] Successfully created attachment "API Request - Specifications" @24-01-2023 20:05:03.0982 PM
[ReportManager] Successfully created attachment "API Request - Body" @24-01-2023 20:05:03.0984 PM
[ReportManager] Successfully created attachment "API Response - JSON Body" @24-01-2023 20:05:03.0986 PM
[ReportManager] Assertion Passed: Check Response Status Code is 200 and it is valid. @24-01-2023 20:05:03.0987 PM
[ReportManager] File Action "DoesFileExist" successfully performed. With the following test data "File Path: "SteeringCompanyAPI_TestData/SteeringCompanyAPI_TestData.xlsx"". @24-01-2023 20:05:04.0008 PM
[ReportManager] Loaded Test Data: "src/test/resources/testDataFiles/SteeringCompanyAPI_TestData/SteeringCompanyAPI_TestData.xlsx". @24-01-2023 20:05:04.0056 PM
[ReportManager] Successfully created attachment "Test Data - Excel" @24-01-2023 20:05:04.0057 PM
[ReportManager] Response status code: "200", status line: "HTTP/1.1 200 " @24-01-2023 20:05:04.0903 PM
[ReportManager] Assertion Passed: Evaluating the actual response status code against the expected one... @24-01-2023 20:05:04.0903 PM
[ReportManager] Perform request "GET | Target Status Code: 200 | Service URL: https://api-demo.np.transporticonline.com/steeringcompanies/v1/creationalPeriods | Content Type: */* | Response Time: 842ms". @24-01-2023 20:05:04.0916 PM
[ReportManager] Successfully created attachment "API Request - Specifications" @24-01-2023 20:05:04.0917 PM
[ReportManager] Successfully created attachment "API Response - JSON Body" @24-01-2023 20:05:04.0919 PM
[ReportManager] Assertion Passed: "200" is equal to "200". @24-01-2023 20:05:04.0919 PM
[ReportManager] Verification Passed: "842" is greater than or equal to "1.1". @24-01-2023 20:05:04.0920 PM
[ReportManager] Verification Passed: "842" is less than or equal to "10000". @24-01-2023 20:05:04.0921 PM
[ReportManager] Assertion Passed: "{"page":1,"size":1,"totalPages":4,"totalElements":4,"content":[{"id":188,"startDate":"2022-10-24T00:00:00Z","endDate":"2022-11-14T16:00:00Z","status":"Active","periodMaxQuotaPerPeriod":300.00,"periodProgramTemplates":[313,314,315]}]}" contains "content". @24-01-2023 20:05:04.0921 PM
[ReportManager] Get response jsonvalue "content". @24-01-2023 20:05:04.0922 PM
[ReportManager] Assertion Passed: Check that content object is not null. @24-01-2023 20:05:04.0922 PM
[ReportManager] File Action "DoesFileExist" successfully performed. With the following test data "File Path: "Schemas/CreationalPeriods_schema.json"". @24-01-2023 20:05:04.0922 PM
[ReportManager] File Action "DoesFileExist" successfully performed. With the following test data "File Path: "src/test/resources/testDataFiles/Schemas/CreationalPeriods_schema.json"". @24-01-2023 20:05:04.0923 PM
[ReportManager] File Action "GetAbsolutePath" successfully performed. With the following test data "Relative Folder Path: "src/test/resources/testDataFiles/Schemas/CreationalPeriods_schema.json"". @24-01-2023 20:05:04.0923 PM
[ReportManager] File Action "DoesFileExist" successfully performed. With the following test data "File Path: "C:\eclipse-workspace\MyProjects\TASystemsAPIs\src\test\resources\testDataFiles\Schemas\CreationalPeriods_schema.json"". @24-01-2023 20:05:04.0930 PM
[ReportManager] File Action "GetAbsolutePath" successfully performed. With the following test data "Relative Folder Path: "C:\eclipse-workspace\MyProjects\TASystemsAPIs\src\test\resources\testDataFiles\Schemas\CreationalPeriods_schema.json"". @24-01-2023 20:05:04.0930 PM
[ReportManager] File Action "ReadFile" successfully performed. With the following test data "File Path: "C:\eclipse-workspace\MyProjects\TASystemsAPIs\src\test\resources\testDataFiles\Schemas\CreationalPeriods_schema.json"". @24-01-2023 20:05:04.0930 PM
[ReportManager] Assertion Passed: The API response schema matches that in this file "src/test/resources/testDataFiles/Schemas/CreationalPeriods_schema.json". @24-01-2023 20:05:04.0933 PM
[ReportManager] Successfully created attachment "Validation Test Data - Expected JSON Value" @24-01-2023 20:05:04.0935 PM
[ReportManager] Successfully created attachment "Validation Test Data - Actual JSON Value" @24-01-2023 20:05:04.0936 PM