
################################################################################################################################################
Starting Execution:	"70 out of 111" test cases in the current suite
Test Method:		"SteeringCompanyAPI_TestCases.Test_CreationalPeriod_Cases.Get_Valid_all_CreationalPeriod_by_Qry_Rq_TC"
Test Description:	"TC002  -CreationalPeriod-   Perform Get all CreationalPeriod API with pagination with valid user name and password"
################################################################################################################################################
[ReportManager] File Action "DoesFileExist" successfully performed. With the following test data "File Path: "SteeringCompanyAPI_TestData/SteeringCompanyAPI_TestData.xlsx"". @28-02-2023 13:17:12.0106 PM
[ReportManager] Loaded Test Data: "src/test/resources/testDataFiles/SteeringCompanyAPI_TestData/SteeringCompanyAPI_TestData.xlsx". @28-02-2023 13:17:12.0165 PM
[ReportManager] Successfully created attachment "Test Data - Excel" @28-02-2023 13:17:12.0166 PM
[ReportManager] Response status code: "200", status line: "HTTP/1.1 200 OK" @28-02-2023 13:17:12.0789 PM
[ReportManager] Assertion Passed: Evaluating the actual response status code against the expected one... @28-02-2023 13:17:12.0790 PM
[ReportManager] Perform request "POST | Target Status Code: 200 | Service URL: https://auth-demo.np.transporticonline.com/auth/realms/tic/protocol/openid-connect/token | Content Type: application/x-www-form-urlencoded | Response Time: 620ms". @28-02-2023 13:17:12.0804 PM
[ReportManager] Successfully created attachment "API Request - Specifications" @28-02-2023 13:17:12.0806 PM
[ReportManager] Successfully created attachment "API Request - Body" @28-02-2023 13:17:12.0807 PM
[ReportManager] Successfully created attachment "API Response - JSON Body" @28-02-2023 13:17:12.0810 PM
[ReportManager] Assertion Passed: Check Response Status Code is 200 and it is valid. @28-02-2023 13:17:12.0810 PM
[ReportManager] File Action "DoesFileExist" successfully performed. With the following test data "File Path: "SteeringCompanyAPI_TestData/SteeringCompanyAPI_TestData.xlsx"". @28-02-2023 13:17:12.0834 PM
[ReportManager] Loaded Test Data: "src/test/resources/testDataFiles/SteeringCompanyAPI_TestData/SteeringCompanyAPI_TestData.xlsx". @28-02-2023 13:17:12.0876 PM
[ReportManager] Successfully created attachment "Test Data - Excel" @28-02-2023 13:17:12.0877 PM
[ReportManager] Response status code: "200", status line: "HTTP/1.1 200 " @28-02-2023 13:17:13.0445 PM
[ReportManager] Assertion Passed: Evaluating the actual response status code against the expected one... @28-02-2023 13:17:13.0446 PM
[ReportManager] Perform request "GET | Target Status Code: 200 | Service URL: https://api-demo.np.transporticonline.com/steeringcompanies/v1/creationalPeriods | Content Type: */* | Response Time: 566ms". @28-02-2023 13:17:13.0460 PM
[ReportManager] Successfully created attachment "API Request - Specifications" @28-02-2023 13:17:13.0462 PM
[ReportManager] Successfully created attachment "API Response - JSON Body" @28-02-2023 13:17:13.0464 PM
[ReportManager] Assertion Passed: "200" is equal to "200". @28-02-2023 13:17:13.0465 PM
[ReportManager] Verification Passed: "566" is greater than or equal to "1.1". @28-02-2023 13:17:13.0465 PM
[ReportManager] Verification Passed: "566" is less than or equal to "10000". @28-02-2023 13:17:13.0466 PM
[ReportManager] Assertion Passed: "{"page":1,"size":1,"totalPages":3,"totalElements":3,"content":[{"id":193,"startDate":"2022-11-21T01:33:00Z","endDate":"2022-11-22T13:33:00Z","status":"Active","periodMaxQuotaPerPeriod":100.00,"periodProgramTemplates":[314]}]}" contains "content". @28-02-2023 13:17:13.0466 PM
[ReportManager] Get response jsonvalue "content". @28-02-2023 13:17:13.0467 PM
[ReportManager] Assertion Passed: Check that content object is not null. @28-02-2023 13:17:13.0467 PM
[ReportManager] File Action "DoesFileExist" successfully performed. With the following test data "File Path: "Schemas/CreationalPeriods_schema.json"". @28-02-2023 13:17:13.0467 PM
[ReportManager] File Action "DoesFileExist" successfully performed. With the following test data "File Path: "src/test/resources/testDataFiles/Schemas/CreationalPeriods_schema.json"". @28-02-2023 13:17:13.0468 PM
[ReportManager] File Action "GetAbsolutePath" successfully performed. With the following test data "Relative Folder Path: "src/test/resources/testDataFiles/Schemas/CreationalPeriods_schema.json"". @28-02-2023 13:17:13.0468 PM
[ReportManager] File Action "DoesFileExist" successfully performed. With the following test data "File Path: "C:\eclipse-workspace\MyProjects\TASystemsAPIs\src\test\resources\testDataFiles\Schemas\CreationalPeriods_schema.json"". @28-02-2023 13:17:13.0477 PM
[ReportManager] File Action "GetAbsolutePath" successfully performed. With the following test data "Relative Folder Path: "C:\eclipse-workspace\MyProjects\TASystemsAPIs\src\test\resources\testDataFiles\Schemas\CreationalPeriods_schema.json"". @28-02-2023 13:17:13.0477 PM
[ReportManager] File Action "ReadFile" successfully performed. With the following test data "File Path: "C:\eclipse-workspace\MyProjects\TASystemsAPIs\src\test\resources\testDataFiles\Schemas\CreationalPeriods_schema.json"". @28-02-2023 13:17:13.0478 PM
[ReportManager] Assertion Passed: The API response schema matches that in this file "src/test/resources/testDataFiles/Schemas/CreationalPeriods_schema.json". @28-02-2023 13:17:13.0479 PM
[ReportManager] Successfully created attachment "Validation Test Data - Expected JSON Value" @28-02-2023 13:17:13.0482 PM
[ReportManager] Successfully created attachment "Validation Test Data - Actual JSON Value" @28-02-2023 13:17:13.0484 PM