
################################################################################################################################################
Starting Execution:	"38 out of 111" test cases in the current suite
Test Method:		"SteeringCompanyAPI_TestCases.Test_Commissions_Cases.Valid_GET_all_Commissions_by_Qry_Rq_TC"
Test Description:	"TC002  -Commission- Perform Get all Commissions API with pagination with valid user name and password"
################################################################################################################################################
[ReportManager] File Action "DoesFileExist" successfully performed. With the following test data "File Path: "SteeringCompanyAPI_TestData/SteeringCompanyAPI_TestData.xlsx"". @28-02-2023 13:16:21.0865 PM
[ReportManager] Loaded Test Data: "src/test/resources/testDataFiles/SteeringCompanyAPI_TestData/SteeringCompanyAPI_TestData.xlsx". @28-02-2023 13:16:21.0917 PM
[ReportManager] Successfully created attachment "Test Data - Excel" @28-02-2023 13:16:21.0918 PM
[ReportManager] Response status code: "200", status line: "HTTP/1.1 200 OK" @28-02-2023 13:16:22.0558 PM
[ReportManager] Assertion Passed: Evaluating the actual response status code against the expected one... @28-02-2023 13:16:22.0559 PM
[ReportManager] Perform request "POST | Target Status Code: 200 | Service URL: https://auth-demo.np.transporticonline.com/auth/realms/tic/protocol/openid-connect/token | Content Type: application/x-www-form-urlencoded | Response Time: 637ms". @28-02-2023 13:16:22.0581 PM
[ReportManager] Successfully created attachment "API Request - Specifications" @28-02-2023 13:16:22.0583 PM
[ReportManager] Successfully created attachment "API Request - Body" @28-02-2023 13:16:22.0584 PM
[ReportManager] Successfully created attachment "API Response - JSON Body" @28-02-2023 13:16:22.0587 PM
[ReportManager] Assertion Passed: Check Response Status Code is 200 and it is valid. @28-02-2023 13:16:22.0587 PM
[ReportManager] File Action "DoesFileExist" successfully performed. With the following test data "File Path: "SteeringCompanyAPI_TestData/SteeringCompanyAPI_TestData.xlsx"". @28-02-2023 13:16:22.0603 PM
[ReportManager] Loaded Test Data: "src/test/resources/testDataFiles/SteeringCompanyAPI_TestData/SteeringCompanyAPI_TestData.xlsx". @28-02-2023 13:16:22.0642 PM
[ReportManager] Successfully created attachment "Test Data - Excel" @28-02-2023 13:16:22.0643 PM
[ReportManager] Response status code: "200", status line: "HTTP/1.1 200 " @28-02-2023 13:16:23.0182 PM
[ReportManager] Assertion Passed: Evaluating the actual response status code against the expected one... @28-02-2023 13:16:23.0182 PM
[ReportManager] Perform request "GET | Target Status Code: 200 | Service URL: https://api-demo.np.transporticonline.com/steeringcompanies/v1/commissions | Content Type: */* | Response Time: 536ms". @28-02-2023 13:16:23.0209 PM
[ReportManager] Successfully created attachment "API Request - Specifications" @28-02-2023 13:16:23.0211 PM
[ReportManager] Successfully created attachment "API Response - JSON Body" @28-02-2023 13:16:23.0212 PM
[ReportManager] Assertion Passed: "200" is equal to "200". @28-02-2023 13:16:23.0212 PM
[ReportManager] Verification Passed: "536" is greater than or equal to "1.1". @28-02-2023 13:16:23.0212 PM
[ReportManager] Verification Passed: "536" is less than or equal to "30000". @28-02-2023 13:16:23.0213 PM
[ReportManager] Assertion Passed: "{"page":0,"size":10,"totalPages":2,"totalElements":18,"content":[{"otaCode":"ZowarOTA","baseCommission":3.0,"addCommission":0.0,"lastUpdated":"2022-12-15T17:26:35.889109","isActive":true},{"otaCode":"AlrajhiOTA","baseCommission":3.0,"addCommission":0.0,"lastUpdated":"2022-12-15T17:21:34.550112","isActive":true},{"otaCode":"0226_OTA","baseCommission":3.0,"addCommission":3.5,"lastUpdated":"2022-12-15T17:26:06.5894","isActive":true},{"otaCode":"agoda","baseCommission":3.0,"addCommission":10.0,"lastUpdated":"2023-02-28T14:16:05.884406","isActive":true},{"otaCode":"ELAF_OTA","baseCommission":3.0,"addCommission":0.0,"lastUpdated":"2022-12-12T15:49:49.939996","isActive":true},{"otaCode":"Mawasim","baseCommission":3.0,"addCommission":0.0,"lastUpdated":"2023-02-28T14:16:07.286704","isActive":true},{"otaCode":"HotelGate","baseCommission":3.0,"addCommission":3.125,"lastUpdated":"2022-12-01T14:29:31.706037","isActive":false},{"otaCode":"Taqneen","baseCommission":3.0,"addCommission":97.0,"lastUpdated":"2023-02-28T14:16:09.416179","isActive":true},{"otaCode":"ZamzamOTA","baseCommission":3.0,"addCommission":0.0,"lastUpdated":"2022-12-12T15:49:54.037276","isActive":false},{"otaCode":"SafirTravelOTA","baseCommission":3.0,"addCommission":0.0,"lastUpdated":"2022-12-12T15:50:08.792469","isActive":true}]}" contains "content". @28-02-2023 13:16:23.0213 PM
[ReportManager] Successfully created attachment "Validation Test Data - Expected Value" @28-02-2023 13:16:23.0213 PM
[ReportManager] Successfully created attachment "Validation Test Data - Actual Value" @28-02-2023 13:16:23.0214 PM
[ReportManager] Get response jsonvalue "content". @28-02-2023 13:16:23.0214 PM
[ReportManager] Assertion Passed: Check that content object is not null. @28-02-2023 13:16:23.0215 PM
[ReportManager] Successfully created attachment "Validation Test Data - Expected Value" @28-02-2023 13:16:23.0216 PM
[ReportManager] Successfully created attachment "Validation Test Data - Actual Value" @28-02-2023 13:16:23.0216 PM
[ReportManager] File Action "DoesFileExist" successfully performed. With the following test data "File Path: "Schemas/Commission_schema.json"". @28-02-2023 13:16:23.0216 PM
[ReportManager] File Action "DoesFileExist" successfully performed. With the following test data "File Path: "src/test/resources/testDataFiles/Schemas/Commission_schema.json"". @28-02-2023 13:16:23.0216 PM
[ReportManager] File Action "GetAbsolutePath" successfully performed. With the following test data "Relative Folder Path: "src/test/resources/testDataFiles/Schemas/Commission_schema.json"". @28-02-2023 13:16:23.0218 PM
[ReportManager] File Action "DoesFileExist" successfully performed. With the following test data "File Path: "C:\eclipse-workspace\MyProjects\TASystemsAPIs\src\test\resources\testDataFiles\Schemas\Commission_schema.json"". @28-02-2023 13:16:23.0223 PM
[ReportManager] File Action "GetAbsolutePath" successfully performed. With the following test data "Relative Folder Path: "C:\eclipse-workspace\MyProjects\TASystemsAPIs\src\test\resources\testDataFiles\Schemas\Commission_schema.json"". @28-02-2023 13:16:23.0223 PM
[ReportManager] File Action "ReadFile" successfully performed. With the following test data "File Path: "C:\eclipse-workspace\MyProjects\TASystemsAPIs\src\test\resources\testDataFiles\Schemas\Commission_schema.json"". @28-02-2023 13:16:23.0223 PM
[ReportManager] Assertion Passed: The API response schema matches that in this file "src/test/resources/testDataFiles/Schemas/Commission_schema.json". @28-02-2023 13:16:23.0225 PM
[ReportManager] Successfully created attachment "Validation Test Data - Expected JSON Value" @28-02-2023 13:16:23.0226 PM
[ReportManager] Successfully created attachment "Validation Test Data - Actual JSON Value" @28-02-2023 13:16:23.0226 PM