
################################################################################################################################################
Starting Execution:	"15 out of 88" test cases in the current suite
Test Method:		"SteeringCompanyAPI_TestCases.Test_CreationalPeriod_Cases.Get_Valid_all_CreationalPeriod_by_Qry_Rq_TC"
Test Description:	"TC002  -CreationalPeriod-   Perform Get all CreationalPeriod API with pagination with valid user name and password"
################################################################################################################################################
[ReportManager] File Action "DoesFileExist" successfully performed. With the following test data "File Path: "SteeringCompanyAPI_TestData/SteeringCompanyAPI_TestData.xlsx"". @25-01-2023 12:32:58.0343 PM
[ReportManager] Loaded Test Data: "src/test/resources/testDataFiles/SteeringCompanyAPI_TestData/SteeringCompanyAPI_TestData.xlsx". @25-01-2023 12:32:58.0407 PM
[ReportManager] Successfully created attachment "Test Data - Excel" @25-01-2023 12:32:58.0409 PM
[ReportManager] Response status code: "200", status line: "HTTP/1.1 200 OK" @25-01-2023 12:32:58.0971 PM
[ReportManager] Assertion Passed: Evaluating the actual response status code against the expected one... @25-01-2023 12:32:58.0972 PM
[ReportManager] Perform request "POST | Target Status Code: 200 | Service URL: https://auth-demo.np.transporticonline.com/auth/realms/tic/protocol/openid-connect/token | Content Type: application/x-www-form-urlencoded | Response Time: 557ms". @25-01-2023 12:32:58.0994 PM
[ReportManager] Successfully created attachment "API Request - Specifications" @25-01-2023 12:32:58.0996 PM
[ReportManager] Successfully created attachment "API Request - Body" @25-01-2023 12:32:58.0998 PM
[ReportManager] Successfully created attachment "API Response - JSON Body" @25-01-2023 12:32:59.0001 PM
[ReportManager] Assertion Passed: Check Response Status Code is 200 and it is valid. @25-01-2023 12:32:59.0002 PM
[ReportManager] File Action "DoesFileExist" successfully performed. With the following test data "File Path: "SteeringCompanyAPI_TestData/SteeringCompanyAPI_TestData.xlsx"". @25-01-2023 12:32:59.0031 PM
[ReportManager] Loaded Test Data: "src/test/resources/testDataFiles/SteeringCompanyAPI_TestData/SteeringCompanyAPI_TestData.xlsx". @25-01-2023 12:32:59.0087 PM
[ReportManager] Successfully created attachment "Test Data - Excel" @25-01-2023 12:32:59.0088 PM
[ReportManager] Response status code: "200", status line: "HTTP/1.1 200 " @25-01-2023 12:33:00.0095 PM
[ReportManager] Assertion Passed: Evaluating the actual response status code against the expected one... @25-01-2023 12:33:00.0096 PM
[ReportManager] Perform request "GET | Target Status Code: 200 | Service URL: https://api-demo.np.transporticonline.com/steeringcompanies/v1/creationalPeriods | Content Type: */* | Response Time: 1004ms". @25-01-2023 12:33:00.0130 PM
[ReportManager] Successfully created attachment "API Request - Specifications" @25-01-2023 12:33:00.0132 PM
[ReportManager] Successfully created attachment "API Response - JSON Body" @25-01-2023 12:33:00.0135 PM
[ReportManager] Assertion Passed: "200" is equal to "200". @25-01-2023 12:33:00.0136 PM
[ReportManager] Verification Passed: "1004" is greater than or equal to "1.1". @25-01-2023 12:33:00.0136 PM
[ReportManager] Verification Passed: "1004" is less than or equal to "10000". @25-01-2023 12:33:00.0136 PM
[ReportManager] Assertion Passed: "{"page":0,"size":1,"totalPages":4,"totalElements":4,"content":[{"id":229,"startDate":"2023-01-22T12:00:00Z","endDate":"2023-02-03T12:00:00Z","status":"Active","periodMaxQuotaPerPeriod":100.00,"periodProgramTemplates":[282,283,284,285,286,287]}]}" contains "content". @25-01-2023 12:33:00.0136 PM
[ReportManager] Get response jsonvalue "content". @25-01-2023 12:33:00.0137 PM
[ReportManager] Assertion Passed: Check that content object is not null. @25-01-2023 12:33:00.0138 PM
[ReportManager] File Action "DoesFileExist" successfully performed. With the following test data "File Path: "Schemas/CreationalPeriods_schema.json"". @25-01-2023 12:33:00.0140 PM
[ReportManager] File Action "DoesFileExist" successfully performed. With the following test data "File Path: "src/test/resources/testDataFiles/Schemas/CreationalPeriods_schema.json"". @25-01-2023 12:33:00.0143 PM
[ReportManager] File Action "GetAbsolutePath" successfully performed. With the following test data "Relative Folder Path: "src/test/resources/testDataFiles/Schemas/CreationalPeriods_schema.json"". @25-01-2023 12:33:00.0145 PM
[ReportManager] File Action "DoesFileExist" successfully performed. With the following test data "File Path: "C:\eclipse-workspace\MyProjects\TASystemsAPIs\src\test\resources\testDataFiles\Schemas\CreationalPeriods_schema.json"". @25-01-2023 12:33:00.0155 PM
[ReportManager] File Action "GetAbsolutePath" successfully performed. With the following test data "Relative Folder Path: "C:\eclipse-workspace\MyProjects\TASystemsAPIs\src\test\resources\testDataFiles\Schemas\CreationalPeriods_schema.json"". @25-01-2023 12:33:00.0157 PM
[ReportManager] File Action "ReadFile" successfully performed. With the following test data "File Path: "C:\eclipse-workspace\MyProjects\TASystemsAPIs\src\test\resources\testDataFiles\Schemas\CreationalPeriods_schema.json"". @25-01-2023 12:33:00.0159 PM
[ReportManager] Assertion Passed: The API response schema matches that in this file "src/test/resources/testDataFiles/Schemas/CreationalPeriods_schema.json". @25-01-2023 12:33:00.0161 PM
[ReportManager] Successfully created attachment "Validation Test Data - Expected JSON Value" @25-01-2023 12:33:00.0170 PM
[ReportManager] Successfully created attachment "Validation Test Data - Actual JSON Value" @25-01-2023 12:33:00.0176 PM