
################################################################################################################################################
Starting Execution:	"1 out of 6" test cases in the current suite
Test Method:		"SteeringCompanyAPI_TestCases.Test_Lookups_Cases.Valid_GET_all_cities_Lookups_Rq_TC"
Test Description:	"TC001 - Perform Get all cities API with valid user name and password"
################################################################################################################################################
[ReportManager] File Action "DoesFileExist" successfully performed. With the following test data "File Path: "SteeringCompanyAPI_TestData/SteeringCompanyAPI_TestData.xlsx"". @02-01-2023 23:04:40.0941 PM
[ReportManager] Loaded Test Data: "src/test/resources/testDataFiles/SteeringCompanyAPI_TestData/SteeringCompanyAPI_TestData.xlsx". @02-01-2023 23:04:40.0990 PM
[ReportManager] Successfully created attachment "Test Data - Excel" @02-01-2023 23:04:40.0996 PM
[ReportManager] Response status code: "200", status line: "HTTP/1.1 200 OK" @02-01-2023 23:04:49.0072 PM
[ReportManager] Assertion Passed: Evaluating the actual response status code against the expected one... @02-01-2023 23:04:49.0079 PM
[ReportManager] Perform request "POST | Target Status Code: 200 | Service URL: https://auth-demo.np.transporticonline.com/auth/realms/tic/protocol/openid-connect/token | Content Type: application/x-www-form-urlencoded | Response Time: 6430ms". @02-01-2023 23:04:49.0927 PM
[ReportManager] Successfully created attachment "API Request - Specifications" @02-01-2023 23:04:49.0929 PM
[ReportManager] Successfully created attachment "API Request - Body" @02-01-2023 23:04:49.0931 PM
[ReportManager] Successfully created attachment "API Response - JSON Body" @02-01-2023 23:04:50.0157 PM
[ReportManager] Assertion Passed: Check Response Status Code is 200 and it is valid. @02-01-2023 23:04:50.0160 PM
[ReportManager] File Action "DoesFileExist" successfully performed. With the following test data "File Path: "SteeringCompanyAPI_TestData/SteeringCompanyAPI_TestData.xlsx"". @02-01-2023 23:04:50.0187 PM
[ReportManager] Loaded Test Data: "src/test/resources/testDataFiles/SteeringCompanyAPI_TestData/SteeringCompanyAPI_TestData.xlsx". @02-01-2023 23:04:50.0232 PM
[ReportManager] Successfully created attachment "Test Data - Excel" @02-01-2023 23:04:50.0233 PM
[ReportManager] Response status code: "200", status line: "HTTP/1.1 200 " @02-01-2023 23:04:55.0103 PM
[ReportManager] Assertion Passed: Evaluating the actual response status code against the expected one... @02-01-2023 23:04:55.0104 PM
[ReportManager] Perform request "GET | Target Status Code: 200 | Service URL: https://api-demo.np.transporticonline.com/steeringcompanies/v1/lookups/cities | Content Type: */* | Response Time: 4859ms". @02-01-2023 23:04:55.0128 PM
[ReportManager] Successfully created attachment "API Request - Specifications" @02-01-2023 23:04:55.0129 PM
[ReportManager] Successfully created attachment "API Response - JSON Body" @02-01-2023 23:04:55.0134 PM
[ReportManager] Assertion Passed: "200" is equal to "200". @02-01-2023 23:04:55.0135 PM
[ReportManager] Verification Passed: "4859" is greater than or equal to "1.1". @02-01-2023 23:04:55.0137 PM
[ReportManager] Verification Passed: "4859" is less than or equal to "10000". @02-01-2023 23:04:55.0137 PM
[ReportManager] Assertion Passed: "{"page":0,"size":20,"totalPages":36,"totalElements":709,"content":[{"id":36,"nameArabic":"??????????","nameEnglish":"Kuala Lumpur","isActive":true,"lastUpdated":"2022-06-02T01:21:49Z","sectors":null},{"id":849,"nameArabic":"???????","nameEnglish":"Solngen","isActive":true,"lastUpdated":"2022-06-02T01:37:02Z","sectors":null},{"id":1006,"nameArabic":"??????","nameEnglish":"FRUNZE","isActive":true,"lastUpdated":"2022-06-02T00:20:05Z","sectors":null},{"id":985,"nameArabic":"??????","nameEnglish":"KANDAHAR","isActive":true,"lastUpdated":"2022-06-02T00:25:20Z","sectors":null},{"id":736,"nameArabic":"?????","nameEnglish":"Tabrka","isActive":true,"lastUpdated":"2022-06-02T01:16:50Z","sectors":null},{"id":953,"nameArabic":"?????","nameEnglish":"Sohag","isActive":true,"lastUpdated":"2022-06-02T00:25:24Z","sectors":null},{"id":816,"nameArabic":"??????","nameEnglish":"Cochin","isActive":true,"lastUpdated":"2022-06-02T01:06:13Z","sectors":null},{"id":789,"nameArabic":"???? ????","nameEnglish":"Faisalabad","isActive":true,"lastUpdated":"2022-06-02T01:27:12Z","sectors":null},{"id":1013,"nameArabic":"?????","nameEnglish":"KAZAN","isActive":true,"lastUpdated":"2022-06-02T00:37:19Z","sectors":null},{"id":794,"nameArabic":"???????","nameEnglish":"KAYSERI","isActive":true,"lastUpdated":"2022-06-02T01:21:58Z","sectors":null},{"id":764,"nameArabic":"????","nameEnglish":"Tangier","isActive":true,"lastUpdated":"2022-06-02T01:27:13Z","sectors":null},{"id":780,"nameArabic":"??????","nameEnglish":"Shahyraz","isActive":true,"lastUpdated":"2022-06-02T00:37:28Z","sectors":null},{"id":712,"nameArabic":"?????","nameEnglish":"Tashkent","isActive":true,"lastUpdated":"2022-06-02T01:27:13Z","sectors":null},{"id":824,"nameArabic":"??????","nameEnglish":"Samarqand","isActive":true,"lastUpdated":"2022-06-02T00:37:28Z","sectors":null},{"id":993,"nameArabic":"?????","nameEnglish":"KRBI","isActive":true,"lastUpdated":"2022-06-02T01:22:03Z","sectors":null},{"id":820,"nameArabic":"???????","nameEnglish":"CALICUT","isActive":true,"lastUpdated":"2022-06-02T01:27:21Z","sectors":null},{"id":91,"nameArabic":"????","nameEnglish":"KANO","isActive":true,"lastUpdated":"2022-06-02T01:22:03Z","sectors":null},{"id":125,"nameArabic":"????","nameEnglish":"Kabul","isActive":true,"lastUpdated":"2022-06-02T00:42:58Z","sectors":null},{"id":34,"nameArabic":"?????","nameEnglish":"Vienna","isActive":true,"lastUpdated":"2022-06-02T00:42:59Z","sectors":null},{"id":67,"nameArabic":"?????","nameEnglish":"Sanaa","isActive":true,"lastUpdated":"2022-06-02T00:55:27Z","sectors":null}]}" contains "content". @02-01-2023 23:04:55.0140 PM
[ReportManager] Successfully created attachment "Validation Test Data - Expected Value" @02-01-2023 23:04:55.0142 PM
[ReportManager] Successfully created attachment "Validation Test Data - Actual Value" @02-01-2023 23:04:55.0144 PM
[ReportManager] Get response jsonvalue "content". @02-01-2023 23:04:55.0259 PM
[ReportManager] Assertion Passed: Check that content object is not null. @02-01-2023 23:04:55.0259 PM
[ReportManager] Successfully created attachment "Validation Test Data - Expected Value" @02-01-2023 23:04:55.0262 PM
[ReportManager] Successfully created attachment "Validation Test Data - Actual Value" @02-01-2023 23:04:55.0263 PM
[ReportManager] File Action "DoesFileExist" successfully performed. With the following test data "File Path: "Lookups_cities_schema.json"". @02-01-2023 23:04:55.0264 PM
[ReportManager] File Action "DoesFileExist" successfully performed. With the following test data "File Path: "src/test/resources/testDataFiles/Lookups_cities_schema.json"". @02-01-2023 23:04:55.0265 PM
[ReportManager] File Action "GetAbsolutePath" successfully performed. With the following test data "Relative Folder Path: "src/test/resources/testDataFiles/Lookups_cities_schema.json"". @02-01-2023 23:04:55.0265 PM