
################################################################################################################################################
Starting Execution:	"2 out of 6" test cases in the current suite
Test Method:		"SteeringCompanyAPI_TestCases.Test_Lookups_Cases.Valid_GET_all_cities_Lookups_by_Qry_Rq_TC"
Test Description:	"TC002 - Perform Get all cities API by parameters Qry with valid user name and password and return with token"
################################################################################################################################################
[ReportManager] File Action "DoesFileExist" successfully performed. With the following test data "File Path: "SteeringCompanyAPI_TestData/SteeringCompanyAPI_TestData.xlsx"". @02-01-2023 23:04:55.0842 PM
[ReportManager] Loaded Test Data: "src/test/resources/testDataFiles/SteeringCompanyAPI_TestData/SteeringCompanyAPI_TestData.xlsx". @02-01-2023 23:04:55.0879 PM
[ReportManager] Successfully created attachment "Test Data - Excel" @02-01-2023 23:04:55.0880 PM
[ReportManager] Response status code: "200", status line: "HTTP/1.1 200 OK" @02-01-2023 23:05:06.0383 PM
[ReportManager] Assertion Passed: Evaluating the actual response status code against the expected one... @02-01-2023 23:05:06.0383 PM
[ReportManager] Perform request "POST | Target Status Code: 200 | Service URL: https://auth-demo.np.transporticonline.com/auth/realms/tic/protocol/openid-connect/token | Content Type: application/x-www-form-urlencoded | Response Time: 10495ms". @02-01-2023 23:05:06.0412 PM
[ReportManager] Successfully created attachment "API Request - Specifications" @02-01-2023 23:05:06.0413 PM
[ReportManager] Successfully created attachment "API Request - Body" @02-01-2023 23:05:06.0415 PM
[ReportManager] Successfully created attachment "API Response - JSON Body" @02-01-2023 23:05:06.0417 PM
[ReportManager] Assertion Passed: Check Response Status Code is 200 and it is valid. @02-01-2023 23:05:06.0420 PM
[ReportManager] File Action "DoesFileExist" successfully performed. With the following test data "File Path: "SteeringCompanyAPI_TestData/SteeringCompanyAPI_TestData.xlsx"". @02-01-2023 23:05:06.0443 PM
[ReportManager] Loaded Test Data: "src/test/resources/testDataFiles/SteeringCompanyAPI_TestData/SteeringCompanyAPI_TestData.xlsx". @02-01-2023 23:05:06.0480 PM
[ReportManager] Successfully created attachment "Test Data - Excel" @02-01-2023 23:05:06.0482 PM
[ReportManager] Response status code: "200", status line: "HTTP/1.1 200 " @02-01-2023 23:05:08.0109 PM
[ReportManager] Assertion Passed: Evaluating the actual response status code against the expected one... @02-01-2023 23:05:08.0110 PM
[ReportManager] Perform request "GET | Target Status Code: 200 | Service URL: https://api-demo.np.transporticonline.com/steeringcompanies/v1/lookups/cities | Content Type: */* | Response Time: 1559ms". @02-01-2023 23:05:08.0276 PM
[ReportManager] Successfully created attachment "API Request - Specifications" @02-01-2023 23:05:08.0280 PM
[ReportManager] Successfully created attachment "API Response - JSON Body" @02-01-2023 23:05:08.0281 PM
[ReportManager] Assertion Passed: "200" is equal to "200". @02-01-2023 23:05:08.0281 PM
[ReportManager] Verification Passed: "1559" is greater than or equal to "1.1". @02-01-2023 23:05:08.0281 PM
[ReportManager] Verification Passed: "1559" is less than or equal to "10000". @02-01-2023 23:05:08.0282 PM
[ReportManager] Assertion Passed: "{"page":0,"size":3,"totalPages":237,"totalElements":709,"content":[{"id":36,"nameArabic":"??????????","nameEnglish":"Kuala Lumpur","isActive":true,"lastUpdated":"2022-06-02T01:21:49Z","sectors":null},{"id":849,"nameArabic":"???????","nameEnglish":"Solngen","isActive":true,"lastUpdated":"2022-06-02T01:37:02Z","sectors":null},{"id":1006,"nameArabic":"??????","nameEnglish":"FRUNZE","isActive":true,"lastUpdated":"2022-06-02T00:20:05Z","sectors":null}]}" contains "content". @02-01-2023 23:05:08.0282 PM
[ReportManager] Get response jsonvalue "content". @02-01-2023 23:05:08.0283 PM
[ReportManager] Assertion Passed: Check that content object is not null. @02-01-2023 23:05:08.0283 PM
[ReportManager] File Action "DoesFileExist" successfully performed. With the following test data "File Path: "Lookups_cities_schema.json"". @02-01-2023 23:05:08.0284 PM
[ReportManager] File Action "DoesFileExist" successfully performed. With the following test data "File Path: "src/test/resources/testDataFiles/Lookups_cities_schema.json"". @02-01-2023 23:05:08.0284 PM
[ReportManager] File Action "GetAbsolutePath" successfully performed. With the following test data "Relative Folder Path: "src/test/resources/testDataFiles/Lookups_cities_schema.json"". @02-01-2023 23:05:08.0284 PM