
################################################################################################################################################
Starting Execution:	"79 out of 111" test cases in the current suite
Test Method:		"SteeringCompanyAPI_TestCases.Test_Lookups_Cases.Valid_GET_all_cities_Lookups_by_Qry_Rq_TC"
Test Description:	"TC002 - Perform Get all cities API by parameters Qry with valid user name and password and return with token"
################################################################################################################################################
[ReportManager] File Action "DoesFileExist" successfully performed. With the following test data "File Path: "SteeringCompanyAPI_TestData/SteeringCompanyAPI_TestData.xlsx"". @28-02-2023 13:17:26.0027 PM
[ReportManager] Loaded Test Data: "src/test/resources/testDataFiles/SteeringCompanyAPI_TestData/SteeringCompanyAPI_TestData.xlsx". @28-02-2023 13:17:26.0077 PM
[ReportManager] Successfully created attachment "Test Data - Excel" @28-02-2023 13:17:26.0078 PM
[ReportManager] Response status code: "200", status line: "HTTP/1.1 200 OK" @28-02-2023 13:17:26.0711 PM
[ReportManager] Assertion Passed: Evaluating the actual response status code against the expected one... @28-02-2023 13:17:26.0711 PM
[ReportManager] Perform request "POST | Target Status Code: 200 | Service URL: https://auth-demo.np.transporticonline.com/auth/realms/tic/protocol/openid-connect/token | Content Type: application/x-www-form-urlencoded | Response Time: 631ms". @28-02-2023 13:17:26.0728 PM
[ReportManager] Successfully created attachment "API Request - Specifications" @28-02-2023 13:17:26.0729 PM
[ReportManager] Successfully created attachment "API Request - Body" @28-02-2023 13:17:26.0730 PM
[ReportManager] Successfully created attachment "API Response - JSON Body" @28-02-2023 13:17:26.0732 PM
[ReportManager] Assertion Passed: Check Response Status Code is 200 and it is valid. @28-02-2023 13:17:26.0732 PM
[ReportManager] File Action "DoesFileExist" successfully performed. With the following test data "File Path: "SteeringCompanyAPI_TestData/SteeringCompanyAPI_TestData.xlsx"". @28-02-2023 13:17:26.0743 PM
[ReportManager] Loaded Test Data: "src/test/resources/testDataFiles/SteeringCompanyAPI_TestData/SteeringCompanyAPI_TestData.xlsx". @28-02-2023 13:17:26.0779 PM
[ReportManager] Successfully created attachment "Test Data - Excel" @28-02-2023 13:17:26.0781 PM
[ReportManager] Response status code: "200", status line: "HTTP/1.1 200 " @28-02-2023 13:17:27.0272 PM
[ReportManager] Assertion Passed: Evaluating the actual response status code against the expected one... @28-02-2023 13:17:27.0273 PM
[ReportManager] Perform request "GET | Target Status Code: 200 | Service URL: https://api-demo.np.transporticonline.com/steeringcompanies/v1/lookups/cities | Content Type: */* | Response Time: 489ms". @28-02-2023 13:17:27.0286 PM
[ReportManager] Successfully created attachment "API Request - Specifications" @28-02-2023 13:17:27.0287 PM
[ReportManager] Successfully created attachment "API Response - JSON Body" @28-02-2023 13:17:27.0289 PM
[ReportManager] Assertion Passed: "200" is equal to "200". @28-02-2023 13:17:27.0289 PM
[ReportManager] Verification Passed: "489" is greater than or equal to "1.1". @28-02-2023 13:17:27.0289 PM
[ReportManager] Verification Passed: "489" is less than or equal to "10000". @28-02-2023 13:17:27.0289 PM
[ReportManager] Assertion Passed: "{"page":0,"size":3,"totalPages":237,"totalElements":709,"content":[{"id":36,"nameArabic":"??????????","nameEnglish":"Kuala Lumpur","isActive":true,"lastUpdated":"2022-06-02T01:21:49Z","sectors":null},{"id":849,"nameArabic":"???????","nameEnglish":"Solngen","isActive":true,"lastUpdated":"2022-06-02T01:37:02Z","sectors":null},{"id":1006,"nameArabic":"??????","nameEnglish":"FRUNZE","isActive":true,"lastUpdated":"2022-06-02T00:20:05Z","sectors":null}]}" contains "content". @28-02-2023 13:17:27.0290 PM
[ReportManager] Get response jsonvalue "content". @28-02-2023 13:17:27.0290 PM
[ReportManager] Assertion Passed: Check that content object is not null. @28-02-2023 13:17:27.0291 PM
[ReportManager] File Action "DoesFileExist" successfully performed. With the following test data "File Path: "Schemas/Lookups_cities_schema.json"". @28-02-2023 13:17:27.0291 PM
[ReportManager] File Action "DoesFileExist" successfully performed. With the following test data "File Path: "src/test/resources/testDataFiles/Schemas/Lookups_cities_schema.json"". @28-02-2023 13:17:27.0292 PM
[ReportManager] File Action "GetAbsolutePath" successfully performed. With the following test data "Relative Folder Path: "src/test/resources/testDataFiles/Schemas/Lookups_cities_schema.json"". @28-02-2023 13:17:27.0292 PM
[ReportManager] File Action "DoesFileExist" successfully performed. With the following test data "File Path: "C:\eclipse-workspace\MyProjects\TASystemsAPIs\src\test\resources\testDataFiles\Schemas\Lookups_cities_schema.json"". @28-02-2023 13:17:27.0296 PM
[ReportManager] File Action "GetAbsolutePath" successfully performed. With the following test data "Relative Folder Path: "C:\eclipse-workspace\MyProjects\TASystemsAPIs\src\test\resources\testDataFiles\Schemas\Lookups_cities_schema.json"". @28-02-2023 13:17:27.0297 PM
[ReportManager] File Action "ReadFile" successfully performed. With the following test data "File Path: "C:\eclipse-workspace\MyProjects\TASystemsAPIs\src\test\resources\testDataFiles\Schemas\Lookups_cities_schema.json"". @28-02-2023 13:17:27.0297 PM
[ReportManager] Assertion Passed: The API response schema matches that in this file "src/test/resources/testDataFiles/Schemas/Lookups_cities_schema.json". @28-02-2023 13:17:27.0298 PM
[ReportManager] Successfully created attachment "Validation Test Data - Expected JSON Value" @28-02-2023 13:17:27.0300 PM
[ReportManager] Successfully created attachment "Validation Test Data - Actual JSON Value" @28-02-2023 13:17:27.0301 PM