{"uuid":"d0b47578-036d-4cba-96db-44327ae21892","historyId":"f92742f4cc87fa9688263a893b332fee","fullName":"SteeringCompanyAPI_TestCases.Test_Commissions_Cases.Valid_GET_all_OTAs_Rq_TC","labels":[{"name":"package","value":"SteeringCompanyAPI_TestCases.Test_Commissions_Cases"},{"name":"testClass","value":"SteeringCompanyAPI_TestCases.Test_Commissions_Cases"},{"name":"testMethod","value":"Valid_GET_all_OTAs_Rq_TC"},{"name":"parentSuite","value":"Suite"},{"name":"suite","value":"Test"},{"name":"subSuite","value":"SteeringCompanyAPI_TestCases.Test_Commissions_Cases"},{"name":"host","value":"TW-1056"},{"name":"thread","value":"15616@TW-1056.main(1)"},{"name":"framework","value":"testng"},{"name":"language","value":"java"},{"name":"story","value":"Retrieving All Active OTAs"},{"name":"severity","value":"critical"}],"links":[],"name":"TC016  -OTAs- Perform Get all OTAs API with valid user name and password","status":"passed","statusDetails":{"known":false,"muted":false,"flaky":false},"stage":"finished","steps":[{"name":"Loaded Test Data: \"src/test/resources/testDataFiles/SteeringCompanyAPI_TestData/SteeringCompanyAPI_TestData.xlsx\".","status":"passed","stage":"finished","steps":[],"attachments":[{"name":"Test Data - Excel","source":"a2f815ad-bafd-4524-873f-439b11b90d85-attachment.xlsx","type":"application/vnd.openxmlformats-officedocument.spreadsheetml.sheet"}],"parameters":[{"name":"logText","value":"Loaded Test Data: \"src/test/resources/testDataFiles/SteeringCompanyAPI_TestData/SteeringCompanyAPI_TestData.xlsx\"."},{"name":"attachments","value":"[[Test Data, Excel, java.io.FileInputStream@6360463]]"}],"start":1677582986918,"stop":1677582986920},{"name":"Assertion Passed: Evaluating the actual response status code against the expected one...","status":"passed","stage":"finished","steps":[],"attachments":[],"parameters":[{"name":"customLog","value":"Assertion Passed: Evaluating the actual response status code against the expected one..."},{"name":"stepLog","value":"Assertion \"ValidateComparativeRelation\" PASSED. Expected \"200\" and Actual \"200\". Comparison Type \"EQUALS\". Validation Type \"POSITIVE\"."},{"name":"attachments","value":"null"}],"start":1677582987762,"stop":1677582987763},{"name":"Perform request \"POST | Target Status Code: 200 | Service URL: https://auth-demo.np.transporticonline.com/auth/realms/tic/protocol/openid-connect/token | Content Type: application/x-www-form-urlencoded | Response Time: 840ms\".","status":"passed","stage":"finished","steps":[],"attachments":[{"name":"API Request - Specifications","source":"e47c7826-b11f-4785-b048-f2f545df00cf-attachment"},{"name":"API Request - Body","source":"d9101511-3d4a-4376-8764-9775ae0bae85-attachment"},{"name":"API Response - JSON Body","source":"19e6edc3-9b6a-4a49-aa9c-19b18005c3f5-attachment.json","type":"text/json"}],"parameters":[{"name":"logText","value":"Perform request \"POST | Target Status Code: 200 | Service URL: https://auth-demo.np.transporticonline.com/auth/realms/tic/protocol/openid-connect/token | Content Type: application/x-www-form-urlencoded | Response Time: 840ms\"."},{"name":"attachments","value":"[[API Request, Specifications, Headers:\r\n_______________\r\n\r\nContent-Type=application/x-www-form-urlencoded\r\n\r\n], [API Request, Body, java.io.ByteArrayInputStream@379b6a27], null, [API Response, JSON Body, java.io.ByteArrayInputStream@4e5dd9b]]"}],"start":1677582987781,"stop":1677582987785},{"name":"Assertion Passed: Check Response Status Code is 200 and it is valid.","status":"passed","stage":"finished","steps":[],"attachments":[],"parameters":[{"name":"customLog","value":"Assertion Passed: Check Response Status Code is 200 and it is valid."},{"name":"stepLog","value":"Assertion \"ValidateComparativeRelation\" PASSED. Expected \"200\" and Actual \"200\". Comparison Type \"EQUALS\". Validation Type \"POSITIVE\"."},{"name":"attachments","value":"null"}],"start":1677582987785,"stop":1677582987785},{"name":"Loaded Test Data: \"src/test/resources/testDataFiles/SteeringCompanyAPI_TestData/SteeringCompanyAPI_TestData.xlsx\".","status":"passed","stage":"finished","steps":[],"attachments":[{"name":"Test Data - Excel","source":"e50184ab-e58c-456b-a07b-dfe49a785260-attachment.xlsx","type":"application/vnd.openxmlformats-officedocument.spreadsheetml.sheet"}],"parameters":[{"name":"logText","value":"Loaded Test Data: \"src/test/resources/testDataFiles/SteeringCompanyAPI_TestData/SteeringCompanyAPI_TestData.xlsx\"."},{"name":"attachments","value":"[[Test Data, Excel, java.io.FileInputStream@702f939f]]"}],"start":1677582987884,"stop":1677582987886},{"name":"Assertion Passed: Evaluating the actual response status code against the expected one...","status":"passed","stage":"finished","steps":[],"attachments":[],"parameters":[{"name":"customLog","value":"Assertion Passed: Evaluating the actual response status code against the expected one..."},{"name":"stepLog","value":"Assertion \"ValidateComparativeRelation\" PASSED. Expected \"200\" and Actual \"200\". Comparison Type \"EQUALS\". Validation Type \"POSITIVE\"."},{"name":"attachments","value":"null"}],"start":1677582988402,"stop":1677582988402},{"name":"Perform request \"GET | Target Status Code: 200 | Service URL: https://api-demo.np.transporticonline.com/steeringcompanies/v1/otas | Content Type: */* | Response Time: 511ms\".","status":"passed","stage":"finished","steps":[],"attachments":[{"name":"API Request - Specifications","source":"7bb042c1-8f90-418f-bd4f-818c513099f9-attachment"},{"name":"API Response - JSON Body","source":"09445f05-f382-4e67-b4ba-617a02b7c1ef-attachment.json","type":"text/json"}],"parameters":[{"name":"logText","value":"Perform request \"GET | Target Status Code: 200 | Service URL: https://api-demo.np.transporticonline.com/steeringcompanies/v1/otas | Content Type: */* | Response Time: 511ms\"."},{"name":"attachments","value":"[[API Request, Specifications, Headers:\r\n_______________\r\n\r\nAuthorization=Bearer eyJhbGciOiJSUzI1NiIsInR5cCIgOiAiSldUIiwia2lkIiA6ICJjck9ORDFNdFVPVWhzS2Mtb0ppVFFmb0o1d1l4REF6Y3k0ZjNYZ0dveGdZIn0.eyJleHAiOjE2Nzc2MDQ1ODcsImlhdCI6MTY3NzU4Mjk4NywianRpIjoiMmUzNTY3MzYtMDg4OC00Nzg3LTlkZTYtZmUwODVjNmFjZDQyIiwiaXNzIjoiaHR0cHM6Ly9hdXRoLWRlbW8ubnAudHJhbnNwb3J0aWNvbmxpbmUuY29tL2F1dGgvcmVhbG1zL3RpYyIsImF1ZCI6ImFjY291bnQiLCJzdWIiOiI0ZTk3NmQ0NC1iM2ZkLTRjYTktODk1Ny0wYWJiODUwNzNhNzQiLCJ0eXAiOiJCZWFyZXIiLCJhenAiOiJ0aWMtYXBpIiwic2Vzc2lvbl9zdGF0ZSI6IjJhM2Q5MWY5LTUzYTktNDMyMS04OWY1LTExMGU1ZjFkYjQ0OCIsImFjciI6IjEiLCJhbGxvd2VkLW9yaWdpbnMiOlsiaHR0cHM6Ly9hcGktZGV2Lm5wLnRyYW5zcG9ydGljb25saW5lLmNvbSJdLCJyZWFsbV9hY2Nlc3MiOnsicm9sZXMiOlsib2ZmbGluZV9hY2Nlc3MiLCJkZWZhdWx0LXJvbGVzLXRpYyIsInVtYV9hdXRob3JpemF0aW9uIiwidXNlciJdfSwicmVzb3VyY2VfYWNjZXNzIjp7ImFjY291bnQiOnsicm9sZXMiOlsibWFuYWdlLWFjY291bnQiLCJtYW5hZ2UtYWNjb3VudC1saW5rcyIsInZpZXctcHJvZmlsZSJdfX0sInNjb3BlIjoiZW1haWwgcHJvZmlsZSIsInNpZCI6IjJhM2Q5MWY5LTUzYTktNDMyMS04OWY1LTExMGU1ZjFkYjQ0OCIsImVtYWlsX3ZlcmlmaWVkIjpmYWxzZSwicHJlZmVycmVkX3VzZXJuYW1lIjoidG9raGkiLCJ0Y0lkIjoiMzE5OTU3In0.Q_VatLDkNiDB_as5vDWb7fU6K6XwbdIRjkOFnZz_pUVT6ep2oOJDB88CubsePgwj9kbZLt37_hHE9UqhsteYnFIPeNTlWEUsMXpaOfBPDjSLWk4gB4tnkXB9r2kudQxywKJfFIafHJDsjkmstePGTQnBVLYrBFWesNRiraKpdmiyLRj1u6Ctw5Zc4aia3tEhzeDnAoXw1uFh178ZpeR_OZNPJT4LFr1LGvUz4382VjE1HqE6orin08BJYPjbfnrgHRrep-GM7dArsXxSmiVNQ9g6JWHKsUl5RXsqV1oKFLfMImbARYREFfmnep14xp-Pc1YB-dkCLfFyeFYMgBBaKw\r\nContent-Type=*/*\r\n\r\n], null, [API Response, JSON Body, java.io.ByteArrayInputStream@4b05e2f3]]"}],"start":1677582988433,"stop":1677582988438},{"name":"Assertion Passed: \"200\" is equal to \"200\".","status":"passed","stage":"finished","steps":[],"attachments":[],"parameters":[{"name":"customLog","value":"Assertion Passed: \"200\" is equal to \"200\"."},{"name":"stepLog","value":"Assertion \"ValidateComparativeRelation\" PASSED. Expected \"200\" and Actual \"200\". Comparison Type \"EQUALS\". Validation Type \"POSITIVE\"."},{"name":"attachments","value":"null"}],"start":1677582988438,"stop":1677582988438},{"name":"Verification Passed: \"511\" is greater than or equal to \"1.1\".","status":"passed","stage":"finished","steps":[],"attachments":[],"parameters":[{"name":"customLog","value":"Verification Passed: \"511\" is greater than or equal to \"1.1\"."},{"name":"stepLog","value":"Verification \"ValidateComparativeRelation\" PASSED. Expected \"1.1\" and Actual \"511\". Comparison Type \"GREATER_THAN_OR_EQUALS\". Validation Type \"POSITIVE\"."},{"name":"attachments","value":"null"}],"start":1677582988439,"stop":1677582988439},{"name":"Verification Passed: \"511\" is less than or equal to \"10000\".","status":"passed","stage":"finished","steps":[],"attachments":[],"parameters":[{"name":"customLog","value":"Verification Passed: \"511\" is less than or equal to \"10000\"."},{"name":"stepLog","value":"Verification \"ValidateComparativeRelation\" PASSED. Expected \"10000\" and Actual \"511\". Comparison Type \"LESS_THAN_OR_EQUALS\". Validation Type \"POSITIVE\"."},{"name":"attachments","value":"null"}],"start":1677582988439,"stop":1677582988439},{"name":"Assertion Passed: \"{\"page\":0,\"size\":20,\"totalPages\":3,\"totalElements\":47,\"content\":[{\"otaCode\":\"agoda\",\"nameArabic\":\"-\",\"nameEnglish\":\"agoda_old\",\"isActive\":true,\"isEnable\":true},{\"otaCode\":\"Mawasim\",\"nameArabic\":\"-\",\"nameEnglish\":\"MawasimOTA\",\"isActive\":true,\"isEnable\":true},{\"otaCode\":\"SaudiaHolidaysOTA\",\"nameArabic\":\"-\",\"nameEnglish\":\"SaudiaHolidaysOTA\",\"isActive\":true,\"isEnable\":true},{\"otaCode\":\"HotelGate\",\"nameArabic\":\"-\",\"nameEnglish\":\"HotelGate\",\"isActive\":true,\"isEnable\":false},{\"otaCode\":\"AlrajhiOTA\",\"nameArabic\":\"-\",\"nameEnglish\":\"AlrajhiOTA\",\"isActive\":true,\"isEnable\":true},{\"otaCode\":\"ELAF_OTA\",\"nameArabic\":\"-\",\"nameEnglish\":\"Elaf Travel and Tourism\",\"isActive\":true,\"isEnable\":true},{\"otaCode\":\"WebBedsOTA\",\"nameArabic\":\"-\",\"nameEnglish\":\"WebBeds OTA\",\"isActive\":true,\"isEnable\":true},{\"otaCode\":\"U1470\",\"nameArabic\":\"-\",\"nameEnglish\":\"UmrahOTA\",\"isActive\":true,\"isEnable\":true},{\"otaCode\":\"MyHotel\",\"nameArabic\":\"-\",\"nameEnglish\":\"MyHotel\",\"isActive\":true,\"isEnable\":true},{\"otaCode\":\"Taqneen\",\"nameArabic\":\"-\",\"nameEnglish\":\"Taqneen\",\"isActive\":true,\"isEnable\":true},{\"otaCode\":\"ZamzamOTA\",\"nameArabic\":\"-\",\"nameEnglish\":\"ZamzamOTA\",\"isActive\":true,\"isEnable\":false},{\"otaCode\":\"HuloolAl-Umrah\",\"nameArabic\":\"-\",\"nameEnglish\":\"Hulool Al-Umrah\",\"isActive\":true,\"isEnable\":true},{\"otaCode\":\"UmrahGate\",\"nameArabic\":\"-\",\"nameEnglish\":\"UmrahGate\",\"isActive\":true,\"isEnable\":true},{\"otaCode\":\"WaytoUmrah\",\"nameArabic\":\"-\",\"nameEnglish\":\"WaytoUmrah\",\"isActive\":true,\"isEnable\":true},{\"otaCode\":\"HUBOOKING\",\"nameArabic\":\"-\",\"nameEnglish\":\"HUBOOKING\",\"isActive\":true,\"isEnable\":true},{\"otaCode\":\"MahtatAlAlamOTA\",\"nameArabic\":\"-\",\"nameEnglish\":\"Mahtat Al-Alam\",\"isActive\":true,\"isEnable\":true},{\"otaCode\":\"Akbar\",\"nameArabic\":\"-\",\"nameEnglish\":\"AKBAR TRAVELS OF INDIA PVT LTD\",\"isActive\":true,\"isEnable\":true},{\"otaCode\":\"AnjumOTA\",\"nameArabic\":\"-\",\"nameEnglish\":\"Anjum OTA\",\"isActive\":true,\"isEnable\":false},{\"otaCode\":\"Saudi2GoOTA\",\"nameArabic\":\"-\",\"nameEnglish\":\"Saudi2GoOTA\",\"isActive\":true,\"isEnable\":true},{\"otaCode\":\"EasyUmrahOTA\",\"nameArabic\":\"-\",\"nameEnglish\":\"EasyUmrahOTA\",\"isActive\":true,\"isEnable\":true}]}\" contains \"content\".","status":"passed","stage":"finished","steps":[],"attachments":[{"name":"Validation Test Data - Expected Value","source":"9d494d30-e5eb-48b2-8f95-db3d1ac4937e-attachment"},{"name":"Validation Test Data - Actual Value","source":"2963365f-3112-46a5-ac5a-a566e70a0b9d-attachment"}],"parameters":[{"name":"customLog","value":"Assertion Passed: \"{\"page\":0,\"size\":20,\"totalPages\":3,\"totalElements\":47,\"content\":[{\"otaCode\":\"agoda\",\"nameArabic\":\"-\",\"nameEnglish\":\"agoda_old\",\"isActive\":true,\"isEnable\":true},{\"otaCode\":\"Mawasim\",\"nameArabic\":\"-\",\"nameEnglish\":\"MawasimOTA\",\"isActive\":true,\"isEnable\":true},{\"otaCode\":\"SaudiaHolidaysOTA\",\"nameArabic\":\"-\",\"nameEnglish\":\"SaudiaHolidaysOTA\",\"isActive\":true,\"isEnable\":true},{\"otaCode\":\"HotelGate\",\"nameArabic\":\"-\",\"nameEnglish\":\"HotelGate\",\"isActive\":true,\"isEnable\":false},{\"otaCode\":\"AlrajhiOTA\",\"nameArabic\":\"-\",\"nameEnglish\":\"AlrajhiOTA\",\"isActive\":true,\"isEnable\":true},{\"otaCode\":\"ELAF_OTA\",\"nameArabic\":\"-\",\"nameEnglish\":\"Elaf Travel and Tourism\",\"isActive\":true,\"isEnable\":true},{\"otaCode\":\"WebBedsOTA\",\"nameArabic\":\"-\",\"nameEnglish\":\"WebBeds OTA\",\"isActive\":true,\"isEnable\":true},{\"otaCode\":\"U1470\",\"nameArabic\":\"-\",\"nameEnglish\":\"UmrahOTA\",\"isActive\":true,\"isEnable\":true},{\"otaCode\":\"MyHotel\",\"nameArabic\":\"-\",\"nameEnglish\":\"MyHotel\",\"isActive\":true,\"isEnable\":true},{\"otaCode\":\"Taqneen\",\"nameArabic\":\"-\",\"nameEnglish\":\"Taqneen\",\"isActive\":true,\"isEnable\":true},{\"otaCode\":\"ZamzamOTA\",\"nameArabic\":\"-\",\"nameEnglish\":\"ZamzamOTA\",\"isActive\":true,\"isEnable\":false},{\"otaCode\":\"HuloolAl-Umrah\",\"nameArabic\":\"-\",\"nameEnglish\":\"Hulool Al-Umrah\",\"isActive\":true,\"isEnable\":true},{\"otaCode\":\"UmrahGate\",\"nameArabic\":\"-\",\"nameEnglish\":\"UmrahGate\",\"isActive\":true,\"isEnable\":true},{\"otaCode\":\"WaytoUmrah\",\"nameArabic\":\"-\",\"nameEnglish\":\"WaytoUmrah\",\"isActive\":true,\"isEnable\":true},{\"otaCode\":\"HUBOOKING\",\"nameArabic\":\"-\",\"nameEnglish\":\"HUBOOKING\",\"isActive\":true,\"isEnable\":true},{\"otaCode\":\"MahtatAlAlamOTA\",\"nameArabic\":\"-\",\"nameEnglish\":\"Mahtat Al-Alam\",\"isActive\":true,\"isEnable\":true},{\"otaCode\":\"Akbar\",\"nameArabic\":\"-\",\"nameEnglish\":\"AKBAR TRAVELS OF INDIA PVT LTD\",\"isActive\":true,\"isEnable\":true},{\"otaCode\":\"AnjumOTA\",\"nameArabic\":\"-\",\"nameEnglish\":\"Anjum OTA\",\"isActive\":true,\"isEnable\":false},{\"otaCode\":\"Saudi2GoOTA\",\"nameArabic\":\"-\",\"nameEnglish\":\"Saudi2GoOTA\",\"isActive\":true,\"isEnable\":true},{\"otaCode\":\"EasyUmrahOTA\",\"nameArabic\":\"-\",\"nameEnglish\":\"EasyUmrahOTA\",\"isActive\":true,\"isEnable\":true}]}\" contains \"content\"."},{"name":"stepLog","value":"Assertion \"ValidateEquals\" PASSED. Expected and Actual values are attached. Comparison Type \"CONTAINS\". Validation Type \"POSITIVE\"."},{"name":"attachments","value":"[[Validation Test Data, Expected Value, content], [Validation Test Data, Actual Value, {\"page\":0,\"size\":20,\"totalPages\":3,\"totalElements\":47,\"content\":[{\"otaCode\":\"agoda\",\"nameArabic\":\"-\",\"nameEnglish\":\"agoda_old\",\"isActive\":true,\"isEnable\":true},{\"otaCode\":\"Mawasim\",\"nameArabic\":\"-\",\"nameEnglish\":\"MawasimOTA\",\"isActive\":true,\"isEnable\":true},{\"otaCode\":\"SaudiaHolidaysOTA\",\"nameArabic\":\"-\",\"nameEnglish\":\"SaudiaHolidaysOTA\",\"isActive\":true,\"isEnable\":true},{\"otaCode\":\"HotelGate\",\"nameArabic\":\"-\",\"nameEnglish\":\"HotelGate\",\"isActive\":true,\"isEnable\":false},{\"otaCode\":\"AlrajhiOTA\",\"nameArabic\":\"-\",\"nameEnglish\":\"AlrajhiOTA\",\"isActive\":true,\"isEnable\":true},{\"otaCode\":\"ELAF_OTA\",\"nameArabic\":\"-\",\"nameEnglish\":\"Elaf Travel and Tourism\",\"isActive\":true,\"isEnable\":true},{\"otaCode\":\"WebBedsOTA\",\"nameArabic\":\"-\",\"nameEnglish\":\"WebBeds OTA\",\"isActive\":true,\"isEnable\":true},{\"otaCode\":\"U1470\",\"nameArabic\":\"-\",\"nameEnglish\":\"UmrahOTA\",\"isActive\":true,\"isEnable\":true},{\"otaCode\":\"MyHotel\",\"nameArabic\":\"-\",\"nameEnglish\":\"MyHotel\",\"isActive\":true,\"isEnable\":true},{\"otaCode\":\"Taqneen\",\"nameArabic\":\"-\",\"nameEnglish\":\"Taqneen\",\"isActive\":true,\"isEnable\":true},{\"otaCode\":\"ZamzamOTA\",\"nameArabic\":\"-\",\"nameEnglish\":\"ZamzamOTA\",\"isActive\":true,\"isEnable\":false},{\"otaCode\":\"HuloolAl-Umrah\",\"nameArabic\":\"-\",\"nameEnglish\":\"Hulool Al-Umrah\",\"isActive\":true,\"isEnable\":true},{\"otaCode\":\"UmrahGate\",\"nameArabic\":\"-\",\"nameEnglish\":\"UmrahGate\",\"isActive\":true,\"isEnable\":true},{\"otaCode\":\"WaytoUmrah\",\"nameArabic\":\"-\",\"nameEnglish\":\"WaytoUmrah\",\"isActive\":true,\"isEnable\":true},{\"otaCode\":\"HUBOOKING\",\"nameArabic\":\"-\",\"nameEnglish\":\"HUBOOKING\",\"isActive\":true,\"isEnable\":true},{\"otaCode\":\"MahtatAlAlamOTA\",\"nameArabic\":\"-\",\"nameEnglish\":\"Mahtat Al-Alam\",\"isActive\":true,\"isEnable\":true},{\"otaCode\":\"Akbar\",\"nameArabic\":\"-\",\"nameEnglish\":\"AKBAR TRAVELS OF INDIA PVT LTD\",\"isActive\":true,\"isEnable\":true},{\"otaCode\":\"AnjumOTA\",\"nameArabic\":\"-\",\"nameEnglish\":\"Anjum OTA\",\"isActive\":true,\"isEnable\":false},{\"otaCode\":\"Saudi2GoOTA\",\"nameArabic\":\"-\",\"nameEnglish\":\"Saudi2GoOTA\",\"isActive\":true,\"isEnable\":true},{\"otaCode\":\"EasyUmrahOTA\",\"nameArabic\":\"-\",\"nameEnglish\":\"EasyUmrahOTA\",\"isActive\":true,\"isEnable\":true}]}]]"}],"start":1677582988440,"stop":1677582988442},{"name":"Assertion Passed: Check that content object is not null.","status":"passed","stage":"finished","steps":[],"attachments":[{"name":"Validation Test Data - Expected Value","source":"5703a523-963a-4243-9d8b-6531b48c8711-attachment"},{"name":"Validation Test Data - Actual Value","source":"d4742860-abc9-494f-a668-723e534223a0-attachment"}],"parameters":[{"name":"customLog","value":"Assertion Passed: Check that content object is not null."},{"name":"stepLog","value":"Assertion \"ValidateEquals\" PASSED. Expected and Actual values are attached. Comparison Type \"EQUALS\". Validation Type \"NEGATIVE\"."},{"name":"attachments","value":"[[Validation Test Data, Expected Value, null], [Validation Test Data, Actual Value, [{\"otaCode\":\"agoda\",\"nameArabic\":\"-\",\"nameEnglish\":\"agoda_old\",\"isActive\":true,\"isEnable\":true},{\"otaCode\":\"Mawasim\",\"nameArabic\":\"-\",\"nameEnglish\":\"MawasimOTA\",\"isActive\":true,\"isEnable\":true},{\"otaCode\":\"SaudiaHolidaysOTA\",\"nameArabic\":\"-\",\"nameEnglish\":\"SaudiaHolidaysOTA\",\"isActive\":true,\"isEnable\":true},{\"otaCode\":\"HotelGate\",\"nameArabic\":\"-\",\"nameEnglish\":\"HotelGate\",\"isActive\":true,\"isEnable\":false},{\"otaCode\":\"AlrajhiOTA\",\"nameArabic\":\"-\",\"nameEnglish\":\"AlrajhiOTA\",\"isActive\":true,\"isEnable\":true},{\"otaCode\":\"ELAF_OTA\",\"nameArabic\":\"-\",\"nameEnglish\":\"Elaf Travel and Tourism\",\"isActive\":true,\"isEnable\":true},{\"otaCode\":\"WebBedsOTA\",\"nameArabic\":\"-\",\"nameEnglish\":\"WebBeds OTA\",\"isActive\":true,\"isEnable\":true},{\"otaCode\":\"U1470\",\"nameArabic\":\"-\",\"nameEnglish\":\"UmrahOTA\",\"isActive\":true,\"isEnable\":true},{\"otaCode\":\"MyHotel\",\"nameArabic\":\"-\",\"nameEnglish\":\"MyHotel\",\"isActive\":true,\"isEnable\":true},{\"otaCode\":\"Taqneen\",\"nameArabic\":\"-\",\"nameEnglish\":\"Taqneen\",\"isActive\":true,\"isEnable\":true},{\"otaCode\":\"ZamzamOTA\",\"nameArabic\":\"-\",\"nameEnglish\":\"ZamzamOTA\",\"isActive\":true,\"isEnable\":false},{\"otaCode\":\"HuloolAl-Umrah\",\"nameArabic\":\"-\",\"nameEnglish\":\"Hulool Al-Umrah\",\"isActive\":true,\"isEnable\":true},{\"otaCode\":\"UmrahGate\",\"nameArabic\":\"-\",\"nameEnglish\":\"UmrahGate\",\"isActive\":true,\"isEnable\":true},{\"otaCode\":\"WaytoUmrah\",\"nameArabic\":\"-\",\"nameEnglish\":\"WaytoUmrah\",\"isActive\":true,\"isEnable\":true},{\"otaCode\":\"HUBOOKING\",\"nameArabic\":\"-\",\"nameEnglish\":\"HUBOOKING\",\"isActive\":true,\"isEnable\":true},{\"otaCode\":\"MahtatAlAlamOTA\",\"nameArabic\":\"-\",\"nameEnglish\":\"Mahtat Al-Alam\",\"isActive\":true,\"isEnable\":true},{\"otaCode\":\"Akbar\",\"nameArabic\":\"-\",\"nameEnglish\":\"AKBAR TRAVELS OF INDIA PVT LTD\",\"isActive\":true,\"isEnable\":true},{\"otaCode\":\"AnjumOTA\",\"nameArabic\":\"-\",\"nameEnglish\":\"Anjum OTA\",\"isActive\":true,\"isEnable\":false},{\"otaCode\":\"Saudi2GoOTA\",\"nameArabic\":\"-\",\"nameEnglish\":\"Saudi2GoOTA\",\"isActive\":true,\"isEnable\":true},{\"otaCode\":\"EasyUmrahOTA\",\"nameArabic\":\"-\",\"nameEnglish\":\"EasyUmrahOTA\",\"isActive\":true,\"isEnable\":true}]]]"}],"start":1677582988443,"stop":1677582988446},{"name":"Assertion Passed: The API response schema matches that in this file \"src/test/resources/testDataFiles/Schemas/OTAs_schema.json\".","status":"passed","stage":"finished","steps":[],"attachments":[{"name":"Validation Test Data - Expected JSON Value","source":"46786613-96e0-4fc2-af67-054245440ddf-attachment.json","type":"text/json"},{"name":"Validation Test Data - Actual JSON Value","source":"c333c046-808d-4ed6-8d7f-48ceb4d95239-attachment.json","type":"text/json"}],"parameters":[{"name":"customLog","value":"Assertion Passed: The API response schema matches that in this file \"src/test/resources/testDataFiles/Schemas/OTAs_schema.json\"."},{"name":"stepLog","value":"Assertion \"ValidateResponseFileSchema\" PASSED. Expected \"Response data should match the JSON File in this path 'C:\\eclipse-workspace\\MyProjects\\TASystemsAPIs\\src\\test\\resources\\testDataFiles\\Schemas\\OTAs_schema.json'\" and Actual \"TRUE\". Comparison Type \"EQUALS\". Validation Type \"POSITIVE\"."},{"name":"attachments","value":"[[Validation Test Data, Expected JSON Value, java.io.ByteArrayInputStream@7d60ab], [Validation Test Data, Actual JSON Value, java.io.ByteArrayInputStream@549f5561]]"}],"start":1677582988459,"stop":1677582988464}],"attachments":[{"name":"SHAFT Engine Logs - Current Method log: Valid_GET_all_OTAs_Rq_TC","source":"7b9111f9-fbe5-4078-8a9c-70f5a82e3192-attachment.txt","type":"text/plain"}],"parameters":[],"start":1677582986878,"stop":1677582988466}