
################################################################################################################################################
Starting Execution:	"1 out of 5" test cases in the current suite
Test Method:		"SteeringCompanyAPI_TestCases.Test_Lookups_Cases.Valid_GET_all_cities_Lookups_Rq_TC"
Test Description:	"TC001 - Perform Get all cities API with valid user name and password"
################################################################################################################################################
[ReportManager] File Action "DoesFileExist" successfully performed. With the following test data "File Path: "SteeringCompanyAPI_TestData/SteeringCompanyAPI_TestData.xlsx"". @19-12-2022 16:20:11.0951 PM
[ReportManager] Loaded Test Data: "src/test/resources/testDataFiles/SteeringCompanyAPI_TestData/SteeringCompanyAPI_TestData.xlsx". @19-12-2022 16:20:12.0040 PM
[ReportManager] Successfully created attachment "Test Data - Excel" @19-12-2022 16:20:12.0047 PM
[ReportManager] Response status code: "200", status line: "HTTP/1.1 200 OK" @19-12-2022 16:20:16.0765 PM
[ReportManager] Assertion Passed: Evaluating the actual response status code against the expected one... @19-12-2022 16:20:16.0778 PM
[ReportManager] Perform request "POST | Target Status Code: 200 | Service URL: https://auth-demo.np.transporticonline.com/auth/realms/tic/protocol/openid-connect/token | Content Type: application/x-www-form-urlencoded | Response Time: 2075ms". @19-12-2022 16:20:18.0603 PM
[ReportManager] Successfully created attachment "API Request - Specifications" @19-12-2022 16:20:18.0606 PM
[ReportManager] Successfully created attachment "API Request - Body" @19-12-2022 16:20:18.0610 PM
[ReportManager] Successfully created attachment "API Response - JSON Body" @19-12-2022 16:20:19.0155 PM
[ReportManager] Assertion Passed: Check Response Status Code is 200 and it is valid. @19-12-2022 16:20:19.0158 PM
[ReportManager] File Action "DoesFileExist" successfully performed. With the following test data "File Path: "SteeringCompanyAPI_TestData/SteeringCompanyAPI_TestData.xlsx"". @19-12-2022 16:20:19.0192 PM
[ReportManager] Loaded Test Data: "src/test/resources/testDataFiles/SteeringCompanyAPI_TestData/SteeringCompanyAPI_TestData.xlsx". @19-12-2022 16:20:19.0255 PM
[ReportManager] Successfully created attachment "Test Data - Excel" @19-12-2022 16:20:19.0257 PM
[ReportManager] Response status code: "200", status line: "HTTP/1.1 200 " @19-12-2022 16:20:19.0916 PM
[ReportManager] Assertion Passed: Evaluating the actual response status code against the expected one... @19-12-2022 16:20:19.0918 PM
[ReportManager] Perform request "GET | Target Status Code: 200 | Service URL: https://api-demo.np.transporticonline.com/steeringcompanies/v1/lookups/cities | Content Type: */* | Response Time: 644ms". @19-12-2022 16:20:19.0983 PM
[ReportManager] Successfully created attachment "API Request - Specifications" @19-12-2022 16:20:19.0984 PM
[ReportManager] Successfully created attachment "API Response - JSON Body" @19-12-2022 16:20:19.0989 PM
[ReportManager] Assertion Passed: "200" is equal to "200". @19-12-2022 16:20:19.0990 PM
[ReportManager] Verification Passed: "644" is greater than or equal to "1.1". @19-12-2022 16:20:19.0993 PM
[ReportManager] Verification Passed: "644" is less than or equal to "10000". @19-12-2022 16:20:19.0995 PM
[ReportManager] Assertion Passed: "{"page":0,"size":20,"totalPages":36,"totalElements":709,"content":[{"id":36,"nameArabic":"??????????","nameEnglish":"Kuala Lumpur","isActive":true,"lastUpdated":"2022-06-02T01:21:49Z","sectors":null},{"id":849,"nameArabic":"???????","nameEnglish":"Solngen","isActive":true,"lastUpdated":"2022-06-02T01:37:02Z","sectors":null},{"id":1006,"nameArabic":"??????","nameEnglish":"FRUNZE","isActive":true,"lastUpdated":"2022-06-02T00:20:05Z","sectors":null},{"id":985,"nameArabic":"??????","nameEnglish":"KANDAHAR","isActive":true,"lastUpdated":"2022-06-02T00:25:20Z","sectors":null},{"id":736,"nameArabic":"?????","nameEnglish":"Tabrka","isActive":true,"lastUpdated":"2022-06-02T01:16:50Z","sectors":null},{"id":953,"nameArabic":"?????","nameEnglish":"Sohag","isActive":true,"lastUpdated":"2022-06-02T00:25:24Z","sectors":null},{"id":816,"nameArabic":"??????","nameEnglish":"Cochin","isActive":true,"lastUpdated":"2022-06-02T01:06:13Z","sectors":null},{"id":789,"nameArabic":"???? ????","nameEnglish":"Faisalabad","isActive":true,"lastUpdated":"2022-06-02T01:27:12Z","sectors":null},{"id":1013,"nameArabic":"?????","nameEnglish":"KAZAN","isActive":true,"lastUpdated":"2022-06-02T00:37:19Z","sectors":null},{"id":794,"nameArabic":"???????","nameEnglish":"KAYSERI","isActive":true,"lastUpdated":"2022-06-02T01:21:58Z","sectors":null},{"id":764,"nameArabic":"????","nameEnglish":"Tangier","isActive":true,"lastUpdated":"2022-06-02T01:27:13Z","sectors":null},{"id":780,"nameArabic":"??????","nameEnglish":"Shahyraz","isActive":true,"lastUpdated":"2022-06-02T00:37:28Z","sectors":null},{"id":712,"nameArabic":"?????","nameEnglish":"Tashkent","isActive":true,"lastUpdated":"2022-06-02T01:27:13Z","sectors":null},{"id":824,"nameArabic":"??????","nameEnglish":"Samarqand","isActive":true,"lastUpdated":"2022-06-02T00:37:28Z","sectors":null},{"id":993,"nameArabic":"?????","nameEnglish":"KRBI","isActive":true,"lastUpdated":"2022-06-02T01:22:03Z","sectors":null},{"id":820,"nameArabic":"???????","nameEnglish":"CALICUT","isActive":true,"lastUpdated":"2022-06-02T01:27:21Z","sectors":null},{"id":91,"nameArabic":"????","nameEnglish":"KANO","isActive":true,"lastUpdated":"2022-06-02T01:22:03Z","sectors":null},{"id":125,"nameArabic":"????","nameEnglish":"Kabul","isActive":true,"lastUpdated":"2022-06-02T00:42:58Z","sectors":null},{"id":34,"nameArabic":"?????","nameEnglish":"Vienna","isActive":true,"lastUpdated":"2022-06-02T00:42:59Z","sectors":null},{"id":67,"nameArabic":"?????","nameEnglish":"Sanaa","isActive":true,"lastUpdated":"2022-06-02T00:55:27Z","sectors":null}]}" contains "content". @19-12-2022 16:20:20.0004 PM
[ReportManager] Successfully created attachment "Validation Test Data - Expected Value" @19-12-2022 16:20:20.0007 PM
[ReportManager] Successfully created attachment "Validation Test Data - Actual Value" @19-12-2022 16:20:20.0010 PM
[ReportManager] Get response jsonvalue "content". @19-12-2022 16:20:20.0310 PM
[ReportManager] Assertion Passed: Check that content object is not null. @19-12-2022 16:20:20.0311 PM
[ReportManager] Successfully created attachment "Validation Test Data - Expected Value" @19-12-2022 16:20:20.0313 PM
[ReportManager] Successfully created attachment "Validation Test Data - Actual Value" @19-12-2022 16:20:20.0316 PM
[ReportManager] File Action "DoesFileExist" successfully performed. With the following test data "File Path: "Lookups_cities_schema.json"". @19-12-2022 16:20:20.0318 PM
[ReportManager] File Action "DoesFileExist" successfully performed. With the following test data "File Path: "src/test/resources/testDataFiles/Lookups_cities_schema.json"". @19-12-2022 16:20:20.0319 PM
[ReportManager] File Action "GetAbsolutePath" successfully performed. With the following test data "Relative Folder Path: "src/test/resources/testDataFiles/Lookups_cities_schema.json"". @19-12-2022 16:20:20.0321 PM
[ReportManager] File Action "DoesFileExist" successfully performed. With the following test data "File Path: "C:\eclipse-workspace\MyProjects\TASystemsAPIs\src\test\resources\testDataFiles\Lookups_cities_schema.json"". @19-12-2022 16:20:22.0075 PM
[ReportManager] File Action "GetAbsolutePath" successfully performed. With the following test data "Relative Folder Path: "C:\eclipse-workspace\MyProjects\TASystemsAPIs\src\test\resources\testDataFiles\Lookups_cities_schema.json"". @19-12-2022 16:20:22.0077 PM
[ReportManager] File Action "ReadFile" successfully performed. With the following test data "File Path: "C:\eclipse-workspace\MyProjects\TASystemsAPIs\src\test\resources\testDataFiles\Lookups_cities_schema.json"". @19-12-2022 16:20:22.0078 PM
[ReportManager] Assertion Passed: The API response schema matches that in this file "src/test/resources/testDataFiles/Lookups_cities_schema.json". @19-12-2022 16:20:22.0090 PM
[ReportManager] Successfully created attachment "Validation Test Data - Expected JSON Value" @19-12-2022 16:20:22.0095 PM
[ReportManager] Successfully created attachment "Validation Test Data - Actual JSON Value" @19-12-2022 16:20:22.0097 PM