{"uuid":"d148e06e-b8ef-4968-b1d0-95633c4e2e5c","historyId":"3cb044767af6f7737554bcc7b11e9225","fullName":"SteeringCompanyAPI_TestCases.Test_Commissions_Cases.Valid_GET_all_OTAs_by_Qry_Rq_TC","labels":[{"name":"package","value":"SteeringCompanyAPI_TestCases.Test_Commissions_Cases"},{"name":"testClass","value":"SteeringCompanyAPI_TestCases.Test_Commissions_Cases"},{"name":"testMethod","value":"Valid_GET_all_OTAs_by_Qry_Rq_TC"},{"name":"parentSuite","value":"Suite"},{"name":"suite","value":"Test"},{"name":"subSuite","value":"SteeringCompanyAPI_TestCases.Test_Commissions_Cases"},{"name":"host","value":"TW-1056"},{"name":"thread","value":"12248@TW-1056.main(1)"},{"name":"framework","value":"testng"},{"name":"language","value":"java"},{"name":"story","value":"Retrieving All Active OTAs with Pagination"},{"name":"severity","value":"critical"}],"links":[],"name":"TC017  -OTAs- Perform Get all OTAs API with pagination with valid user name and password","status":"passed","statusDetails":{"known":false,"muted":false,"flaky":false},"stage":"finished","steps":[{"name":"Loaded Test Data: \"src/test/resources/testDataFiles/SteeringCompanyAPI_TestData/SteeringCompanyAPI_TestData.xlsx\".","status":"passed","stage":"finished","steps":[],"attachments":[{"name":"Test Data - Excel","source":"fbbf9eb5-9077-41b7-bdb0-3179a0fb9690-attachment.xlsx","type":"application/vnd.openxmlformats-officedocument.spreadsheetml.sheet"}],"parameters":[{"name":"logText","value":"Loaded Test Data: \"src/test/resources/testDataFiles/SteeringCompanyAPI_TestData/SteeringCompanyAPI_TestData.xlsx\"."},{"name":"attachments","value":"[[Test Data, Excel, java.io.FileInputStream@4fbabaca]]"}],"start":1675774579421,"stop":1675774579423},{"name":"Assertion Passed: Evaluating the actual response status code against the expected one...","status":"passed","stage":"finished","steps":[],"attachments":[],"parameters":[{"name":"customLog","value":"Assertion Passed: Evaluating the actual response status code against the expected one..."},{"name":"stepLog","value":"Assertion \"ValidateComparativeRelation\" PASSED. Expected \"200\" and Actual \"200\". Comparison Type \"EQUALS\". Validation Type \"POSITIVE\"."},{"name":"attachments","value":"null"}],"start":1675774580058,"stop":1675774580059},{"name":"Perform request \"POST | Target Status Code: 200 | Service URL: https://auth-demo.np.transporticonline.com/auth/realms/tic/protocol/openid-connect/token | Content Type: application/x-www-form-urlencoded | Response Time: 633ms\".","status":"passed","stage":"finished","steps":[],"attachments":[{"name":"API Request - Specifications","source":"b3782387-cfd7-447c-9bfd-5ec18c21a017-attachment"},{"name":"API Request - Body","source":"cd537bfa-f69d-4ab2-9d33-c3849b122f4e-attachment"},{"name":"API Response - JSON Body","source":"c1820995-a46e-40d9-8e4e-96b813a6ff3d-attachment.json","type":"text/json"}],"parameters":[{"name":"logText","value":"Perform request \"POST | Target Status Code: 200 | Service URL: https://auth-demo.np.transporticonline.com/auth/realms/tic/protocol/openid-connect/token | Content Type: application/x-www-form-urlencoded | Response Time: 633ms\"."},{"name":"attachments","value":"[[API Request, Specifications, Headers:\r\n_______________\r\n\r\nContent-Type=application/x-www-form-urlencoded\r\n\r\n], [API Request, Body, java.io.ByteArrayInputStream@15d5761d], null, [API Response, JSON Body, java.io.ByteArrayInputStream@1b1cd763]]"}],"start":1675774580082,"stop":1675774580088},{"name":"Assertion Passed: Check Response Status Code is 200 and it is valid.","status":"passed","stage":"finished","steps":[],"attachments":[],"parameters":[{"name":"customLog","value":"Assertion Passed: Check Response Status Code is 200 and it is valid."},{"name":"stepLog","value":"Assertion \"ValidateComparativeRelation\" PASSED. Expected \"200\" and Actual \"200\". Comparison Type \"EQUALS\". Validation Type \"POSITIVE\"."},{"name":"attachments","value":"null"}],"start":1675774580089,"stop":1675774580089},{"name":"Loaded Test Data: \"src/test/resources/testDataFiles/SteeringCompanyAPI_TestData/SteeringCompanyAPI_TestData.xlsx\".","status":"passed","stage":"finished","steps":[],"attachments":[{"name":"Test Data - Excel","source":"002a01a7-9dda-492d-8519-35b1c0c9fce1-attachment.xlsx","type":"application/vnd.openxmlformats-officedocument.spreadsheetml.sheet"}],"parameters":[{"name":"logText","value":"Loaded Test Data: \"src/test/resources/testDataFiles/SteeringCompanyAPI_TestData/SteeringCompanyAPI_TestData.xlsx\"."},{"name":"attachments","value":"[[Test Data, Excel, java.io.FileInputStream@679b617f]]"}],"start":1675774580148,"stop":1675774580150},{"name":"Loaded Test Data: \"src/test/resources/testDataFiles/SteeringCompanyAPI_TestData/SteeringCompanyAPI_TestData.xlsx\".","status":"passed","stage":"finished","steps":[],"attachments":[{"name":"Test Data - Excel","source":"9b0e9eba-6389-4194-a617-e2fa59ccf3f7-attachment.xlsx","type":"application/vnd.openxmlformats-officedocument.spreadsheetml.sheet"}],"parameters":[{"name":"logText","value":"Loaded Test Data: \"src/test/resources/testDataFiles/SteeringCompanyAPI_TestData/SteeringCompanyAPI_TestData.xlsx\"."},{"name":"attachments","value":"[[Test Data, Excel, java.io.FileInputStream@68f4a142]]"}],"start":1675774580188,"stop":1675774580189},{"name":"Loaded Test Data: \"src/test/resources/testDataFiles/SteeringCompanyAPI_TestData/SteeringCompanyAPI_TestData.xlsx\".","status":"passed","stage":"finished","steps":[],"attachments":[{"name":"Test Data - Excel","source":"219b3d3c-6faf-4db5-8f74-50277af9e4e4-attachment.xlsx","type":"application/vnd.openxmlformats-officedocument.spreadsheetml.sheet"}],"parameters":[{"name":"logText","value":"Loaded Test Data: \"src/test/resources/testDataFiles/SteeringCompanyAPI_TestData/SteeringCompanyAPI_TestData.xlsx\"."},{"name":"attachments","value":"[[Test Data, Excel, java.io.FileInputStream@31f52510]]"}],"start":1675774580224,"stop":1675774580226},{"name":"Assertion Passed: Evaluating the actual response status code against the expected one...","status":"passed","stage":"finished","steps":[],"attachments":[],"parameters":[{"name":"customLog","value":"Assertion Passed: Evaluating the actual response status code against the expected one..."},{"name":"stepLog","value":"Assertion \"ValidateComparativeRelation\" PASSED. Expected \"200\" and Actual \"200\". Comparison Type \"EQUALS\". Validation Type \"POSITIVE\"."},{"name":"attachments","value":"null"}],"start":1675774580748,"stop":1675774580748},{"name":"Perform request \"GET | Target Status Code: 200 | Service URL: https://api-demo.np.transporticonline.com/steeringcompanies/v1/otas | Content Type: */* | Response Time: 521ms\".","status":"passed","stage":"finished","steps":[],"attachments":[{"name":"API Request - Specifications","source":"ea401996-c359-4b52-9e3e-f2c119bb9748-attachment"},{"name":"API Response - JSON Body","source":"182fa92a-3477-4d12-801d-847f7f84df43-attachment.json","type":"text/json"}],"parameters":[{"name":"logText","value":"Perform request \"GET | Target Status Code: 200 | Service URL: https://api-demo.np.transporticonline.com/steeringcompanies/v1/otas | Content Type: */* | Response Time: 521ms\"."},{"name":"attachments","value":"[[API Request, Specifications, Headers:\r\n_______________\r\n\r\nAuthorization=Bearer eyJhbGciOiJSUzI1NiIsInR5cCIgOiAiSldUIiwia2lkIiA6ICJjck9ORDFNdFVPVWhzS2Mtb0ppVFFmb0o1d1l4REF6Y3k0ZjNYZ0dveGdZIn0.eyJleHAiOjE2NzU3OTYxNzcsImlhdCI6MTY3NTc3NDU3NywianRpIjoiNzcxZGNiMDYtZjBkZi00MWE5LTgyMzctMDU2MWQ0MTljNWM3IiwiaXNzIjoiaHR0cHM6Ly9hdXRoLWRlbW8ubnAudHJhbnNwb3J0aWNvbmxpbmUuY29tL2F1dGgvcmVhbG1zL3RpYyIsImF1ZCI6ImFjY291bnQiLCJzdWIiOiI0ZTk3NmQ0NC1iM2ZkLTRjYTktODk1Ny0wYWJiODUwNzNhNzQiLCJ0eXAiOiJCZWFyZXIiLCJhenAiOiJ0aWMtYXBpIiwic2Vzc2lvbl9zdGF0ZSI6IjJkNmEzNmI4LTYwZjUtNDRjMC1hMTRjLTFkYThjY2VlOWYzYyIsImFjciI6IjEiLCJhbGxvd2VkLW9yaWdpbnMiOlsiaHR0cHM6Ly9hcGktZGV2Lm5wLnRyYW5zcG9ydGljb25saW5lLmNvbSJdLCJyZWFsbV9hY2Nlc3MiOnsicm9sZXMiOlsib2ZmbGluZV9hY2Nlc3MiLCJkZWZhdWx0LXJvbGVzLXRpYyIsInVtYV9hdXRob3JpemF0aW9uIiwidXNlciJdfSwicmVzb3VyY2VfYWNjZXNzIjp7ImFjY291bnQiOnsicm9sZXMiOlsibWFuYWdlLWFjY291bnQiLCJtYW5hZ2UtYWNjb3VudC1saW5rcyIsInZpZXctcHJvZmlsZSJdfX0sInNjb3BlIjoiZW1haWwgcHJvZmlsZSIsInNpZCI6IjJkNmEzNmI4LTYwZjUtNDRjMC1hMTRjLTFkYThjY2VlOWYzYyIsImVtYWlsX3ZlcmlmaWVkIjpmYWxzZSwicHJlZmVycmVkX3VzZXJuYW1lIjoidG9raGkiLCJ0Y0lkIjoiMzE5OTU3In0.F3q_UDq-8oxQp36S0wlBuht9VVZmfCjht2PssmT9w-Zb_7D8rAMA8D3CRxWyxDaZCEFPKcJCe0Mj50hFpAgEsUlKKg0DX9XPdJP6ggqBNvUqrIiTqWVlmvKvENLb7n6Q6gRFxC6xC2sMgFIA89lnFwL3WhTykF-pPGVlH4TWgLdSuDfR_w2Vw9ITpt2UgKU2jeV-R_c_c81Z-nIsK13YuVTK5JKtXtjfYsLaBnwO_w97r8n-4zoUI7kjApEu3RChK6qh2MXjRULYAvSG_3G6z1G8XxinsoNXke80i4IcFZEcj0zu5WfvLhoaZXVpZ6KIugO0lGtIa6r-lcgToiEGRA\r\nContent-Type=*/*\r\n\r\nQuery Parameters:\r\n_______________\r\n\r\nsize=\r\npage=\r\n], null, [API Response, JSON Body, java.io.ByteArrayInputStream@60c4d706]]"}],"start":1675774580767,"stop":1675774580770},{"name":"Assertion Passed: \"200\" is equal to \"200\".","status":"passed","stage":"finished","steps":[],"attachments":[],"parameters":[{"name":"customLog","value":"Assertion Passed: \"200\" is equal to \"200\"."},{"name":"stepLog","value":"Assertion \"ValidateComparativeRelation\" PASSED. Expected \"200\" and Actual \"200\". Comparison Type \"EQUALS\". Validation Type \"POSITIVE\"."},{"name":"attachments","value":"null"}],"start":1675774580770,"stop":1675774580770},{"name":"Verification Passed: \"521\" is greater than or equal to \"1.1\".","status":"passed","stage":"finished","steps":[],"attachments":[],"parameters":[{"name":"customLog","value":"Verification Passed: \"521\" is greater than or equal to \"1.1\"."},{"name":"stepLog","value":"Verification \"ValidateComparativeRelation\" PASSED. Expected \"1.1\" and Actual \"521\". Comparison Type \"GREATER_THAN_OR_EQUALS\". Validation Type \"POSITIVE\"."},{"name":"attachments","value":"null"}],"start":1675774580770,"stop":1675774580770},{"name":"Verification Passed: \"521\" is less than or equal to \"10000\".","status":"passed","stage":"finished","steps":[],"attachments":[],"parameters":[{"name":"customLog","value":"Verification Passed: \"521\" is less than or equal to \"10000\"."},{"name":"stepLog","value":"Verification \"ValidateComparativeRelation\" PASSED. Expected \"10000\" and Actual \"521\". Comparison Type \"LESS_THAN_OR_EQUALS\". Validation Type \"POSITIVE\"."},{"name":"attachments","value":"null"}],"start":1675774580770,"stop":1675774580770},{"name":"Assertion Passed: \"{\"page\":0,\"size\":20,\"totalPages\":3,\"totalElements\":47,\"content\":[{\"otaCode\":\"agoda\",\"nameArabic\":\"-\",\"nameEnglish\":\"agoda_old\",\"isActive\":true,\"isEnable\":true},{\"otaCode\":\"Mawasim\",\"nameArabic\":\"-\",\"nameEnglish\":\"MawasimOTA\",\"isActive\":true,\"isEnable\":true},{\"otaCode\":\"SaudiaHolidaysOTA\",\"nameArabic\":\"-\",\"nameEnglish\":\"SaudiaHolidaysOTA\",\"isActive\":true,\"isEnable\":true},{\"otaCode\":\"HotelGate\",\"nameArabic\":\"-\",\"nameEnglish\":\"HotelGate\",\"isActive\":true,\"isEnable\":false},{\"otaCode\":\"AlrajhiOTA\",\"nameArabic\":\"-\",\"nameEnglish\":\"AlrajhiOTA\",\"isActive\":true,\"isEnable\":true},{\"otaCode\":\"ELAF_OTA\",\"nameArabic\":\"-\",\"nameEnglish\":\"Elaf Travel and Tourism\",\"isActive\":true,\"isEnable\":true},{\"otaCode\":\"WebBedsOTA\",\"nameArabic\":\"-\",\"nameEnglish\":\"WebBeds OTA\",\"isActive\":true,\"isEnable\":true},{\"otaCode\":\"U1470\",\"nameArabic\":\"-\",\"nameEnglish\":\"UmrahOTA\",\"isActive\":true,\"isEnable\":true},{\"otaCode\":\"MyHotel\",\"nameArabic\":\"-\",\"nameEnglish\":\"MyHotel\",\"isActive\":true,\"isEnable\":true},{\"otaCode\":\"Taqneen\",\"nameArabic\":\"-\",\"nameEnglish\":\"Taqneen\",\"isActive\":true,\"isEnable\":true},{\"otaCode\":\"ZamzamOTA\",\"nameArabic\":\"-\",\"nameEnglish\":\"ZamzamOTA\",\"isActive\":true,\"isEnable\":false},{\"otaCode\":\"HuloolAl-Umrah\",\"nameArabic\":\"-\",\"nameEnglish\":\"Hulool Al-Umrah\",\"isActive\":true,\"isEnable\":true},{\"otaCode\":\"UmrahGate\",\"nameArabic\":\"-\",\"nameEnglish\":\"UmrahGate\",\"isActive\":true,\"isEnable\":true},{\"otaCode\":\"WaytoUmrah\",\"nameArabic\":\"-\",\"nameEnglish\":\"WaytoUmrah\",\"isActive\":true,\"isEnable\":true},{\"otaCode\":\"HUBOOKING\",\"nameArabic\":\"-\",\"nameEnglish\":\"HUBOOKING\",\"isActive\":true,\"isEnable\":true},{\"otaCode\":\"MahtatAlAlamOTA\",\"nameArabic\":\"-\",\"nameEnglish\":\"Mahtat Al-Alam\",\"isActive\":true,\"isEnable\":true},{\"otaCode\":\"Akbar\",\"nameArabic\":\"-\",\"nameEnglish\":\"AKBAR TRAVELS OF INDIA PVT LTD\",\"isActive\":true,\"isEnable\":true},{\"otaCode\":\"AnjumOTA\",\"nameArabic\":\"-\",\"nameEnglish\":\"Anjum OTA\",\"isActive\":true,\"isEnable\":false},{\"otaCode\":\"Saudi2GoOTA\",\"nameArabic\":\"-\",\"nameEnglish\":\"Saudi2GoOTA\",\"isActive\":true,\"isEnable\":true},{\"otaCode\":\"EasyUmrahOTA\",\"nameArabic\":\"-\",\"nameEnglish\":\"EasyUmrahOTA\",\"isActive\":true,\"isEnable\":true}]}\" contains \"content\".","status":"passed","stage":"finished","steps":[],"attachments":[{"name":"Validation Test Data - Expected Value","source":"e0d8262c-319e-43e4-b14d-0b98aa6b8b3c-attachment"},{"name":"Validation Test Data - Actual Value","source":"a8f17f06-46a4-4371-8e33-22cc466d2b1d-attachment"}],"parameters":[{"name":"customLog","value":"Assertion Passed: \"{\"page\":0,\"size\":20,\"totalPages\":3,\"totalElements\":47,\"content\":[{\"otaCode\":\"agoda\",\"nameArabic\":\"-\",\"nameEnglish\":\"agoda_old\",\"isActive\":true,\"isEnable\":true},{\"otaCode\":\"Mawasim\",\"nameArabic\":\"-\",\"nameEnglish\":\"MawasimOTA\",\"isActive\":true,\"isEnable\":true},{\"otaCode\":\"SaudiaHolidaysOTA\",\"nameArabic\":\"-\",\"nameEnglish\":\"SaudiaHolidaysOTA\",\"isActive\":true,\"isEnable\":true},{\"otaCode\":\"HotelGate\",\"nameArabic\":\"-\",\"nameEnglish\":\"HotelGate\",\"isActive\":true,\"isEnable\":false},{\"otaCode\":\"AlrajhiOTA\",\"nameArabic\":\"-\",\"nameEnglish\":\"AlrajhiOTA\",\"isActive\":true,\"isEnable\":true},{\"otaCode\":\"ELAF_OTA\",\"nameArabic\":\"-\",\"nameEnglish\":\"Elaf Travel and Tourism\",\"isActive\":true,\"isEnable\":true},{\"otaCode\":\"WebBedsOTA\",\"nameArabic\":\"-\",\"nameEnglish\":\"WebBeds OTA\",\"isActive\":true,\"isEnable\":true},{\"otaCode\":\"U1470\",\"nameArabic\":\"-\",\"nameEnglish\":\"UmrahOTA\",\"isActive\":true,\"isEnable\":true},{\"otaCode\":\"MyHotel\",\"nameArabic\":\"-\",\"nameEnglish\":\"MyHotel\",\"isActive\":true,\"isEnable\":true},{\"otaCode\":\"Taqneen\",\"nameArabic\":\"-\",\"nameEnglish\":\"Taqneen\",\"isActive\":true,\"isEnable\":true},{\"otaCode\":\"ZamzamOTA\",\"nameArabic\":\"-\",\"nameEnglish\":\"ZamzamOTA\",\"isActive\":true,\"isEnable\":false},{\"otaCode\":\"HuloolAl-Umrah\",\"nameArabic\":\"-\",\"nameEnglish\":\"Hulool Al-Umrah\",\"isActive\":true,\"isEnable\":true},{\"otaCode\":\"UmrahGate\",\"nameArabic\":\"-\",\"nameEnglish\":\"UmrahGate\",\"isActive\":true,\"isEnable\":true},{\"otaCode\":\"WaytoUmrah\",\"nameArabic\":\"-\",\"nameEnglish\":\"WaytoUmrah\",\"isActive\":true,\"isEnable\":true},{\"otaCode\":\"HUBOOKING\",\"nameArabic\":\"-\",\"nameEnglish\":\"HUBOOKING\",\"isActive\":true,\"isEnable\":true},{\"otaCode\":\"MahtatAlAlamOTA\",\"nameArabic\":\"-\",\"nameEnglish\":\"Mahtat Al-Alam\",\"isActive\":true,\"isEnable\":true},{\"otaCode\":\"Akbar\",\"nameArabic\":\"-\",\"nameEnglish\":\"AKBAR TRAVELS OF INDIA PVT LTD\",\"isActive\":true,\"isEnable\":true},{\"otaCode\":\"AnjumOTA\",\"nameArabic\":\"-\",\"nameEnglish\":\"Anjum OTA\",\"isActive\":true,\"isEnable\":false},{\"otaCode\":\"Saudi2GoOTA\",\"nameArabic\":\"-\",\"nameEnglish\":\"Saudi2GoOTA\",\"isActive\":true,\"isEnable\":true},{\"otaCode\":\"EasyUmrahOTA\",\"nameArabic\":\"-\",\"nameEnglish\":\"EasyUmrahOTA\",\"isActive\":true,\"isEnable\":true}]}\" contains \"content\"."},{"name":"stepLog","value":"Assertion \"ValidateEquals\" PASSED. Expected and Actual values are attached. Comparison Type \"CONTAINS\". Validation Type \"POSITIVE\"."},{"name":"attachments","value":"[[Validation Test Data, Expected Value, content], [Validation Test Data, Actual Value, {\"page\":0,\"size\":20,\"totalPages\":3,\"totalElements\":47,\"content\":[{\"otaCode\":\"agoda\",\"nameArabic\":\"-\",\"nameEnglish\":\"agoda_old\",\"isActive\":true,\"isEnable\":true},{\"otaCode\":\"Mawasim\",\"nameArabic\":\"-\",\"nameEnglish\":\"MawasimOTA\",\"isActive\":true,\"isEnable\":true},{\"otaCode\":\"SaudiaHolidaysOTA\",\"nameArabic\":\"-\",\"nameEnglish\":\"SaudiaHolidaysOTA\",\"isActive\":true,\"isEnable\":true},{\"otaCode\":\"HotelGate\",\"nameArabic\":\"-\",\"nameEnglish\":\"HotelGate\",\"isActive\":true,\"isEnable\":false},{\"otaCode\":\"AlrajhiOTA\",\"nameArabic\":\"-\",\"nameEnglish\":\"AlrajhiOTA\",\"isActive\":true,\"isEnable\":true},{\"otaCode\":\"ELAF_OTA\",\"nameArabic\":\"-\",\"nameEnglish\":\"Elaf Travel and Tourism\",\"isActive\":true,\"isEnable\":true},{\"otaCode\":\"WebBedsOTA\",\"nameArabic\":\"-\",\"nameEnglish\":\"WebBeds OTA\",\"isActive\":true,\"isEnable\":true},{\"otaCode\":\"U1470\",\"nameArabic\":\"-\",\"nameEnglish\":\"UmrahOTA\",\"isActive\":true,\"isEnable\":true},{\"otaCode\":\"MyHotel\",\"nameArabic\":\"-\",\"nameEnglish\":\"MyHotel\",\"isActive\":true,\"isEnable\":true},{\"otaCode\":\"Taqneen\",\"nameArabic\":\"-\",\"nameEnglish\":\"Taqneen\",\"isActive\":true,\"isEnable\":true},{\"otaCode\":\"ZamzamOTA\",\"nameArabic\":\"-\",\"nameEnglish\":\"ZamzamOTA\",\"isActive\":true,\"isEnable\":false},{\"otaCode\":\"HuloolAl-Umrah\",\"nameArabic\":\"-\",\"nameEnglish\":\"Hulool Al-Umrah\",\"isActive\":true,\"isEnable\":true},{\"otaCode\":\"UmrahGate\",\"nameArabic\":\"-\",\"nameEnglish\":\"UmrahGate\",\"isActive\":true,\"isEnable\":true},{\"otaCode\":\"WaytoUmrah\",\"nameArabic\":\"-\",\"nameEnglish\":\"WaytoUmrah\",\"isActive\":true,\"isEnable\":true},{\"otaCode\":\"HUBOOKING\",\"nameArabic\":\"-\",\"nameEnglish\":\"HUBOOKING\",\"isActive\":true,\"isEnable\":true},{\"otaCode\":\"MahtatAlAlamOTA\",\"nameArabic\":\"-\",\"nameEnglish\":\"Mahtat Al-Alam\",\"isActive\":true,\"isEnable\":true},{\"otaCode\":\"Akbar\",\"nameArabic\":\"-\",\"nameEnglish\":\"AKBAR TRAVELS OF INDIA PVT LTD\",\"isActive\":true,\"isEnable\":true},{\"otaCode\":\"AnjumOTA\",\"nameArabic\":\"-\",\"nameEnglish\":\"Anjum OTA\",\"isActive\":true,\"isEnable\":false},{\"otaCode\":\"Saudi2GoOTA\",\"nameArabic\":\"-\",\"nameEnglish\":\"Saudi2GoOTA\",\"isActive\":true,\"isEnable\":true},{\"otaCode\":\"EasyUmrahOTA\",\"nameArabic\":\"-\",\"nameEnglish\":\"EasyUmrahOTA\",\"isActive\":true,\"isEnable\":true}]}]]"}],"start":1675774580771,"stop":1675774580774},{"name":"Assertion Passed: Check that content object is not null.","status":"passed","stage":"finished","steps":[],"attachments":[{"name":"Validation Test Data - Expected Value","source":"735854a7-0f35-4cc5-b314-083a5bd16570-attachment"},{"name":"Validation Test Data - Actual Value","source":"336c943d-7a3f-4c2d-a5d1-d06fab8f01de-attachment"}],"parameters":[{"name":"customLog","value":"Assertion Passed: Check that content object is not null."},{"name":"stepLog","value":"Assertion \"ValidateEquals\" PASSED. Expected and Actual values are attached. Comparison Type \"EQUALS\". Validation Type \"NEGATIVE\"."},{"name":"attachments","value":"[[Validation Test Data, Expected Value, null], [Validation Test Data, Actual Value, [{\"otaCode\":\"agoda\",\"nameArabic\":\"-\",\"nameEnglish\":\"agoda_old\",\"isActive\":true,\"isEnable\":true},{\"otaCode\":\"Mawasim\",\"nameArabic\":\"-\",\"nameEnglish\":\"MawasimOTA\",\"isActive\":true,\"isEnable\":true},{\"otaCode\":\"SaudiaHolidaysOTA\",\"nameArabic\":\"-\",\"nameEnglish\":\"SaudiaHolidaysOTA\",\"isActive\":true,\"isEnable\":true},{\"otaCode\":\"HotelGate\",\"nameArabic\":\"-\",\"nameEnglish\":\"HotelGate\",\"isActive\":true,\"isEnable\":false},{\"otaCode\":\"AlrajhiOTA\",\"nameArabic\":\"-\",\"nameEnglish\":\"AlrajhiOTA\",\"isActive\":true,\"isEnable\":true},{\"otaCode\":\"ELAF_OTA\",\"nameArabic\":\"-\",\"nameEnglish\":\"Elaf Travel and Tourism\",\"isActive\":true,\"isEnable\":true},{\"otaCode\":\"WebBedsOTA\",\"nameArabic\":\"-\",\"nameEnglish\":\"WebBeds OTA\",\"isActive\":true,\"isEnable\":true},{\"otaCode\":\"U1470\",\"nameArabic\":\"-\",\"nameEnglish\":\"UmrahOTA\",\"isActive\":true,\"isEnable\":true},{\"otaCode\":\"MyHotel\",\"nameArabic\":\"-\",\"nameEnglish\":\"MyHotel\",\"isActive\":true,\"isEnable\":true},{\"otaCode\":\"Taqneen\",\"nameArabic\":\"-\",\"nameEnglish\":\"Taqneen\",\"isActive\":true,\"isEnable\":true},{\"otaCode\":\"ZamzamOTA\",\"nameArabic\":\"-\",\"nameEnglish\":\"ZamzamOTA\",\"isActive\":true,\"isEnable\":false},{\"otaCode\":\"HuloolAl-Umrah\",\"nameArabic\":\"-\",\"nameEnglish\":\"Hulool Al-Umrah\",\"isActive\":true,\"isEnable\":true},{\"otaCode\":\"UmrahGate\",\"nameArabic\":\"-\",\"nameEnglish\":\"UmrahGate\",\"isActive\":true,\"isEnable\":true},{\"otaCode\":\"WaytoUmrah\",\"nameArabic\":\"-\",\"nameEnglish\":\"WaytoUmrah\",\"isActive\":true,\"isEnable\":true},{\"otaCode\":\"HUBOOKING\",\"nameArabic\":\"-\",\"nameEnglish\":\"HUBOOKING\",\"isActive\":true,\"isEnable\":true},{\"otaCode\":\"MahtatAlAlamOTA\",\"nameArabic\":\"-\",\"nameEnglish\":\"Mahtat Al-Alam\",\"isActive\":true,\"isEnable\":true},{\"otaCode\":\"Akbar\",\"nameArabic\":\"-\",\"nameEnglish\":\"AKBAR TRAVELS OF INDIA PVT LTD\",\"isActive\":true,\"isEnable\":true},{\"otaCode\":\"AnjumOTA\",\"nameArabic\":\"-\",\"nameEnglish\":\"Anjum OTA\",\"isActive\":true,\"isEnable\":false},{\"otaCode\":\"Saudi2GoOTA\",\"nameArabic\":\"-\",\"nameEnglish\":\"Saudi2GoOTA\",\"isActive\":true,\"isEnable\":true},{\"otaCode\":\"EasyUmrahOTA\",\"nameArabic\":\"-\",\"nameEnglish\":\"EasyUmrahOTA\",\"isActive\":true,\"isEnable\":true}]]]"}],"start":1675774580777,"stop":1675774580780},{"name":"Assertion Passed: The API response schema matches that in this file \"src/test/resources/testDataFiles/Schemas/OTAs_schema.json\".","status":"passed","stage":"finished","steps":[],"attachments":[{"name":"Validation Test Data - Expected JSON Value","source":"d87c8c58-6c81-4bd2-ac19-3c14b8926deb-attachment.json","type":"text/json"},{"name":"Validation Test Data - Actual JSON Value","source":"2fddbee8-f474-465e-b927-e797cfb15a30-attachment.json","type":"text/json"}],"parameters":[{"name":"customLog","value":"Assertion Passed: The API response schema matches that in this file \"src/test/resources/testDataFiles/Schemas/OTAs_schema.json\"."},{"name":"stepLog","value":"Assertion \"ValidateResponseFileSchema\" PASSED. Expected \"Response data should match the JSON File in this path 'C:\\eclipse-workspace\\MyProjects\\TASystemsAPIs\\src\\test\\resources\\testDataFiles\\Schemas\\OTAs_schema.json'\" and Actual \"TRUE\". Comparison Type \"EQUALS\". Validation Type \"POSITIVE\"."},{"name":"attachments","value":"[[Validation Test Data, Expected JSON Value, java.io.ByteArrayInputStream@61168870], [Validation Test Data, Actual JSON Value, java.io.ByteArrayInputStream@7e260d25]]"}],"start":1675774580787,"stop":1675774580789}],"attachments":[{"name":"SHAFT Engine Logs - Current Method log: Valid_GET_all_OTAs_by_Qry_Rq_TC","source":"2af4fcef-90ba-42e4-9a8a-7f6b7fdab8c3-attachment.txt","type":"text/plain"}],"parameters":[],"start":1675774579398,"stop":1675774580791}