
################################################################################################################################################
Starting Execution:	"69 out of 111" test cases in the current suite
Test Method:		"SteeringCompanyAPI_TestCases.Test_CreationalPeriod_Cases.Get_Valid_all_CreationalPeriod_by_Qry_Rq_TC"
Test Description:	"TC002  -CreationalPeriod-   Perform Get all CreationalPeriod API with pagination with valid user name and password"
################################################################################################################################################
[ReportManager] File Action "DoesFileExist" successfully performed. With the following test data "File Path: "SteeringCompanyAPI_TestData/SteeringCompanyAPI_TestData.xlsx"". @28-02-2023 13:17:10.0767 PM
[ReportManager] Loaded Test Data: "src/test/resources/testDataFiles/SteeringCompanyAPI_TestData/SteeringCompanyAPI_TestData.xlsx". @28-02-2023 13:17:10.0817 PM
[ReportManager] Successfully created attachment "Test Data - Excel" @28-02-2023 13:17:10.0818 PM
[ReportManager] Response status code: "200", status line: "HTTP/1.1 200 OK" @28-02-2023 13:17:11.0434 PM
[ReportManager] Assertion Passed: Evaluating the actual response status code against the expected one... @28-02-2023 13:17:11.0434 PM
[ReportManager] Perform request "POST | Target Status Code: 200 | Service URL: https://auth-demo.np.transporticonline.com/auth/realms/tic/protocol/openid-connect/token | Content Type: application/x-www-form-urlencoded | Response Time: 612ms". @28-02-2023 13:17:11.0452 PM
[ReportManager] Successfully created attachment "API Request - Specifications" @28-02-2023 13:17:11.0453 PM
[ReportManager] Successfully created attachment "API Request - Body" @28-02-2023 13:17:11.0453 PM
[ReportManager] Successfully created attachment "API Response - JSON Body" @28-02-2023 13:17:11.0454 PM
[ReportManager] Assertion Passed: Check Response Status Code is 200 and it is valid. @28-02-2023 13:17:11.0454 PM
[ReportManager] File Action "DoesFileExist" successfully performed. With the following test data "File Path: "SteeringCompanyAPI_TestData/SteeringCompanyAPI_TestData.xlsx"". @28-02-2023 13:17:11.0471 PM
[ReportManager] Loaded Test Data: "src/test/resources/testDataFiles/SteeringCompanyAPI_TestData/SteeringCompanyAPI_TestData.xlsx". @28-02-2023 13:17:11.0505 PM
[ReportManager] Successfully created attachment "Test Data - Excel" @28-02-2023 13:17:11.0506 PM
[ReportManager] Response status code: "200", status line: "HTTP/1.1 200 " @28-02-2023 13:17:12.0056 PM
[ReportManager] Assertion Passed: Evaluating the actual response status code against the expected one... @28-02-2023 13:17:12.0057 PM
[ReportManager] Perform request "GET | Target Status Code: 200 | Service URL: https://api-demo.np.transporticonline.com/steeringcompanies/v1/creationalPeriods | Content Type: */* | Response Time: 548ms". @28-02-2023 13:17:12.0082 PM
[ReportManager] Successfully created attachment "API Request - Specifications" @28-02-2023 13:17:12.0085 PM
[ReportManager] Successfully created attachment "API Response - JSON Body" @28-02-2023 13:17:12.0087 PM
[ReportManager] Assertion Passed: "200" is equal to "200". @28-02-2023 13:17:12.0087 PM
[ReportManager] Verification Passed: "548" is greater than or equal to "1.1". @28-02-2023 13:17:12.0088 PM
[ReportManager] Verification Passed: "548" is less than or equal to "10000". @28-02-2023 13:17:12.0088 PM
[ReportManager] Assertion Passed: "{"page":0,"size":1,"totalPages":3,"totalElements":3,"content":[{"id":188,"startDate":"2022-10-24T00:00:00Z","endDate":"2022-11-14T16:00:00Z","status":"Active","periodMaxQuotaPerPeriod":300.00,"periodProgramTemplates":[313,314,315]}]}" contains "content". @28-02-2023 13:17:12.0088 PM
[ReportManager] Get response jsonvalue "content". @28-02-2023 13:17:12.0089 PM
[ReportManager] Assertion Passed: Check that content object is not null. @28-02-2023 13:17:12.0090 PM
[ReportManager] File Action "DoesFileExist" successfully performed. With the following test data "File Path: "Schemas/CreationalPeriods_schema.json"". @28-02-2023 13:17:12.0090 PM
[ReportManager] File Action "DoesFileExist" successfully performed. With the following test data "File Path: "src/test/resources/testDataFiles/Schemas/CreationalPeriods_schema.json"". @28-02-2023 13:17:12.0091 PM
[ReportManager] File Action "GetAbsolutePath" successfully performed. With the following test data "Relative Folder Path: "src/test/resources/testDataFiles/Schemas/CreationalPeriods_schema.json"". @28-02-2023 13:17:12.0091 PM
[ReportManager] File Action "DoesFileExist" successfully performed. With the following test data "File Path: "C:\eclipse-workspace\MyProjects\TASystemsAPIs\src\test\resources\testDataFiles\Schemas\CreationalPeriods_schema.json"". @28-02-2023 13:17:12.0096 PM
[ReportManager] File Action "GetAbsolutePath" successfully performed. With the following test data "Relative Folder Path: "C:\eclipse-workspace\MyProjects\TASystemsAPIs\src\test\resources\testDataFiles\Schemas\CreationalPeriods_schema.json"". @28-02-2023 13:17:12.0096 PM
[ReportManager] File Action "ReadFile" successfully performed. With the following test data "File Path: "C:\eclipse-workspace\MyProjects\TASystemsAPIs\src\test\resources\testDataFiles\Schemas\CreationalPeriods_schema.json"". @28-02-2023 13:17:12.0096 PM
[ReportManager] Assertion Passed: The API response schema matches that in this file "src/test/resources/testDataFiles/Schemas/CreationalPeriods_schema.json". @28-02-2023 13:17:12.0097 PM
[ReportManager] Successfully created attachment "Validation Test Data - Expected JSON Value" @28-02-2023 13:17:12.0098 PM
[ReportManager] Successfully created attachment "Validation Test Data - Actual JSON Value" @28-02-2023 13:17:12.0099 PM