{
  "size": 1,
  "totalPages": 2,
  "page": 1,
  "content": [
    {
      "periodMaxQuotaPerPeriod": 100.0,
      "endDate": "2022-11-22T13:33:00Z",
      "periodProgramTemplates": [
        314
      ],
      "id": 193,
      "startDate": "2022-11-21T01:33:00Z",
      "status": "Active"
    }
  ],
  "totalElements": 2
}