{
  "size": 1,
  "totalPages": 18,
  "page": 0,
  "content": [
    {
      "lastUpdated": "2022-12-15T17:26:35.889109",
      "otaCode": "ZowarOTA",
      "baseCommission": 3.0,
      "isActive": true,
      "addCommission": 0.0
    }
  ],
  "totalElements": 18
}