
################################################################################################################################################
Starting Execution:	"2 out of 64" test cases in the current suite
Test Method:		"SteeringCompanyAPI_TestCases.Test_Lookups_Cases.Valid_GET_all_cities_Lookups_by_Qry_Rq_TC"
Test Description:	"TC002 - Perform Get all cities API by parameters Qry with valid user name and password and return with token"
################################################################################################################################################
[ReportManager] File Action "DoesFileExist" successfully performed. With the following test data "File Path: "SteeringCompanyAPI_TestData/SteeringCompanyAPI_TestData.xlsx"". @16-01-2023 14:07:01.0133 PM
[ReportManager] Loaded Test Data: "src/test/resources/testDataFiles/SteeringCompanyAPI_TestData/SteeringCompanyAPI_TestData.xlsx". @16-01-2023 14:07:01.0234 PM
[ReportManager] Successfully created attachment "Test Data - Excel" @16-01-2023 14:07:01.0236 PM
[ReportManager] Response status code: "200", status line: "HTTP/1.1 200 OK" @16-01-2023 14:07:02.0423 PM
[ReportManager] Assertion Passed: Evaluating the actual response status code against the expected one... @16-01-2023 14:07:02.0425 PM
[ReportManager] Perform request "POST | Target Status Code: 200 | Service URL: https://auth-demo.np.transporticonline.com/auth/realms/tic/protocol/openid-connect/token | Content Type: application/x-www-form-urlencoded | Response Time: 1179ms". @16-01-2023 14:07:02.0466 PM
[ReportManager] Successfully created attachment "API Request - Specifications" @16-01-2023 14:07:02.0467 PM
[ReportManager] Successfully created attachment "API Request - Body" @16-01-2023 14:07:02.0469 PM
[ReportManager] Successfully created attachment "API Response - JSON Body" @16-01-2023 14:07:02.0471 PM
[ReportManager] Assertion Passed: Check Response Status Code is 200 and it is valid. @16-01-2023 14:07:02.0472 PM
[ReportManager] File Action "DoesFileExist" successfully performed. With the following test data "File Path: "SteeringCompanyAPI_TestData/SteeringCompanyAPI_TestData.xlsx"". @16-01-2023 14:07:02.0501 PM
[ReportManager] Loaded Test Data: "src/test/resources/testDataFiles/SteeringCompanyAPI_TestData/SteeringCompanyAPI_TestData.xlsx". @16-01-2023 14:07:02.0541 PM
[ReportManager] Successfully created attachment "Test Data - Excel" @16-01-2023 14:07:02.0542 PM
[ReportManager] Response status code: "200", status line: "HTTP/1.1 200 " @16-01-2023 14:07:03.0428 PM
[ReportManager] Assertion Passed: Evaluating the actual response status code against the expected one... @16-01-2023 14:07:03.0429 PM
[ReportManager] Perform request "GET | Target Status Code: 200 | Service URL: https://api-demo.np.transporticonline.com/steeringcompanies/v1/lookups/cities | Content Type: */* | Response Time: 848ms". @16-01-2023 14:07:03.0461 PM
[ReportManager] Successfully created attachment "API Request - Specifications" @16-01-2023 14:07:03.0463 PM
[ReportManager] Successfully created attachment "API Response - JSON Body" @16-01-2023 14:07:03.0464 PM
[ReportManager] Assertion Passed: "200" is equal to "200". @16-01-2023 14:07:03.0465 PM
[ReportManager] Verification Passed: "848" is greater than or equal to "1.1". @16-01-2023 14:07:03.0466 PM
[ReportManager] Verification Passed: "848" is less than or equal to "10000". @16-01-2023 14:07:03.0467 PM
[ReportManager] Assertion Passed: "{"page":0,"size":3,"totalPages":237,"totalElements":709,"content":[{"id":36,"nameArabic":"??????????","nameEnglish":"Kuala Lumpur","isActive":true,"lastUpdated":"2022-06-02T01:21:49Z","sectors":null},{"id":849,"nameArabic":"???????","nameEnglish":"Solngen","isActive":true,"lastUpdated":"2022-06-02T01:37:02Z","sectors":null},{"id":1006,"nameArabic":"??????","nameEnglish":"FRUNZE","isActive":true,"lastUpdated":"2022-06-02T00:20:05Z","sectors":null}]}" contains "content". @16-01-2023 14:07:03.0469 PM
[ReportManager] Get response jsonvalue "content". @16-01-2023 14:07:03.0472 PM
[ReportManager] Assertion Passed: Check that content object is not null. @16-01-2023 14:07:03.0474 PM
[ReportManager] File Action "DoesFileExist" successfully performed. With the following test data "File Path: "Schemas/Lookups_cities_schema.json"". @16-01-2023 14:07:03.0476 PM
[ReportManager] File Action "DoesFileExist" successfully performed. With the following test data "File Path: "src/test/resources/testDataFiles/Schemas/Lookups_cities_schema.json"". @16-01-2023 14:07:03.0477 PM
[ReportManager] File Action "GetAbsolutePath" successfully performed. With the following test data "Relative Folder Path: "src/test/resources/testDataFiles/Schemas/Lookups_cities_schema.json"". @16-01-2023 14:07:03.0477 PM
[ReportManager] File Action "DoesFileExist" successfully performed. With the following test data "File Path: "C:\eclipse-workspace\MyProjects\TASystemsAPIs\src\test\resources\testDataFiles\Schemas\Lookups_cities_schema.json"". @16-01-2023 14:07:03.0497 PM
[ReportManager] File Action "GetAbsolutePath" successfully performed. With the following test data "Relative Folder Path: "C:\eclipse-workspace\MyProjects\TASystemsAPIs\src\test\resources\testDataFiles\Schemas\Lookups_cities_schema.json"". @16-01-2023 14:07:03.0498 PM
[ReportManager] File Action "ReadFile" successfully performed. With the following test data "File Path: "C:\eclipse-workspace\MyProjects\TASystemsAPIs\src\test\resources\testDataFiles\Schemas\Lookups_cities_schema.json"". @16-01-2023 14:07:03.0499 PM
[ReportManager] Assertion Passed: The API response schema matches that in this file "src/test/resources/testDataFiles/Schemas/Lookups_cities_schema.json". @16-01-2023 14:07:03.0504 PM
[ReportManager] Successfully created attachment "Validation Test Data - Expected JSON Value" @16-01-2023 14:07:03.0506 PM
[ReportManager] Successfully created attachment "Validation Test Data - Actual JSON Value" @16-01-2023 14:07:03.0509 PM