
################################################################################################################################################
Starting Execution:	"1 out of 5" test cases in the current suite
Test Method:		"SteeringCompanyAPI_TestCases.Test_Lookups_Cases.Valid_GET_all_cities_Lookups_Rq_TC"
Test Description:	"TC001 - Perform Get all cities API with valid user name and password"
################################################################################################################################################
[ReportManager] File Action "DoesFileExist" successfully performed. With the following test data "File Path: "SteeringCompanyAPI_TestData/SteeringCompanyAPI_TestData.xlsx"". @01-11-2022 15:31:29.0078 PM
[ReportManager] Loaded Test Data: "src/test/resources/testDataFiles/SteeringCompanyAPI_TestData/SteeringCompanyAPI_TestData.xlsx". @01-11-2022 15:31:29.0110 PM
[ReportManager] Successfully created attachment "Test Data - Excel" @01-11-2022 15:31:29.0115 PM
[ReportManager] Response status code: "200", status line: "HTTP/1.1 200 OK" @01-11-2022 15:31:31.0884 PM
[ReportManager] Assertion Passed: Evaluating the actual response status code against the expected one... @01-11-2022 15:31:31.0892 PM
[ReportManager] Perform request "POST | Target Status Code: 200 | Service URL: https://auth-demo.np.transporticonline.com/auth/realms/tic/protocol/openid-connect/token | Content Type: application/x-www-form-urlencoded | Response Time: 1411ms". @01-11-2022 15:31:33.0027 PM
[ReportManager] Successfully created attachment "API Request - Specifications" @01-11-2022 15:31:33.0029 PM
[ReportManager] Successfully created attachment "API Request - Body" @01-11-2022 15:31:33.0031 PM
[ReportManager] Successfully created attachment "API Response - JSON Body" @01-11-2022 15:31:33.0351 PM
[ReportManager] Assertion Passed: Check Response Status Code is 200 and it is valid. @01-11-2022 15:31:33.0355 PM
[ReportManager] File Action "DoesFileExist" successfully performed. With the following test data "File Path: "SteeringCompanyAPI_TestData/SteeringCompanyAPI_TestData.xlsx"". @01-11-2022 15:31:33.0387 PM
[ReportManager] Loaded Test Data: "src/test/resources/testDataFiles/SteeringCompanyAPI_TestData/SteeringCompanyAPI_TestData.xlsx". @01-11-2022 15:31:33.0422 PM
[ReportManager] Successfully created attachment "Test Data - Excel" @01-11-2022 15:31:33.0424 PM
[ReportManager] Response status code: "200", status line: "HTTP/1.1 200 " @01-11-2022 15:31:34.0286 PM
[ReportManager] Assertion Passed: Evaluating the actual response status code against the expected one... @01-11-2022 15:31:34.0289 PM
[ReportManager] Perform request "GET | Target Status Code: 200 | Service URL: https://api-demo.np.transporticonline.com/steeringcompanies/v1/lookups/cities | Content Type: */* | Response Time: 848ms". @01-11-2022 15:31:34.0332 PM
[ReportManager] Successfully created attachment "API Request - Specifications" @01-11-2022 15:31:34.0333 PM
[ReportManager] Successfully created attachment "API Response - JSON Body" @01-11-2022 15:31:34.0335 PM
[ReportManager] Assertion Passed: "200" is equal to "200". @01-11-2022 15:31:34.0336 PM
[ReportManager] Verification Passed: "848" is greater than or equal to "1.1". @01-11-2022 15:31:34.0338 PM
[ReportManager] Verification Passed: "848" is less than or equal to "10000". @01-11-2022 15:31:34.0338 PM
[ReportManager] Assertion Passed: "{"page":0,"size":20,"totalPages":36,"totalElements":706,"content":[{"id":1071,"nameArabic":"???? ?????? ??????","nameEnglish":"Denizli Cardak Airport","isActive":true,"lastUpdated":"2022-06-02T00:13:35Z","sectors":null},{"id":36,"nameArabic":"??????????","nameEnglish":"Kuala Lumpur","isActive":true,"lastUpdated":"2022-06-02T01:21:49Z","sectors":null},{"id":849,"nameArabic":"???????","nameEnglish":"Solngen","isActive":true,"lastUpdated":"2022-06-02T01:37:02Z","sectors":null},{"id":1006,"nameArabic":"??????","nameEnglish":"FRUNZE","isActive":true,"lastUpdated":"2022-06-02T00:20:05Z","sectors":null},{"id":985,"nameArabic":"??????","nameEnglish":"KANDAHAR","isActive":true,"lastUpdated":"2022-06-02T00:25:20Z","sectors":null},{"id":736,"nameArabic":"?????","nameEnglish":"Tabrka","isActive":true,"lastUpdated":"2022-06-02T01:16:50Z","sectors":null},{"id":953,"nameArabic":"?????","nameEnglish":"Sohag","isActive":true,"lastUpdated":"2022-06-02T00:25:24Z","sectors":null},{"id":816,"nameArabic":"??????","nameEnglish":"Cochin","isActive":true,"lastUpdated":"2022-06-02T01:06:13Z","sectors":null},{"id":789,"nameArabic":"???? ????","nameEnglish":"Faisalabad","isActive":true,"lastUpdated":"2022-06-02T01:27:12Z","sectors":null},{"id":1013,"nameArabic":"?????","nameEnglish":"KAZAN","isActive":true,"lastUpdated":"2022-06-02T00:37:19Z","sectors":null},{"id":794,"nameArabic":"???????","nameEnglish":"KAYSERI","isActive":true,"lastUpdated":"2022-06-02T01:21:58Z","sectors":null},{"id":764,"nameArabic":"????","nameEnglish":"Tangier","isActive":true,"lastUpdated":"2022-06-02T01:27:13Z","sectors":null},{"id":780,"nameArabic":"??????","nameEnglish":"Shahyraz","isActive":true,"lastUpdated":"2022-06-02T00:37:28Z","sectors":null},{"id":712,"nameArabic":"?????","nameEnglish":"Tashkent","isActive":true,"lastUpdated":"2022-06-02T01:27:13Z","sectors":null},{"id":824,"nameArabic":"??????","nameEnglish":"Samarqand","isActive":true,"lastUpdated":"2022-06-02T00:37:28Z","sectors":null},{"id":993,"nameArabic":"?????","nameEnglish":"KRBI","isActive":true,"lastUpdated":"2022-06-02T01:22:03Z","sectors":null},{"id":820,"nameArabic":"???????","nameEnglish":"CALICUT","isActive":true,"lastUpdated":"2022-06-02T01:27:21Z","sectors":null},{"id":91,"nameArabic":"????","nameEnglish":"KANO","isActive":true,"lastUpdated":"2022-06-02T01:22:03Z","sectors":null},{"id":125,"nameArabic":"????","nameEnglish":"Kabul","isActive":true,"lastUpdated":"2022-06-02T00:42:58Z","sectors":null},{"id":34,"nameArabic":"?????","nameEnglish":"Vienna","isActive":true,"lastUpdated":"2022-06-02T00:42:59Z","sectors":null}]}" contains "content". @01-11-2022 15:31:34.0355 PM
[ReportManager] Successfully created attachment "Validation Test Data - Expected Value" @01-11-2022 15:31:34.0356 PM
[ReportManager] Successfully created attachment "Validation Test Data - Actual Value" @01-11-2022 15:31:34.0358 PM
[ReportManager] Get response jsonvalue "content". @01-11-2022 15:31:34.0532 PM
[ReportManager] Assertion Passed: Check that content object is not null. @01-11-2022 15:31:34.0533 PM
[ReportManager] Successfully created attachment "Validation Test Data - Expected Value" @01-11-2022 15:31:34.0535 PM
[ReportManager] Successfully created attachment "Validation Test Data - Actual Value" @01-11-2022 15:31:34.0535 PM
[ReportManager] File Action "DoesFileExist" successfully performed. With the following test data "File Path: "Lookups_cities_schema.json"". @01-11-2022 15:31:34.0537 PM
[ReportManager] File Action "DoesFileExist" successfully performed. With the following test data "File Path: "src/test/resources/testDataFiles/Lookups_cities_schema.json"". @01-11-2022 15:31:34.0538 PM
[ReportManager] File Action "GetAbsolutePath" successfully performed. With the following test data "Relative Folder Path: "src/test/resources/testDataFiles/Lookups_cities_schema.json"". @01-11-2022 15:31:34.0538 PM
[ReportManager] File Action "DoesFileExist" successfully performed. With the following test data "File Path: "C:\eclipse-workspace\MyProjects\TASystemsAPIs\src\test\resources\testDataFiles\Lookups_cities_schema.json"". @01-11-2022 15:31:35.0655 PM
[ReportManager] File Action "GetAbsolutePath" successfully performed. With the following test data "Relative Folder Path: "C:\eclipse-workspace\MyProjects\TASystemsAPIs\src\test\resources\testDataFiles\Lookups_cities_schema.json"". @01-11-2022 15:31:35.0656 PM
[ReportManager] File Action "ReadFromFile" successfully performed. With the following test data "File Path: "C:\eclipse-workspace\MyProjects\TASystemsAPIs\src\test\resources\testDataFiles\Lookups_cities_schema.json"". @01-11-2022 15:31:35.0657 PM
[ReportManager] Assertion Passed: The API response schema matches that in this file "src/test/resources/testDataFiles/Lookups_cities_schema.json". @01-11-2022 15:31:35.0662 PM
[ReportManager] Successfully created attachment "Validation Test Data - Expected JSON Value" @01-11-2022 15:31:35.0663 PM
[ReportManager] Successfully created attachment "Validation Test Data - Actual JSON Value" @01-11-2022 15:31:35.0666 PM