
################################################################################################################################################
Starting Execution:	"2 out of 5" test cases in the current suite
Test Method:		"SteeringCompanyAPI_TestCases.Test_Lookups_Cases.Valid_GET_all_cities_Lookups_by_Qry_Rq_TC"
Test Description:	"TC002 - Perform Get all cities API by parameters Qry with valid user name and password and return with token"
################################################################################################################################################
[ReportManager] File Action "DoesFileExist" successfully performed. With the following test data "File Path: "SteeringCompanyAPI_TestData/SteeringCompanyAPI_TestData.xlsx"". @19-12-2022 16:20:22.0385 PM
[ReportManager] Loaded Test Data: "src/test/resources/testDataFiles/SteeringCompanyAPI_TestData/SteeringCompanyAPI_TestData.xlsx". @19-12-2022 16:20:22.0447 PM
[ReportManager] Successfully created attachment "Test Data - Excel" @19-12-2022 16:20:22.0449 PM
[ReportManager] Response status code: "200", status line: "HTTP/1.1 200 OK" @19-12-2022 16:20:23.0125 PM
[ReportManager] Assertion Passed: Evaluating the actual response status code against the expected one... @19-12-2022 16:20:23.0126 PM
[ReportManager] Perform request "POST | Target Status Code: 200 | Service URL: https://auth-demo.np.transporticonline.com/auth/realms/tic/protocol/openid-connect/token | Content Type: application/x-www-form-urlencoded | Response Time: 654ms". @19-12-2022 16:20:23.0165 PM
[ReportManager] Successfully created attachment "API Request - Specifications" @19-12-2022 16:20:23.0168 PM
[ReportManager] Successfully created attachment "API Request - Body" @19-12-2022 16:20:23.0171 PM
[ReportManager] Successfully created attachment "API Response - JSON Body" @19-12-2022 16:20:23.0175 PM
[ReportManager] Assertion Passed: Check Response Status Code is 200 and it is valid. @19-12-2022 16:20:23.0177 PM
[ReportManager] File Action "DoesFileExist" successfully performed. With the following test data "File Path: "SteeringCompanyAPI_TestData/SteeringCompanyAPI_TestData.xlsx"". @19-12-2022 16:20:23.0201 PM
[ReportManager] Loaded Test Data: "src/test/resources/testDataFiles/SteeringCompanyAPI_TestData/SteeringCompanyAPI_TestData.xlsx". @19-12-2022 16:20:23.0253 PM
[ReportManager] Successfully created attachment "Test Data - Excel" @19-12-2022 16:20:23.0255 PM
[ReportManager] Response status code: "200", status line: "HTTP/1.1 200 " @19-12-2022 16:20:23.0825 PM
[ReportManager] Assertion Passed: Evaluating the actual response status code against the expected one... @19-12-2022 16:20:23.0827 PM
[ReportManager] Perform request "GET | Target Status Code: 200 | Service URL: https://api-demo.np.transporticonline.com/steeringcompanies/v1/lookups/cities | Content Type: */* | Response Time: 525ms". @19-12-2022 16:20:23.0853 PM
[ReportManager] Successfully created attachment "API Request - Specifications" @19-12-2022 16:20:23.0855 PM
[ReportManager] Successfully created attachment "API Response - JSON Body" @19-12-2022 16:20:23.0860 PM
[ReportManager] Assertion Passed: "200" is equal to "200". @19-12-2022 16:20:23.0862 PM
[ReportManager] Verification Passed: "525" is greater than or equal to "1.1". @19-12-2022 16:20:23.0864 PM
[ReportManager] Verification Passed: "525" is less than or equal to "10000". @19-12-2022 16:20:23.0864 PM
[ReportManager] Assertion Passed: "{"page":0,"size":3,"totalPages":237,"totalElements":709,"content":[{"id":36,"nameArabic":"??????????","nameEnglish":"Kuala Lumpur","isActive":true,"lastUpdated":"2022-06-02T01:21:49Z","sectors":null},{"id":849,"nameArabic":"???????","nameEnglish":"Solngen","isActive":true,"lastUpdated":"2022-06-02T01:37:02Z","sectors":null},{"id":1006,"nameArabic":"??????","nameEnglish":"FRUNZE","isActive":true,"lastUpdated":"2022-06-02T00:20:05Z","sectors":null}]}" contains "content". @19-12-2022 16:20:23.0865 PM
[ReportManager] Get response jsonvalue "content". @19-12-2022 16:20:23.0868 PM
[ReportManager] Assertion Passed: Check that content object is not null. @19-12-2022 16:20:23.0869 PM
[ReportManager] File Action "DoesFileExist" successfully performed. With the following test data "File Path: "Lookups_cities_schema.json"". @19-12-2022 16:20:23.0869 PM
[ReportManager] File Action "DoesFileExist" successfully performed. With the following test data "File Path: "src/test/resources/testDataFiles/Lookups_cities_schema.json"". @19-12-2022 16:20:23.0870 PM
[ReportManager] File Action "GetAbsolutePath" successfully performed. With the following test data "Relative Folder Path: "src/test/resources/testDataFiles/Lookups_cities_schema.json"". @19-12-2022 16:20:23.0870 PM
[ReportManager] File Action "DoesFileExist" successfully performed. With the following test data "File Path: "C:\eclipse-workspace\MyProjects\TASystemsAPIs\src\test\resources\testDataFiles\Lookups_cities_schema.json"". @19-12-2022 16:20:23.0882 PM
[ReportManager] File Action "GetAbsolutePath" successfully performed. With the following test data "Relative Folder Path: "C:\eclipse-workspace\MyProjects\TASystemsAPIs\src\test\resources\testDataFiles\Lookups_cities_schema.json"". @19-12-2022 16:20:23.0883 PM
[ReportManager] File Action "ReadFile" successfully performed. With the following test data "File Path: "C:\eclipse-workspace\MyProjects\TASystemsAPIs\src\test\resources\testDataFiles\Lookups_cities_schema.json"". @19-12-2022 16:20:23.0884 PM
[ReportManager] Assertion Passed: The API response schema matches that in this file "src/test/resources/testDataFiles/Lookups_cities_schema.json". @19-12-2022 16:20:23.0886 PM
[ReportManager] Successfully created attachment "Validation Test Data - Expected JSON Value" @19-12-2022 16:20:23.0889 PM
[ReportManager] Successfully created attachment "Validation Test Data - Actual JSON Value" @19-12-2022 16:20:23.0892 PM