{"uuid":"eb2cb067-aaa9-46d5-919d-1f8bb9e49d4a","historyId":"86af33bb9d7f0d849ff95edafab474d6","fullName":"SteeringCompanyAPI_TestCases.Test_PeriodProgram_Cases.Valid_Get_All_PeriodProgram_Pagination_TC","labels":[{"name":"package","value":"SteeringCompanyAPI_TestCases.Test_PeriodProgram_Cases"},{"name":"testClass","value":"SteeringCompanyAPI_TestCases.Test_PeriodProgram_Cases"},{"name":"testMethod","value":"Valid_Get_All_PeriodProgram_Pagination_TC"},{"name":"parentSuite","value":"Suite"},{"name":"suite","value":"TASystemsAPIs"},{"name":"subSuite","value":"SteeringCompanyAPI_TestCases.Test_PeriodProgram_Cases"},{"name":"host","value":"TW-1056"},{"name":"thread","value":"19100@TW-1056.main(1)"},{"name":"framework","value":"testng"},{"name":"language","value":"java"},{"name":"story","value":"Geting Valid all PeriodProgram"},{"name":"severity","value":"critical"}],"links":[],"name":"TC002 -PeriodProgram- Perform Get Valid all PeriodProgram withPagenation","status":"passed","statusDetails":{"known":false,"muted":false,"flaky":false},"stage":"finished","steps":[{"name":"Loaded Test Data: \"src/test/resources/testDataFiles/SteeringCompanyAPI_TestData/SteeringCompanyAPI_TestData.xlsx\".","status":"passed","stage":"finished","steps":[],"attachments":[{"name":"Test Data - Excel","source":"75435ece-6da8-4327-adab-ff482cc4710d-attachment.xlsx","type":"application/vnd.openxmlformats-officedocument.spreadsheetml.sheet"}],"parameters":[{"name":"logText","value":"Loaded Test Data: \"src/test/resources/testDataFiles/SteeringCompanyAPI_TestData/SteeringCompanyAPI_TestData.xlsx\"."},{"name":"attachments","value":"[[Test Data, Excel, java.io.FileInputStream@fcc55f2]]"}],"start":1680521951199,"stop":1680521951202},{"name":"Assertion Passed: Evaluating the actual response status code against the expected one...","status":"passed","stage":"finished","steps":[],"attachments":[],"parameters":[{"name":"customLog","value":"Assertion Passed: Evaluating the actual response status code against the expected one..."},{"name":"stepLog","value":"Assertion \"ValidateComparativeRelation\" PASSED. Expected \"200\" and Actual \"200\". Comparison Type \"EQUALS\". Validation Type \"POSITIVE\"."},{"name":"attachments","value":"null"}],"start":1680521952281,"stop":1680521952282},{"name":"Perform request \"POST | Target Status Code: 200 | Service URL: https://auth-demo.np.transporticonline.com/auth/realms/tic/protocol/openid-connect/token | Content Type: application/x-www-form-urlencoded | Response Time: 1075ms\".","status":"passed","stage":"finished","steps":[],"attachments":[{"name":"API Request - Specifications","source":"e46b4545-05d5-451a-a0ba-6af6a3e7b075-attachment"},{"name":"API Request - Body","source":"dc11f1ec-6538-4ca2-a904-674b118a25a5-attachment"},{"name":"API Response - JSON Body","source":"beaefe3f-9983-4b6f-86d1-78301c0fb88c-attachment.json","type":"text/json"}],"parameters":[{"name":"logText","value":"Perform request \"POST | Target Status Code: 200 | Service URL: https://auth-demo.np.transporticonline.com/auth/realms/tic/protocol/openid-connect/token | Content Type: application/x-www-form-urlencoded | Response Time: 1075ms\"."},{"name":"attachments","value":"[[API Request, Specifications, Headers:\r\n_______________\r\n\r\nContent-Type=application/x-www-form-urlencoded\r\n\r\n], [API Request, Body, java.io.ByteArrayInputStream@2a0ecf55], null, [API Response, JSON Body, java.io.ByteArrayInputStream@728eb602]]"}],"start":1680521952306,"stop":1680521952310},{"name":"Assertion Passed: Check Response Status Code is 200 and it is valid.","status":"passed","stage":"finished","steps":[],"attachments":[],"parameters":[{"name":"customLog","value":"Assertion Passed: Check Response Status Code is 200 and it is valid."},{"name":"stepLog","value":"Assertion \"ValidateComparativeRelation\" PASSED. Expected \"200\" and Actual \"200\". Comparison Type \"EQUALS\". Validation Type \"POSITIVE\"."},{"name":"attachments","value":"null"}],"start":1680521952310,"stop":1680521952310},{"name":"Loaded Test Data: \"src/test/resources/testDataFiles/SteeringCompanyAPI_TestData/SteeringCompanyAPI_TestData.xlsx\".","status":"passed","stage":"finished","steps":[],"attachments":[{"name":"Test Data - Excel","source":"2fe6beb3-1d3c-45d0-8616-f671ffa52076-attachment.xlsx","type":"application/vnd.openxmlformats-officedocument.spreadsheetml.sheet"}],"parameters":[{"name":"logText","value":"Loaded Test Data: \"src/test/resources/testDataFiles/SteeringCompanyAPI_TestData/SteeringCompanyAPI_TestData.xlsx\"."},{"name":"attachments","value":"[[Test Data, Excel, java.io.FileInputStream@5d189f20]]"}],"start":1680521952376,"stop":1680521952377},{"name":"Loaded Test Data: \"src/test/resources/testDataFiles/SteeringCompanyAPI_TestData/SteeringCompanyAPI_TestData.xlsx\".","status":"passed","stage":"finished","steps":[],"attachments":[{"name":"Test Data - Excel","source":"27436d84-32be-4840-a9b4-d7833084b29f-attachment.xlsx","type":"application/vnd.openxmlformats-officedocument.spreadsheetml.sheet"}],"parameters":[{"name":"logText","value":"Loaded Test Data: \"src/test/resources/testDataFiles/SteeringCompanyAPI_TestData/SteeringCompanyAPI_TestData.xlsx\"."},{"name":"attachments","value":"[[Test Data, Excel, java.io.FileInputStream@9282829]]"}],"start":1680521952429,"stop":1680521952430},{"name":"Loaded Test Data: \"src/test/resources/testDataFiles/SteeringCompanyAPI_TestData/SteeringCompanyAPI_TestData.xlsx\".","status":"passed","stage":"finished","steps":[],"attachments":[{"name":"Test Data - Excel","source":"7a5d868b-4753-4359-8043-f9ddfd479348-attachment.xlsx","type":"application/vnd.openxmlformats-officedocument.spreadsheetml.sheet"}],"parameters":[{"name":"logText","value":"Loaded Test Data: \"src/test/resources/testDataFiles/SteeringCompanyAPI_TestData/SteeringCompanyAPI_TestData.xlsx\"."},{"name":"attachments","value":"[[Test Data, Excel, java.io.FileInputStream@6ccc2967]]"}],"start":1680521952560,"stop":1680521952562},{"name":"Assertion Passed: Evaluating the actual response status code against the expected one...","status":"passed","stage":"finished","steps":[],"attachments":[],"parameters":[{"name":"customLog","value":"Assertion Passed: Evaluating the actual response status code against the expected one..."},{"name":"stepLog","value":"Assertion \"ValidateComparativeRelation\" PASSED. Expected \"200\" and Actual \"200\". Comparison Type \"EQUALS\". Validation Type \"POSITIVE\"."},{"name":"attachments","value":"null"}],"start":1680521953553,"stop":1680521953553},{"name":"Perform request \"GET | Target Status Code: 200 | Service URL: https://api-demo.np.transporticonline.com/steeringcompanies/v1/periodPrograms | Content Type: */* | Response Time: 986ms\".","status":"passed","stage":"finished","steps":[],"attachments":[{"name":"API Request - Specifications","source":"e1381a49-367e-4521-811b-cb0f9d3cbff0-attachment"},{"name":"API Response - JSON Body","source":"61541ce3-4c44-4115-955c-48588f9509ab-attachment.json","type":"text/json"}],"parameters":[{"name":"logText","value":"Perform request \"GET | Target Status Code: 200 | Service URL: https://api-demo.np.transporticonline.com/steeringcompanies/v1/periodPrograms | Content Type: */* | Response Time: 986ms\"."},{"name":"attachments","value":"[[API Request, Specifications, Headers:\r\n_______________\r\n\r\nAuthorization=Bearer eyJhbGciOiJSUzI1NiIsInR5cCIgOiAiSldUIiwia2lkIiA6ICJjck9ORDFNdFVPVWhzS2Mtb0ppVFFmb0o1d1l4REF6Y3k0ZjNYZ0dveGdZIn0.eyJleHAiOjE2ODA1NDM1NTIsImlhdCI6MTY4MDUyMTk1MiwianRpIjoiZmM4MGJiNmEtOGQ4OC00OTk0LWFhOTctYzljNTlmZGY1OWI0IiwiaXNzIjoiaHR0cHM6Ly9hdXRoLWRlbW8ubnAudHJhbnNwb3J0aWNvbmxpbmUuY29tL2F1dGgvcmVhbG1zL3RpYyIsImF1ZCI6ImFjY291bnQiLCJzdWIiOiI0ZTk3NmQ0NC1iM2ZkLTRjYTktODk1Ny0wYWJiODUwNzNhNzQiLCJ0eXAiOiJCZWFyZXIiLCJhenAiOiJ0aWMtYXBpIiwic2Vzc2lvbl9zdGF0ZSI6IjhjMWQyN2EyLTBjZjctNDU2Zi1iNzUzLTU0MTBiYmU0ZTQxMSIsImFjciI6IjEiLCJhbGxvd2VkLW9yaWdpbnMiOlsiaHR0cHM6Ly9hcGktZGV2Lm5wLnRyYW5zcG9ydGljb25saW5lLmNvbSJdLCJyZWFsbV9hY2Nlc3MiOnsicm9sZXMiOlsib2ZmbGluZV9hY2Nlc3MiLCJkZWZhdWx0LXJvbGVzLXRpYyIsInVtYV9hdXRob3JpemF0aW9uIiwidXNlciJdfSwicmVzb3VyY2VfYWNjZXNzIjp7ImFjY291bnQiOnsicm9sZXMiOlsibWFuYWdlLWFjY291bnQiLCJtYW5hZ2UtYWNjb3VudC1saW5rcyIsInZpZXctcHJvZmlsZSJdfX0sInNjb3BlIjoiZW1haWwgcHJvZmlsZSIsInNpZCI6IjhjMWQyN2EyLTBjZjctNDU2Zi1iNzUzLTU0MTBiYmU0ZTQxMSIsImVtYWlsX3ZlcmlmaWVkIjpmYWxzZSwicHJlZmVycmVkX3VzZXJuYW1lIjoidG9raGkiLCJ0Y0lkIjoiMzE5OTU3In0.MgTzIDhs4q4kq7hTt-3bkWhW6vq4QbMVjhjmSJYgD5q01fQCTvhAC8hCbcLC6OZtmD0CHKwlYTpIvsOfMgCy34dNN0c0PV1pCpaePPwAjoZmap9QxHekcsRCI_nO22OzpA7wA7xpF3r_WYasR7MIKaVWd-7CAbSGeWqN54oOiWMWxzsr570qhWprzdVah-RAB9bxBGDSvTQdPoFf_8EDZhnrT42_oVQZaM5LwIoBNdc4XVEQVglUIe9r7Le38eDFIbv5SOwCA35VpSr8hgXFRsPfB-Wd24WOhwsspyEyLHZ7XZ2Wq3LAMQHIvgXMbmkeOd4arUi37fiuEki6KyHLSw\r\nContent-Type=*/*\r\n\r\nQuery Parameters:\r\n_______________\r\n\r\nsize=1\r\npage=1\r\n], null, [API Response, JSON Body, java.io.ByteArrayInputStream@4e8c0f74]]"}],"start":1680521953580,"stop":1680521953585},{"name":"Assertion Passed: \"200\" is equal to \"200\".","status":"passed","stage":"finished","steps":[],"attachments":[],"parameters":[{"name":"customLog","value":"Assertion Passed: \"200\" is equal to \"200\"."},{"name":"stepLog","value":"Assertion \"ValidateComparativeRelation\" PASSED. Expected \"200\" and Actual \"200\". Comparison Type \"EQUALS\". Validation Type \"POSITIVE\"."},{"name":"attachments","value":"null"}],"start":1680521953585,"stop":1680521953586},{"name":"Verification Passed: \"986\" is greater than or equal to \"1.1\".","status":"passed","stage":"finished","steps":[],"attachments":[],"parameters":[{"name":"customLog","value":"Verification Passed: \"986\" is greater than or equal to \"1.1\"."},{"name":"stepLog","value":"Verification \"ValidateComparativeRelation\" PASSED. Expected \"1.1\" and Actual \"986\". Comparison Type \"GREATER_THAN_OR_EQUALS\". Validation Type \"POSITIVE\"."},{"name":"attachments","value":"null"}],"start":1680521953586,"stop":1680521953587},{"name":"Verification Passed: \"986\" is less than or equal to \"30000\".","status":"passed","stage":"finished","steps":[],"attachments":[],"parameters":[{"name":"customLog","value":"Verification Passed: \"986\" is less than or equal to \"30000\"."},{"name":"stepLog","value":"Verification \"ValidateComparativeRelation\" PASSED. Expected \"30000\" and Actual \"986\". Comparison Type \"LESS_THAN_OR_EQUALS\". Validation Type \"POSITIVE\"."},{"name":"attachments","value":"null"}],"start":1680521953587,"stop":1680521953587},{"name":"Assertion Passed: \"{\"page\":1,\"size\":1,\"totalPages\":138,\"totalElements\":138,\"content\":[{\"id\":1003,\"templateId\":229,\"periodMaxQuotaPerPeriod\":92,\"minimumModelYear\":2010,\"maximumModelYear\":2011,\"minimumSeat\":7,\"maximumSeat\":8,\"vehiclePricePer\":3500.0,\"creationPeriodId\":113,\"isActive\":true,\"policyInfo\":{\"cancellationPolicy\":{\"id\":3,\"nameArabic\":\"سياسة الالغاء 2\",\"nameEnglish\":\"Cancellation 2\",\"descriptionArabic\":\"سياسة الالغاء 2\",\"descriptionEnglish\":\"Cancellation 2\",\"isActive\":true,\"chargeUnit\":\"days\",\"deadline\":3,\"chargeType\":\"percentage\",\"chargeValue\":15.00},\"paymentPolicy\":{\"id\":3,\"nameArabic\":\"سياسات الدفع\",\"nameEnglish\":\"Payment policies\",\"descriptionArabic\":\"يتم دفع قيمة البرنامج كاملة عند تأكيد الحجز ويصدر الرقم المرجعي بعد دفع قيمة الحجز\",\"descriptionEnglish\":\"The value of the reservation must be paid upon confirmation of the reservation and the reference nu\",\"isActive\":true,\"refundType\":\"apply_cancellation_policy\",\"isRefundable\":true,\"cancellationPolicyId\":4},\"usagePolicy\":{\"id\":3,\"nameArabic\":\"سياسات الاستخدام\",\"nameEnglish\":\"Usage policies\",\"descriptionArabic\":\"يكون استخدام الحافلة لنقل المعتمرين المعنيين بالحجز ويعتبر الحجز لاغي في حالة استخدام الحافلة لنقل معتمرين غير مشمولين بنفس الحجز\",\"descriptionEnglish\":\"The use of the bus to transport the pilgrims included with the reservation and the reservation is included null in the case of using the bus to transport pilgrims who are not included in the same r\",\"isActive\":true},\"taxesPolicy\":{\"id\":3,\"nameArabic\":\"الضريبة المطبقة\",\"nameEnglish\":\"Applicable tax\",\"descriptionArabic\":\"يتم تطبيق النسبة الضريبية المعتمدة حسب انظمة المملكة العربية السعودية المشمولة بها هذه الخدمة\",\"descriptionEnglish\":\"The approved tax rate is applied according to the regulations of the Kingdom of Saudi Arabia in whi\",\"isActive\":false,\"chargeType\":\"percentage\",\"chargeValue\":15.00},\"generalPolicy\":{\"id\":3,\"nameArabic\":\"سياسات عامة\",\"nameEnglish\":\"General policies\",\"descriptionArabic\":\"تسري جميع الشروط والانظمة المعتمدة من الجهات المعنية في وزارة الحج ووزارةالنقل والنقابة العامة للسيارات بهذا الخصوص\",\"descriptionEnglish\":\"All conditions and regulations approved by the concerned authorities in the Ministry of Hajj the Ministry of Transport and the General cars Syndicate shall apply in this regard\",\"isActive\":true}}}]}\" contains \"content\".","status":"passed","stage":"finished","steps":[],"attachments":[{"name":"Validation Test Data - Expected Value","source":"1f804de1-a890-4909-b812-82a053f4683b-attachment"},{"name":"Validation Test Data - Actual Value","source":"9e46c1f5-73f9-49c1-86ec-9259c3e0c4e9-attachment"}],"parameters":[{"name":"customLog","value":"Assertion Passed: \"{\"page\":1,\"size\":1,\"totalPages\":138,\"totalElements\":138,\"content\":[{\"id\":1003,\"templateId\":229,\"periodMaxQuotaPerPeriod\":92,\"minimumModelYear\":2010,\"maximumModelYear\":2011,\"minimumSeat\":7,\"maximumSeat\":8,\"vehiclePricePer\":3500.0,\"creationPeriodId\":113,\"isActive\":true,\"policyInfo\":{\"cancellationPolicy\":{\"id\":3,\"nameArabic\":\"سياسة الالغاء 2\",\"nameEnglish\":\"Cancellation 2\",\"descriptionArabic\":\"سياسة الالغاء 2\",\"descriptionEnglish\":\"Cancellation 2\",\"isActive\":true,\"chargeUnit\":\"days\",\"deadline\":3,\"chargeType\":\"percentage\",\"chargeValue\":15.00},\"paymentPolicy\":{\"id\":3,\"nameArabic\":\"سياسات الدفع\",\"nameEnglish\":\"Payment policies\",\"descriptionArabic\":\"يتم دفع قيمة البرنامج كاملة عند تأكيد الحجز ويصدر الرقم المرجعي بعد دفع قيمة الحجز\",\"descriptionEnglish\":\"The value of the reservation must be paid upon confirmation of the reservation and the reference nu\",\"isActive\":true,\"refundType\":\"apply_cancellation_policy\",\"isRefundable\":true,\"cancellationPolicyId\":4},\"usagePolicy\":{\"id\":3,\"nameArabic\":\"سياسات الاستخدام\",\"nameEnglish\":\"Usage policies\",\"descriptionArabic\":\"يكون استخدام الحافلة لنقل المعتمرين المعنيين بالحجز ويعتبر الحجز لاغي في حالة استخدام الحافلة لنقل معتمرين غير مشمولين بنفس الحجز\",\"descriptionEnglish\":\"The use of the bus to transport the pilgrims included with the reservation and the reservation is included null in the case of using the bus to transport pilgrims who are not included in the same r\",\"isActive\":true},\"taxesPolicy\":{\"id\":3,\"nameArabic\":\"الضريبة المطبقة\",\"nameEnglish\":\"Applicable tax\",\"descriptionArabic\":\"يتم تطبيق النسبة الضريبية المعتمدة حسب انظمة المملكة العربية السعودية المشمولة بها هذه الخدمة\",\"descriptionEnglish\":\"The approved tax rate is applied according to the regulations of the Kingdom of Saudi Arabia in whi\",\"isActive\":false,\"chargeType\":\"percentage\",\"chargeValue\":15.00},\"generalPolicy\":{\"id\":3,\"nameArabic\":\"سياسات عامة\",\"nameEnglish\":\"General policies\",\"descriptionArabic\":\"تسري جميع الشروط والانظمة المعتمدة من الجهات المعنية في وزارة الحج ووزارةالنقل والنقابة العامة للسيارات بهذا الخصوص\",\"descriptionEnglish\":\"All conditions and regulations approved by the concerned authorities in the Ministry of Hajj the Ministry of Transport and the General cars Syndicate shall apply in this regard\",\"isActive\":true}}}]}\" contains \"content\"."},{"name":"stepLog","value":"Assertion \"ValidateEquals\" PASSED. Expected and Actual values are attached. Comparison Type \"CONTAINS\". Validation Type \"POSITIVE\"."},{"name":"attachments","value":"[[Validation Test Data, Expected Value, content], [Validation Test Data, Actual Value, {\"page\":1,\"size\":1,\"totalPages\":138,\"totalElements\":138,\"content\":[{\"id\":1003,\"templateId\":229,\"periodMaxQuotaPerPeriod\":92,\"minimumModelYear\":2010,\"maximumModelYear\":2011,\"minimumSeat\":7,\"maximumSeat\":8,\"vehiclePricePer\":3500.0,\"creationPeriodId\":113,\"isActive\":true,\"policyInfo\":{\"cancellationPolicy\":{\"id\":3,\"nameArabic\":\"سياسة الالغاء 2\",\"nameEnglish\":\"Cancellation 2\",\"descriptionArabic\":\"سياسة الالغاء 2\",\"descriptionEnglish\":\"Cancellation 2\",\"isActive\":true,\"chargeUnit\":\"days\",\"deadline\":3,\"chargeType\":\"percentage\",\"chargeValue\":15.00},\"paymentPolicy\":{\"id\":3,\"nameArabic\":\"سياسات الدفع\",\"nameEnglish\":\"Payment policies\",\"descriptionArabic\":\"يتم دفع قيمة البرنامج كاملة عند تأكيد الحجز ويصدر الرقم المرجعي بعد دفع قيمة الحجز\",\"descriptionEnglish\":\"The value of the reservation must be paid upon confirmation of the reservation and the reference nu\",\"isActive\":true,\"refundType\":\"apply_cancellation_policy\",\"isRefundable\":true,\"cancellationPolicyId\":4},\"usagePolicy\":{\"id\":3,\"nameArabic\":\"سياسات الاستخدام\",\"nameEnglish\":\"Usage policies\",\"descriptionArabic\":\"يكون استخدام الحافلة لنقل المعتمرين المعنيين بالحجز ويعتبر الحجز لاغي في حالة استخدام الحافلة لنقل معتمرين غير مشمولين بنفس الحجز\",\"descriptionEnglish\":\"The use of the bus to transport the pilgrims included with the reservation and the reservation is included null in the case of using the bus to transport pilgrims who are not included in the same r\",\"isActive\":true},\"taxesPolicy\":{\"id\":3,\"nameArabic\":\"الضريبة المطبقة\",\"nameEnglish\":\"Applicable tax\",\"descriptionArabic\":\"يتم تطبيق النسبة الضريبية المعتمدة حسب انظمة المملكة العربية السعودية المشمولة بها هذه الخدمة\",\"descriptionEnglish\":\"The approved tax rate is applied according to the regulations of the Kingdom of Saudi Arabia in whi\",\"isActive\":false,\"chargeType\":\"percentage\",\"chargeValue\":15.00},\"generalPolicy\":{\"id\":3,\"nameArabic\":\"سياسات عامة\",\"nameEnglish\":\"General policies\",\"descriptionArabic\":\"تسري جميع الشروط والانظمة المعتمدة من الجهات المعنية في وزارة الحج ووزارةالنقل والنقابة العامة للسيارات بهذا الخصوص\",\"descriptionEnglish\":\"All conditions and regulations approved by the concerned authorities in the Ministry of Hajj the Ministry of Transport and the General cars Syndicate shall apply in this regard\",\"isActive\":true}}}]}]]"}],"start":1680521953588,"stop":1680521953591},{"name":"Assertion Passed: Check that content object is not null.","status":"passed","stage":"finished","steps":[],"attachments":[{"name":"Validation Test Data - Expected Value","source":"308c85f8-c3ee-4160-9d7e-c3178f8037ac-attachment"},{"name":"Validation Test Data - Actual Value","source":"f2863ec9-bb16-479b-81c3-24d02f999565-attachment"}],"parameters":[{"name":"customLog","value":"Assertion Passed: Check that content object is not null."},{"name":"stepLog","value":"Assertion \"ValidateEquals\" PASSED. Expected and Actual values are attached. Comparison Type \"EQUALS\". Validation Type \"NEGATIVE\"."},{"name":"attachments","value":"[[Validation Test Data, Expected Value, null], [Validation Test Data, Actual Value, [{\"id\":1003,\"templateId\":229,\"periodMaxQuotaPerPeriod\":92,\"minimumModelYear\":2010,\"maximumModelYear\":2011,\"minimumSeat\":7,\"maximumSeat\":8,\"vehiclePricePer\":3500.0,\"creationPeriodId\":113,\"isActive\":true,\"policyInfo\":{\"cancellationPolicy\":{\"id\":3,\"nameArabic\":\"سياسة الالغاء 2\",\"nameEnglish\":\"Cancellation 2\",\"descriptionArabic\":\"سياسة الالغاء 2\",\"descriptionEnglish\":\"Cancellation 2\",\"isActive\":true,\"chargeUnit\":\"days\",\"deadline\":3,\"chargeType\":\"percentage\",\"chargeValue\":15.0},\"paymentPolicy\":{\"id\":3,\"nameArabic\":\"سياسات الدفع\",\"nameEnglish\":\"Payment policies\",\"descriptionArabic\":\"يتم دفع قيمة البرنامج كاملة عند تأكيد الحجز ويصدر الرقم المرجعي بعد دفع قيمة الحجز\",\"descriptionEnglish\":\"The value of the reservation must be paid upon confirmation of the reservation and the reference nu\",\"isActive\":true,\"refundType\":\"apply_cancellation_policy\",\"isRefundable\":true,\"cancellationPolicyId\":4},\"usagePolicy\":{\"id\":3,\"nameArabic\":\"سياسات الاستخدام\",\"nameEnglish\":\"Usage policies\",\"descriptionArabic\":\"يكون استخدام الحافلة لنقل المعتمرين المعنيين بالحجز ويعتبر الحجز لاغي في حالة استخدام الحافلة لنقل معتمرين غير مشمولين بنفس الحجز\",\"descriptionEnglish\":\"The use of the bus to transport the pilgrims included with the reservation and the reservation is included null in the case of using the bus to transport pilgrims who are not included in the same r\",\"isActive\":true},\"taxesPolicy\":{\"id\":3,\"nameArabic\":\"الضريبة المطبقة\",\"nameEnglish\":\"Applicable tax\",\"descriptionArabic\":\"يتم تطبيق النسبة الضريبية المعتمدة حسب انظمة المملكة العربية السعودية المشمولة بها هذه الخدمة\",\"descriptionEnglish\":\"The approved tax rate is applied according to the regulations of the Kingdom of Saudi Arabia in whi\",\"isActive\":false,\"chargeType\":\"percentage\",\"chargeValue\":15.0},\"generalPolicy\":{\"id\":3,\"nameArabic\":\"سياسات عامة\",\"nameEnglish\":\"General policies\",\"descriptionArabic\":\"تسري جميع الشروط والانظمة المعتمدة من الجهات المعنية في وزارة الحج ووزارةالنقل والنقابة العامة للسيارات بهذا الخصوص\",\"descriptionEnglish\":\"All conditions and regulations approved by the concerned authorities in the Ministry of Hajj the Ministry of Transport and the General cars Syndicate shall apply in this regard\",\"isActive\":true}}}]]]"}],"start":1680521953595,"stop":1680521953598},{"name":"Assertion Passed: The API response schema matches that in this file \"src/test/resources/testDataFiles/Schemas/GetAllPeriodProgram_schema.json\".","status":"passed","stage":"finished","steps":[],"attachments":[{"name":"Validation Test Data - Expected JSON Value","source":"590ad732-cf12-44ec-9df3-09a275150ec1-attachment.json","type":"text/json"},{"name":"Validation Test Data - Actual JSON Value","source":"98f1d1b4-ca19-4b99-b306-8c00fb92951f-attachment.json","type":"text/json"}],"parameters":[{"name":"customLog","value":"Assertion Passed: The API response schema matches that in this file \"src/test/resources/testDataFiles/Schemas/GetAllPeriodProgram_schema.json\"."},{"name":"stepLog","value":"Assertion \"ValidateResponseFileSchema\" PASSED. Expected \"Response data should match the JSON File in this path 'C:\\eclipse-workspace\\MyProjects\\TASystemsAPIs\\src\\test\\resources\\testDataFiles\\Schemas\\GetAllPeriodProgram_schema.json'\" and Actual \"TRUE\". Comparison Type \"EQUALS\". Validation Type \"POSITIVE\"."},{"name":"attachments","value":"[[Validation Test Data, Expected JSON Value, java.io.ByteArrayInputStream@2a21c0d7], [Validation Test Data, Actual JSON Value, java.io.ByteArrayInputStream@4f88d48]]"}],"start":1680521953622,"stop":1680521953625}],"attachments":[{"name":"SHAFT Engine Logs - Current Method log: Valid_Get_All_PeriodProgram_Pagination_TC","source":"51389d56-ca02-43d5-a97a-1a0f2173dcd4-attachment.txt","type":"text/plain"}],"parameters":[],"start":1680521951136,"stop":1680521953627}