[ReportManager] Setting discrete logging to: "false" @04-10-2022 15:16:23.0597 PM

################################################################################################################################################
Starting Execution:	"12 out of 13" test cases in the current suite
Test Method:		"SteeringCompanyAPI_TestCases.Test_Case.Valid_GET_all_vehicleTypes_Lookups_Rq_TC"
################################################################################################################################################
[ReportManager] Setting discrete logging to: "false" @04-10-2022 15:16:23.0598 PM
[ReportManager] Setting discrete logging to: "true" @04-10-2022 15:16:24.0279 PM
[ReportManager] Response status code: "200", status line: "HTTP/1.1 200 OK" @04-10-2022 15:16:24.0279 PM
[ReportManager] Assertion Passed: Evaluating the actual response status code against the expected one... @04-10-2022 15:16:24.0280 PM
[ReportManager] Setting discrete logging to: "false" @04-10-2022 15:16:24.0280 PM
[ReportManager] Perform request "POST | Target Status Code: 200 | Service URL: https://auth-demo.np.transporticonline.com/auth/realms/tic/protocol/openid-connect/token | Content Type: application/x-www-form-urlencoded | Response Time: 679ms". @04-10-2022 15:16:24.0288 PM
[ReportManager] Successfully created attachment "API Request - Specifications" @04-10-2022 15:16:24.0289 PM
[ReportManager] Successfully created attachment "API Request - Body" @04-10-2022 15:16:24.0289 PM
[ReportManager] Successfully created attachment "API Response - JSON Body" @04-10-2022 15:16:24.0290 PM
[ReportManager] Assertion Passed: "200" is equal to "200". @04-10-2022 15:16:24.0290 PM
[ReportManager] Verification Passed: "679" is greater than or equal to "1.1". @04-10-2022 15:16:24.0290 PM
[ReportManager] Verification Passed: "679" is less than or equal to "10000". @04-10-2022 15:16:24.0290 PM
[ReportManager] Assertion Passed: "{"access_token":"eyJhbGciOiJSUzI1NiIsInR5cCIgOiAiSldUIiwia2lkIiA6ICJjck9ORDFNdFVPVWhzS2Mtb0ppVFFmb0o1d1l4REF6Y3k0ZjNYZ0dveGdZIn0.eyJleHAiOjE2NjQ4ODk2ODMsImlhdCI6MTY2NDg4OTM4MywianRpIjoiNTI2MmM1YzUtMzhmYi00YTg3LWFmZWUtZDUyNTAyZjMyNTc2IiwiaXNzIjoiaHR0cHM6Ly9hdXRoLWRlbW8ubnAudHJhbnNwb3J0aWNvbmxpbmUuY29tL2F1dGgvcmVhbG1zL3RpYyIsImF1ZCI6ImFjY291bnQiLCJzdWIiOiI0ZTk3NmQ0NC1iM2ZkLTRjYTktODk1Ny0wYWJiODUwNzNhNzQiLCJ0eXAiOiJCZWFyZXIiLCJhenAiOiJ0aWMtYXBpIiwic2Vzc2lvbl9zdGF0ZSI6IjA2ZmJmMDY1LTNmZTItNGFhZS1hNjliLWJiNzVhNmU4NGMzZiIsImFjciI6IjEiLCJhbGxvd2VkLW9yaWdpbnMiOlsiaHR0cHM6Ly9hcGktZGV2Lm5wLnRyYW5zcG9ydGljb25saW5lLmNvbSJdLCJyZWFsbV9hY2Nlc3MiOnsicm9sZXMiOlsib2ZmbGluZV9hY2Nlc3MiLCJkZWZhdWx0LXJvbGVzLXRpYyIsInVtYV9hdXRob3JpemF0aW9uIiwidXNlciJdfSwicmVzb3VyY2VfYWNjZXNzIjp7ImFjY291bnQiOnsicm9sZXMiOlsibWFuYWdlLWFjY291bnQiLCJtYW5hZ2UtYWNjb3VudC1saW5rcyIsInZpZXctcHJvZmlsZSJdfX0sInNjb3BlIjoiZW1haWwgcHJvZmlsZSIsInNpZCI6IjA2ZmJmMDY1LTNmZTItNGFhZS1hNjliLWJiNzVhNmU4NGMzZiIsImVtYWlsX3ZlcmlmaWVkIjpmYWxzZSwicHJlZmVycmVkX3VzZXJuYW1lIjoidG9raGkiLCJ0Y0lkIjoiMzE5OTU3In0.KSpW6Hx10LoTp2Uy3Z15DrgUluzD8owFXhls0U5NyUOwO-acPNzIcoah-pDPFZ1xhf_0AwIiDn-kHox-4JT_EH5IzNpLa0gt91gbntz7CxO3uh6xfGtABe8h_d0o2Yy7hBENk2oRPJ4qDJRiq-pzq5EQbrgXE47kBMhstzZjpeueEY3XakULCBvu66UoyUtnYWjzH5xRBXULACDBWirmsMLsaJr9mFOqMOSyVvh2g5SPg-MT5Sxfgv_vlTDikIQrV8UTZ6K9dO3-Cnv6NqgwhJkpMWLTSKrLt4psxRDOzUtT_Jn2lUWXO2nXM0Bxp8YuGo23TS08GB7idd53nkEjGw","expires_in":300,"refresh_expires_in":1800,"refresh_token":"eyJhbGciOiJIUzI1NiIsInR5cCIgOiAiSldUIiwia2lkIiA6ICJkMTFjNTY4Yi1iMjAyLTQzYjgtYTBiMy1hYWI4ZWMyYWQzZDEifQ.eyJleHAiOjE2NjQ4OTExODMsImlhdCI6MTY2NDg4OTM4MywianRpIjoiZDcyMzZhNDMtZTg5My00NzVjLTg3ZDQtMTUwNGY3MDM3ODFhIiwiaXNzIjoiaHR0cHM6Ly9hdXRoLWRlbW8ubnAudHJhbnNwb3J0aWNvbmxpbmUuY29tL2F1dGgvcmVhbG1zL3RpYyIsImF1ZCI6Imh0dHBzOi8vYXV0aC1kZW1vLm5wLnRyYW5zcG9ydGljb25saW5lLmNvbS9hdXRoL3JlYWxtcy90aWMiLCJzdWIiOiI0ZTk3NmQ0NC1iM2ZkLTRjYTktODk1Ny0wYWJiODUwNzNhNzQiLCJ0eXAiOiJSZWZyZXNoIiwiYXpwIjoidGljLWFwaSIsInNlc3Npb25fc3RhdGUiOiIwNmZiZjA2NS0zZmUyLTRhYWUtYTY5Yi1iYjc1YTZlODRjM2YiLCJzY29wZSI6ImVtYWlsIHByb2ZpbGUiLCJzaWQiOiIwNmZiZjA2NS0zZmUyLTRhYWUtYTY5Yi1iYjc1YTZlODRjM2YifQ.kOq4YZ_WkXuSSJ1-9BCU6SvxDV07o3sT5mx7o2I_M8w","token_type":"Bearer","not-before-policy":0,"session_state":"06fbf065-3fe2-4aae-a69b-bb75a6e84c3f","scope":"email profile"}" contains "access_token". @04-10-2022 15:16:24.0291 PM
[ReportManager] Successfully created attachment "Validation Test Data - Expected Value" @04-10-2022 15:16:24.0291 PM
[ReportManager] Successfully created attachment "Validation Test Data - Actual Value" @04-10-2022 15:16:24.0291 PM
[ReportManager] Get response jsonvalue "access_token". @04-10-2022 15:16:24.0292 PM
[ReportManager] Assertion Passed: Check that Access token is not null. @04-10-2022 15:16:24.0292 PM
[ReportManager] Successfully created attachment "Validation Test Data - Expected Value" @04-10-2022 15:16:24.0293 PM
[ReportManager] Successfully created attachment "Validation Test Data - Actual Value" @04-10-2022 15:16:24.0293 PM
[ReportManager] File Action "DoesFileExist" successfully performed. With the following test data "File Path: "Token_schema.json"". @04-10-2022 15:16:24.0294 PM
[ReportManager] File Action "DoesFileExist" successfully performed. With the following test data "File Path: "src/test/resources/testDataFiles/Token_schema.json"". @04-10-2022 15:16:24.0294 PM
[ReportManager] File Action "GetAbsolutePath" successfully performed. With the following test data "Relative Folder Path: "src/test/resources/testDataFiles/Token_schema.json"". @04-10-2022 15:16:24.0294 PM
[ReportManager] File Action "DoesFileExist" successfully performed. With the following test data "File Path: "C:\eclipse-workspace\MyProjects\TASystemsAPIs\src\test\resources\testDataFiles\Token_schema.json"". @04-10-2022 15:16:24.0296 PM
[ReportManager] File Action "GetAbsolutePath" successfully performed. With the following test data "Relative Folder Path: "C:\eclipse-workspace\MyProjects\TASystemsAPIs\src\test\resources\testDataFiles\Token_schema.json"". @04-10-2022 15:16:24.0296 PM
[ReportManager] File Action "ReadFromFile" successfully performed. With the following test data "File Path: "C:\eclipse-workspace\MyProjects\TASystemsAPIs\src\test\resources\testDataFiles\Token_schema.json"". @04-10-2022 15:16:24.0297 PM
[ReportManager] Assertion Passed: The API response schema matches that in this file "src/test/resources/testDataFiles/Token_schema.json". @04-10-2022 15:16:24.0297 PM
[ReportManager] Successfully created attachment "Validation Test Data - Expected JSON Value" @04-10-2022 15:16:24.0298 PM
[ReportManager] Successfully created attachment "Validation Test Data - Actual JSON Value" @04-10-2022 15:16:24.0298 PM
[ReportManager] Verification Passed: "679" is greater than or equal to "1.1". @04-10-2022 15:16:24.0306 PM
[ReportManager] Verification Passed: "679" is less than or equal to "10000". @04-10-2022 15:16:24.0307 PM
[ReportManager] Setting discrete logging to: "true" @04-10-2022 15:16:24.0880 PM
[ReportManager] Response status code: "200", status line: "HTTP/1.1 200 " @04-10-2022 15:16:24.0880 PM
[ReportManager] Assertion Passed: Evaluating the actual response status code against the expected one... @04-10-2022 15:16:24.0880 PM
[ReportManager] Setting discrete logging to: "false" @04-10-2022 15:16:24.0880 PM
[ReportManager] Perform request "GET | Target Status Code: 200 | Service URL: https://api-demo.np.transporticonline.com/steeringcompanies/v1/lookups/vehicleTypes | Content Type: */* | Response Time: 561ms". @04-10-2022 15:16:24.0892 PM
[ReportManager] Successfully created attachment "API Request - Specifications" @04-10-2022 15:16:24.0893 PM
[ReportManager] Successfully created attachment "API Response - JSON Body" @04-10-2022 15:16:24.0894 PM
[ReportManager] Assertion Passed: "200" is equal to "200". @04-10-2022 15:16:24.0894 PM
[ReportManager] Verification Passed: "561" is greater than or equal to "1.1". @04-10-2022 15:16:24.0894 PM
[ReportManager] Verification Passed: "561" is less than or equal to "10000". @04-10-2022 15:16:24.0894 PM
[ReportManager] Assertion Passed: "{"page":0,"size":2147483647,"totalPages":1,"totalElements":4,"content":[{"id":1,"nameArabic":"????? ?????","nameEnglish":"Sedan Car","isActive":true,"lastUpdated":"2019-12-15T12:21:55Z","maximumCapacity":4,"sectors":null},{"id":4,"nameArabic":"???","nameEnglish":"Van","isActive":true,"lastUpdated":"2020-01-21T07:57:12Z","maximumCapacity":15,"sectors":null},{"id":2,"nameArabic":"????? ???","nameEnglish":"SUV Car","isActive":true,"lastUpdated":"2019-12-15T12:22:01Z","maximumCapacity":7,"sectors":null},{"id":3,"nameArabic":"?????","nameEnglish":"Bus","isActive":true,"lastUpdated":"2020-01-05T18:27:40Z","maximumCapacity":55,"sectors":null}]}" contains "content". @04-10-2022 15:16:24.0894 PM
[ReportManager] Successfully created attachment "Validation Test Data - Expected Value" @04-10-2022 15:16:24.0895 PM
[ReportManager] Successfully created attachment "Validation Test Data - Actual Value" @04-10-2022 15:16:24.0895 PM
[ReportManager] Get response jsonvalue "content". @04-10-2022 15:16:24.0896 PM
[ReportManager] Assertion Passed: Check that content object is not null. @04-10-2022 15:16:24.0896 PM
[ReportManager] Successfully created attachment "Validation Test Data - Expected Value" @04-10-2022 15:16:24.0896 PM
[ReportManager] Successfully created attachment "Validation Test Data - Actual Value" @04-10-2022 15:16:24.0897 PM
[ReportManager] File Action "DoesFileExist" successfully performed. With the following test data "File Path: "Lookups_vehicleTypes_schema.json"". @04-10-2022 15:16:24.0897 PM
[ReportManager] File Action "DoesFileExist" successfully performed. With the following test data "File Path: "src/test/resources/testDataFiles/Lookups_vehicleTypes_schema.json"". @04-10-2022 15:16:24.0897 PM
[ReportManager] File Action "GetAbsolutePath" successfully performed. With the following test data "Relative Folder Path: "src/test/resources/testDataFiles/Lookups_vehicleTypes_schema.json"". @04-10-2022 15:16:24.0897 PM
[ReportManager] File Action "DoesFileExist" successfully performed. With the following test data "File Path: "C:\eclipse-workspace\MyProjects\TASystemsAPIs\src\test\resources\testDataFiles\Lookups_vehicleTypes_schema.json"". @04-10-2022 15:16:24.0902 PM
[ReportManager] File Action "GetAbsolutePath" successfully performed. With the following test data "Relative Folder Path: "C:\eclipse-workspace\MyProjects\TASystemsAPIs\src\test\resources\testDataFiles\Lookups_vehicleTypes_schema.json"". @04-10-2022 15:16:24.0902 PM
[ReportManager] File Action "ReadFromFile" successfully performed. With the following test data "File Path: "C:\eclipse-workspace\MyProjects\TASystemsAPIs\src\test\resources\testDataFiles\Lookups_vehicleTypes_schema.json"". @04-10-2022 15:16:24.0904 PM
[ReportManager] Assertion Passed: The API response schema matches that in this file "src/test/resources/testDataFiles/Lookups_vehicleTypes_schema.json". @04-10-2022 15:16:24.0904 PM
[ReportManager] Successfully created attachment "Validation Test Data - Expected JSON Value" @04-10-2022 15:16:24.0905 PM
[ReportManager] Successfully created attachment "Validation Test Data - Actual JSON Value" @04-10-2022 15:16:24.0906 PM
[ReportManager] Verification Passed: "561" is greater than or equal to "1.1". @04-10-2022 15:16:24.0906 PM
[ReportManager] Verification Passed: "561" is less than or equal to "10000". @04-10-2022 15:16:24.0906 PM
[ReportManager] Setting discrete logging to: "true" @04-10-2022 15:16:25.0446 PM
[ReportManager] Response status code: "200", status line: "HTTP/1.1 200 " @04-10-2022 15:16:25.0446 PM
[ReportManager] Assertion Passed: Evaluating the actual response status code against the expected one... @04-10-2022 15:16:25.0446 PM
[ReportManager] Setting discrete logging to: "false" @04-10-2022 15:16:25.0446 PM
[ReportManager] Perform request "GET | Target Status Code: 200 | Service URL: https://api-demo.np.transporticonline.com/steeringcompanies/v1/lookups/vehicleTypes | Content Type: */* | Response Time: 539ms". @04-10-2022 15:16:25.0458 PM
[ReportManager] Successfully created attachment "API Request - Specifications" @04-10-2022 15:16:25.0459 PM
[ReportManager] Successfully created attachment "API Response - JSON Body" @04-10-2022 15:16:25.0460 PM
[ReportManager] Assertion Passed: "200" is equal to "200". @04-10-2022 15:16:25.0460 PM
[ReportManager] Verification Passed: "539" is greater than or equal to "1.1". @04-10-2022 15:16:25.0461 PM
[ReportManager] Verification Passed: "539" is less than or equal to "10000". @04-10-2022 15:16:25.0461 PM
[ReportManager] Assertion Passed: "{"page":0,"size":3,"totalPages":2,"totalElements":4,"content":[{"id":1,"nameArabic":"????? ?????","nameEnglish":"Sedan Car","isActive":true,"lastUpdated":"2019-12-15T12:21:55Z","maximumCapacity":4,"sectors":null},{"id":4,"nameArabic":"???","nameEnglish":"Van","isActive":true,"lastUpdated":"2020-01-21T07:57:12Z","maximumCapacity":15,"sectors":null},{"id":2,"nameArabic":"????? ???","nameEnglish":"SUV Car","isActive":true,"lastUpdated":"2019-12-15T12:22:01Z","maximumCapacity":7,"sectors":null}]}" contains "content". @04-10-2022 15:16:25.0461 PM
[ReportManager] Get response jsonvalue "content". @04-10-2022 15:16:25.0461 PM
[ReportManager] Assertion Passed: Check that content object is not null. @04-10-2022 15:16:25.0462 PM
[ReportManager] File Action "DoesFileExist" successfully performed. With the following test data "File Path: "Lookups_vehicleTypes_schema.json"". @04-10-2022 15:16:25.0462 PM
[ReportManager] File Action "DoesFileExist" successfully performed. With the following test data "File Path: "src/test/resources/testDataFiles/Lookups_vehicleTypes_schema.json"". @04-10-2022 15:16:25.0462 PM
[ReportManager] File Action "GetAbsolutePath" successfully performed. With the following test data "Relative Folder Path: "src/test/resources/testDataFiles/Lookups_vehicleTypes_schema.json"". @04-10-2022 15:16:25.0462 PM
[ReportManager] File Action "DoesFileExist" successfully performed. With the following test data "File Path: "C:\eclipse-workspace\MyProjects\TASystemsAPIs\src\test\resources\testDataFiles\Lookups_vehicleTypes_schema.json"". @04-10-2022 15:16:25.0464 PM
[ReportManager] File Action "GetAbsolutePath" successfully performed. With the following test data "Relative Folder Path: "C:\eclipse-workspace\MyProjects\TASystemsAPIs\src\test\resources\testDataFiles\Lookups_vehicleTypes_schema.json"". @04-10-2022 15:16:25.0464 PM
[ReportManager] File Action "ReadFromFile" successfully performed. With the following test data "File Path: "C:\eclipse-workspace\MyProjects\TASystemsAPIs\src\test\resources\testDataFiles\Lookups_vehicleTypes_schema.json"". @04-10-2022 15:16:25.0464 PM
[ReportManager] Assertion Passed: The API response schema matches that in this file "src/test/resources/testDataFiles/Lookups_vehicleTypes_schema.json". @04-10-2022 15:16:25.0465 PM
[ReportManager] Successfully created attachment "Validation Test Data - Expected JSON Value" @04-10-2022 15:16:25.0465 PM
[ReportManager] Successfully created attachment "Validation Test Data - Actual JSON Value" @04-10-2022 15:16:25.0466 PM
[ReportManager] Verification Passed: "539" is greater than or equal to "1.1". @04-10-2022 15:16:25.0466 PM
[ReportManager] Verification Passed: "539" is less than or equal to "10000". @04-10-2022 15:16:25.0466 PM