[ReportManager] Setting discrete logging to: "false" @04-10-2022 15:16:13.0226 PM

################################################################################################################################################
Starting Execution:	"7 out of 13" test cases in the current suite
Test Method:		"SteeringCompanyAPI_TestCases.Test_Case.Valid_GET_all_ports_Lookups_Rq_TC"
################################################################################################################################################
[ReportManager] Setting discrete logging to: "false" @04-10-2022 15:16:13.0226 PM
[ReportManager] Setting discrete logging to: "true" @04-10-2022 15:16:13.0890 PM
[ReportManager] Response status code: "200", status line: "HTTP/1.1 200 OK" @04-10-2022 15:16:13.0890 PM
[ReportManager] Assertion Passed: Evaluating the actual response status code against the expected one... @04-10-2022 15:16:13.0891 PM
[ReportManager] Setting discrete logging to: "false" @04-10-2022 15:16:13.0891 PM
[ReportManager] Perform request "POST | Target Status Code: 200 | Service URL: https://auth-demo.np.transporticonline.com/auth/realms/tic/protocol/openid-connect/token | Content Type: application/x-www-form-urlencoded | Response Time: 661ms". @04-10-2022 15:16:13.0903 PM
[ReportManager] Successfully created attachment "API Request - Specifications" @04-10-2022 15:16:13.0903 PM
[ReportManager] Successfully created attachment "API Request - Body" @04-10-2022 15:16:13.0904 PM
[ReportManager] Successfully created attachment "API Response - JSON Body" @04-10-2022 15:16:13.0905 PM
[ReportManager] Assertion Passed: "200" is equal to "200". @04-10-2022 15:16:13.0905 PM
[ReportManager] Verification Passed: "661" is greater than or equal to "1.1". @04-10-2022 15:16:13.0906 PM
[ReportManager] Verification Passed: "661" is less than or equal to "10000". @04-10-2022 15:16:13.0906 PM
[ReportManager] Assertion Passed: "{"access_token":"eyJhbGciOiJSUzI1NiIsInR5cCIgOiAiSldUIiwia2lkIiA6ICJjck9ORDFNdFVPVWhzS2Mtb0ppVFFmb0o1d1l4REF6Y3k0ZjNYZ0dveGdZIn0.eyJleHAiOjE2NjQ4ODk2NzMsImlhdCI6MTY2NDg4OTM3MywianRpIjoiZWI0MTY4OGYtZmJkYy00YzcxLWEzZTEtYWQwYWE1ODlhZjhlIiwiaXNzIjoiaHR0cHM6Ly9hdXRoLWRlbW8ubnAudHJhbnNwb3J0aWNvbmxpbmUuY29tL2F1dGgvcmVhbG1zL3RpYyIsImF1ZCI6ImFjY291bnQiLCJzdWIiOiI0ZTk3NmQ0NC1iM2ZkLTRjYTktODk1Ny0wYWJiODUwNzNhNzQiLCJ0eXAiOiJCZWFyZXIiLCJhenAiOiJ0aWMtYXBpIiwic2Vzc2lvbl9zdGF0ZSI6Ijc3ZmJlZjBhLWI3ZGEtNGQyOC1hNzUyLWI2NWE3NjhiOTUzYSIsImFjciI6IjEiLCJhbGxvd2VkLW9yaWdpbnMiOlsiaHR0cHM6Ly9hcGktZGV2Lm5wLnRyYW5zcG9ydGljb25saW5lLmNvbSJdLCJyZWFsbV9hY2Nlc3MiOnsicm9sZXMiOlsib2ZmbGluZV9hY2Nlc3MiLCJkZWZhdWx0LXJvbGVzLXRpYyIsInVtYV9hdXRob3JpemF0aW9uIiwidXNlciJdfSwicmVzb3VyY2VfYWNjZXNzIjp7ImFjY291bnQiOnsicm9sZXMiOlsibWFuYWdlLWFjY291bnQiLCJtYW5hZ2UtYWNjb3VudC1saW5rcyIsInZpZXctcHJvZmlsZSJdfX0sInNjb3BlIjoiZW1haWwgcHJvZmlsZSIsInNpZCI6Ijc3ZmJlZjBhLWI3ZGEtNGQyOC1hNzUyLWI2NWE3NjhiOTUzYSIsImVtYWlsX3ZlcmlmaWVkIjpmYWxzZSwicHJlZmVycmVkX3VzZXJuYW1lIjoidG9raGkiLCJ0Y0lkIjoiMzE5OTU3In0.RKdRo_5bnrehtWF5vinHTKBuk38YLubra3qh4JbGnT03dVkf_dHOYDQYMDhXuu6ZO5SIbua2RMjuyjuxxyKiucgL5GeHWaoMLmGZJPo-0rLLsY5hF1fvVwpidhCsEK0Ir6cztztqQkB-JvqZ-S-L5Os1ns6gDsUbBDO40nsoZ9XdyDAVyXMdsDUVcJ0-pi1Grooy0uOYbhRw-oPT8L7-_FZPRcLuappmQ2cTF1yBLZrnKwHRPx9nzs7dDSgxFW8e_D2J3GVuU34deJNpV_Jfd_3Xo82YX4XGi8iX_2pyxtPJ6Jhe4jKdqHR4ie76XUyMYYOZyhSKeVNr9qnhwYb15g","expires_in":300,"refresh_expires_in":1800,"refresh_token":"eyJhbGciOiJIUzI1NiIsInR5cCIgOiAiSldUIiwia2lkIiA6ICJkMTFjNTY4Yi1iMjAyLTQzYjgtYTBiMy1hYWI4ZWMyYWQzZDEifQ.eyJleHAiOjE2NjQ4OTExNzMsImlhdCI6MTY2NDg4OTM3MywianRpIjoiMGQyNzM0OTgtYzIyNy00YmIwLTg1MjYtMTQyMmJhMDIyOWE2IiwiaXNzIjoiaHR0cHM6Ly9hdXRoLWRlbW8ubnAudHJhbnNwb3J0aWNvbmxpbmUuY29tL2F1dGgvcmVhbG1zL3RpYyIsImF1ZCI6Imh0dHBzOi8vYXV0aC1kZW1vLm5wLnRyYW5zcG9ydGljb25saW5lLmNvbS9hdXRoL3JlYWxtcy90aWMiLCJzdWIiOiI0ZTk3NmQ0NC1iM2ZkLTRjYTktODk1Ny0wYWJiODUwNzNhNzQiLCJ0eXAiOiJSZWZyZXNoIiwiYXpwIjoidGljLWFwaSIsInNlc3Npb25fc3RhdGUiOiI3N2ZiZWYwYS1iN2RhLTRkMjgtYTc1Mi1iNjVhNzY4Yjk1M2EiLCJzY29wZSI6ImVtYWlsIHByb2ZpbGUiLCJzaWQiOiI3N2ZiZWYwYS1iN2RhLTRkMjgtYTc1Mi1iNjVhNzY4Yjk1M2EifQ.-fecRpaVBeIrF9t3BD-7r2BL-zjQ_QDRJrRE7w4-s6w","token_type":"Bearer","not-before-policy":0,"session_state":"77fbef0a-b7da-4d28-a752-b65a768b953a","scope":"email profile"}" contains "access_token". @04-10-2022 15:16:13.0906 PM
[ReportManager] Successfully created attachment "Validation Test Data - Expected Value" @04-10-2022 15:16:13.0906 PM
[ReportManager] Successfully created attachment "Validation Test Data - Actual Value" @04-10-2022 15:16:13.0907 PM
[ReportManager] Get response jsonvalue "access_token". @04-10-2022 15:16:13.0907 PM
[ReportManager] Assertion Passed: Check that Access token is not null. @04-10-2022 15:16:13.0908 PM
[ReportManager] Successfully created attachment "Validation Test Data - Expected Value" @04-10-2022 15:16:13.0908 PM
[ReportManager] Successfully created attachment "Validation Test Data - Actual Value" @04-10-2022 15:16:13.0909 PM
[ReportManager] File Action "DoesFileExist" successfully performed. With the following test data "File Path: "Token_schema.json"". @04-10-2022 15:16:13.0909 PM
[ReportManager] File Action "DoesFileExist" successfully performed. With the following test data "File Path: "src/test/resources/testDataFiles/Token_schema.json"". @04-10-2022 15:16:13.0909 PM
[ReportManager] File Action "GetAbsolutePath" successfully performed. With the following test data "Relative Folder Path: "src/test/resources/testDataFiles/Token_schema.json"". @04-10-2022 15:16:13.0909 PM
[ReportManager] File Action "DoesFileExist" successfully performed. With the following test data "File Path: "C:\eclipse-workspace\MyProjects\TASystemsAPIs\src\test\resources\testDataFiles\Token_schema.json"". @04-10-2022 15:16:13.0911 PM
[ReportManager] File Action "GetAbsolutePath" successfully performed. With the following test data "Relative Folder Path: "C:\eclipse-workspace\MyProjects\TASystemsAPIs\src\test\resources\testDataFiles\Token_schema.json"". @04-10-2022 15:16:13.0911 PM
[ReportManager] File Action "ReadFromFile" successfully performed. With the following test data "File Path: "C:\eclipse-workspace\MyProjects\TASystemsAPIs\src\test\resources\testDataFiles\Token_schema.json"". @04-10-2022 15:16:13.0912 PM
[ReportManager] Assertion Passed: The API response schema matches that in this file "src/test/resources/testDataFiles/Token_schema.json". @04-10-2022 15:16:13.0912 PM
[ReportManager] Successfully created attachment "Validation Test Data - Expected JSON Value" @04-10-2022 15:16:13.0913 PM
[ReportManager] Successfully created attachment "Validation Test Data - Actual JSON Value" @04-10-2022 15:16:13.0914 PM
[ReportManager] Verification Passed: "661" is greater than or equal to "1.1". @04-10-2022 15:16:13.0922 PM
[ReportManager] Verification Passed: "661" is less than or equal to "10000". @04-10-2022 15:16:13.0922 PM
[ReportManager] Setting discrete logging to: "true" @04-10-2022 15:16:14.0540 PM
[ReportManager] Response status code: "200", status line: "HTTP/1.1 200 " @04-10-2022 15:16:14.0540 PM
[ReportManager] Assertion Passed: Evaluating the actual response status code against the expected one... @04-10-2022 15:16:14.0541 PM
[ReportManager] Setting discrete logging to: "false" @04-10-2022 15:16:14.0541 PM
[ReportManager] Perform request "GET | Target Status Code: 200 | Service URL: https://api-demo.np.transporticonline.com/steeringcompanies/v1/lookups/ports | Content Type: */* | Response Time: 605ms". @04-10-2022 15:16:14.0555 PM
[ReportManager] Successfully created attachment "API Request - Specifications" @04-10-2022 15:16:14.0556 PM
[ReportManager] Successfully created attachment "API Response - JSON Body" @04-10-2022 15:16:14.0556 PM
[ReportManager] Assertion Passed: "200" is equal to "200". @04-10-2022 15:16:14.0556 PM
[ReportManager] Verification Passed: "605" is greater than or equal to "1.1". @04-10-2022 15:16:14.0557 PM
[ReportManager] Verification Passed: "605" is less than or equal to "10000". @04-10-2022 15:16:14.0557 PM
[ReportManager] Assertion Passed: "{"page":0,"size":2147483647,"totalPages":1,"totalElements":29,"content":[{"id":59,"nameArabic":"???? ??? ","nameEnglish":"Alab Port","cityId":656,"isActive":true,"lastUpdated":"2020-10-22T18:41:32Z","sectors":null},{"id":53,"nameArabic":"????? ???? ???????","nameEnglish":"Yanbu Commercial Port","cityId":646,"isActive":true,"lastUpdated":"2020-10-22T18:41:32Z","sectors":null},{"id":49,"nameArabic":"???? ????? ????","nameEnglish":"Jadedat Arar Port","cityId":612,"isActive":true,"lastUpdated":"2020-10-22T18:41:32Z","sectors":null},{"id":65,"nameArabic":"???? ???????","nameEnglish":"Alwadeah Port","cityId":664,"isActive":true,"lastUpdated":"2020-10-22T18:41:32Z","sectors":null},{"id":41,"nameArabic":"???? ????? ???? ??????","nameEnglish":"King Khalid International Airport","cityId":601,"isActive":true,"lastUpdated":"2020-10-22T18:41:32Z","sectors":null},{"id":71,"nameArabic":"???? ????? 5 - ???? ????? ???","nameEnglish":"???? ????? 5 - ???? ????? ???","cityId":602,"isActive":true,"lastUpdated":"2020-10-22T18:41:32Z","sectors":null},{"id":48,"nameArabic":"???? ???? ????","nameEnglish":"Halat Amar Port","cityId":606,"isActive":true,"lastUpdated":"2020-10-22T18:41:32Z","sectors":null},{"id":54,"nameArabic":"???? ???????","nameEnglish":"Alkhadra Port","cityId":664,"isActive":true,"lastUpdated":"2020-10-22T18:41:32Z","sectors":null},{"id":58,"nameArabic":"???? ????? ???","nameEnglish":"King Fahad Airport","cityId":607,"isActive":true,"lastUpdated":"2020-10-22T18:41:32Z","sectors":null},{"id":66,"nameArabic":"???? ?????-1???? ????? ????? ","nameEnglish":"???? ?????-1???? ????? ????? ","cityId":602,"isActive":true,"lastUpdated":"2020-10-22T18:41:32Z","sectors":null},{"id":72,"nameArabic":"???? ????? ?????? - ?? ??????","nameEnglish":"Empty quarter Port","isActive":true,"lastUpdated":"2022-06-29T08:08:58Z","sectors":null},{"id":50,"nameArabic":"???? ????? ??? ?????? ??????","nameEnglish":"KING ABDUL AZIZ INTERNATIONAL AIRPORT","cityId":602,"isActive":true,"lastUpdated":"2020-10-22T18:41:32Z","sectors":null},{"id":45,"nameArabic":"???? ????","nameEnglish":"Salwa Port","cityId":672,"isActive":true,"lastUpdated":"2020-10-22T18:41:32Z","sectors":null},{"id":63,"nameArabic":"???? ??????","nameEnglish":"Altaif Airport","cityId":604,"isActive":true,"lastUpdated":"2020-10-22T18:41:32Z","sectors":null},{"id":4,"nameArabic":"?????","nameEnglish":"albalad","isActive":true,"lastUpdated":null,"sectors":null},{"id":55,"nameArabic":"???? ??????","nameEnglish":"Altowal Port","cityId":607,"isActive":true,"lastUpdated":"2020-10-22T18:41:32Z","sectors":null},{"id":5,"nameArabic":"???? ????? 2-???? ??????","nameEnglish":"???? ????? 2-???? ??????","cityId":602,"isActive":true,"lastUpdated":"2020-10-22T18:41:32Z","sectors":null},{"id":70,"nameArabic":"???? ????? 4-???? ????","nameEnglish":"???? ????? 4-???? ????","cityId":602,"isActive":true,"lastUpdated":"2020-10-22T18:41:32Z","sectors":null},{"id":69,"nameArabic":"???? ????? 3-???????","nameEnglish":"???? ????? 3-???????","cityId":602,"isActive":true,"lastUpdated":"2020-10-22T18:41:32Z","sectors":null},{"id":68,"nameArabic":"???? ????? 6 - ???? ???","nameEnglish":"???? ????? 6 - ???? ???","cityId":602,"isActive":true,"lastUpdated":"2020-10-22T18:41:32Z","sectors":null},{"id":43,"nameArabic":"???? ??????","nameEnglish":"Alkhafji Port","cityId":631,"isActive":true,"lastUpdated":"2020-10-22T18:41:32Z","sectors":null},{"id":67,"nameArabic":"??????????????????? ?????","nameEnglish":"Prince AbdulMohsen Bin Abdulaziz Airport","isActive":true,"lastUpdated":null,"sectors":null},{"id":47,"nameArabic":"???? ???????","nameEnglish":"Albatha Port","cityId":672,"isActive":true,"lastUpdated":"2020-10-22T18:41:32Z","sectors":null},{"id":52,"nameArabic":"????? ??? ????????","nameEnglish":"JEDDAH ISLAMIC PORT","cityId":602,"isActive":true,"lastUpdated":"2020-10-22T18:41:32Z","sectors":null},{"id":56,"nameArabic":"???? ???????","nameEnglish":"Alhadithah Port","cityId":641,"isActive":true,"lastUpdated":"2020-10-22T18:41:32Z","sectors":null},{"id":46,"nameArabic":"??? ????? ???","nameEnglish":"King Fahad Bridge","cityId":608,"isActive":true,"lastUpdated":"2020-10-22T18:41:32Z","sectors":null},{"id":51,"nameArabic":"???? ?????? ????","nameEnglish":"PRINCE MOHAMMAD INTERNATIONAL AIRPORT","cityId":605,"isActive":true,"lastUpdated":"2020-10-22T18:41:32Z","sectors":null},{"id":44,"nameArabic":"???? ??????","nameEnglish":"Alraqai Port","cityId":630,"isActive":true,"lastUpdated":"2020-10-22T18:41:32Z","sectors":null},{"id":64,"nameArabic":"???? ????","nameEnglish":"Abha Airport","cityId":613,"isActive":true,"lastUpdated":"2020-10-22T18:41:32Z","sectors":null}]}" contains "content". @04-10-2022 15:16:14.0557 PM
[ReportManager] Successfully created attachment "Validation Test Data - Expected Value" @04-10-2022 15:16:14.0558 PM
[ReportManager] Successfully created attachment "Validation Test Data - Actual Value" @04-10-2022 15:16:14.0558 PM
[ReportManager] Get response jsonvalue "content". @04-10-2022 15:16:14.0560 PM
[ReportManager] Assertion Passed: Check that content object is not null. @04-10-2022 15:16:14.0560 PM
[ReportManager] Successfully created attachment "Validation Test Data - Expected Value" @04-10-2022 15:16:14.0560 PM
[ReportManager] Successfully created attachment "Validation Test Data - Actual Value" @04-10-2022 15:16:14.0561 PM
[ReportManager] File Action "DoesFileExist" successfully performed. With the following test data "File Path: "Lookups_ports_schema.json"". @04-10-2022 15:16:14.0563 PM
[ReportManager] File Action "DoesFileExist" successfully performed. With the following test data "File Path: "src/test/resources/testDataFiles/Lookups_ports_schema.json"". @04-10-2022 15:16:14.0563 PM
[ReportManager] File Action "GetAbsolutePath" successfully performed. With the following test data "Relative Folder Path: "src/test/resources/testDataFiles/Lookups_ports_schema.json"". @04-10-2022 15:16:14.0563 PM
[ReportManager] File Action "DoesFileExist" successfully performed. With the following test data "File Path: "C:\eclipse-workspace\MyProjects\TASystemsAPIs\src\test\resources\testDataFiles\Lookups_ports_schema.json"". @04-10-2022 15:16:14.0568 PM
[ReportManager] File Action "GetAbsolutePath" successfully performed. With the following test data "Relative Folder Path: "C:\eclipse-workspace\MyProjects\TASystemsAPIs\src\test\resources\testDataFiles\Lookups_ports_schema.json"". @04-10-2022 15:16:14.0569 PM
[ReportManager] File Action "ReadFromFile" successfully performed. With the following test data "File Path: "C:\eclipse-workspace\MyProjects\TASystemsAPIs\src\test\resources\testDataFiles\Lookups_ports_schema.json"". @04-10-2022 15:16:14.0569 PM
[ReportManager] Assertion Passed: The API response schema matches that in this file "src/test/resources/testDataFiles/Lookups_ports_schema.json". @04-10-2022 15:16:14.0571 PM
[ReportManager] Successfully created attachment "Validation Test Data - Expected JSON Value" @04-10-2022 15:16:14.0572 PM
[ReportManager] Successfully created attachment "Validation Test Data - Actual JSON Value" @04-10-2022 15:16:14.0574 PM
[ReportManager] Verification Passed: "605" is greater than or equal to "1.1". @04-10-2022 15:16:14.0574 PM
[ReportManager] Verification Passed: "605" is less than or equal to "10000". @04-10-2022 15:16:14.0574 PM
[ReportManager] Setting discrete logging to: "true" @04-10-2022 15:16:15.0120 PM
[ReportManager] Response status code: "200", status line: "HTTP/1.1 200 " @04-10-2022 15:16:15.0120 PM
[ReportManager] Assertion Passed: Evaluating the actual response status code against the expected one... @04-10-2022 15:16:15.0121 PM
[ReportManager] Setting discrete logging to: "false" @04-10-2022 15:16:15.0121 PM
[ReportManager] Perform request "GET | Target Status Code: 200 | Service URL: https://api-demo.np.transporticonline.com/steeringcompanies/v1/lookups/ports | Content Type: */* | Response Time: 544ms". @04-10-2022 15:16:15.0133 PM
[ReportManager] Successfully created attachment "API Request - Specifications" @04-10-2022 15:16:15.0134 PM
[ReportManager] Successfully created attachment "API Response - JSON Body" @04-10-2022 15:16:15.0135 PM
[ReportManager] Assertion Passed: "200" is equal to "200". @04-10-2022 15:16:15.0135 PM
[ReportManager] Verification Passed: "544" is greater than or equal to "1.1". @04-10-2022 15:16:15.0135 PM
[ReportManager] Verification Passed: "544" is less than or equal to "10000". @04-10-2022 15:16:15.0135 PM
[ReportManager] Assertion Passed: "{"page":0,"size":3,"totalPages":10,"totalElements":29,"content":[{"id":59,"nameArabic":"???? ??? ","nameEnglish":"Alab Port","cityId":656,"isActive":true,"lastUpdated":"2020-10-22T18:41:32Z","sectors":null},{"id":53,"nameArabic":"????? ???? ???????","nameEnglish":"Yanbu Commercial Port","cityId":646,"isActive":true,"lastUpdated":"2020-10-22T18:41:32Z","sectors":null},{"id":49,"nameArabic":"???? ????? ????","nameEnglish":"Jadedat Arar Port","cityId":612,"isActive":true,"lastUpdated":"2020-10-22T18:41:32Z","sectors":null}]}" contains "content". @04-10-2022 15:16:15.0136 PM
[ReportManager] Successfully created attachment "Validation Test Data - Expected Value" @04-10-2022 15:16:15.0136 PM
[ReportManager] Successfully created attachment "Validation Test Data - Actual Value" @04-10-2022 15:16:15.0136 PM
[ReportManager] Get response jsonvalue "content". @04-10-2022 15:16:15.0137 PM
[ReportManager] Assertion Passed: Check that content object is not null. @04-10-2022 15:16:15.0137 PM
[ReportManager] File Action "DoesFileExist" successfully performed. With the following test data "File Path: "Lookups_ports_schema.json"". @04-10-2022 15:16:15.0138 PM
[ReportManager] File Action "DoesFileExist" successfully performed. With the following test data "File Path: "src/test/resources/testDataFiles/Lookups_ports_schema.json"". @04-10-2022 15:16:15.0138 PM
[ReportManager] File Action "GetAbsolutePath" successfully performed. With the following test data "Relative Folder Path: "src/test/resources/testDataFiles/Lookups_ports_schema.json"". @04-10-2022 15:16:15.0138 PM
[ReportManager] File Action "DoesFileExist" successfully performed. With the following test data "File Path: "C:\eclipse-workspace\MyProjects\TASystemsAPIs\src\test\resources\testDataFiles\Lookups_ports_schema.json"". @04-10-2022 15:16:15.0141 PM
[ReportManager] File Action "GetAbsolutePath" successfully performed. With the following test data "Relative Folder Path: "C:\eclipse-workspace\MyProjects\TASystemsAPIs\src\test\resources\testDataFiles\Lookups_ports_schema.json"". @04-10-2022 15:16:15.0141 PM
[ReportManager] File Action "ReadFromFile" successfully performed. With the following test data "File Path: "C:\eclipse-workspace\MyProjects\TASystemsAPIs\src\test\resources\testDataFiles\Lookups_ports_schema.json"". @04-10-2022 15:16:15.0141 PM
[ReportManager] Assertion Passed: The API response schema matches that in this file "src/test/resources/testDataFiles/Lookups_ports_schema.json". @04-10-2022 15:16:15.0141 PM
[ReportManager] Successfully created attachment "Validation Test Data - Expected JSON Value" @04-10-2022 15:16:15.0142 PM
[ReportManager] Successfully created attachment "Validation Test Data - Actual JSON Value" @04-10-2022 15:16:15.0143 PM
[ReportManager] Verification Passed: "544" is greater than or equal to "1.1". @04-10-2022 15:16:15.0143 PM
[ReportManager] Verification Passed: "544" is less than or equal to "10000". @04-10-2022 15:16:15.0143 PM