[ReportManager] Setting discrete logging to: "false" @17-10-2022 15:19:47.0879 PM

################################################################################################################################################
Starting Execution:	"2 out of 5" test cases in the current suite
Test Method:		"SteeringCompanyAPI_TestCases.Test_Lookups_Cases.Valid_GET_all_cities_Lookups_by_Qry_Rq_TC"
Test Description:	"TC002 - Peform Get all cities API by parameters Qry with valid user name and password and retun with token"
################################################################################################################################################
[ReportManager] Setting discrete logging to: "false" @17-10-2022 15:19:47.0879 PM
[ReportManager] File Action "DoesFileExist" successfully performed. With the following test data "File Path: "SteeringCompanyAPI_TestData/SteeringCompanyAPI_TestData.xlsx"". @17-10-2022 15:19:47.0880 PM
[ReportManager] Loaded Test Data: "src/test/resources/testDataFiles/SteeringCompanyAPI_TestData/SteeringCompanyAPI_TestData.xlsx". @17-10-2022 15:19:47.0921 PM
[ReportManager] Successfully created attachment "Test Data - Excel" @17-10-2022 15:19:47.0924 PM
[ReportManager] Setting discrete logging to: "true" @17-10-2022 15:19:48.0758 PM
[ReportManager] Response status code: "200", status line: "HTTP/1.1 200 OK" @17-10-2022 15:19:48.0758 PM
[ReportManager] Assertion Passed: Evaluating the actual response status code against the expected one... @17-10-2022 15:19:48.0759 PM
[ReportManager] Setting discrete logging to: "false" @17-10-2022 15:19:48.0760 PM
[ReportManager] Perform request "POST | Target Status Code: 200 | Service URL: https://auth-demo.np.transporticonline.com/auth/realms/tic/protocol/openid-connect/token | Content Type: application/x-www-form-urlencoded | Response Time: 822ms". @17-10-2022 15:19:48.0794 PM
[ReportManager] Successfully created attachment "API Request - Specifications" @17-10-2022 15:19:48.0796 PM
[ReportManager] Successfully created attachment "API Request - Body" @17-10-2022 15:19:48.0797 PM
[ReportManager] Successfully created attachment "API Response - JSON Body" @17-10-2022 15:19:48.0798 PM
[ReportManager] Assertion Passed: Check Response Status Code is 200 and it is valid. @17-10-2022 15:19:48.0799 PM
[ReportManager] File Action "DoesFileExist" successfully performed. With the following test data "File Path: "SteeringCompanyAPI_TestData/SteeringCompanyAPI_TestData.xlsx"". @17-10-2022 15:19:48.0825 PM
[ReportManager] Loaded Test Data: "src/test/resources/testDataFiles/SteeringCompanyAPI_TestData/SteeringCompanyAPI_TestData.xlsx". @17-10-2022 15:19:48.0854 PM
[ReportManager] Successfully created attachment "Test Data - Excel" @17-10-2022 15:19:48.0856 PM
[ReportManager] Setting discrete logging to: "true" @17-10-2022 15:19:49.0643 PM
[ReportManager] Response status code: "200", status line: "HTTP/1.1 200 " @17-10-2022 15:19:49.0643 PM
[ReportManager] Assertion Passed: Evaluating the actual response status code against the expected one... @17-10-2022 15:19:49.0644 PM
[ReportManager] Setting discrete logging to: "false" @17-10-2022 15:19:49.0644 PM
[ReportManager] Perform request "GET | Target Status Code: 200 | Service URL: https://api-demo.np.transporticonline.com/steeringcompanies/v1/lookups/cities | Content Type: */* | Response Time: 723ms". @17-10-2022 15:19:49.0670 PM
[ReportManager] Successfully created attachment "API Request - Specifications" @17-10-2022 15:19:49.0672 PM
[ReportManager] Successfully created attachment "API Response - JSON Body" @17-10-2022 15:19:49.0674 PM
[ReportManager] Assertion Passed: "200" is equal to "200". @17-10-2022 15:19:49.0676 PM
[ReportManager] Verification Passed: "723" is greater than or equal to "1.1". @17-10-2022 15:19:49.0677 PM
[ReportManager] Verification Passed: "723" is less than or equal to "10000". @17-10-2022 15:19:49.0678 PM
[ReportManager] Assertion Passed: "{"page":0,"size":3,"totalPages":235,"totalElements":704,"content":[{"id":1071,"nameArabic":"???? ?????? ??????","nameEnglish":"Denizli Cardak Airport","isActive":true,"lastUpdated":"2022-06-02T00:13:35Z","sectors":null},{"id":390021162,"nameArabic":"?????","nameEnglish":"PRATO","isActive":true,"lastUpdated":"2022-06-02T00:13:44Z","sectors":null},{"id":36,"nameArabic":"??????????","nameEnglish":"Kuala Lumpur","isActive":true,"lastUpdated":"2022-06-02T01:21:49Z","sectors":null}]}" contains "content". @17-10-2022 15:19:49.0680 PM
[ReportManager] Get response jsonvalue "content". @17-10-2022 15:19:49.0683 PM
[ReportManager] Assertion Passed: Check that content object is not null. @17-10-2022 15:19:49.0683 PM
[ReportManager] File Action "DoesFileExist" successfully performed. With the following test data "File Path: "Lookups_cities_schema.json"". @17-10-2022 15:19:49.0685 PM
[ReportManager] File Action "DoesFileExist" successfully performed. With the following test data "File Path: "src/test/resources/testDataFiles/Lookups_cities_schema.json"". @17-10-2022 15:19:49.0685 PM
[ReportManager] File Action "GetAbsolutePath" successfully performed. With the following test data "Relative Folder Path: "src/test/resources/testDataFiles/Lookups_cities_schema.json"". @17-10-2022 15:19:49.0685 PM
[ReportManager] File Action "DoesFileExist" successfully performed. With the following test data "File Path: "C:\eclipse-workspace\MyProjects\TASystemsAPIs\src\test\resources\testDataFiles\Lookups_cities_schema.json"". @17-10-2022 15:19:49.0701 PM
[ReportManager] File Action "GetAbsolutePath" successfully performed. With the following test data "Relative Folder Path: "C:\eclipse-workspace\MyProjects\TASystemsAPIs\src\test\resources\testDataFiles\Lookups_cities_schema.json"". @17-10-2022 15:19:49.0702 PM
[ReportManager] File Action "ReadFromFile" successfully performed. With the following test data "File Path: "C:\eclipse-workspace\MyProjects\TASystemsAPIs\src\test\resources\testDataFiles\Lookups_cities_schema.json"". @17-10-2022 15:19:49.0702 PM
[ReportManager] Assertion Passed: The API response schema matches that in this file "src/test/resources/testDataFiles/Lookups_cities_schema.json". @17-10-2022 15:19:49.0704 PM
[ReportManager] Successfully created attachment "Validation Test Data - Expected JSON Value" @17-10-2022 15:19:49.0709 PM
[ReportManager] Successfully created attachment "Validation Test Data - Actual JSON Value" @17-10-2022 15:19:49.0711 PM